,単勝,枠番,複勝最大,複勝最小,馬名,馬番
0,6.9,1.0,2.6,1.6,ビップラフォーレ,1.0
0,165.3,2.0,30.1,16.2,ナムラスパルタクス,2.0
0,109.2,3.0,13.5,7.4,イヴレア,3.0
0,5.2,3.0,1.9,1.3,クレアチェイス,4.0
0,2.2,4.0,1.4,1.1,デュパルクカズマ,5.0
0,8.8,4.0,3.3,2.0,マナープリンセス,6.0
0,353.4,5.0,95.1,51.0,メザセテッペン,7.0
0,52.8,5.0,11.6,6.4,タキシードネコ,8.0
0,29.1,6.0,6.6,3.7,テイエムグッドマン,9.0
0,5.9,6.0,2.3,1.4,ビートフォーセール,10.0
0,40.6,7.0,10.2,5.6,ミルトプリンス,11.0
0,177.9,7.0,31.4,16.9,シゲルアミメキリン,12.0
0,111.5,8.0,35.7,19.2,ユキエファルコン,13.0
0,58.3,8.0,12.8,7.0,オイカケマショウ,14.0
