,単勝,枠番,複勝最大,複勝最小,馬名,馬番
0,11.0,1.0,4.7,3.1,ライドオンウインド,1.0
0,40.5,1.0,11.5,7.3,タマモワカサマ,2.0
0,95.7,2.0,22.1,13.9,サンライズカラー,3.0
0,3.5,2.0,2.0,1.5,タガノヴェリテ,4.0
0,3.7,3.0,1.7,1.3,サンタエヴィータ,5.0
0,63.7,3.0,13.0,8.2,メイショウシシマル,6.0
0,17.0,4.0,6.4,4.2,アドマイヤシャイ,7.0
0,14.2,4.0,4.9,3.2,ディアブルーダー,8.0
0,17.5,5.0,4.9,3.2,スズカウラノス,9.0
0,60.0,5.0,17.4,10.9,オウケンゴールド,10.0
0,27.9,6.0,9.2,5.9,ピエリーナ,11.0
0,25.8,6.0,7.7,5.0,ザマンダ,12.0
0,73.8,7.0,14.3,9.1,パフュームボム,13.0
0,5.9,7.0,2.4,1.6,スマートノエル,14.0
0,10.6,8.0,3.8,2.6,シーリーヴェール,15.0
0,144.4,8.0,33.3,21.0,ヒラボクダッシュ,16.0
