,単勝,枠番,複勝最大,複勝最小,馬名,馬番
0,167.6,1.0,54.6,34.9,ラッシュストーム,1.0
0,8.1,1.0,3.0,2.1,ブライティアレディ,2.0
0,9.2,2.0,4.0,2.7,キョウワゼノビア,3.0
0,13.9,2.0,5.4,3.6,リルティングインク,4.0
0,36.8,3.0,8.9,5.8,ゲンキチハヤブサ,5.0
0,73.3,3.0,17.1,11.0,サンライズビーム,6.0
0,10.0,4.0,3.4,2.3,シャンデリアハウス,7.0
0,62.5,4.0,20.5,13.2,ブレイズガール,8.0
0,394.6,5.0,108.6,69.4,ローカルロマン,9.0
0,24.9,5.0,7.0,4.6,ショウナンマキシム,10.0
0,54.2,6.0,17.7,11.4,クリノスーアンコー,11.0
0,263.3,6.0,107.4,68.6,イザシュツジン,12.0
0,18.6,7.0,5.9,3.9,コルボノワール,13.0
0,36.5,7.0,11.6,7.6,タイキパラドックス,14.0
0,16.7,7.0,4.9,3.3,キンシロケット,15.0
0,2.7,8.0,1.7,1.4,ビットレート,16.0
0,21.8,8.0,6.2,4.1,ラバニーユ,17.0
0,5.6,8.0,2.4,1.7,エイシンピカソ,18.0
