,単勝,枠番,複勝最大,複勝最小,馬名,馬番
0,2.1,1.0,1.2,1.1,ファンタジステラ,1.0
0,22.5,2.0,6.2,3.2,イナズママンボ,2.0
0,17.3,3.0,5.0,2.6,マジョラム,3.0
0,85.7,4.0,19.0,9.5,ランドジュピター,4.0
0,61.2,5.0,13.9,7.0,メイショウヤエヤマ,5.0
0,4.2,6.0,1.9,1.2,スマートウェールズ,6.0
0,15.6,7.0,5.0,2.6,クリノヤマトノオー,7.0
0,14.8,7.0,3.7,2.0,カフジリバー,8.0
0,5.4,8.0,2.3,1.4,ボンセルヴィーソ,9.0
0,24.3,8.0,6.1,3.1,オーミシューマン,10.0
