,単勝,枠番,複勝最大,複勝最小,馬名,馬番
0,10.7,1.0,3.8,1.7,ロードセレリティ,1.0
0,140.2,1.0,42.8,16.5,メイショウコッコ,2.0
0,1.6,2.0,1.1,1.1,エンヴァール,3.0
0,28.8,2.0,8.7,3.6,イフリート,4.0
0,176.6,3.0,57.6,22.0,メイショウエガオ,5.0
0,38.5,3.0,13.5,5.4,メイショウトヅガワ,6.0
0,51.4,4.0,17.7,7.0,ゾンコラン,7.0
0,11.3,4.0,3.4,1.6,メイショウミツタダ,8.0
0,11.0,5.0,3.8,1.8,カレンジラソーレ,9.0
0,301.1,5.0,94.5,36.0,シゲルクロカジキ,10.0
0,408.2,6.0,178.6,67.9,ハートハンター,11.0
0,4.8,6.0,1.9,1.2,カフジマニッシュ,12.0
0,85.1,7.0,33.7,13.0,エイシンリーダー,13.0
0,192.9,7.0,66.7,25.5,ノボリクラウン,14.0
0,28.3,8.0,10.0,4.1,ウォーターマクベス,15.0
0,212.0,8.0,71.5,27.3,ディッタースドルフ,16.0
