,タイム,レース周り,レース情報,体重,名称,外回りフラグ,天気,性別,斤量,日付,時刻,条件,枠番,競技場,調教師名,賞金,順位,馬名,馬場状態,馬番,騎手名,齢
0,1:49.1,右,芝1800m,460.0,３歳上５００万下,,晴,牝,55.0,2016/08/20,13:50,サラ系３歳以上５００万下牝[指]定量,1,小倉,藤原英昭 (栗東),750、300、190、110、75万円,7,フラッシュバイオ,良,1,バルジュ,5
0,1:48.5,右,芝1800m,458.0,３歳上５００万下,,晴,牝,54.0,2016/08/20,13:50,サラ系３歳以上５００万下牝[指]定量,2,小倉,西橋豊治 (栗東),750、300、190、110、75万円,2,サンレイフローラ,良,2,岩崎翼,6
0,1:48.7,右,芝1800m,446.0,３歳上５００万下,,晴,牝,54.0,2016/08/20,13:50,サラ系３歳以上５００万下牝[指]定量,3,小倉,佐々木晶 (栗東),750、300、190、110、75万円,4,トウシンハンター,良,3,鮫島克駿,4
0,1:50.1,右,芝1800m,466.0,３歳上５００万下,,晴,牝,52.0,2016/03/05,13:50,サラ系３歳以上５００万下牝[指]定量,4,小倉,長浜博之 (栗東),750、300、190、110、75万円,12,アグネスリュシアン,良,4,古川吉洋,4
0,1:49.0,右,芝1800m,468.0,３歳上５００万下,,晴,牝,55.0,2016/08/20,13:50,サラ系３歳以上５００万下牝[指]定量,5,小倉,松下武士 (栗東),750、300、190、110、75万円,5,ヤマニンエルフィン,良,5,川田将雅,5
0,1:48.1,右,芝1800m,450.0,３歳上５００万下,,晴,牝,55.0,2016/08/20,13:50,サラ系３歳以上５００万下牝[指]定量,5,小倉,音無秀孝 (栗東),750、300、190、110、75万円,1,レッドラヴィータ,良,6,松若風馬,5
0,1:49.6,右,芝1800m,440.0,３歳上５００万下,,晴,牝,52.0,2016/08/20,13:50,サラ系３歳以上５００万下牝[指]定量,6,小倉,坂口正則 (栗東),750、300、190、110、75万円,10,メイショウメリリー,良,7,田中健,3
0,1:49.0,右,芝1800m,464.0,３歳上５００万下,,晴,牝,52.0,2016/08/20,13:50,サラ系３歳以上５００万下牝[指]定量,6,小倉,笹田和秀 (栗東),750、300、190、110、75万円,6,センショウレイナ,良,8,浜中俊,3
0,1:50.0,右,芝1800m,402.0,３歳上５００万下,,晴,牝,52.0,2016/08/20,13:50,サラ系３歳以上５００万下牝[指]定量,7,小倉,中竹和也 (栗東),750、300、190、110、75万円,11,カフジビーナス,良,9,岩田康誠,3
0,1:49.3,右,芝1800m,474.0,３歳上５００万下,,晴,牝,53.0,2016/08/20,13:50,サラ系３歳以上５００万下牝[指]定量,7,小倉,梅田智之 (栗東),750、300、190、110、75万円,9,アドマイヤウイング,良,10,義英真,5
0,1:48.5,右,芝1800m,430.0,３歳上５００万下,,晴,牝,55.0,2016/08/20,13:50,サラ系３歳以上５００万下牝[指]定量,8,小倉,橋口慎介 (栗東),750、300、190、110、75万円,3,ヴィンテージローズ,良,11,小牧太,5
0,1:49.1,右,芝1800m,462.0,３歳上５００万下,,晴,牝,52.0,2016/08/20,13:50,サラ系３歳以上５００万下牝[指]定量,8,小倉,平田修 (栗東),750、300、190、110、75万円,8,アルティマヒート,良,12,和田竜二,3
