,タイム,レース周り,レース情報,体重,名称,外回りフラグ,天気,性別,斤量,日付,時刻,条件,枠番,競技場,調教師名,賞金,順位,馬名,馬場状態,馬番,騎手名,齢
0,1:11.4,右,芝1200m,440.0,２歳新馬,,晴,牡,54.0,2016/08/20,12:20,サラ系２歳新馬(混)[指]馬齢,1,小倉,音無秀孝 (栗東),700、280、180、110、70万円,7,ファンタジステラ,良,1,松若風馬,2
0,1:11.0,右,芝1200m,444.0,２歳新馬,,晴,牝,54.0,2016/08/20,12:20,サラ系２歳新馬(混)[指]馬齢,2,小倉,松元茂樹 (栗東),700、280、180、110、70万円,5,イナズママンボ,良,2,田中健,2
0,1:10.8,右,芝1200m,438.0,２歳新馬,,晴,牝,54.0,2016/08/20,12:20,サラ系２歳新馬(混)[指]馬齢,3,小倉,宮本博 (栗東),700、280、180、110、70万円,4,マジョラム,良,3,和田竜二,2
0,1:12.6,右,芝1200m,450.0,２歳新馬,,晴,牡,54.0,2016/08/20,12:20,サラ系２歳新馬(混)[指]馬齢,4,小倉,安達昭夫 (栗東),700、280、180、110、70万円,10,ランドジュピター,良,4,幸英明,2
0,1:12.2,右,芝1200m,486.0,２歳新馬,,晴,牡,54.0,2016/08/20,12:20,サラ系２歳新馬(混)[指]馬齢,5,小倉,高橋亮 (栗東),700、280、180、110、70万円,9,メイショウヤエヤマ,良,5,太宰啓介,2
0,1:10.7,右,芝1200m,458.0,２歳新馬,,晴,牡,54.0,2016/08/20,12:20,サラ系２歳新馬(混)[指]馬齢,6,小倉,石坂正 (栗東),700、280、180、110、70万円,2,スマートウェールズ,良,6,浜中俊,2
0,1:10.6,右,芝1200m,438.0,２歳新馬,,晴,牡,54.0,2016/08/20,12:20,サラ系２歳新馬(混)[指]馬齢,7,小倉,高橋義忠 (栗東),700、280、180、110、70万円,1,クリノヤマトノオー,良,7,藤岡康太,2
0,1:11.4,右,芝1200m,506.0,２歳新馬,,晴,牡,54.0,2016/08/20,12:20,サラ系２歳新馬(混)[指]馬齢,7,小倉,湯窪幸雄 (栗東),700、280、180、110、70万円,6,カフジリバー,良,8,国分恭介,2
0,1:12.2,右,芝1200m,480.0,２歳新馬,,晴,牡,54.0,2016/08/20,12:20,サラ系２歳新馬(混)[指]馬齢,8,小倉,池添学 (栗東),700、280、180、110、70万円,8,ボンセルヴィーソ,良,9,松山弘平,2
0,1:10.7,右,芝1200m,442.0,２歳新馬,,晴,牡,54.0,2016/08/20,12:20,サラ系２歳新馬(混)[指]馬齢,8,小倉,大橋勇樹 (栗東),700、280、180、110、70万円,3,オーミシューマン,良,10,畑端省吾,2
