,単勝,枠番,複勝最大,複勝最小,馬名,馬番
0,167.1,1.0,70.9,44.8,シャムスヌール,1.0
0,60.6,1.0,22.4,14.2,グラマシー,2.0
0,10.2,2.0,3.4,2.3,ヴィーエンプレス,3.0
0,35.2,2.0,11.8,7.6,フェアウエル,4.0
0,4.7,3.0,1.9,1.4,アクトレス,5.0
0,16.2,3.0,5.7,3.7,ビオンデッツァ,6.0
0,5.7,4.0,2.3,1.6,ショウナンアエラ,7.0
0,34.1,4.0,11.6,7.5,セトノムーン,8.0
0,30.0,5.0,9.5,6.1,トラストティール,9.0
0,39.1,5.0,12.1,7.8,イパネマビーチ,10.0
0,8.1,6.0,2.9,2.0,モアナ,11.0
0,132.8,6.0,48.3,30.5,リネンカイソク,12.0
0,113.7,7.0,45.8,29.0,テイエムボサノバ,13.0
0,19.0,7.0,6.3,4.2,ビクトリーソング,14.0
0,48.7,7.0,17.1,10.9,イチネンイチクミ,15.0
0,28.6,8.0,9.0,5.8,セブンハーバー,16.0
0,124.2,8.0,41.2,26.1,コスモメイプル,17.0
0,4.0,8.0,1.9,1.4,ダノンハイパワー,18.0
