,タイム,レース周り,レース情報,体重,名称,外回りフラグ,天気,性別,斤量,日付,時刻,条件,枠番,競技場,調教師名,賞金,順位,馬名,馬場状態,馬番,騎手名,齢
0,1:35.5,左,芝1600m,422.0,新潟２歳Ｓ,外,晴,牝,54.0,2016/08/28,15:45,サラ系２歳オープン(国際)(特指)馬齢,1,新潟,小桧山悟 (美浦),3100、1200、780、470、310万円,13,チシャーキャット,良,1,木幡初也,2
0,1:35.0,左,芝1600m,496.0,新潟２歳Ｓ,外,晴,牝,54.0,2016/08/28,15:45,サラ系２歳オープン(国際)(特指)馬齢,2,新潟,池添学 (栗東),3100、1200、780、470、310万円,8,モーヴサファイア,良,2,石橋脩,2
0,1:34.5,左,芝1600m,466.0,新潟２歳Ｓ,外,晴,牡,54.0,2016/08/28,15:45,サラ系２歳オープン(国際)(特指)馬齢,2,新潟,奥村武 (美浦),3100、1200、780、470、310万円,3,イブキ,良,3,田辺裕信,2
0,1:35.2,左,芝1600m,468.0,新潟２歳Ｓ,外,晴,牡,54.0,2016/08/28,15:45,サラ系２歳オープン(国際)(特指)馬齢,3,新潟,森秀行 (栗東),3100、1200、780、470、310万円,11,マテラフィールド,良,4,松若風馬,2
0,1:36.9,左,芝1600m,402.0,新潟２歳Ｓ,外,晴,牝,54.0,2016/08/28,15:45,サラ系２歳オープン(国際)(特指)馬齢,3,新潟,和田正道 (美浦),3100、1200、780、470、310万円,15,ワールドツアラー,良,5,吉田豊,2
0,1:35.1,左,芝1600m,486.0,新潟２歳Ｓ,外,晴,牝,54.0,2016/08/28,15:45,サラ系２歳オープン(国際)(特指)馬齢,4,新潟,佐々木晶 (栗東),3100、1200、780、470、310万円,10,アンジュシャルマン,良,6,鮫島克駿,2
0,1:35.6,左,芝1600m,430.0,新潟２歳Ｓ,外,晴,牝,54.0,2016/08/28,15:45,サラ系２歳オープン(国際)(特指)馬齢,4,新潟,鹿戸雄一 (美浦),3100、1200、780、470、310万円,14,ウインシトリン,良,7,丸山元気,2
0,1:34.6,左,芝1600m,442.0,新潟２歳Ｓ,外,晴,牝,54.0,2016/08/28,15:45,サラ系２歳オープン(国際)(特指)馬齢,5,新潟,牧光二 (美浦),3100、1200、780、470、310万円,4,アピールバイオ,良,8,木幡巧也,2
0,1:35.0,左,芝1600m,504.0,新潟２歳Ｓ,外,晴,牡,54.0,2016/08/28,15:45,サラ系２歳オープン(国際)(特指)馬齢,5,新潟,河内洋 (栗東),3100、1200、780、470、310万円,7,サンライズソア,良,9,石川裕紀,2
0,1:34.3,左,芝1600m,470.0,新潟２歳Ｓ,外,晴,牝,54.0,2016/08/28,15:45,サラ系２歳オープン(国際)(特指)馬齢,6,新潟,中内田充 (栗東),3100、1200、780、470、310万円,1,ヴゼットジョリー,良,10,福永祐一,2
0,1:34.8,左,芝1600m,438.0,新潟２歳Ｓ,外,晴,牝,54.0,2016/08/28,15:45,サラ系２歳オープン(国際)(特指)馬齢,6,新潟,浅見秀一 (栗東),3100、1200、780、470、310万円,5,キャスパリーグ,良,11,藤岡佑介,2
0,1:34.5,左,芝1600m,462.0,新潟２歳Ｓ,外,晴,牡,54.0,2016/08/28,15:45,サラ系２歳オープン(国際)(特指)馬齢,7,新潟,南田美知 (美浦),3100、1200、780、470、310万円,2,オーバースペック,良,12,岩部純二,2
0,1:35.1,左,芝1600m,438.0,新潟２歳Ｓ,外,晴,牝,54.0,2016/08/28,15:45,サラ系２歳オープン(国際)(特指)馬齢,7,新潟,大和田成 (美浦),3100、1200、780、470、310万円,9,クイントゥープル,良,13,津村明秀,2
0,1:35.4,左,芝1600m,492.0,新潟２歳Ｓ,外,晴,牡,54.0,2016/08/28,15:45,サラ系２歳オープン(国際)(特指)馬齢,8,新潟,栗田博憲 (美浦),3100、1200、780、470、310万円,12,マイネルバールマン,良,14,柴田大知,2
0,1:34.9,左,芝1600m,470.0,新潟２歳Ｓ,外,晴,牡,54.0,2016/08/28,15:45,サラ系２歳オープン(国際)(特指)馬齢,8,新潟,田所秀孝 (栗東),3100、1200、780、470、310万円,6,マイネルパラディ,良,15,柴田未崎,2
