,単勝,枠番,複勝最大,複勝最小,馬名,馬番
0,24.1,1.0,5.0,3.6,ビクトリーミノル,1.0
0,15.9,2.0,5.0,3.6,ウインヴォラーレ,2.0
0,6.3,3.0,2.2,1.7,シャインブライト,3.0
0,6.5,4.0,2.9,2.2,ダノンサンシャイン,4.0
0,4.1,4.0,2.2,1.7,トロピカルストーム,5.0
0,28.6,5.0,9.7,6.9,ゴテツ,6.0
0,22.5,5.0,7.8,5.6,ララエクラテール,7.0
0,34.1,6.0,8.7,6.2,ユークリッド,8.0
0,41.2,6.0,9.0,6.4,タガノグリズリー,9.0
0,42.0,7.0,9.1,6.5,ウインレーベン,10.0
0,14.6,7.0,5.3,3.8,プレイヤーハウス,11.0
0,11.1,8.0,3.3,2.4,サムライロック,12.0
0,3.5,8.0,1.8,1.5,タケルラムセス,13.0
