,単勝,枠番,複勝最大,複勝最小,馬名,馬番
0,92.6,1.0,22.2,15.0,スマイルハッピー,1.0
0,5.0,1.0,2.1,1.7,トルセドール,2.0
0,115.6,2.0,33.3,22.5,ユヅルノオンガエシ,3.0
0,7.6,2.0,3.4,2.4,フクノグローリア,4.0
0,127.7,3.0,44.2,29.9,スーパープリンセス,5.0
0,7.2,3.0,2.7,1.9,コスモラパン,6.0
0,21.7,4.0,6.6,4.5,ナミノリゴリラ,7.0
0,10.0,4.0,4.0,2.8,リミットブレイク,8.0
0,45.5,5.0,14.0,9.5,ウンプテンプ,9.0
0,71.6,5.0,17.7,12.0,ハミルトンパーク,10.0
0,41.1,6.0,10.6,7.2,サンクタリリアス,11.0
0,81.5,6.0,20.5,13.9,カゼノトビラ,12.0
0,12.8,7.0,4.2,3.0,ショウナンアイ,13.0
0,3.7,7.0,1.9,1.5,タケデンタイガー,14.0
0,47.8,7.0,14.4,9.8,タカラジャンヌ,15.0
0,13.9,8.0,5.2,3.6,ジュエルプラネット,16.0
0,76.9,8.0,17.0,11.5,クラシックマーク,17.0
0,11.1,8.0,4.3,3.0,ケルベロス,18.0
