,単勝,枠番,複勝最大,複勝最小,馬名,馬番
0,16.8,1.0,4.8,2.8,ステージジャンプ,1.0
0,53.6,2.0,22.2,11.8,ハッピーベリンダ,2.0
0,29.9,2.0,8.5,4.7,ゴールドリーガル,3.0
0,57.4,3.0,15.6,8.4,ダイチトゥルース,4.0
0,102.6,3.0,18.0,9.6,カトラス,5.0
0,12.5,4.0,4.6,2.6,サヴァティアーノ,6.0
0,8.3,4.0,4.1,2.4,サトノアッシュ,7.0
0,3.0,5.0,1.4,1.1,クロフネビームス,8.0
0,31.8,5.0,11.8,6.4,サマーラヴ,9.0
0,9.6,6.0,3.5,2.0,キータイプ,10.0
0,162.2,6.0,36.4,19.3,ヤンキーソヴリン,11.0
0,3.7,7.0,1.8,1.3,モンサンアルナイル,12.0
0,138.0,7.0,32.9,17.4,ブロンクスシルバー,13.0
0,55.4,8.0,19.8,10.5,ロゼッタストーン,14.0
0,6.7,8.0,3.1,1.8,シュテルングランツ,15.0
