,単勝,枠番,複勝最大,複勝最小,馬名,馬番
0,15.9,1.0,4.2,2.6,キープインタッチ,1.0
0,2.9,2.0,1.7,1.2,ピオネロ,2.0
0,31.7,3.0,9.2,5.4,トミケンユークアイ,3.0
0,70.5,3.0,16.5,9.5,トウシンイーグル,4.0
0,43.7,4.0,12.2,7.1,スリータイタン,5.0
0,22.5,4.0,7.5,4.4,メイショウイチオシ,6.0
0,22.2,5.0,5.9,3.5,トウショウフリーク,7.0
0,4.0,5.0,2.1,1.4,アルタイル,8.0
0,13.3,6.0,4.0,2.5,サノイチ,9.0
0,3.5,6.0,1.7,1.2,モズライジン,10.0
0,160.0,7.0,39.1,22.5,クリノヒマラヤオー,11.0
0,15.9,7.0,4.6,2.8,コアレスキング,12.0
0,65.7,8.0,16.6,9.6,ナリタポセイドン,13.0
0,149.0,8.0,29.4,17.0,ハギノタイクーン,14.0
