,単勝,枠番,複勝最大,複勝最小,馬名,馬番
0,21.2,1.0,5.2,3.2,グレートジーピー,1.0
0,57.4,2.0,15.1,8.9,サンポーツマス,2.0
0,36.9,3.0,8.4,5.0,ビュウイモン,3.0
0,222.7,4.0,50.2,29.2,スリーサンレーザー,4.0
0,107.3,4.0,25.9,15.1,セイントシャイニー,5.0
0,8.2,5.0,2.5,1.7,ウインフラクタル,6.0
0,5.9,5.0,2.2,1.5,アーススピード,7.0
0,226.4,6.0,35.3,20.5,テトラコード,8.0
0,79.5,6.0,21.8,12.7,ゴールドサミット,9.0
0,4.7,7.0,2.4,1.6,ゴーストバローズ,10.0
0,13.7,7.0,4.5,2.8,ホロスコープ,11.0
0,15.6,8.0,3.3,2.1,メイショウザイル,12.0
0,2.0,8.0,1.4,1.2,コアコンピタンス,13.0
