,単勝,枠番,複勝最大,複勝最小,馬名,馬番
0,8.2,1.0,3.5,2.5,グレイトチャーター,1.0
0,266.3,1.0,77.7,50.7,ダンツカナリー,2.0
0,51.8,2.0,17.8,11.7,カオール,3.0
0,22.2,2.0,7.2,4.9,キタサンラブコール,4.0
0,23.7,3.0,7.8,5.2,ヴィクタープライム,5.0
0,79.1,3.0,24.5,16.1,ブラッククローバー,6.0
0,72.3,4.0,25.5,16.7,メイショウシャチ,7.0
0,190.2,4.0,59.8,39.0,クラウンカイザー,8.0
0,19.5,5.0,4.8,3.3,スマートカルロス,9.0
0,4.8,5.0,2.6,1.9,レーヴムーン,10.0
0,4.5,6.0,2.0,1.6,アドマイヤナイト,11.0
0,14.4,6.0,4.8,3.3,アルティマブラッド,12.0
0,18.9,7.0,7.3,4.9,キングハート,13.0
0,231.8,7.0,64.5,42.1,ジョディーズロマン,14.0
0,75.4,7.0,15.0,9.9,ハイマウンテン,15.0
0,66.6,8.0,20.4,13.4,オーミアリス,16.0
0,6.2,8.0,2.8,2.0,ニシノラッシュ,17.0
0,5.1,8.0,1.9,1.5,アレスバローズ,18.0
