,単勝,枠番,複勝最大,複勝最小,馬名,馬番
0,12.8,1.0,4.3,1.9,キングストーン,1.0
0,17.3,2.0,6.6,2.8,メイショウコルノ,2.0
0,57.5,3.0,13.0,5.2,サンマルホーム,3.0
0,15.3,4.0,5.5,2.4,サンライズタイセイ,4.0
0,103.5,5.0,22.0,8.6,ショウナンバーキン,5.0
0,1.6,6.0,1.1,1.1,バンドワゴン,6.0
0,26.6,6.0,9.7,3.9,ベルラップ,7.0
0,5.9,7.0,2.9,1.4,アスカビレン,8.0
0,6.2,7.0,2.7,1.4,アカネイロ,9.0
0,172.0,8.0,45.3,17.6,メイショウインロウ,10.0
0,33.4,8.0,9.1,3.7,レッドルーラー,11.0
