,単勝,枠番,複勝最大,複勝最小,馬名,馬番
0,18.3,1.0,8.2,4.9,ゴールデンローズ,1.0
0,10.8,1.0,4.5,2.8,ヒデノホープ,2.0
0,44.1,2.0,17.6,10.2,ザマーチャン,3.0
0,5.1,2.0,2.3,1.5,オーシャンマタハリ,4.0
0,87.5,3.0,29.9,17.2,シュヴァルボヌール,5.0
0,9.6,3.0,3.6,2.2,グラウス,6.0
0,83.4,4.0,22.7,13.1,スラップスティック,7.0
0,150.8,4.0,75.2,43.2,ウォーターバステト,8.0
0,19.9,5.0,5.2,3.2,リーズ,9.0
0,4.4,5.0,1.6,1.2,デイジーフローラ,10.0
0,192.8,6.0,51.5,29.6,ナンゴクハルネット,11.0
0,2.9,6.0,1.8,1.3,アマルティア,12.0
0,85.1,7.0,25.2,14.6,モーヴァンヒル,13.0
0,53.8,7.0,18.8,10.9,ハクサンインパクト,14.0
0,17.6,8.0,4.5,2.8,エイシンディクティ,15.0
0,18.9,8.0,7.2,4.3,メイショウサイジン,16.0
