,タイム,レース周り,レース情報,体重,名称,外回りフラグ,天気,性別,斤量,日付,時刻,条件,枠番,競技場,調教師名,賞金,順位,馬名,馬場状態,馬番,騎手名,齢
0,1:09.0,右,芝1200m,470.0,西部日刊スポーツ杯,,晴,牡,57.0,2016/08/14,15:01,サラ系３歳以上１０００万下(混)(特指)定量,1,小倉,鮫島一歩 (栗東),1500、600、380、230、150万円,10,グレイトチャーター,良,1,川田将雅,4
0,1:10.6,右,芝1200m,472.0,西部日刊スポーツ杯,,晴,牝,55.0,2016/08/14,15:01,サラ系３歳以上１０００万下(混)(特指)定量,1,小倉,本田優 (栗東),1500、600、380、230、150万円,18,ダンツカナリー,良,2,高倉稜,6
0,1:09.9,右,芝1200m,524.0,西部日刊スポーツ杯,,晴,牝,55.0,2016/08/14,15:01,サラ系３歳以上１０００万下(混)(特指)定量,2,小倉,中内田充 (栗東),1500、600、380、230、150万円,16,カオール,良,3,藤岡佑介,5
0,1:08.7,右,芝1200m,470.0,西部日刊スポーツ杯,,晴,牡,57.0,2016/08/14,15:01,サラ系３歳以上１０００万下(混)(特指)定量,2,小倉,昆貢 (栗東),1500、600、380、230、150万円,6,キタサンラブコール,良,4,太宰啓介,5
0,1:08.9,右,芝1200m,464.0,西部日刊スポーツ杯,,晴,牡,57.0,2016/08/14,15:01,サラ系３歳以上１０００万下(混)(特指)定量,3,小倉,本田優 (栗東),1500、600、380、230、150万円,8,ヴィクタープライム,良,5,松田大作,4
0,1:09.8,右,芝1200m,486.0,西部日刊スポーツ杯,,晴,牡,57.0,2016/08/14,15:01,サラ系３歳以上１０００万下(混)(特指)定量,3,小倉,川村禎彦 (栗東),1500、600、380、230、150万円,15,ブラッククローバー,良,6,田中健,4
0,1:09.8,右,芝1200m,476.0,西部日刊スポーツ杯,,晴,牡,54.0,2016/08/14,15:01,サラ系３歳以上１０００万下(混)(特指)定量,4,小倉,石橋守 (栗東),1500、600、380、230、150万円,14,メイショウシャチ,良,7,秋山真一,3
0,1:09.9,右,芝1200m,490.0,西部日刊スポーツ杯,,晴,牡,57.0,2016/08/14,15:01,サラ系３歳以上１０００万下(混)(特指)定量,4,小倉,大根田裕 (栗東),1500、600、380、230、150万円,17,クラウンカイザー,良,8,義英真,7
0,1:08.6,右,芝1200m,468.0,西部日刊スポーツ杯,,晴,牡,57.0,2016/08/14,15:01,サラ系３歳以上１０００万下(混)(特指)定量,5,小倉,浅見秀一 (栗東),1500、600、380、230、150万円,4,スマートカルロス,良,9,鮫島克駿,4
0,1:08.4,右,芝1200m,476.0,西部日刊スポーツ杯,,晴,牡,54.0,2016/08/14,15:01,サラ系３歳以上１０００万下(混)(特指)定量,5,小倉,藤岡健一 (栗東),1500、600、380、230、150万円,1,レーヴムーン,良,10,松山弘平,3
0,1:09.0,右,芝1200m,426.0,西部日刊スポーツ杯,,晴,牝,55.0,2016/08/14,15:01,サラ系３歳以上１０００万下(混)(特指)定量,6,小倉,梅田智之 (栗東),1500、600、380、230、150万円,11,アドマイヤナイト,良,11,藤岡康太,4
0,1:08.8,右,芝1200m,484.0,西部日刊スポーツ杯,,晴,牝,55.0,2016/08/14,15:01,サラ系３歳以上１０００万下(混)(特指)定量,6,小倉,音無秀孝 (栗東),1500、600、380、230、150万円,7,アルティマブラッド,良,12,ホワイト,4
0,1:08.5,右,芝1200m,478.0,西部日刊スポーツ杯,,晴,牡,54.0,2016/08/14,15:01,サラ系３歳以上１０００万下(混)(特指)定量,7,小倉,星野忍 (美浦),1500、600、380、230、150万円,2,キングハート,良,13,中谷雄太,3
0,1:09.4,右,芝1200m,470.0,西部日刊スポーツ杯,,晴,牝,55.0,2016/08/14,15:01,サラ系３歳以上１０００万下(混)(特指)定量,7,小倉,飯田雄三 (栗東),1500、600、380、230、150万円,13,ジョディーズロマン,良,14,川須栄彦,6
0,1:09.4,右,芝1200m,460.0,西部日刊スポーツ杯,,晴,牝,55.0,2016/08/14,15:01,サラ系３歳以上１０００万下(混)(特指)定量,7,小倉,目野哲也 (栗東),1500、600、380、230、150万円,12,ハイマウンテン,良,15,国分恭介,6
0,1:09.0,右,芝1200m,472.0,西部日刊スポーツ杯,,晴,牝,55.0,2016/08/14,15:01,サラ系３歳以上１０００万下(混)(特指)定量,8,小倉,藤沢則雄 (栗東),1500、600、380、230、150万円,9,オーミアリス,良,16,国分優作,4
0,1:08.7,右,芝1200m,488.0,西部日刊スポーツ杯,,晴,牡,57.0,2016/08/14,15:01,サラ系３歳以上１０００万下(混)(特指)定量,8,小倉,宮本博 (栗東),1500、600、380、230、150万円,5,ニシノラッシュ,良,17,バルジュ,4
0,1:08.6,右,芝1200m,486.0,西部日刊スポーツ杯,,晴,牡,57.0,2016/08/14,15:01,サラ系３歳以上１０００万下(混)(特指)定量,8,小倉,角田晃一 (栗東),1500、600、380、230、150万円,3,アレスバローズ,良,18,浜中俊,4
