,単勝,枠番,複勝最大,複勝最小,馬名,馬番
0,16.0,1.0,5.4,3.6,ジュヒョウ,1.0
0,6.0,2.0,2.6,1.9,センショウレイナ,2.0
0,47.8,2.0,11.1,7.1,ラウレアブルーム,3.0
0,6.4,3.0,3.2,2.2,ロードキング,4.0
0,40.4,3.0,11.7,7.5,サトノロブロイ,5.0
0,100.8,4.0,22.3,14.1,ゼットフーリ,6.0
0,2.8,4.0,1.5,1.3,ダノンプレシャス,7.0
0,201.7,5.0,50.4,32.0,タイセイパルサー,8.0
0,191.0,5.0,43.8,27.8,サンレイフローラ,9.0
0,6.4,6.0,3.0,2.1,ハローマイディア,10.0
0,29.5,6.0,5.8,3.8,ブルーフラッシュ,11.0
0,12.4,7.0,3.9,2.7,ヤマニンエルフィン,12.0
0,23.9,7.0,6.5,4.3,クリノサンスーシ,13.0
0,10.0,8.0,3.5,2.3,ヴィンテージローズ,14.0
0,23.6,8.0,8.0,5.2,カレングランブルー,15.0
