,馬番1,馬番2,ワイド
0,1.0,2.0,21.9
0,1.0,3.0,1.7
0,1.0,4.0,1.3
0,1.0,5.0,2.7
0,1.0,6.0,8.0
0,1.0,7.0,10.8
0,1.0,8.0,5.3
0,1.0,9.0,27.6
0,1.0,10.0,15.4
0,2.0,3.0,32.8
0,2.0,4.0,30.5
0,2.0,5.0,60.1
0,2.0,6.0,99.9
0,2.0,7.0,132.4
0,2.0,8.0,95.0
0,2.0,9.0,191.4
0,2.0,10.0,175.8
0,3.0,4.0,2.5
0,3.0,5.0,5.4
0,3.0,6.0,15.8
0,3.0,7.0,17.4
0,3.0,8.0,8.9
0,3.0,9.0,53.2
0,3.0,10.0,36.5
0,4.0,5.0,3.5
0,4.0,6.0,11.8
0,4.0,7.0,12.8
0,4.0,8.0,6.6
0,4.0,9.0,33.4
0,4.0,10.0,25.1
0,5.0,6.0,23.5
0,5.0,7.0,27.6
0,5.0,8.0,14.2
0,5.0,9.0,75.9
0,5.0,10.0,37.4
0,6.0,7.0,42.8
0,6.0,8.0,32.1
0,6.0,9.0,173.3
0,6.0,10.0,91.1
0,7.0,8.0,32.3
0,7.0,9.0,131.2
0,7.0,10.0,83.8
0,8.0,9.0,76.8
0,8.0,10.0,59.3
0,9.0,10.0,173.1
