,単勝,枠番,複勝最大,複勝最小,馬名,馬番
0,1.8,1.0,1.1,1.1,メイショウハバネラ,1.0
0,144.5,2.0,35.5,10.7,エドワード,2.0
0,4.2,3.0,3.0,1.2,ベルウッドカペラ,3.0
0,4.5,4.0,2.2,1.1,シゲルベンガルトラ,4.0
0,12.5,5.0,3.9,1.5,ウイナーズロード,5.0
0,32.3,6.0,13.2,4.2,ミルトドリーム,6.0
0,47.6,7.0,12.5,4.0,ラニカイシチー,7.0
0,24.5,7.0,7.4,2.5,タガノエクレール,8.0
0,167.5,8.0,41.7,12.6,シゲルオカピ,9.0
0,90.3,8.0,22.5,6.9,マイネルファート,10.0
