,単勝,枠番,複勝最大,複勝最小,馬名,馬番
0,7.3,1.0,3.6,2.2,マーキークラブ,1.0
0,3.6,2.0,1.7,1.3,モズワッショイ,2.0
0,130.3,3.0,26.9,15.4,リッカキング,3.0
0,62.0,3.0,12.4,7.2,テイエムスタンリー,4.0
0,309.8,4.0,76.1,43.4,カスタニャッチョ,5.0
0,14.8,4.0,5.2,3.2,キタサンコトブキ,6.0
0,144.6,5.0,30.0,17.2,ブラックウィンダム,7.0
0,237.1,5.0,66.8,38.1,ヴィシュトリア,8.0
0,8.7,6.0,3.2,2.0,テイエムダグラス,9.0
0,65.8,6.0,15.0,8.7,シゲルカマス,10.0
0,3.4,7.0,1.7,1.3,タイキラメール,11.0
0,6.9,7.0,2.8,1.8,ハトマークレディ,12.0
0,51.1,8.0,14.1,8.2,ロングブリオ,13.0
0,6.5,8.0,2.7,1.7,オリエンタルローズ,14.0
