,タイム,レース周り,レース情報,体重,名称,外回りフラグ,天気,性別,斤量,日付,時刻,条件,枠番,競技場,調教師名,賞金,順位,馬名,馬場状態,馬番,騎手名,齢
0,1:10.2,右,芝1200m,446.0,２歳未勝利,,晴,牝,54.0,2016/07/31,10:01,サラ系２歳未勝利[指]馬齢,1,小倉,南井克巳 (栗東),500、200、130、75、50万円,7,メイショウハバネラ,良,1,和田竜二,2
0,1:10.6,右,芝1200m,450.0,２歳未勝利,,晴,牡,54.0,2016/07/31,10:01,サラ系２歳未勝利[指]馬齢,2,小倉,作田誠二 (栗東),500、200、130、75、50万円,8,エドワード,良,2,松山弘平,2
0,1:09.9,右,芝1200m,448.0,２歳未勝利,,晴,牡,54.0,2016/07/31,10:01,サラ系２歳未勝利[指]馬齢,3,小倉,高橋康之 (栗東),500、200、130、75、50万円,3,ベルウッドカペラ,良,3,武豊,2
0,1:09.1,右,芝1200m,444.0,２歳未勝利,,晴,牡,54.0,2016/07/31,10:01,サラ系２歳未勝利[指]馬齢,4,小倉,服部利之 (栗東),500、200、130、75、50万円,1,シゲルベンガルトラ,良,4,幸英明,2
0,1:09.9,右,芝1200m,412.0,２歳未勝利,,晴,牝,51.0,2016/07/31,10:01,サラ系２歳未勝利[指]馬齢,5,小倉,岩元市三 (栗東),500、200、130、75、50万円,4,ウイナーズロード,良,5,荻野極,2
0,1:09.6,右,芝1200m,476.0,２歳未勝利,,晴,牡,54.0,2016/07/31,10:01,サラ系２歳未勝利[指]馬齢,6,小倉,中竹和也 (栗東),500、200、130、75、50万円,2,ミルトドリーム,良,6,バルジュ,2
0,1:10.0,右,芝1200m,468.0,２歳未勝利,,晴,牡,54.0,2016/07/31,10:01,サラ系２歳未勝利[指]馬齢,7,小倉,村山明 (栗東),500、200、130、75、50万円,6,ラニカイシチー,良,7,国分優作,2
0,1:10.0,右,芝1200m,440.0,２歳未勝利,,晴,牡,54.0,2016/07/31,10:01,サラ系２歳未勝利[指]馬齢,7,小倉,鈴木孝志 (栗東),500、200、130、75、50万円,5,タガノエクレール,良,8,岩田康誠,2
0,1:10.9,右,芝1200m,430.0,２歳未勝利,,晴,牡,53.0,2016/07/31,10:01,サラ系２歳未勝利[指]馬齢,8,小倉,川村禎彦 (栗東),500、200、130、75、50万円,9,シゲルオカピ,良,9,鮫島克駿,2
0,1:11.1,右,芝1200m,468.0,２歳未勝利,,晴,牡,51.0,2016/07/31,10:01,サラ系２歳未勝利[指]馬齢,8,小倉,加用正 (栗東),500、200、130、75、50万円,10,マイネルファート,良,10,三津谷隼,2
