,タイム,レース周り,レース情報,体重,名称,外回りフラグ,天気,性別,斤量,日付,時刻,条件,枠番,競技場,調教師名,賞金,順位,馬名,馬場状態,馬番,騎手名,齢
0,1:47.3,右,ダ1700m,504.0,響灘特別,,晴,牡,54.0,2016/07/31,15:01,サラ系３歳以上１０００万下(混)(特指)定量,1,小倉,音無秀孝 (栗東),1500、600、380、230、150万円,12,コクスイセン,良,1,武幸四郎,3
0,1:46.1,右,ダ1700m,484.0,響灘特別,,晴,牡,57.0,2016/07/31,15:01,サラ系３歳以上１０００万下(混)(特指)定量,1,小倉,大久保龍 (栗東),1500、600、380、230、150万円,3,ラディカル,良,2,岩田康誠,4
0,1:47.4,右,ダ1700m,486.0,響灘特別,,晴,牝,55.0,2016/07/31,15:01,サラ系３歳以上１０００万下(混)(特指)定量,2,小倉,長浜博之 (栗東),1500、600、380、230、150万円,13,アグネスアーニャ,良,3,バルジュ,4
0,1:47.3,右,ダ1700m,486.0,響灘特別,,晴,牡,57.0,2016/07/31,15:01,サラ系３歳以上１０００万下(混)(特指)定量,2,小倉,池江泰寿 (栗東),1500、600、380、230、150万円,10,ミッキーシーガル,良,4,ホワイト,4
0,1:46.3,右,ダ1700m,468.0,響灘特別,,晴,牡,57.0,2016/07/31,15:01,サラ系３歳以上１０００万下(混)(特指)定量,3,小倉,坪憲章 (栗東),1500、600、380、230、150万円,5,スズカウラノス,良,5,幸英明,7
0,1:45.8,右,ダ1700m,454.0,響灘特別,,晴,牝,55.0,2016/07/31,15:01,サラ系３歳以上１０００万下(混)(特指)定量,3,小倉,西村真幸 (栗東),1500、600、380、230、150万円,2,サンタエヴィータ,良,6,松山弘平,5
0,1:46.6,右,ダ1700m,464.0,響灘特別,,晴,牝,55.0,2016/07/31,15:01,サラ系３歳以上１０００万下(混)(特指)定量,4,小倉,松永幹夫 (栗東),1500、600、380、230、150万円,7,ナンヨーカノン,良,7,浜中俊,6
0,1:47.4,右,ダ1700m,472.0,響灘特別,,晴,牡,57.0,2016/07/31,15:01,サラ系３歳以上１０００万下(混)(特指)定量,4,小倉,松永昌博 (栗東),1500、600、380、230、150万円,14,ツィンクルソード,良,8,藤岡康太,5
0,1:46.3,右,ダ1700m,482.0,響灘特別,,晴,牡,57.0,2016/07/31,15:01,サラ系３歳以上１０００万下(混)(特指)定量,5,小倉,加藤敬二 (栗東),1500、600、380、230、150万円,4,アチーヴ,良,9,和田竜二,6
0,1:46.6,右,ダ1700m,492.0,響灘特別,,晴,牡,57.0,2016/07/31,15:01,サラ系３歳以上１０００万下(混)(特指)定量,5,小倉,松下武士 (栗東),1500、600、380、230、150万円,6,インテグラード,良,10,中谷雄太,5
0,1:47.3,右,ダ1700m,424.0,響灘特別,,晴,牝,55.0,2016/07/31,15:01,サラ系３歳以上１０００万下(混)(特指)定量,6,小倉,松下武士 (栗東),1500、600、380、230、150万円,11,ハッピーエム,良,11,川須栄彦,5
0,1:47.1,右,ダ1700m,516.0,響灘特別,,晴,牡,57.0,2016/07/31,15:01,サラ系３歳以上１０００万下(混)(特指)定量,6,小倉,庄野靖志 (栗東),1500、600、380、230、150万円,9,ワースムーン,良,12,小牧太,6
0,1:45.7,右,ダ1700m,472.0,響灘特別,,晴,牡,57.0,2016/07/31,15:01,サラ系３歳以上１０００万下(混)(特指)定量,7,小倉,西園正都 (栗東),1500、600、380、230、150万円,1,タムロミラクル,良,13,川田将雅,4
0,1:48.4,右,ダ1700m,484.0,響灘特別,,晴,牝,55.0,2016/07/31,15:01,サラ系３歳以上１０００万下(混)(特指)定量,7,小倉,角居勝彦 (栗東),1500、600、380、230、150万円,16,メイショウルンバ,良,14,武豊,5
0,1:46.9,右,ダ1700m,512.0,響灘特別,,晴,牡,57.0,2016/07/31,15:01,サラ系３歳以上１０００万下(混)(特指)定量,8,小倉,目野哲也 (栗東),1500、600、380、230、150万円,8,ダイナミックウオー,良,15,秋山真一,6
0,1:47.6,右,ダ1700m,472.0,響灘特別,,晴,牡,57.0,2016/07/31,15:01,サラ系３歳以上１０００万下(混)(特指)定量,8,小倉,田所秀孝 (栗東),1500、600、380、230、150万円,15,セルリアンラッシュ,良,16,酒井学,5
