,タイム,レース周り,レース情報,体重,名称,外回りフラグ,天気,性別,斤量,日付,時刻,条件,枠番,競技場,調教師名,賞金,順位,馬名,馬場状態,馬番,騎手名,齢
0,1:49.2,右,芝1800m,450.0,３歳未勝利,,晴,牝,54.0,2016/07/31,11:30,サラ系３歳未勝利牝[指]馬齢,1,小倉,友道康夫 (栗東),480、190、120、72、48万円,8,クレオメ,良,1,藤岡佑介,3
0,1:48.1,右,芝1800m,438.0,３歳未勝利,,晴,牝,54.0,2016/07/31,11:30,サラ系３歳未勝利牝[指]馬齢,1,小倉,野中賢二 (栗東),480、190、120、72、48万円,3,エイシンジルコン,良,2,藤岡康太,3
0,1:49.1,右,芝1800m,478.0,３歳未勝利,,晴,牝,53.0,2016/07/31,11:30,サラ系３歳未勝利牝[指]馬齢,2,小倉,長浜博之 (栗東),480、190、120、72、48万円,7,ロングマジック,良,3,岩崎翼,3
0,1:50.3,右,芝1800m,456.0,３歳未勝利,,晴,牝,54.0,2016/07/31,11:30,サラ系３歳未勝利牝[指]馬齢,2,小倉,高野友和 (栗東),480、190、120、72、48万円,14,ダムデミステル,良,4,バルジュ,3
0,1:48.9,右,芝1800m,422.0,３歳未勝利,,晴,牝,54.0,2016/07/31,11:30,サラ系３歳未勝利牝[指]馬齢,3,小倉,野中賢二 (栗東),480、190、120、72、48万円,6,ジェミナ,良,5,松田大作,3
0,1:48.1,右,芝1800m,440.0,３歳未勝利,,晴,牝,54.0,2016/07/31,11:30,サラ系３歳未勝利牝[指]馬齢,3,小倉,荒川義之 (栗東),480、190、120、72、48万円,4,アナザーワールド,良,6,ホワイト,3
0,1:48.6,右,芝1800m,420.0,３歳未勝利,,晴,牝,54.0,2016/07/31,11:30,サラ系３歳未勝利牝[指]馬齢,4,小倉,大久保龍 (栗東),480、190、120、72、48万円,5,ミッキースマシング,良,7,幸英明,3
0,1:51.0,右,芝1800m,416.0,３歳未勝利,,晴,牝,54.0,2016/07/31,11:30,サラ系３歳未勝利牝[指]馬齢,4,小倉,石坂正 (栗東),480、190、120、72、48万円,16,プレリュードフィズ,良,8,浜中俊,3
0,1:49.5,右,芝1800m,436.0,３歳未勝利,,晴,牝,54.0,2016/07/31,11:30,サラ系３歳未勝利牝[指]馬齢,5,小倉,渡辺薫彦 (栗東),480、190、120、72、48万円,10,タガノスケルド,良,9,酒井学,3
0,1:50.3,右,芝1800m,388.0,３歳未勝利,,晴,牝,54.0,2016/07/31,11:30,サラ系３歳未勝利牝[指]馬齢,5,小倉,斉藤崇史 (栗東),480、190、120、72、48万円,15,カリーノピッコラ,良,10,藤懸貴志,3
0,1:49.5,右,芝1800m,408.0,３歳未勝利,,晴,牝,54.0,2016/07/31,11:30,サラ系３歳未勝利牝[指]馬齢,6,小倉,藤岡健一 (栗東),480、190、120、72、48万円,11,マクスウェル,良,11,大下智,3
0,1:49.5,右,芝1800m,414.0,３歳未勝利,,晴,牝,51.0,2016/07/31,11:30,サラ系３歳未勝利牝[指]馬齢,6,小倉,佐々木晶 (栗東),480、190、120、72、48万円,9,インカンターレ,良,12,荻野極,3
0,1:49.7,右,芝1800m,442.0,３歳未勝利,,晴,牝,52.0,2016/07/31,11:30,サラ系３歳未勝利牝[指]馬齢,7,小倉,渡辺薫彦 (栗東),480、190、120、72、48万円,12,ハーマイオニー,良,13,義英真,3
0,1:47.9,右,芝1800m,478.0,３歳未勝利,,晴,牝,54.0,2016/07/31,11:30,サラ系３歳未勝利牝[指]馬齢,7,小倉,石橋守 (栗東),480、190、120、72、48万円,1,ブボナ,良,14,国分恭介,3
0,1:49.9,右,芝1800m,470.0,３歳未勝利,,晴,牝,53.0,2016/07/31,11:30,サラ系３歳未勝利牝[指]馬齢,8,小倉,加用正 (栗東),480、190、120、72、48万円,13,ガラスダマノピアス,良,15,鮫島克駿,3
0,1:48.0,右,芝1800m,474.0,３歳未勝利,,晴,牝,54.0,2016/07/31,11:30,サラ系３歳未勝利牝[指]馬齢,8,小倉,川村禎彦 (栗東),480、190、120、72、48万円,2,タガノガンチャン,良,16,和田竜二,3
