,タイム,レース周り,レース情報,体重,名称,外回りフラグ,天気,性別,斤量,日付,時刻,条件,枠番,競技場,調教師名,賞金,順位,馬名,馬場状態,馬番,騎手名,齢
0,1:12.3,右,芝1200m,408.0,小樽特別,,雨,牝,52.0,2016/08/21,16:30,サラ系３歳以上５００万下(混)(特指)定量,1,2札幌,矢作芳人 (栗東),1050、420、260、160、105万円,13,ドナルチア,稍,1,菱田裕二,3
0,1:12.2,右,芝1200m,472.0,小樽特別,,雨,セ,57.0,2016/08/21,16:30,サラ系３歳以上５００万下(混)(特指)定量,2,2札幌,中野栄治 (美浦),1050、420、260、160、105万円,11,ビリーヴザワン,稍,2,原田和真,5
0,1:12.1,右,芝1200m,476.0,小樽特別,,雨,牝,55.0,2016/08/21,16:30,サラ系３歳以上５００万下(混)(特指)定量,2,2札幌,高橋裕 (美浦),1050、420、260、160、105万円,9,タカミツスズラン,稍,3,勝浦正樹,5
0,1:11.8,右,芝1200m,424.0,小樽特別,,雨,牝,52.0,2016/08/21,16:30,サラ系３歳以上５００万下(混)(特指)定量,3,2札幌,高市圭二 (美浦),1050、420、260、160、105万円,6,ポートレイト,稍,4,荻野琢真,3
0,1:12.3,右,芝1200m,470.0,小樽特別,,雨,牝,55.0,2016/08/21,16:30,サラ系３歳以上５００万下(混)(特指)定量,3,2札幌,星野忍 (美浦),1050、420、260、160、105万円,14,クリノツネチャン,稍,5,長岡禎仁,5
0,1:12.7,右,芝1200m,474.0,小樽特別,,雨,牝,55.0,2016/08/21,16:30,サラ系３歳以上５００万下(混)(特指)定量,4,2札幌,野中賢二 (栗東),1050、420、260、160、105万円,15,エイシンガイア,稍,6,四位洋文,4
0,1:12.0,右,芝1200m,442.0,小樽特別,,雨,牝,55.0,2016/08/21,16:30,サラ系３歳以上５００万下(混)(特指)定量,4,2札幌,大江原哲 (美浦),1050、420、260、160、105万円,7,エクスシア,稍,7,井上敏樹,5
0,1:11.5,右,芝1200m,422.0,小樽特別,,雨,牝,52.0,2016/08/21,16:30,サラ系３歳以上５００万下(混)(特指)定量,5,2札幌,奥村武 (美浦),1050、420、260、160、105万円,5,フルオブスターズ,稍,8,横山和生,3
0,1:12.3,右,芝1200m,446.0,小樽特別,,雨,牝,52.0,2016/08/21,16:30,サラ系３歳以上５００万下(混)(特指)定量,5,2札幌,五十嵐忠 (栗東),1050、420、260、160、105万円,12,アイムウィッシング,稍,9,柴田大知,3
0,1:11.0,右,芝1200m,506.0,小樽特別,,雨,牡,54.0,2016/08/21,16:30,サラ系３歳以上５００万下(混)(特指)定量,6,2札幌,岩戸孝樹 (美浦),1050、420、260、160、105万円,1,コスモフレンチ,稍,10,丹内祐次,3
0,1:12.2,右,芝1200m,462.0,小樽特別,,雨,牡,57.0,2016/08/21,16:30,サラ系３歳以上５００万下(混)(特指)定量,6,2札幌,谷原義明 (美浦),1050、420、260、160、105万円,10,ラッキーダン,稍,11,加藤祥太,4
0,1:11.3,右,芝1200m,500.0,小樽特別,,雨,牡,54.0,2016/08/21,16:30,サラ系３歳以上５００万下(混)(特指)定量,7,2札幌,米川昇 (北海道),1050、420、260、160、105万円,4,フジノパンサー,稍,12,石川倭,3
0,1:11.2,右,芝1200m,476.0,小樽特別,,雨,牡,57.0,2016/08/21,16:30,サラ系３歳以上５００万下(混)(特指)定量,7,2札幌,金成貴史 (美浦),1050、420、260、160、105万円,3,ジェットコルサ,稍,13,岩田康誠,4
0,1:11.1,右,芝1200m,480.0,小樽特別,,雨,牡,57.0,2016/08/21,16:30,サラ系３歳以上５００万下(混)(特指)定量,8,2札幌,岩元市三 (栗東),1050、420、260、160、105万円,2,ヴァッフシュテルケ,稍,14,水口優也,5
0,1:12.1,右,芝1200m,450.0,小樽特別,,雨,牝,55.0,2016/08/21,16:30,サラ系３歳以上５００万下(混)(特指)定量,8,2札幌,和田正道 (美浦),1050、420、260、160、105万円,8,ユキノサンブライト,稍,15,池添謙一,5
