,タイム,レース周り,レース情報,体重,名称,外回りフラグ,天気,性別,斤量,日付,時刻,条件,枠番,競技場,調教師名,賞金,順位,馬名,馬場状態,馬番,騎手名,齢
0,2:02.3,右,芝2000m,448.0,札幌記念,,雨,牝,55.0,2016/08/21,15:45,サラ系３歳以上オープン(国際)(特指)定量,1,2札幌,斎藤誠 (美浦),7000、2800、1800、1100、700万円,4,ヌーヴォレコルト,稍,1,吉田隼人,5
0,2:02.1,右,芝2000m,442.0,札幌記念,,雨,牡,54.0,2016/08/21,15:45,サラ系３歳以上オープン(国際)(特指)定量,1,2札幌,浅見秀一 (栗東),7000、2800、1800、1100、700万円,3,レインボーライン,稍,2,福永祐一,3
0,2:03.2,右,芝2000m,456.0,札幌記念,,雨,牡,57.0,2016/08/21,15:45,サラ系３歳以上オープン(国際)(特指)定量,2,2札幌,松田国英 (栗東),7000、2800、1800、1100、700万円,9,ハギノハイブリッド,稍,3,菱田裕二,5
0,2:03.2,右,芝2000m,484.0,札幌記念,,雨,牝,55.0,2016/08/21,15:45,サラ系３歳以上オープン(国際)(特指)定量,2,2札幌,高橋義忠 (栗東),7000、2800、1800、1100、700万円,8,メイショウスザンナ,稍,4,四位洋文,7
0,2:04.6,右,芝2000m,550.0,札幌記念,,雨,牡,57.0,2016/08/21,15:45,サラ系３歳以上オープン(国際)(特指)定量,3,2札幌,国枝栄 (美浦),7000、2800、1800、1100、700万円,15,ロジチャリス,稍,5,丸山元気,4
0,2:02.8,右,芝2000m,486.0,札幌記念,,雨,牡,57.0,2016/08/21,15:45,サラ系３歳以上オープン(国際)(特指)定量,3,2札幌,高木登 (美浦),7000、2800、1800、1100、700万円,6,マイネルフロスト,稍,6,松岡正海,5
0,2:02.4,右,芝2000m,488.0,札幌記念,,雨,牡,57.0,2016/08/21,15:45,サラ系３歳以上オープン(国際)(特指)定量,4,2札幌,池添兼雄 (栗東),7000、2800、1800、1100、700万円,5,ヤマカツエース,稍,7,池添謙一,4
0,2:04.4,右,芝2000m,480.0,札幌記念,,雨,牡,57.0,2016/08/21,15:45,サラ系３歳以上オープン(国際)(特指)定量,4,2札幌,池江泰寿 (栗東),7000、2800、1800、1100、700万円,14,トーセンレーヴ,稍,8,ホワイト,8
0,2:03.4,右,芝2000m,512.0,札幌記念,,雨,牡,57.0,2016/08/21,15:45,サラ系３歳以上オープン(国際)(特指)定量,5,2札幌,加藤敬二 (栗東),7000、2800、1800、1100、700万円,10,ヒットザターゲット,稍,9,小牧太,8
0,2:03.4,右,芝2000m,484.0,札幌記念,,雨,牝,55.0,2016/08/21,15:45,サラ系３歳以上オープン(国際)(特指)定量,5,2札幌,谷潔 (栗東),7000、2800、1800、1100、700万円,11,ダンツキャンサー,稍,10,勝浦正樹,5
0,2:04.1,右,芝2000m,502.0,札幌記念,,雨,牡,57.0,2016/08/21,15:45,サラ系３歳以上オープン(国際)(特指)定量,6,2札幌,藤沢和雄 (美浦),7000、2800、1800、1100、700万円,13,スーパームーン,稍,11,蛯名正義,7
0,2:04.0,右,芝2000m,464.0,札幌記念,,雨,牡,57.0,2016/08/21,15:45,サラ系３歳以上オープン(国際)(特指)定量,6,2札幌,庄野靖志 (栗東),7000、2800、1800、1100、700万円,12,レッドソロモン,稍,12,柴山雄一,4
0,2:01.7,右,芝2000m,496.0,札幌記念,,雨,牡,57.0,2016/08/21,15:45,サラ系３歳以上オープン(国際)(特指)定量,7,2札幌,堀宣行 (美浦),7000、2800、1800、1100、700万円,1,ネオリアリズム,稍,13,ルメール,5
0,2:04.7,右,芝2000m,436.0,札幌記念,,雨,牝,55.0,2016/08/21,15:45,サラ系３歳以上オープン(国際)(特指)定量,7,2札幌,須貝尚介 (栗東),7000、2800、1800、1100、700万円,16,レッドリヴェール,稍,14,坂井瑠星,5
0,2:02.0,右,芝2000m,510.0,札幌記念,,雨,牡,57.0,2016/08/21,15:45,サラ系３歳以上オープン(国際)(特指)定量,8,2札幌,堀宣行 (美浦),7000、2800、1800、1100、700万円,2,モーリス,稍,15,モレイラ,5
0,2:03.1,右,芝2000m,454.0,札幌記念,,雨,牡,57.0,2016/08/21,15:45,サラ系３歳以上オープン(国際)(特指)定量,8,2札幌,小島太 (美浦),7000、2800、1800、1100、700万円,7,ダービーフィズ,稍,16,岩田康誠,6
