,単勝,枠番,複勝最大,複勝最小,馬名,馬番
0,2.7,1.0,1.7,1.3,ドルチャーリオ,1.0
0,17.5,2.0,4.5,2.9,ピコット,2.0
0,8.3,3.0,2.6,1.8,ハロックライン,3.0
0,18.1,4.0,7.2,4.6,ストレイン,4.0
0,168.6,4.0,27.1,16.9,アカンパニスト,5.0
0,19.2,5.0,4.2,2.8,ジャマイカムーン,6.0
0,227.4,5.0,49.5,30.8,ハルノアシオト,7.0
0,211.1,6.0,51.5,32.1,ゴールドサミット,8.0
0,5.9,6.0,2.8,1.9,セイクリッドシー,9.0
0,70.6,7.0,20.0,12.5,スケッチ,10.0
0,43.3,7.0,9.4,6.0,ブラックインパクト,11.0
0,3.7,8.0,2.0,1.5,ラレッサングル,12.0
0,8.4,8.0,2.5,1.7,メイショウティグレ,13.0
