,タイム,レース周り,レース情報,体重,名称,外回りフラグ,天気,性別,斤量,日付,時刻,条件,枠番,競技場,調教師名,賞金,順位,馬名,馬場状態,馬番,騎手名,齢
0,1:29.4,右,芝1500m,448.0,３歳未勝利,,晴,牡,56.0,2016/07/31,11:20,サラ系３歳未勝利(混)[指]馬齢,1,札幌,池添兼雄 (栗東),480、190、120、72、48万円,1,ドルチャーリオ,良,1,池添謙一,3
0,1:30.1,右,芝1500m,434.0,３歳未勝利,,晴,牝,54.0,2016/07/31,11:20,サラ系３歳未勝利(混)[指]馬齢,2,札幌,石毛善彦 (美浦),480、190、120、72、48万円,3,ピコット,良,2,古川吉洋,3
0,1:30.1,右,芝1500m,414.0,３歳未勝利,,晴,牝,54.0,2016/07/31,11:20,サラ系３歳未勝利(混)[指]馬齢,3,札幌,斎藤誠 (美浦),480、190、120、72、48万円,6,ハロックライン,良,3,勝浦正樹,3
0,1:31.0,右,芝1500m,486.0,３歳未勝利,,晴,牡,56.0,2016/07/31,11:20,サラ系３歳未勝利(混)[指]馬齢,4,札幌,角居勝彦 (栗東),480、190、120、72、48万円,12,ストレイン,良,4,福永祐一,3
0,1:30.2,右,芝1500m,434.0,３歳未勝利,,晴,牝,54.0,2016/07/31,11:20,サラ系３歳未勝利(混)[指]馬齢,4,札幌,佐藤吉勝 (美浦),480、190、120、72、48万円,8,アカンパニスト,良,5,丸山元気,3
0,1:30.4,右,芝1500m,416.0,３歳未勝利,,晴,牡,55.0,2016/07/31,11:20,サラ系３歳未勝利(混)[指]馬齢,5,札幌,和田正道 (美浦),480、190、120、72、48万円,10,ジャマイカムーン,良,6,加藤祥太,3
0,1:31.1,右,芝1500m,468.0,３歳未勝利,,晴,牝,52.0,2016/07/31,11:20,サラ系３歳未勝利(混)[指]馬齢,5,札幌,清水英克 (美浦),480、190、120、72、48万円,13,ハルノアシオト,良,7,井上敏樹,3
0,1:31.0,右,芝1500m,444.0,３歳未勝利,,晴,牡,54.0,2016/07/31,11:20,サラ系３歳未勝利(混)[指]馬齢,6,札幌,加藤和宏 (美浦),480、190、120、72、48万円,11,ゴールドサミット,良,8,長岡禎仁,3
0,1:30.1,右,芝1500m,542.0,３歳未勝利,,晴,牡,56.0,2016/07/31,11:20,サラ系３歳未勝利(混)[指]馬齢,6,札幌,加藤征弘 (美浦),480、190、120、72、48万円,5,セイクリッドシー,良,9,戸崎圭太,3
0,1:30.1,右,芝1500m,464.0,３歳未勝利,,晴,牝,54.0,2016/07/31,11:20,サラ系３歳未勝利(混)[指]馬齢,7,札幌,奥村豊 (栗東),480、190、120、72、48万円,7,スケッチ,良,10,柴山雄一,3
0,1:30.2,右,芝1500m,436.0,３歳未勝利,,晴,牝,52.0,2016/07/31,11:20,サラ系３歳未勝利(混)[指]馬齢,7,札幌,加用正 (栗東),480、190、120、72、48万円,9,ブラックインパクト,良,11,原田和真,3
0,1:29.6,右,芝1500m,442.0,３歳未勝利,,晴,牝,54.0,2016/07/31,11:20,サラ系３歳未勝利(混)[指]馬齢,8,札幌,尾形充弘 (美浦),480、190、120、72、48万円,2,ラレッサングル,良,12,大野拓弥,3
0,1:30.1,右,芝1500m,436.0,３歳未勝利,,晴,牡,56.0,2016/07/31,11:20,サラ系３歳未勝利(混)[指]馬齢,8,札幌,本田優 (栗東),480、190、120、72、48万円,4,メイショウティグレ,良,13,松岡正海,3
