,タイム,レース周り,レース情報,体重,名称,外回りフラグ,天気,性別,斤量,日付,時刻,条件,枠番,競技場,調教師名,賞金,順位,馬名,馬場状態,馬番,騎手名,齢
0,1:46.4,右,ダ1700m,444.0,大通特別,,曇,牝,52.0,2016/07/31,16:05,サラ系３歳以上１０００万下(混)[指]定量,1,札幌,池上昌弘 (美浦),1500、600、380、230、150万円,8,ジュアンマリエ,良,1,原田和真,3
0,1:46.6,右,ダ1700m,506.0,大通特別,,曇,牡,57.0,2016/07/31,16:05,サラ系３歳以上１０００万下(混)[指]定量,2,札幌,柄崎孝 (美浦),1500、600、380、230、150万円,9,スズカプリオール,良,2,長岡禎仁,5
0,1:46.0,右,ダ1700m,464.0,大通特別,,曇,牡,57.0,2016/07/31,16:05,サラ系３歳以上１０００万下(混)[指]定量,3,札幌,黒岩陽一 (美浦),1500、600、380、230、150万円,7,マイネルボルソー,良,3,丹内祐次,5
0,1:47.2,右,ダ1700m,514.0,大通特別,,曇,牝,55.0,2016/07/31,16:05,サラ系３歳以上１０００万下(混)[指]定量,4,札幌,鹿戸雄一 (美浦),1500、600、380、230、150万円,12,エグランティーナ,良,4,戸崎圭太,4
0,1:45.4,右,ダ1700m,496.0,大通特別,,曇,牡,57.0,2016/07/31,16:05,サラ系３歳以上１０００万下(混)[指]定量,4,札幌,高橋祥泰 (美浦),1500、600、380、230、150万円,1,コスモカウピリ,良,5,黛弘人,5
0,1:46.7,右,ダ1700m,516.0,大通特別,,曇,牡,57.0,2016/07/31,16:05,サラ系３歳以上１０００万下(混)[指]定量,5,札幌,木原一良 (栗東),1500、600、380、230、150万円,10,ゴットロブロイ,良,6,竹之下智,5
0,1:45.9,右,ダ1700m,488.0,大通特別,,曇,セ,57.0,2016/07/31,16:05,サラ系３歳以上１０００万下(混)[指]定量,5,札幌,加藤征弘 (美浦),1500、600、380、230、150万円,6,エビスグレイト,良,7,ルメール,6
0,1:45.7,右,ダ1700m,452.0,大通特別,,曇,牝,55.0,2016/07/31,16:05,サラ系３歳以上１０００万下(混)[指]定量,6,札幌,安達昭夫 (栗東),1500、600、380、230、150万円,3,レディカリビアン,良,8,松岡正海,5
0,1:45.6,右,ダ1700m,492.0,大通特別,,曇,牝,55.0,2016/07/31,16:05,サラ系３歳以上１０００万下(混)[指]定量,6,札幌,藤原辰雄 (美浦),1500、600、380、230、150万円,2,ロトラトゥール,良,9,三浦皇成,5
0,1:45.7,右,ダ1700m,520.0,大通特別,,曇,牡,57.0,2016/07/31,16:05,サラ系３歳以上１０００万下(混)[指]定量,7,札幌,谷潔 (栗東),1500、600、380、230、150万円,4,セルリアンサーロス,良,10,加藤祥太,6
0,1:47.5,右,ダ1700m,548.0,大通特別,,曇,牡,57.0,2016/07/31,16:05,サラ系３歳以上１０００万下(混)[指]定量,7,札幌,二ノ宮敬 (美浦),1500、600、380、230、150万円,13,ドラゴンキングダム,良,11,柴山雄一,5
0,1:45.8,右,ダ1700m,448.0,大通特別,,曇,牡,57.0,2016/07/31,16:05,サラ系３歳以上１０００万下(混)[指]定量,8,札幌,飯田雄三 (栗東),1500、600、380、230、150万円,5,セルリアンラビット,良,12,大野拓弥,7
0,1:47.0,右,ダ1700m,480.0,大通特別,,曇,牝,55.0,2016/07/31,16:05,サラ系３歳以上１０００万下(混)[指]定量,8,札幌,中野栄治 (美浦),1500、600、380、230、150万円,11,カゼノサファイア,良,13,松若風馬,6
