,単勝,枠番,複勝最大,複勝最小,馬名,馬番
0,1.4,1.0,1.1,1.1,ストレンジクォーク,1.0
0,48.3,2.0,35.9,6.9,サウンドメモリー,2.0
0,28.9,3.0,16.8,3.5,テスタメント,3.0
0,285.1,4.0,153.5,28.4,コスモオリオン,4.0
0,18.3,4.0,11.6,2.5,オウケンブラック,5.0
0,84.3,5.0,43.4,8.3,オンタケハート,6.0
0,9.6,5.0,6.9,1.7,プランスシャルマン,7.0
0,71.7,6.0,40.4,7.7,スズカヴァンガード,8.0
0,200.1,6.0,116.6,21.7,ライジングティアラ,9.0
0,17.4,7.0,13.9,2.9,デルカイザー,10.0
0,13.0,7.0,13.6,2.9,アッシュゴールド,11.0
0,9.2,8.0,8.0,1.9,ミライヘノツバサ,12.0
0,13.2,8.0,6.7,1.6,エニグマバリエート,13.0
