,単勝,枠番,複勝最大,複勝最小,馬名,馬番
0,28.3,1.0,11.9,2.6,アーダルベルト,1.0
0,86.0,2.0,44.4,8.6,ナウズザタイム,2.0
0,75.4,3.0,43.9,8.5,キモンズラブ,3.0
0,25.9,4.0,12.6,2.7,ウマイモンスター,4.0
0,26.6,5.0,15.4,3.2,ポッドティノ,5.0
0,3.8,6.0,2.0,1.1,サクレエクスプレス,6.0
0,1.7,7.0,1.1,1.1,ヤマカツグレース,7.0
0,15.0,7.0,8.1,1.9,シーサイドローズ,8.0
0,35.1,8.0,18.9,3.9,パリファッション,9.0
0,8.6,8.0,5.1,1.3,ニシノエアレス,10.0
