,単勝,枠番,複勝最大,複勝最小,馬名,馬番
0,178.1,1.0,43.2,22.8,プレイアンドラスト,1.0
0,176.3,2.0,36.3,19.1,ギブナッシンバック,2.0
0,4.8,3.0,2.4,1.5,マコトシャムロック,3.0
0,1.9,4.0,1.2,1.1,カンデラ,4.0
0,8.6,4.0,3.5,2.0,ココ,5.0
0,29.0,5.0,8.4,4.5,ラインフィール,6.0
0,37.8,5.0,8.0,4.3,サンビショップ,7.0
0,39.2,6.0,5.8,3.2,フィールドリアン,8.0
0,25.1,6.0,8.7,4.7,ディアクーシー,9.0
0,58.3,7.0,13.4,7.1,ダイメイコンドル,10.0
0,8.7,7.0,2.8,1.7,ノースランドボーイ,11.0
0,12.8,8.0,4.3,2.5,トウショウコマンチ,12.0
0,15.3,8.0,5.1,2.9,フィールドシャルム,13.0
