,単勝,枠番,複勝最大,複勝最小,馬名,馬番
0,47.5,1.0,13.1,8.7,サウンドメモリー,1.0
0,4.8,1.0,2.4,1.7,ラヴィエベール,2.0
0,27.1,2.0,8.2,5.5,エクラミレネール,3.0
0,8.4,2.0,2.4,1.8,エニグマバリエート,4.0
0,93.7,3.0,19.5,12.9,コスモメリー,5.0
0,4.4,3.0,2.2,1.6,バティスティーニ,6.0
0,3.3,4.0,2.0,1.5,ハナズレジェンド,7.0
0,72.4,4.0,17.1,11.3,ランドオザリール,8.0
0,71.7,5.0,12.0,8.0,ウインマハロ,9.0
0,14.9,5.0,5.0,3.4,ケンホファヴァルト,10.0
0,151.9,6.0,31.7,20.9,シークレットパス,11.0
0,5.2,6.0,2.0,1.5,フォワードカフェ,12.0
0,263.8,7.0,57.4,37.9,シベリアンタイガー,13.0
0,46.7,7.0,9.2,6.2,エイシンノーティス,14.0
0,385.3,8.0,85.2,56.2,ツクバアスナロ,15.0
0,90.6,8.0,24.8,16.4,スパーキングジョイ,16.0
