,枠番1,枠番2,枠連
0,1.0,1.0,83.6
0,1.0,2.0,42.6
0,1.0,3.0,21.2
0,1.0,4.0,9.0
0,1.0,5.0,8.0
0,1.0,6.0,96.9
0,1.0,7.0,61.1
0,1.0,8.0,28.7
0,2.0,2.0,441.4
0,2.0,3.0,65.9
0,2.0,4.0,35.5
0,2.0,5.0,27.7
0,2.0,6.0,147.2
0,2.0,7.0,123.0
0,2.0,8.0,102.8
0,3.0,3.0,139.5
0,3.0,4.0,13.1
0,3.0,5.0,11.0
0,3.0,6.0,114.6
0,3.0,7.0,73.8
0,3.0,8.0,39.7
0,4.0,4.0,25.1
0,4.0,5.0,3.8
0,4.0,6.0,60.9
0,4.0,7.0,38.3
0,4.0,8.0,16.8
0,5.0,5.0,74.1
0,5.0,6.0,51.9
0,5.0,7.0,30.3
0,5.0,8.0,12.5
0,6.0,6.0,871.2
0,6.0,7.0,113.4
0,6.0,8.0,103.0
0,7.0,7.0,503.1
0,7.0,8.0,62.3
0,8.0,8.0,376.2
