,単勝,枠番,複勝最大,複勝最小,馬名,馬番
0,151.6,1.0,126.7,21.0,エメラルドザオー,1.0
0,75.6,1.0,41.1,7.1,ナックエンジェル,2.0
0,50.4,2.0,36.8,6.4,ドナペリドット,3.0
0,12.2,2.0,9.6,2.0,ジャンティーユ,4.0
0,84.4,3.0,45.0,7.7,プリクル,5.0
0,14.8,3.0,11.8,2.3,ミッキークルソラ,6.0
0,113.8,4.0,58.5,9.9,ヤマニンイリザブル,7.0
0,211.7,4.0,179.3,29.5,ハツラツニッコウ,8.0
0,5.9,5.0,5.2,1.4,ウィンガーランド,9.0
0,38.7,5.0,26.7,4.7,シルクドレス,10.0
0,21.4,6.0,14.3,2.7,ノーブルムーン,11.0
0,1.4,6.0,1.1,1.1,フローレスマジック,12.0
0,32.7,7.0,19.8,3.6,マルターズコメット,13.0
0,87.7,7.0,47.4,8.1,ショウナンサザナミ,14.0
0,56.4,7.0,35.9,6.2,ビクトリーソング,15.0
0,134.4,8.0,81.8,13.7,ナムラウラン,16.0
0,28.5,8.0,14.5,2.8,トミケンタルモ,17.0
0,156.9,8.0,108.9,18.1,アカイバラ,18.0
