,単勝,枠番,複勝最大,複勝最小,馬名,馬番
0,67.6,1.0,18.5,6.5,ホウオウレックス,1.0
0,12.1,2.0,5.0,2.0,プエルト,2.0
0,34.8,2.0,11.5,4.2,チャンスメイク,3.0
0,33.7,3.0,11.1,4.0,スターチェイサー,4.0
0,77.5,3.0,24.5,8.5,ダイワチャーチル,5.0
0,87.8,4.0,38.2,13.2,カシノサクセス,6.0
0,30.6,4.0,12.9,4.6,カシノカーム,7.0
0,46.5,5.0,19.2,6.8,イデアオブダンディ,8.0
0,91.6,5.0,22.5,7.9,リアリスト,9.0
0,121.3,6.0,48.5,16.7,エドノジョンソン,10.0
0,37.4,6.0,12.2,4.4,スループオブウォー,11.0
0,6.8,7.0,3.2,1.4,ロッジポールパイン,12.0
0,1.5,7.0,1.1,1.1,トゥルーラヴキッス,13.0
0,15.3,8.0,7.4,2.8,イントゥザターフ,14.0
0,9.1,8.0,3.9,1.6,フクノグリュック,15.0
