,馬番1,馬番2,馬単
0,1.0,2.0,2281.0
0,1.0,3.0,808.2
0,1.0,4.0,4399.0
0,1.0,5.0,3755.3
0,1.0,6.0,4966.6
0,1.0,7.0,5810.0
0,1.0,8.0,6158.7
0,1.0,9.0,1076.6
0,1.0,10.0,7895.7
0,1.0,11.0,5402.3
0,1.0,12.0,4399.0
0,1.0,13.0,4811.4
0,1.0,14.0,793.6
0,1.0,15.0,23687.3
0,1.0,16.0,3947.8
0,1.0,17.0,1368.6
0,1.0,18.0,327.5
0,2.0,1.0,1701.2
0,2.0,3.0,239.2
0,2.0,4.0,3241.4
0,2.0,5.0,882.3
0,2.0,6.0,4528.4
0,2.0,7.0,1217.1
0,2.0,8.0,2960.9
0,2.0,9.0,323.8
0,2.0,10.0,1832.9
0,2.0,11.0,1012.9
0,2.0,12.0,3142.1
0,2.0,13.0,810.3
0,2.0,14.0,170.2
0,2.0,15.0,8322.5
0,2.0,16.0,1637.9
0,2.0,17.0,439.2
0,2.0,18.0,106.2
0,3.0,1.0,777.6
0,3.0,2.0,203.5
0,3.0,4.0,1162.0
0,3.0,5.0,173.0
0,3.0,6.0,1170.8
0,3.0,7.0,356.4
0,3.0,8.0,703.0
0,3.0,9.0,52.0
0,3.0,10.0,374.6
0,3.0,11.0,182.8
0,3.0,12.0,897.7
0,3.0,13.0,168.1
0,3.0,14.0,34.6
0,3.0,15.0,1779.9
0,3.0,16.0,217.7
0,3.0,17.0,75.7
0,3.0,18.0,17.3
0,4.0,1.0,3622.7
0,4.0,2.0,3347.1
0,4.0,3.0,1999.5
0,4.0,5.0,4811.4
0,4.0,6.0,4218.2
0,4.0,7.0,7895.7
0,4.0,8.0,4105.8
0,4.0,9.0,2039.3
0,4.0,10.0,4887.8
0,4.0,11.0,7331.7
0,4.0,12.0,20529.0
0,4.0,13.0,3459.9
0,4.0,14.0,1655.5
0,4.0,15.0,21995.3
0,4.0,16.0,10618.4
0,4.0,17.0,4737.4
0,4.0,18.0,696.6
0,5.0,1.0,3174.5
0,5.0,2.0,877.3
0,5.0,3.0,255.5
0,5.0,4.0,4665.6
0,5.0,6.0,2725.0
0,5.0,7.0,1387.0
0,5.0,8.0,4218.2
0,5.0,9.0,325.1
0,5.0,10.0,1603.8
0,5.0,11.0,1445.7
0,5.0,12.0,4737.4
0,5.0,13.0,1040.3
0,5.0,14.0,191.3
0,5.0,15.0,7331.7
0,5.0,16.0,1299.3
0,5.0,17.0,385.4
0,5.0,18.0,84.7
0,6.0,1.0,7698.3
0,6.0,2.0,5219.2
0,6.0,3.0,2183.9
0,6.0,4.0,5598.8
0,6.0,5.0,2631.9
0,6.0,7.0,9331.3
0,6.0,8.0,8798.1
0,6.0,9.0,2677.6
0,6.0,10.0,7698.3
0,6.0,11.0,9056.9
0,6.0,12.0,9056.9
0,6.0,13.0,6843.0
0,6.0,14.0,1655.5
0,6.0,15.0,21995.3
0,6.0,16.0,6284.3
0,6.0,17.0,2960.9
0,6.0,18.0,574.5
0,7.0,1.0,4596.0
0,7.0,2.0,1419.0
0,7.0,3.0,552.8
0,7.0,4.0,6158.7
0,7.0,5.0,1350.5
0,7.0,6.0,5598.8
0,7.0,8.0,6843.0
0,7.0,9.0,597.9
0,7.0,10.0,3665.8
0,7.0,11.0,1333.0
0,7.0,12.0,5702.5
0,7.0,13.0,1855.0
0,7.0,14.0,420.6
0,7.0,15.0,9622.9
0,7.0,16.0,3622.7
0,7.0,17.0,767.9
0,7.0,18.0,150.3
0,8.0,1.0,7510.6
0,8.0,2.0,6158.7
0,8.0,3.0,1356.5
0,8.0,4.0,5219.2
0,8.0,5.0,5702.5
0,8.0,6.0,7895.7
0,8.0,7.0,6694.2
0,8.0,9.0,2247.7
0,8.0,10.0,9056.9
0,8.0,11.0,4051.7
0,8.0,12.0,12830.6
0,8.0,13.0,7161.2
0,8.0,14.0,1003.0
0,8.0,15.0,17107.5
0,8.0,16.0,7895.7
0,8.0,17.0,2199.5
0,8.0,18.0,446.2
0,9.0,1.0,933.1
0,9.0,2.0,258.3
0,9.0,3.0,53.5
0,9.0,4.0,1277.7
0,9.0,5.0,220.7
0,9.0,6.0,1480.4
0,9.0,7.0,389.2
0,9.0,8.0,1267.2
0,9.0,10.0,526.3
0,9.0,11.0,316.1
0,9.0,12.0,1380.8
0,9.0,13.0,201.9
0,9.0,14.0,40.9
0,9.0,15.0,2774.1
0,9.0,16.0,292.4
0,9.0,17.0,84.8
0,9.0,18.0,18.7
0,10.0,1.0,10997.6
0,10.0,2.0,2350.6
0,10.0,3.0,747.4
0,10.0,4.0,6037.9
0,10.0,5.0,1948.9
0,10.0,6.0,7161.2
0,10.0,7.0,4051.7
0,10.0,8.0,7698.3
0,10.0,9.0,769.8
0,10.0,11.0,3347.1
0,10.0,12.0,8798.1
0,10.0,13.0,2405.7
0,10.0,14.0,565.0
0,10.0,15.0,11843.6
0,10.0,16.0,2774.1
0,10.0,17.0,1356.5
0,10.0,18.0,223.7
0,11.0,1.0,4596.0
0,11.0,2.0,1084.2
0,11.0,3.0,318.4
0,11.0,4.0,7161.2
0,11.0,5.0,1701.2
0,11.0,6.0,7895.7
0,11.0,7.0,1547.4
0,11.0,8.0,4737.4
0,11.0,9.0,488.7
0,11.0,10.0,2932.7
0,11.0,12.0,4218.2
0,11.0,13.0,1036.8
0,11.0,14.0,266.3
0,11.0,15.0,8103.5
0,11.0,16.0,2774.1
0,11.0,17.0,864.9
0,11.0,18.0,125.6
0,12.0,1.0,7895.7
0,12.0,2.0,5132.2
0,12.0,3.0,1759.6
0,12.0,4.0,4051.7
0,12.0,5.0,5810.0
0,12.0,6.0,7698.3
0,12.0,7.0,6037.9
0,12.0,8.0,14663.5
0,12.0,9.0,1571.0
0,12.0,10.0,6843.0
0,12.0,11.0,1729.9
0,12.0,13.0,4399.0
0,12.0,14.0,1107.6
0,12.0,15.0,19245.9
0,12.0,16.0,7698.3
0,12.0,17.0,2566.1
0,12.0,18.0,518.4
0,13.0,1.0,4811.4
0,13.0,2.0,823.3
0,13.0,3.0,240.3
0,13.0,4.0,5132.2
0,13.0,5.0,965.3
0,13.0,6.0,5402.3
0,13.0,7.0,1612.2
0,13.0,8.0,5810.0
0,13.0,9.0,287.7
0,13.0,10.0,1866.2
0,13.0,11.0,950.4
0,13.0,12.0,4337.1
0,13.0,14.0,190.3
0,13.0,15.0,4966.6
0,13.0,16.0,734.9
0,13.0,17.0,328.6
0,13.0,18.0,74.5
0,14.0,1.0,652.4
0,14.0,2.0,125.6
0,14.0,3.0,30.3
0,14.0,4.0,895.1
0,14.0,5.0,127.5
0,14.0,6.0,921.9
0,14.0,7.0,253.4
0,14.0,8.0,527.2
0,14.0,9.0,41.0
0,14.0,10.0,291.8
0,14.0,11.0,159.4
0,14.0,12.0,569.1
0,14.0,13.0,121.4
0,14.0,15.0,1646.7
0,14.0,16.0,187.3
0,14.0,17.0,48.1
0,14.0,18.0,12.5
0,15.0,1.0,34215.0
0,15.0,2.0,15396.7
0,15.0,3.0,3142.1
0,15.0,4.0,25661.2
0,15.0,5.0,9331.3
0,15.0,6.0,27994.0
0,15.0,7.0,21995.3
0,15.0,8.0,61587.0
0,15.0,9.0,6551.8
0,15.0,10.0,16207.1
0,15.0,11.0,11405.0
0,15.0,12.0,20529.0
0,15.0,13.0,6694.2
0,15.0,14.0,3079.3
0,15.0,16.0,14663.5
0,15.0,17.0,5702.5
0,15.0,18.0,857.7
0,16.0,1.0,3241.4
0,16.0,2.0,1779.9
0,16.0,3.0,359.3
0,16.0,4.0,8322.5
0,16.0,5.0,1333.0
0,16.0,6.0,3459.9
0,16.0,7.0,3241.4
0,16.0,8.0,7698.3
0,16.0,9.0,446.2
0,16.0,10.0,2774.1
0,16.0,11.0,2587.6
0,16.0,12.0,6551.8
0,16.0,13.0,887.4
0,16.0,14.0,300.1
0,16.0,15.0,7698.3
0,16.0,17.0,391.2
0,16.0,18.0,94.8
0,17.0,1.0,1473.3
0,17.0,2.0,435.5
0,17.0,3.0,88.9
0,17.0,4.0,2332.8
0,17.0,5.0,301.8
0,17.0,6.0,1790.3
0,17.0,7.0,600.2
0,17.0,8.0,1843.9
0,17.0,9.0,105.8
0,17.0,10.0,897.7
0,17.0,11.0,558.8
0,17.0,12.0,1691.9
0,17.0,13.0,324.1
0,17.0,14.0,60.2
0,17.0,15.0,3421.5
0,17.0,16.0,326.2
0,17.0,18.0,24.4
0,18.0,1.0,165.4
0,18.0,2.0,55.3
0,18.0,3.0,11.1
0,18.0,4.0,266.3
0,18.0,5.0,39.9
0,18.0,6.0,210.6
0,18.0,7.0,76.4
0,18.0,8.0,179.0
0,18.0,9.0,12.0
0,18.0,10.0,102.1
0,18.0,11.0,57.1
0,18.0,12.0,198.7
0,18.0,13.0,39.2
0,18.0,14.0,8.7
0,18.0,15.0,318.1
0,18.0,16.0,43.6
0,18.0,17.0,15.0
