,馬番1,馬番2,馬連
0,1.0,2.0,362.2
0,1.0,3.0,590.6
0,1.0,4.0,657.8
0,1.0,5.0,1652.9
0,1.0,6.0,2428.4
0,1.0,7.0,1046.2
0,1.0,8.0,954.8
0,1.0,9.0,1821.3
0,1.0,10.0,2092.5
0,1.0,11.0,998.4
0,1.0,12.0,308.3
0,1.0,13.0,112.9
0,1.0,14.0,640.7
0,1.0,15.0,403.0
0,2.0,3.0,90.3
0,2.0,4.0,153.5
0,2.0,5.0,705.0
0,2.0,6.0,616.6
0,2.0,7.0,150.4
0,2.0,8.0,406.4
0,2.0,9.0,432.3
0,2.0,10.0,680.6
0,2.0,11.0,127.8
0,2.0,12.0,22.2
0,2.0,13.0,8.1
0,2.0,14.0,70.2
0,2.0,15.0,27.0
0,3.0,4.0,348.7
0,3.0,5.0,1157.0
0,3.0,6.0,1457.0
0,3.0,7.0,246.4
0,3.0,8.0,736.7
0,3.0,9.0,710.1
0,3.0,10.0,1838.3
0,3.0,11.0,307.3
0,3.0,12.0,61.7
0,3.0,13.0,25.6
0,3.0,14.0,181.4
0,3.0,15.0,76.0
0,4.0,5.0,1051.8
0,4.0,6.0,1214.2
0,4.0,7.0,314.7
0,4.0,8.0,610.8
0,4.0,9.0,1086.7
0,4.0,10.0,1838.3
0,4.0,11.0,401.4
0,4.0,12.0,57.9
0,4.0,13.0,33.1
0,4.0,14.0,205.1
0,4.0,15.0,129.6
0,5.0,6.0,2341.6
0,5.0,7.0,1740.7
0,5.0,8.0,1695.7
0,5.0,9.0,2260.9
0,5.0,10.0,3073.4
0,5.0,11.0,2161.5
0,5.0,12.0,492.9
0,5.0,13.0,163.7
0,5.0,14.0,1252.8
0,5.0,15.0,697.5
0,6.0,7.0,914.8
0,6.0,8.0,1873.3
0,6.0,9.0,2731.9
0,6.0,10.0,2428.4
0,6.0,11.0,1873.3
0,6.0,12.0,433.2
0,6.0,13.0,175.3
0,6.0,14.0,1074.8
0,6.0,15.0,705.0
0,7.0,8.0,858.9
0,7.0,9.0,858.9
0,7.0,10.0,1639.1
0,7.0,11.0,333.9
0,7.0,12.0,62.4
0,7.0,13.0,29.9
0,7.0,14.0,229.5
0,7.0,15.0,103.5
0,8.0,9.0,1478.9
0,8.0,10.0,2588.1
0,8.0,11.0,837.0
0,8.0,12.0,231.9
0,8.0,13.0,74.4
0,8.0,14.0,428.5
0,8.0,15.0,295.3
0,9.0,10.0,1909.7
0,9.0,11.0,1260.9
0,9.0,12.0,314.7
0,9.0,13.0,96.7
0,9.0,14.0,736.7
0,9.0,15.0,311.7
0,10.0,11.0,1873.3
0,10.0,12.0,777.4
0,10.0,13.0,202.3
0,10.0,14.0,988.4
0,10.0,15.0,919.1
0,11.0,12.0,61.2
0,11.0,13.0,25.9
0,11.0,14.0,163.7
0,11.0,15.0,93.2
0,12.0,13.0,4.4
0,12.0,14.0,32.4
0,12.0,15.0,12.9
0,13.0,14.0,11.6
0,13.0,15.0,5.5
0,14.0,15.0,41.4
