,レース周り,レース情報,体重,名称,外回りフラグ,性別,斤量,日付,時刻,条件,枠番,競技場,調教師名,賞金,馬名,馬場状態,馬番,騎手名,齢
0,左,ダ1600m,506.0,２歳新馬,,牡,55.0,2016/10/09,11:40,サラ系２歳新馬(混)[指]馬齢,1,東京,久保田貴,700、280、180、110、70万円,シャープシューター,良,1,Ｃ．ルメ,2
0,左,ダ1600m,472.0,２歳新馬,,牡,55.0,2016/10/09,11:40,サラ系２歳新馬(混)[指]馬齢,1,東京,池上昌和,700、280、180、110、70万円,タケルブラック,良,2,内田博幸,2
0,左,ダ1600m,458.0,２歳新馬,,牡,55.0,2016/10/09,11:40,サラ系２歳新馬(混)[指]馬齢,2,東京,奥平雅士,700、280、180、110、70万円,ユメノユメ,良,3,松岡正海,2
0,左,ダ1600m,472.0,２歳新馬,,牡,55.0,2016/10/09,11:40,サラ系２歳新馬(混)[指]馬齢,2,東京,加藤征弘,700、280、180、110、70万円,クインズコースト,良,4,武豊,2
0,左,ダ1600m,446.0,２歳新馬,,牝,54.0,2016/10/09,11:40,サラ系２歳新馬(混)[指]馬齢,3,東京,萱野浩二,700、280、180、110、70万円,ヤマタケナゴミ,良,5,岩部純二,2
0,左,ダ1600m,456.0,２歳新馬,,牡,55.0,2016/10/09,11:40,サラ系２歳新馬(混)[指]馬齢,3,東京,大和田成,700、280、180、110、70万円,エルドールサージュ,良,6,戸崎圭太,2
0,左,ダ1600m,502.0,２歳新馬,,牡,53.0,2016/10/09,11:40,サラ系２歳新馬(混)[指]馬齢,4,東京,牧光二,700、280、180、110、70万円,モンサンレガーメ,良,7,木幡巧也,2
0,左,ダ1600m,524.0,２歳新馬,,牡,55.0,2016/10/09,11:40,サラ系２歳新馬(混)[指]馬齢,4,東京,中竹和也,700、280、180、110、70万円,アスターリュート,良,8,Ｍ．デム,2
0,左,ダ1600m,498.0,２歳新馬,,牡,55.0,2016/10/09,11:40,サラ系２歳新馬(混)[指]馬齢,5,東京,伊藤圭三,700、280、180、110、70万円,ハヤブサザムライ,良,9,吉田隼人,2
0,左,ダ1600m,460.0,２歳新馬,,牡,55.0,2016/10/09,11:40,サラ系２歳新馬(混)[指]馬齢,5,東京,古賀慎明,700、280、180、110、70万円,マイネルルタン,良,10,柴田大知,2
0,左,ダ1600m,520.0,２歳新馬,,セ,55.0,2016/10/09,11:40,サラ系２歳新馬(混)[指]馬齢,6,東京,田島俊明,700、280、180、110、70万円,ヤマニンバンタジオ,良,11,勝浦正樹,2
0,左,ダ1600m,470.0,２歳新馬,,牝,51.0,2016/10/09,11:40,サラ系２歳新馬(混)[指]馬齢,6,東京,大江原哲,700、280、180、110、70万円,エリーダイナマイト,良,12,野中悠太,2
0,左,ダ1600m,438.0,２歳新馬,,牝,54.0,2016/10/09,11:40,サラ系２歳新馬(混)[指]馬齢,7,東京,田中清隆,700、280、180、110、70万円,カロリーナ,良,13,丹内祐次,2
0,左,ダ1600m,464.0,２歳新馬,,牡,55.0,2016/10/09,11:40,サラ系２歳新馬(混)[指]馬齢,7,東京,小野次郎,700、280、180、110、70万円,リョウランヒーロー,良,14,横山和生,2
0,左,ダ1600m,458.0,２歳新馬,,牡,53.0,2016/10/09,11:40,サラ系２歳新馬(混)[指]馬齢,8,東京,土田稔,700、280、180、110、70万円,ヒッシノパッチ,良,15,木幡初也,2
0,左,ダ1600m,498.0,２歳新馬,,牡,55.0,2016/10/09,11:40,サラ系２歳新馬(混)[指]馬齢,8,東京,相沢郁,700、280、180、110、70万円,リヴァイアサン,良,16,川田将雅,2
