,レース周り,レース情報,体重,名称,外回りフラグ,性別,斤量,日付,時刻,条件,枠番,競技場,調教師名,賞金,馬名,馬場状態,馬番,騎手名,齢
0,左,ダ1400m,496.0,３歳上１０００万下,,牡,57.0,2016/10/09,16:25,サラ系３歳以上１０００万下(混)[指]定量,1,東京,和田雄二,1050、420、260、160、105万円,ワイルドダラー,良,1,岩田康誠,5
0,左,ダ1400m,466.0,３歳上１０００万下,,牡,55.0,2016/10/09,16:25,サラ系３歳以上１０００万下(混)[指]定量,1,東京,池上昌弘,1050、420、260、160、105万円,タイセイスペリオル,良,2,戸崎圭太,3
0,左,ダ1400m,422.0,３歳上１０００万下,,牡,55.0,2016/10/09,16:25,サラ系３歳以上１０００万下(混)[指]定量,2,東京,和田正一,1050、420、260、160、105万円,タタラ,良,3,木幡巧也,4
0,左,ダ1400m,492.0,３歳上１０００万下,,牡,55.0,2016/10/09,16:25,サラ系３歳以上１０００万下(混)[指]定量,2,東京,手塚貴久,1050、420、260、160、105万円,ベストマッチョ,良,4,Ｃ．ルメ,3
0,左,ダ1400m,468.0,３歳上１０００万下,,セ,57.0,2016/10/09,16:25,サラ系３歳以上１０００万下(混)[指]定量,3,東京,鹿戸雄一,1050、420、260、160、105万円,リュクサンブール,良,5,横山典弘,5
0,左,ダ1400m,482.0,３歳上１０００万下,,牡,57.0,2016/10/09,16:25,サラ系３歳以上１０００万下(混)[指]定量,3,東京,堀井雅広,1050、420、260、160、105万円,タニセンジャッキー,良,6,Ｌ．オー,7
0,左,ダ1400m,472.0,３歳上１０００万下,,牝,51.0,2016/10/09,16:25,サラ系３歳以上１０００万下(混)[指]定量,4,東京,栗田博憲,1050、420、260、160、105万円,ウィズエモーション,良,7,伴啓太,3
0,左,ダ1400m,472.0,３歳上１０００万下,,牡,55.0,2016/10/09,16:25,サラ系３歳以上１０００万下(混)[指]定量,4,東京,中川公成,1050、420、260、160、105万円,ワンパーセント,良,8,菅原隆一,3
0,左,ダ1400m,512.0,３歳上１０００万下,,牡,57.0,2016/10/09,16:25,サラ系３歳以上１０００万下(混)[指]定量,5,東京,小島太,1050、420、260、160、105万円,ダウトレス,良,9,江田照男,5
0,左,ダ1400m,522.0,３歳上１０００万下,,牡,57.0,2016/10/09,16:25,サラ系３歳以上１０００万下(混)[指]定量,5,東京,中尾秀正,1050、420、260、160、105万円,アドマイヤシェル,良,10,松田大作,6
0,左,ダ1400m,492.0,３歳上１０００万下,,牡,57.0,2016/10/09,16:25,サラ系３歳以上１０００万下(混)[指]定量,6,東京,大久保龍,1050、420、260、160、105万円,ラディカル,良,11,武豊,4
0,左,ダ1400m,556.0,３歳上１０００万下,,牡,55.0,2016/10/09,16:25,サラ系３歳以上１０００万下(混)[指]定量,6,東京,藤沢和雄,1050、420、260、160、105万円,レッドゲルニカ,良,12,北村宏司,3
0,左,ダ1400m,468.0,３歳上１０００万下,,牡,57.0,2016/10/09,16:25,サラ系３歳以上１０００万下(混)[指]定量,7,東京,矢野英一,1050、420、260、160、105万円,オニノシタブル,良,13,田辺裕信,5
0,左,ダ1400m,496.0,３歳上１０００万下,,セ,57.0,2016/10/09,16:25,サラ系３歳以上１０００万下(混)[指]定量,7,東京,新開幸一,1050、420、260、160、105万円,ウェイトアンドシー,良,14,大野拓弥,5
0,左,ダ1400m,520.0,３歳上１０００万下,,牡,57.0,2016/10/09,16:25,サラ系３歳以上１０００万下(混)[指]定量,8,東京,作田誠二,1050、420、260、160、105万円,リバータイキ,良,15,柴山雄一,7
0,左,ダ1400m,466.0,３歳上１０００万下,,牡,57.0,2016/10/09,16:25,サラ系３歳以上１０００万下(混)[指]定量,8,東京,高木登,1050、420、260、160、105万円,ペリーホワイト,良,16,吉田隼人,5
