,レース周り,レース情報,体重,名称,外回りフラグ,性別,斤量,日付,時刻,条件,枠番,競技場,調教師名,賞金,馬名,馬場状態,馬番,騎手名,齢
0,左,芝1400m,434.0,２歳未勝利,,牝,52.0,2016/10/09,11:10,サラ系２歳未勝利[指]馬齢,1,東京,天間昭一,500、200、130、75、50万円,ボンジュールボーラ,良,1,木幡初也,2
0,左,芝1400m,420.0,２歳未勝利,,牡,55.0,2016/10/09,11:10,サラ系２歳未勝利[指]馬齢,1,東京,成島英春,500、200、130、75、50万円,リライアブルアミ,良,2,田中勝春,2
0,左,芝1400m,452.0,２歳未勝利,,牝,54.0,2016/10/09,11:10,サラ系２歳未勝利[指]馬齢,2,東京,高橋義博,500、200、130、75、50万円,ルックアットミー,良,3,内田博幸,2
0,左,芝1400m,442.0,２歳未勝利,,牝,54.0,2016/10/09,11:10,サラ系２歳未勝利[指]馬齢,2,東京,高橋義博,500、200、130、75、50万円,キャンティ,良,4,宮崎北斗,2
0,左,芝1400m,422.0,２歳未勝利,,牡,55.0,2016/10/09,11:10,サラ系２歳未勝利[指]馬齢,3,東京,的場均,500、200、130、75、50万円,クリップスプリンガ,良,5,的場勇人,2
0,左,芝1400m,406.0,２歳未勝利,,牝,51.0,2016/10/09,11:10,サラ系２歳未勝利[指]馬齢,3,東京,柴田政人,500、200、130、75、50万円,フェアウエル,良,6,菊沢一樹,2
0,左,芝1400m,452.0,２歳未勝利,,牡,55.0,2016/10/09,11:10,サラ系２歳未勝利[指]馬齢,4,東京,菅原泰夫,500、200、130、75、50万円,ビートアッシャー,良,7,大野拓弥,2
0,左,芝1400m,434.0,２歳未勝利,,牝,54.0,2016/10/09,11:10,サラ系２歳未勝利[指]馬齢,4,東京,粕谷昌央,500、200、130、75、50万円,バスデイプレゼント,良,8,柴山雄一,2
0,左,芝1400m,474.0,２歳未勝利,,牡,55.0,2016/10/09,11:10,サラ系２歳未勝利[指]馬齢,5,東京,萩原清,500、200、130、75、50万円,サレンティーナ,良,9,蛯名正義,2
0,左,芝1400m,414.0,２歳未勝利,,牡,55.0,2016/10/09,11:10,サラ系２歳未勝利[指]馬齢,5,東京,萱野浩二,500、200、130、75、50万円,ヤマタケシンバ,良,10,岩部純二,2
0,左,芝1400m,458.0,２歳未勝利,,牡,55.0,2016/10/09,11:10,サラ系２歳未勝利[指]馬齢,6,東京,奥村武,500、200、130、75、50万円,ホウオウステップ,良,11,田辺裕信,2
0,左,芝1400m,434.0,２歳未勝利,,牝,52.0,2016/10/09,11:10,サラ系２歳未勝利[指]馬齢,6,東京,菊川正達,500、200、130、75、50万円,ロイヤルルシアン,良,12,木幡巧也,2
0,左,芝1400m,428.0,２歳未勝利,,牡,55.0,2016/10/09,11:10,サラ系２歳未勝利[指]馬齢,7,東京,高橋文雅,500、200、130、75、50万円,トラストティール,良,13,柴田善臣,2
0,左,芝1400m,438.0,２歳未勝利,,牝,54.0,2016/10/09,11:10,サラ系２歳未勝利[指]馬齢,7,東京,栗田徹,500、200、130、75、50万円,シュピールカルテ,良,14,柴田大知,2
0,左,芝1400m,406.0,２歳未勝利,,牡,55.0,2016/10/09,11:10,サラ系２歳未勝利[指]馬齢,7,東京,二本柳俊,500、200、130、75、50万円,カシノレビン,良,15,二本柳壮,2
0,左,芝1400m,466.0,２歳未勝利,,牡,55.0,2016/10/09,11:10,サラ系２歳未勝利[指]馬齢,8,東京,金成貴史,500、200、130、75、50万円,コスモメイプル,良,16,丹内祐次,2
0,左,芝1400m,462.0,２歳未勝利,,牡,55.0,2016/10/09,11:10,サラ系２歳未勝利[指]馬齢,8,東京,岩戸孝樹,500、200、130、75、50万円,ミステリーモリオン,良,17,津村明秀,2
0,左,芝1400m,476.0,２歳未勝利,,牡,55.0,2016/10/09,11:10,サラ系２歳未勝利[指]馬齢,8,東京,佐藤吉勝,500、200、130、75、50万円,ドウディ,良,18,戸崎圭太,2
