,馬番1,馬番2,馬単
0,1.0,2.0,27.4
0,1.0,3.0,90.0
0,1.0,4.0,18.2
0,1.0,5.0,231.5
0,1.0,6.0,87.4
0,1.0,7.0,159.7
0,1.0,8.0,61.7
0,1.0,9.0,54.7
0,1.0,10.0,163.2
0,1.0,11.0,126.2
0,2.0,1.0,22.9
0,2.0,3.0,63.4
0,2.0,4.0,12.4
0,2.0,5.0,134.6
0,2.0,6.0,56.8
0,2.0,7.0,155.1
0,2.0,8.0,36.4
0,2.0,9.0,36.2
0,2.0,10.0,120.4
0,2.0,11.0,84.4
0,3.0,1.0,135.8
0,3.0,2.0,107.6
0,3.0,4.0,48.2
0,3.0,5.0,468.3
0,3.0,6.0,240.2
0,3.0,7.0,520.8
0,3.0,8.0,195.3
0,3.0,9.0,191.1
0,3.0,10.0,625.9
0,3.0,11.0,355.9
0,4.0,1.0,13.7
0,4.0,2.0,10.6
0,4.0,3.0,33.7
0,4.0,5.0,61.3
0,4.0,6.0,26.9
0,4.0,7.0,73.1
0,4.0,8.0,16.4
0,4.0,9.0,18.4
0,4.0,10.0,66.4
0,4.0,11.0,53.0
0,5.0,1.0,334.4
0,5.0,2.0,269.6
0,5.0,3.0,689.1
0,5.0,4.0,119.9
0,5.0,6.0,713.1
0,5.0,7.0,1060.5
0,5.0,8.0,449.8
0,5.0,9.0,511.7
0,5.0,10.0,974.6
0,5.0,11.0,769.4
0,6.0,1.0,108.9
0,6.0,2.0,89.8
0,6.0,3.0,244.8
0,6.0,4.0,43.5
0,6.0,5.0,605.5
0,6.0,7.0,563.8
0,6.0,8.0,150.8
0,6.0,9.0,118.1
0,6.0,10.0,410.1
0,6.0,11.0,396.6
0,7.0,1.0,259.7
0,7.0,2.0,236.6
0,7.0,3.0,790.2
0,7.0,4.0,107.1
0,7.0,5.0,882.2
0,7.0,6.0,658.1
0,7.0,8.0,470.5
0,7.0,9.0,385.4
0,7.0,10.0,586.4
0,7.0,11.0,349.8
0,8.0,1.0,75.8
0,8.0,2.0,53.6
0,8.0,3.0,177.9
0,8.0,4.0,23.8
0,8.0,5.0,280.3
0,8.0,6.0,130.7
0,8.0,7.0,320.8
0,8.0,9.0,66.3
0,8.0,10.0,245.1
0,8.0,11.0,230.7
0,9.0,1.0,68.8
0,9.0,2.0,52.4
0,9.0,3.0,143.0
0,9.0,4.0,24.8
0,9.0,5.0,308.2
0,9.0,6.0,102.7
0,9.0,7.0,233.6
0,9.0,8.0,62.8
0,9.0,10.0,210.5
0,9.0,11.0,209.2
0,10.0,1.0,285.8
0,10.0,2.0,225.4
0,10.0,3.0,766.5
0,10.0,4.0,109.2
0,10.0,5.0,943.2
0,10.0,6.0,541.4
0,10.0,7.0,602.0
0,10.0,8.0,354.7
0,10.0,9.0,281.1
0,10.0,11.0,435.4
0,11.0,1.0,206.3
0,11.0,2.0,159.6
0,11.0,3.0,355.9
0,11.0,4.0,76.9
0,11.0,5.0,691.4
0,11.0,6.0,490.8
0,11.0,7.0,326.4
0,11.0,8.0,299.6
0,11.0,9.0,300.5
0,11.0,10.0,447.8
