,枠番1,枠番2,枠連
0,1.0,2.0,42.9
0,1.0,3.0,33.8
0,1.0,4.0,54.6
0,1.0,5.0,40.6
0,1.0,6.0,53.4
0,1.0,7.0,17.7
0,1.0,8.0,63.1
0,2.0,3.0,18.1
0,2.0,4.0,41.9
0,2.0,5.0,31.0
0,2.0,6.0,36.0
0,2.0,7.0,11.8
0,2.0,8.0,43.6
0,3.0,4.0,29.3
0,3.0,5.0,18.7
0,3.0,6.0,24.1
0,3.0,7.0,7.3
0,3.0,8.0,35.4
0,4.0,4.0,337.4
0,4.0,5.0,37.7
0,4.0,6.0,39.2
0,4.0,7.0,14.6
0,4.0,8.0,58.9
0,5.0,5.0,287.8
0,5.0,6.0,26.5
0,5.0,7.0,9.1
0,5.0,8.0,36.2
0,6.0,6.0,152.4
0,6.0,7.0,11.5
0,6.0,8.0,36.4
0,7.0,7.0,20.7
0,7.0,8.0,13.7
0,8.0,8.0,255.2
