,枠番1,枠番2,枠連
0,1.0,2.0,65.2
0,1.0,3.0,122.4
0,1.0,4.0,26.2
0,1.0,5.0,105.6
0,1.0,6.0,129.1
0,1.0,7.0,129.1
0,1.0,8.0,124.2
0,2.0,3.0,51.1
0,2.0,4.0,6.2
0,2.0,5.0,28.8
0,2.0,6.0,31.0
0,2.0,7.0,25.6
0,2.0,8.0,34.2
0,3.0,3.0,375.9
0,3.0,4.0,16.7
0,3.0,5.0,57.5
0,3.0,6.0,74.2
0,3.0,7.0,60.8
0,3.0,8.0,66.4
0,4.0,4.0,10.5
0,4.0,5.0,7.5
0,4.0,6.0,10.2
0,4.0,7.0,7.1
0,4.0,8.0,11.8
0,5.0,5.0,132.0
0,5.0,6.0,32.4
0,5.0,7.0,27.0
0,5.0,8.0,35.2
0,6.0,6.0,330.1
0,6.0,7.0,30.7
0,6.0,8.0,43.6
0,7.0,7.0,483.6
0,7.0,8.0,24.5
0,8.0,8.0,266.4
