,馬番1,馬番2,馬単
0,1.0,2.0,216.1
0,1.0,3.0,162.0
0,1.0,4.0,115.9
0,1.0,5.0,123.5
0,1.0,6.0,518.0
0,1.0,7.0,175.7
0,1.0,8.0,702.9
0,1.0,9.0,330.1
0,1.0,10.0,53.1
0,1.0,11.0,1125.4
0,1.0,12.0,1757.4
0,1.0,13.0,167.8
0,2.0,1.0,208.2
0,2.0,3.0,106.1
0,2.0,4.0,102.0
0,2.0,5.0,80.2
0,2.0,6.0,399.4
0,2.0,7.0,123.7
0,2.0,8.0,387.2
0,2.0,9.0,325.4
0,2.0,10.0,43.2
0,2.0,11.0,1142.3
0,2.0,12.0,1283.4
0,2.0,13.0,136.5
0,3.0,1.0,138.5
0,3.0,2.0,90.6
0,3.0,4.0,73.3
0,3.0,5.0,66.5
0,3.0,6.0,335.4
0,3.0,7.0,89.2
0,3.0,8.0,223.1
0,3.0,9.0,159.8
0,3.0,10.0,30.1
0,3.0,11.0,796.0
0,3.0,12.0,625.9
0,3.0,13.0,83.2
0,4.0,1.0,97.1
0,4.0,2.0,87.5
0,4.0,3.0,70.4
0,4.0,5.0,50.2
0,4.0,6.0,239.7
0,4.0,7.0,66.5
0,4.0,8.0,277.5
0,4.0,9.0,171.9
0,4.0,10.0,24.1
0,4.0,11.0,582.8
0,4.0,12.0,707.3
0,4.0,13.0,67.1
0,5.0,1.0,104.4
0,5.0,2.0,68.1
0,5.0,3.0,63.7
0,5.0,4.0,50.2
0,5.0,6.0,187.4
0,5.0,7.0,61.1
0,5.0,8.0,272.3
0,5.0,9.0,182.3
0,5.0,10.0,22.2
0,5.0,11.0,425.4
0,5.0,12.0,634.6
0,5.0,13.0,70.7
0,6.0,1.0,535.0
0,6.0,2.0,405.7
0,6.0,3.0,415.3
0,6.0,4.0,344.0
0,6.0,5.0,249.1
0,6.0,7.0,478.9
0,6.0,8.0,1543.6
0,6.0,9.0,722.9
0,6.0,10.0,157.1
0,6.0,11.0,1888.1
0,6.0,12.0,2155.3
0,6.0,13.0,419.9
0,7.0,1.0,160.2
0,7.0,2.0,117.6
0,7.0,3.0,102.2
0,7.0,4.0,86.1
0,7.0,5.0,52.8
0,7.0,6.0,391.8
0,7.0,8.0,336.9
0,7.0,9.0,271.3
0,7.0,10.0,29.1
0,7.0,11.0,976.3
0,7.0,12.0,514.5
0,7.0,13.0,106.2
0,8.0,1.0,801.6
0,8.0,2.0,484.0
0,8.0,3.0,320.4
0,8.0,4.0,381.4
0,8.0,5.0,373.3
0,8.0,6.0,1445.9
0,8.0,7.0,501.0
0,8.0,9.0,736.9
0,8.0,10.0,176.2
0,8.0,11.0,2656.5
0,8.0,12.0,2262.0
0,8.0,13.0,504.3
0,9.0,1.0,391.2
0,9.0,2.0,364.3
0,9.0,3.0,194.7
0,9.0,4.0,227.3
0,9.0,5.0,245.3
0,9.0,6.0,656.5
0,9.0,7.0,287.0
0,9.0,8.0,702.9
0,9.0,10.0,97.8
0,9.0,11.0,1067.5
0,9.0,12.0,1159.7
0,9.0,13.0,188.1
0,10.0,1.0,30.0
0,10.0,2.0,23.3
0,10.0,3.0,20.5
0,10.0,4.0,16.8
0,10.0,5.0,15.0
0,10.0,6.0,89.8
0,10.0,7.0,19.0
0,10.0,8.0,92.7
0,10.0,9.0,61.3
0,10.0,11.0,170.2
0,10.0,12.0,162.9
0,10.0,13.0,17.2
0,11.0,1.0,1512.9
0,11.0,2.0,1313.0
0,11.0,3.0,1533.3
0,11.0,4.0,1082.7
0,11.0,5.0,759.0
0,11.0,6.0,2596.1
0,11.0,7.0,1554.1
0,11.0,8.0,3173.0
0,11.0,9.0,1455.1
0,11.0,10.0,368.4
0,11.0,12.0,5076.9
0,11.0,13.0,813.0
0,12.0,1.0,2218.0
0,12.0,2.0,1554.1
0,12.0,3.0,1103.6
0,12.0,4.0,1359.8
0,12.0,5.0,989.0
0,12.0,6.0,2596.1
0,12.0,7.0,1043.2
0,12.0,8.0,2004.0
0,12.0,9.0,1202.4
0,12.0,10.0,327.7
0,12.0,11.0,5711.5
0,12.0,13.0,798.8
0,13.0,1.0,131.5
0,13.0,2.0,99.6
0,13.0,3.0,73.3
0,13.0,4.0,67.4
0,13.0,5.0,70.6
0,13.0,6.0,271.6
0,13.0,7.0,85.1
0,13.0,8.0,288.0
0,13.0,9.0,156.9
0,13.0,10.0,26.2
0,13.0,11.0,609.2
0,13.0,12.0,535.0
