,馬番1,馬番2,馬単
0,1.0,2.0,61.7
0,1.0,3.0,117.0
0,1.0,4.0,127.8
0,1.0,5.0,255.4
0,1.0,6.0,65.5
0,1.0,7.0,70.7
0,1.0,8.0,381.2
0,1.0,9.0,96.1
0,2.0,1.0,37.8
0,2.0,3.0,26.6
0,2.0,4.0,33.9
0,2.0,5.0,75.0
0,2.0,6.0,10.6
0,2.0,7.0,14.1
0,2.0,8.0,144.7
0,2.0,9.0,20.3
0,3.0,1.0,112.1
0,3.0,2.0,41.9
0,3.0,4.0,117.5
0,3.0,5.0,217.0
0,3.0,6.0,50.8
0,3.0,7.0,43.5
0,3.0,8.0,338.7
0,3.0,9.0,71.9
0,4.0,1.0,137.0
0,4.0,2.0,55.2
0,4.0,3.0,141.5
0,4.0,5.0,220.8
0,4.0,6.0,53.3
0,4.0,7.0,52.0
0,4.0,8.0,425.0
0,4.0,9.0,85.1
0,5.0,1.0,351.2
0,5.0,2.0,121.3
0,5.0,3.0,225.1
0,5.0,4.0,257.6
0,5.0,6.0,145.3
0,5.0,7.0,177.4
0,5.0,8.0,762.5
0,5.0,9.0,230.9
0,6.0,1.0,43.5
0,6.0,2.0,12.8
0,6.0,3.0,37.5
0,6.0,4.0,37.7
0,6.0,5.0,97.0
0,6.0,7.0,15.1
0,6.0,8.0,185.5
0,6.0,9.0,23.9
0,7.0,1.0,46.6
0,7.0,2.0,17.0
0,7.0,3.0,35.9
0,7.0,4.0,40.7
0,7.0,5.0,134.6
0,7.0,6.0,16.0
0,7.0,8.0,207.3
0,7.0,9.0,23.9
0,8.0,1.0,632.2
0,8.0,2.0,300.4
0,8.0,3.0,465.4
0,8.0,4.0,551.7
0,8.0,5.0,954.3
0,8.0,6.0,329.8
0,8.0,7.0,385.1
0,8.0,9.0,322.1
0,9.0,1.0,81.3
0,9.0,2.0,28.8
0,9.0,3.0,63.2
0,9.0,4.0,76.1
0,9.0,5.0,219.2
0,9.0,6.0,32.8
0,9.0,7.0,28.2
0,9.0,8.0,238.5
