,馬番1,馬番2,馬単
0,1.0,2.0,69.5
0,1.0,3.0,55.0
0,1.0,4.0,376.6
0,1.0,5.0,93.9
0,1.0,6.0,441.5
0,1.0,7.0,73.0
0,1.0,8.0,97.4
0,1.0,9.0,205.7
0,1.0,10.0,44.8
0,1.0,11.0,92.0
0,1.0,12.0,174.0
0,1.0,13.0,353.7
0,2.0,1.0,87.2
0,2.0,3.0,40.5
0,2.0,4.0,657.0
0,2.0,5.0,81.2
0,2.0,6.0,566.1
0,2.0,7.0,63.3
0,2.0,8.0,88.3
0,2.0,9.0,228.0
0,2.0,10.0,38.5
0,2.0,11.0,97.1
0,2.0,12.0,120.2
0,2.0,13.0,593.0
0,3.0,1.0,59.1
0,3.0,2.0,32.8
0,3.0,4.0,428.4
0,3.0,5.0,45.2
0,3.0,6.0,345.3
0,3.0,7.0,36.7
0,3.0,8.0,50.8
0,3.0,9.0,141.8
0,3.0,10.0,21.9
0,3.0,11.0,48.9
0,3.0,12.0,68.2
0,3.0,13.0,315.8
0,4.0,1.0,663.4
0,4.0,2.0,807.0
0,4.0,3.0,634.2
0,4.0,5.0,746.6
0,4.0,6.0,1943.3
0,4.0,7.0,976.8
0,4.0,8.0,832.8
0,4.0,9.0,1640.7
0,4.0,10.0,441.5
0,4.0,11.0,1292.4
0,4.0,12.0,1091.6
0,4.0,13.0,2946.3
0,5.0,1.0,107.0
0,5.0,2.0,82.4
0,5.0,3.0,54.8
0,5.0,4.0,541.5
0,5.0,6.0,624.1
0,5.0,7.0,84.6
0,5.0,8.0,103.5
0,5.0,9.0,239.3
0,5.0,10.0,42.8
0,5.0,11.0,99.9
0,5.0,12.0,148.1
0,5.0,13.0,482.8
0,6.0,1.0,533.6
0,6.0,2.0,871.2
0,6.0,3.0,562.6
0,6.0,4.0,1756.4
0,6.0,5.0,927.2
0,6.0,7.0,785.1
0,6.0,8.0,698.1
0,6.0,9.0,1078.7
0,6.0,10.0,542.5
0,6.0,11.0,1209.7
0,6.0,12.0,1723.3
0,6.0,13.0,2647.4
0,7.0,1.0,78.0
0,7.0,2.0,55.8
0,7.0,3.0,37.2
0,7.0,4.0,567.8
0,7.0,5.0,80.4
0,7.0,6.0,425.4
0,7.0,8.0,82.7
0,7.0,9.0,185.1
0,7.0,10.0,30.9
0,7.0,11.0,78.9
0,7.0,12.0,87.8
0,7.0,13.0,438.0
0,8.0,1.0,138.7
0,8.0,2.0,98.7
0,8.0,3.0,62.7
0,8.0,4.0,608.9
0,8.0,5.0,110.5
0,8.0,6.0,592.4
0,8.0,7.0,101.4
0,8.0,9.0,245.9
0,8.0,10.0,54.4
0,8.0,11.0,128.5
0,8.0,12.0,165.3
0,8.0,13.0,578.0
0,9.0,1.0,321.6
0,9.0,2.0,309.2
0,9.0,3.0,207.2
0,9.0,4.0,1473.1
0,9.0,5.0,317.5
0,9.0,6.0,827.8
0,9.0,7.0,265.3
0,9.0,8.0,288.5
0,9.0,10.0,162.8
0,9.0,11.0,307.0
0,9.0,12.0,555.2
0,9.0,13.0,982.1
0,10.0,1.0,44.5
0,10.0,2.0,27.9
0,10.0,3.0,17.7
0,10.0,4.0,247.8
0,10.0,5.0,34.7
0,10.0,6.0,308.9
0,10.0,7.0,26.5
0,10.0,8.0,39.2
0,10.0,9.0,115.4
0,10.0,11.0,35.1
0,10.0,12.0,46.4
0,10.0,13.0,201.0
0,11.0,1.0,132.6
0,11.0,2.0,105.0
0,11.0,3.0,59.2
0,11.0,4.0,852.2
0,11.0,5.0,101.7
0,11.0,6.0,783.9
0,11.0,7.0,96.3
0,11.0,8.0,143.3
0,11.0,9.0,273.3
0,11.0,10.0,50.8
0,11.0,12.0,189.9
0,11.0,13.0,604.2
0,12.0,1.0,223.4
0,12.0,2.0,140.0
0,12.0,3.0,89.2
0,12.0,4.0,992.7
0,12.0,5.0,173.0
0,12.0,6.0,1343.1
0,12.0,7.0,114.8
0,12.0,8.0,190.0
0,12.0,9.0,516.0
0,12.0,10.0,72.4
0,12.0,11.0,212.4
0,12.0,13.0,476.9
0,13.0,1.0,511.6
0,13.0,2.0,709.8
0,13.0,3.0,497.2
0,13.0,4.0,2740.0
0,13.0,5.0,552.9
0,13.0,6.0,2572.8
0,13.0,7.0,672.4
0,13.0,8.0,782.8
0,13.0,9.0,1217.8
0,13.0,10.0,319.9
0,13.0,11.0,752.7
0,13.0,12.0,697.2
