,単勝,枠番,複勝最大,複勝最小,馬名,馬番
0,141.6,1.0,24.2,12.7,メイショウグジョウ,1.0
0,50.8,2.0,12.9,6.8,セルリアン,2.0
0,2.6,3.0,1.3,1.1,グランドロワ,3.0
0,28.3,4.0,6.7,3.7,アイファーショコラ,4.0
0,4.1,5.0,2.1,1.3,クールファンタジー,5.0
0,4.9,6.0,2.4,1.5,ビックリシタナモー,6.0
0,112.3,6.0,27.0,14.2,コスモトリコロール,7.0
0,10.3,7.0,3.7,2.1,カフジリバー,8.0
0,6.0,7.0,2.7,1.6,テイエムイキオイ,9.0
0,18.3,8.0,5.2,2.9,ベルウッドカペラ,10.0
0,27.6,8.0,9.2,4.9,スリーソードシチー,11.0
