,レース周り,レース情報,体重,名称,外回りフラグ,性別,斤量,日付,時刻,条件,枠番,競技場,調教師名,賞金,馬名,馬場状態,馬番,騎手名,齢
0,右,芝1200m,468.0,オパールＳ,,牡,55.0,2016/10/09,15:35,サラ系３歳以上オープン(混)(特指)ハンデ,1,京都,西浦勝一,2300、920、580、350、230万円,アルマワイオリ,良,1,池添謙一,4
0,右,芝1200m,542.0,オパールＳ,,牡,54.0,2016/10/09,15:35,サラ系３歳以上オープン(混)(特指)ハンデ,2,京都,中竹和也,2300、920、580、350、230万円,ジャストドゥイング,良,2,石橋脩,4
0,右,芝1200m,524.0,オパールＳ,,牝,52.0,2016/10/09,15:35,サラ系３歳以上オープン(混)(特指)ハンデ,3,京都,高橋康之,2300、920、580、350、230万円,ラヴァーズポイント,良,3,川須栄彦,6
0,右,芝1200m,444.0,オパールＳ,,牡,54.0,2016/10/09,15:35,サラ系３歳以上オープン(混)(特指)ハンデ,4,京都,松永昌博,2300、920、580、350、230万円,ラインスピリット,良,4,森一馬,5
0,右,芝1200m,470.0,オパールＳ,,牡,56.0,2016/10/09,15:35,サラ系３歳以上オープン(混)(特指)ハンデ,4,京都,崎山博樹,2300、920、580、350、230万円,セカンドテーブル,良,5,水口優也,4
0,右,芝1200m,500.0,オパールＳ,,牡,54.0,2016/10/09,15:35,サラ系３歳以上オープン(混)(特指)ハンデ,5,京都,西園正都,2300、920、580、350、230万円,マイネルエテルネル,良,6,和田竜二,6
0,右,芝1200m,432.0,オパールＳ,,牝,52.0,2016/10/09,15:35,サラ系３歳以上オープン(混)(特指)ハンデ,5,京都,小崎憲,2300、920、580、350、230万円,アンナミルト,良,7,福永祐一,5
0,右,芝1200m,494.0,オパールＳ,,牡,54.0,2016/10/09,15:35,サラ系３歳以上オープン(混)(特指)ハンデ,6,京都,高橋義忠,2300、920、580、350、230万円,アットウィル,良,8,Ｆ．ヴェ,6
0,右,芝1200m,498.0,オパールＳ,,牡,56.0,2016/10/09,15:35,サラ系３歳以上オープン(混)(特指)ハンデ,6,京都,清水久詞,2300、920、580、350、230万円,ワキノブレイブ,良,9,浜中俊,6
0,右,芝1200m,516.0,オパールＳ,,牝,51.0,2016/10/09,15:35,サラ系３歳以上オープン(混)(特指)ハンデ,7,京都,杉浦宏昭,2300、920、580、350、230万円,ナックビーナス,良,10,酒井学,3
0,右,芝1200m,480.0,オパールＳ,,牡,57.0,2016/10/09,15:35,サラ系３歳以上オープン(混)(特指)ハンデ,7,京都,北出成人,2300、920、580、350、230万円,アクティブミノル,良,11,藤岡康太,4
0,右,芝1200m,472.0,オパールＳ,,牝,51.0,2016/10/09,15:35,サラ系３歳以上オープン(混)(特指)ハンデ,8,京都,須貝尚介,2300、920、580、350、230万円,ラインハート,良,12,小林徹弥,5
0,右,芝1200m,482.0,オパールＳ,,牡,54.0,2016/10/09,15:35,サラ系３歳以上オープン(混)(特指)ハンデ,8,京都,伊藤伸一,2300、920、580、350、230万円,キングオブロー,良,13,四位洋文,7
