,タイム,レース周り,レース情報,体重,名称,外回りフラグ,天気,性別,斤量,時刻,条件,枠番,競技場,賞金,順位,馬名,馬場状態,馬番,齢
0,1:34.2,左,芝1600m,484.0,古町特別,外,晴,牡,57.0,15:10,サラ系３歳以上１０００万下(混)(特指)定量,1,新潟,1500、600、380、230、150万円,6,サトノアッシュ,良,1,4
0,1:33.8,左,芝1600m,466.0,古町特別,外,晴,牡,54.0,15:10,サラ系３歳以上１０００万下(混)(特指)定量,2,新潟,1500、600、380、230、150万円,2,サトノキングダム,良,2,3
0,1:33.9,左,芝1600m,512.0,古町特別,外,晴,牡,54.0,15:10,サラ系３歳以上１０００万下(混)(特指)定量,3,新潟,1500、600、380、230、150万円,3,ノガロ,良,3,3
0,1:33.9,左,芝1600m,456.0,古町特別,外,晴,牡,54.0,15:10,サラ系３歳以上１０００万下(混)(特指)定量,4,新潟,1500、600、380、230、150万円,4,レインボーフラッグ,良,4,3
0,1:34.5,左,芝1600m,460.0,古町特別,外,晴,牝,55.0,15:10,サラ系３歳以上１０００万下(混)(特指)定量,5,新潟,1500、600、380、230、150万円,11,レインボーラヴラヴ,良,5,5
0,1:34.3,左,芝1600m,504.0,古町特別,外,晴,牡,57.0,15:10,サラ系３歳以上１０００万下(混)(特指)定量,5,新潟,1500、600、380、230、150万円,10,ワキノヒビキ,良,6,4
0,1:34.3,左,芝1600m,476.0,古町特別,外,晴,牡,57.0,15:10,サラ系３歳以上１０００万下(混)(特指)定量,6,新潟,1500、600、380、230、150万円,8,サーストンコラルド,良,7,5
0,1:33.6,左,芝1600m,454.0,古町特別,外,晴,牡,54.0,15:10,サラ系３歳以上１０００万下(混)(特指)定量,6,新潟,1500、600、380、230、150万円,1,アストラエンブレム,良,8,3
0,1:34.2,左,芝1600m,490.0,古町特別,外,晴,牡,57.0,15:10,サラ系３歳以上１０００万下(混)(特指)定量,7,新潟,1500、600、380、230、150万円,7,チャンピオンルパン,良,9,5
0,1:34.5,左,芝1600m,484.0,古町特別,外,晴,セ,57.0,15:10,サラ系３歳以上１０００万下(混)(特指)定量,7,新潟,1500、600、380、230、150万円,12,メイショウオオゼキ,良,10,6
0,1:34.1,左,芝1600m,476.0,古町特別,外,晴,牝,55.0,15:10,サラ系３歳以上１０００万下(混)(特指)定量,8,新潟,1500、600、380、230、150万円,5,プレミオテーラー,良,11,4
0,1:34.3,左,芝1600m,538.0,古町特別,外,晴,牡,57.0,15:10,サラ系３歳以上１０００万下(混)(特指)定量,8,新潟,1500、600、380、230、150万円,9,スパーブデイ,良,12,5
