,タイム,レース周り,レース情報,体重,名称,外回りフラグ,天気,性別,斤量,日付,時刻,条件,枠番,競技場,調教師名,賞金,順位,馬名,馬場状態,馬番,騎手名,齢
0,1:34.2,左,芝1600m,484.0,古町特別,外,晴,牡,57.0,2016/07/30,15:10,サラ系３歳以上１０００万下(混)(特指)定量,1,新潟,中竹和也 (栗東),1500、600、380、230、150万円,6,サトノアッシュ,良,1,石橋脩,4
0,1:33.8,左,芝1600m,466.0,古町特別,外,晴,牡,54.0,2016/07/30,15:10,サラ系３歳以上１０００万下(混)(特指)定量,2,新潟,国枝栄 (美浦),1500、600、380、230、150万円,2,サトノキングダム,良,2,戸崎圭太,3
0,1:33.9,左,芝1600m,512.0,古町特別,外,晴,牡,54.0,2016/07/30,15:10,サラ系３歳以上１０００万下(混)(特指)定量,3,新潟,音無秀孝 (栗東),1500、600、380、230、150万円,3,ノガロ,良,3,蛯名正義,3
0,1:33.9,左,芝1600m,456.0,古町特別,外,晴,牡,54.0,2016/07/30,15:10,サラ系３歳以上１０００万下(混)(特指)定量,4,新潟,小崎憲 (栗東),1500、600、380、230、150万円,4,レインボーフラッグ,良,4,丸山元気,3
0,1:34.5,左,芝1600m,460.0,古町特別,外,晴,牝,55.0,2016/07/30,15:10,サラ系３歳以上１０００万下(混)(特指)定量,5,新潟,武市康男 (美浦),1500、600、380、230、150万円,11,レインボーラヴラヴ,良,5,内田博幸,5
0,1:34.3,左,芝1600m,504.0,古町特別,外,晴,牡,57.0,2016/07/30,15:10,サラ系３歳以上１０００万下(混)(特指)定量,5,新潟,清水久詞 (栗東),1500、600、380、230、150万円,10,ワキノヒビキ,良,6,柴田善臣,4
0,1:34.3,左,芝1600m,476.0,古町特別,外,晴,牡,57.0,2016/07/30,15:10,サラ系３歳以上１０００万下(混)(特指)定量,6,新潟,戸田博文 (美浦),1500、600、380、230、150万円,8,サーストンコラルド,良,7,吉田豊,5
0,1:33.6,左,芝1600m,454.0,古町特別,外,晴,牡,54.0,2016/07/30,15:10,サラ系３歳以上１０００万下(混)(特指)定量,6,新潟,小島茂之 (美浦),1500、600、380、230、150万円,1,アストラエンブレム,良,8,Ｍ．デム,3
0,1:34.2,左,芝1600m,490.0,古町特別,外,晴,牡,57.0,2016/07/30,15:10,サラ系３歳以上１０００万下(混)(特指)定量,7,新潟,勢司和浩 (美浦),1500、600、380、230、150万円,7,チャンピオンルパン,良,9,横山和生,5
0,1:34.5,左,芝1600m,484.0,古町特別,外,晴,セ,57.0,2016/07/30,15:10,サラ系３歳以上１０００万下(混)(特指)定量,7,新潟,池添兼雄 (栗東),1500、600、380、230、150万円,12,メイショウオオゼキ,良,10,木幡巧也,6
0,1:34.1,左,芝1600m,476.0,古町特別,外,晴,牝,55.0,2016/07/30,15:10,サラ系３歳以上１０００万下(混)(特指)定量,8,新潟,河内洋 (栗東),1500、600、380、230、150万円,5,プレミオテーラー,良,11,柴田大知,4
0,1:34.3,左,芝1600m,538.0,古町特別,外,晴,牡,57.0,2016/07/30,15:10,サラ系３歳以上１０００万下(混)(特指)定量,8,新潟,堀井雅広 (美浦),1500、600、380、230、150万円,9,スパーブデイ,良,12,田中勝春,5
