,タイム,レース周り,レース情報,体重,名称,外回りフラグ,天気,性別,斤量,時刻,条件,枠番,競技場,賞金,順位,馬名,馬場状態,馬番,齢
0,1:12.2,左,ダ1200m,484.0,３歳上５００万下,,曇,牝,55.0,14:01,サラ系３歳以上５００万下牝[指]定量,1,新潟,750、300、190、110、75万円,8,ナナイロボタン,良,1,4
0,1:12.9,左,ダ1200m,438.0,３歳上５００万下,,曇,牝,52.0,14:01,サラ系３歳以上５００万下牝[指]定量,2,新潟,750、300、190、110、75万円,13,キースカーフ,良,2,4
0,1:12.5,左,ダ1200m,494.0,３歳上５００万下,,曇,牝,52.0,14:01,サラ系３歳以上５００万下牝[指]定量,2,新潟,750、300、190、110、75万円,9,ヨイチナデシコ,良,3,4
0,1:11.8,左,ダ1200m,474.0,３歳上５００万下,,曇,牝,51.0,14:01,サラ系３歳以上５００万下牝[指]定量,3,新潟,750、300、190、110、75万円,4,チュラカーギー,良,4,3
0,1:11.6,左,ダ1200m,486.0,３歳上５００万下,,曇,牝,55.0,14:01,サラ系３歳以上５００万下牝[指]定量,3,新潟,750、300、190、110、75万円,3,ハッピーサークル,良,5,4
0,1:11.2,左,ダ1200m,502.0,３歳上５００万下,,曇,牝,55.0,14:01,サラ系３歳以上５００万下牝[指]定量,4,新潟,750、300、190、110、75万円,1,ボンボンキャスト,良,6,4
0,1:11.2,左,ダ1200m,480.0,３歳上５００万下,,曇,牝,52.0,14:01,サラ系３歳以上５００万下牝[指]定量,4,新潟,750、300、190、110、75万円,2,リンガスウーノ,良,7,3
0,1:14.5,左,ダ1200m,492.0,３歳上５００万下,,曇,牝,52.0,14:01,サラ系３歳以上５００万下牝[指]定量,5,新潟,750、300、190、110、75万円,15,ノボホウセイ,良,8,3
0,1:12.9,左,ダ1200m,466.0,３歳上５００万下,,曇,牝,55.0,14:01,サラ系３歳以上５００万下牝[指]定量,5,新潟,750、300、190、110、75万円,12,プラセンタ,良,9,4
0,1:12.2,左,ダ1200m,458.0,３歳上５００万下,,曇,牝,49.0,14:01,サラ系３歳以上５００万下牝[指]定量,6,新潟,750、300、190、110、75万円,6,レアドロップ,良,10,3
0,1:11.9,左,ダ1200m,458.0,３歳上５００万下,,曇,牝,52.0,14:01,サラ系３歳以上５００万下牝[指]定量,6,新潟,750、300、190、110、75万円,5,モンサンビアンカ,良,11,4
0,1:12.2,左,ダ1200m,496.0,３歳上５００万下,,曇,牝,55.0,14:01,サラ系３歳以上５００万下牝[指]定量,7,新潟,750、300、190、110、75万円,7,コンコルダンス,良,12,4
0,1:12.8,左,ダ1200m,470.0,３歳上５００万下,,曇,牝,52.0,14:01,サラ系３歳以上５００万下牝[指]定量,7,新潟,750、300、190、110、75万円,11,ソロダンサー,良,13,3
0,1:13.8,左,ダ1200m,448.0,３歳上５００万下,,曇,牝,55.0,14:01,サラ系３歳以上５００万下牝[指]定量,8,新潟,750、300、190、110、75万円,14,レディーピンク,良,14,6
0,1:12.7,左,ダ1200m,456.0,３歳上５００万下,,曇,牝,55.0,14:01,サラ系３歳以上５００万下牝[指]定量,8,新潟,750、300、190、110、75万円,10,デザイアドライブ,良,15,5
