,タイム,レース周り,レース情報,体重,名称,外回りフラグ,天気,性別,斤量,日付,時刻,条件,枠番,競技場,調教師名,賞金,順位,馬名,馬場状態,馬番,騎手名,齢
0,1:46.4,左,芝1800m,450.0,３歳未勝利,外,晴,牝,54.0,2016/07/30,11:35,サラ系３歳未勝利牝[指]馬齢,1,新潟,田島俊明 (美浦),480、190、120、72、48万円,4,ゴールドエフォート,良,1,丸山元気,3
0,1:46.7,左,芝1800m,478.0,３歳未勝利,外,晴,牝,54.0,2016/07/30,11:35,サラ系３歳未勝利牝[指]馬齢,1,新潟,勢司和浩 (美浦),480、190、120、72、48万円,11,アンジェリカス,良,2,大野拓弥,3
0,1:47.7,左,芝1800m,482.0,３歳未勝利,外,晴,牝,54.0,2016/07/30,11:35,サラ系３歳未勝利牝[指]馬齢,2,新潟,金成貴史 (美浦),480、190、120、72、48万円,16,ユキハナ,良,3,武士沢友,3
0,1:46.5,左,芝1800m,482.0,３歳未勝利,外,晴,牝,54.0,2016/07/30,11:35,サラ系３歳未勝利牝[指]馬齢,2,新潟,高木登 (美浦),480、190、120、72、48万円,6,クラウングレイス,良,4,蛯名正義,3
0,1:46.8,左,芝1800m,448.0,３歳未勝利,外,晴,牝,54.0,2016/07/30,11:35,サラ系３歳未勝利牝[指]馬齢,3,新潟,笹田和秀 (栗東),480、190、120、72、48万円,12,レッドヴァローレ,良,5,石橋脩,3
0,1:46.7,左,芝1800m,456.0,３歳未勝利,外,晴,牝,51.0,2016/07/30,11:35,サラ系３歳未勝利牝[指]馬齢,3,新潟,水野貴広 (美浦),480、190、120、72、48万円,10,ニシノケイト,良,6,木幡巧也,3
0,1:47.1,左,芝1800m,442.0,３歳未勝利,外,晴,牝,51.0,2016/07/30,11:35,サラ系３歳未勝利牝[指]馬齢,4,新潟,佐々木由 (岩手),480、190、120、72、48万円,13,ダノンミラクル,良,7,木幡初也,3
0,1:47.4,左,芝1800m,452.0,３歳未勝利,外,晴,牝,54.0,2016/07/30,11:35,サラ系３歳未勝利牝[指]馬齢,4,新潟,上原博之 (美浦),480、190、120、72、48万円,14,デイジーベル,良,8,津村明秀,3
0,1:48.1,左,芝1800m,432.0,３歳未勝利,外,晴,牝,51.0,2016/07/30,11:35,サラ系３歳未勝利牝[指]馬齢,5,新潟,伊藤伸一 (美浦),480、190、120、72、48万円,17,フジコハルビヨリ,良,9,野中悠太,3
0,1:46.5,左,芝1800m,436.0,３歳未勝利,外,晴,牝,54.0,2016/07/30,11:35,サラ系３歳未勝利牝[指]馬齢,5,新潟,田中清隆 (美浦),480、190、120、72、48万円,8,コスモレティクルム,良,10,柴田大知,3
0,1:48.7,左,芝1800m,522.0,３歳未勝利,外,晴,牝,54.0,2016/07/30,11:35,サラ系３歳未勝利牝[指]馬齢,6,新潟,和田正一 (美浦),480、190、120、72、48万円,18,デネブ,良,11,吉井友彦,3
0,1:46.1,左,芝1800m,436.0,３歳未勝利,外,晴,牝,54.0,2016/07/30,11:35,サラ系３歳未勝利牝[指]馬齢,6,新潟,岩戸孝樹 (美浦),480、190、120、72、48万円,1,アポロオスカー,良,12,戸崎圭太,3
0,1:46.5,左,芝1800m,454.0,３歳未勝利,外,晴,牝,54.0,2016/07/30,11:35,サラ系３歳未勝利牝[指]馬齢,7,新潟,栗田徹 (美浦),480、190、120、72、48万円,7,スターズレディ,良,13,Ｍ．デム,3
0,1:47.6,左,芝1800m,448.0,３歳未勝利,外,晴,牝,54.0,2016/07/30,11:35,サラ系３歳未勝利牝[指]馬齢,7,新潟,戸田博文 (美浦),480、190、120、72、48万円,15,フォルテミニョン,良,14,吉田豊,3
0,1:46.4,左,芝1800m,400.0,３歳未勝利,外,晴,牝,53.0,2016/07/30,11:35,サラ系３歳未勝利牝[指]馬齢,7,新潟,手塚貴久 (美浦),480、190、120、72、48万円,3,ヘラルドスクエア,良,15,石川裕紀,3
0,1:46.6,左,芝1800m,434.0,３歳未勝利,外,晴,牝,54.0,2016/07/30,11:35,サラ系３歳未勝利牝[指]馬齢,8,新潟,田中清隆 (美浦),480、190、120、72、48万円,9,ブリリアントタイム,良,16,柴田善臣,3
0,1:46.2,左,芝1800m,452.0,３歳未勝利,外,晴,牝,54.0,2016/07/30,11:35,サラ系３歳未勝利牝[指]馬齢,8,新潟,尾形和幸 (美浦),480、190、120、72、48万円,2,ダンスパープル,良,17,内田博幸,3
0,1:46.4,左,芝1800m,446.0,３歳未勝利,外,晴,牝,54.0,2016/07/30,11:35,サラ系３歳未勝利牝[指]馬齢,8,新潟,新開幸一 (美浦),480、190、120、72、48万円,5,フィールザオーロラ,良,18,田中勝春,3
