,タイム,レース周り,レース情報,体重,名称,外回りフラグ,天気,性別,斤量,日付,時刻,条件,枠番,競技場,調教師名,賞金,順位,馬名,馬場状態,馬番,騎手名,齢
0,0:56.2,直線,芝1000m,482.0,閃光特別,,曇,牡,57.0,2016/07/30,14:35,サラ系３歳以上５００万下(混)(特指)定量,1,新潟,鈴木伸尋 (美浦),1050、420、260、160、105万円,13,シンボリマティス,良,1,津村明秀,4
0,0:58.4,直線,芝1000m,464.0,閃光特別,,曇,牡,54.0,2016/07/30,14:35,サラ系３歳以上５００万下(混)(特指)定量,1,新潟,森山英雄 (笠松),1050、420、260、160、105万円,18,リックカグラ,良,2,吉井友彦,3
0,0:56.4,直線,芝1000m,480.0,閃光特別,,曇,牝,55.0,2016/07/30,14:35,サラ系３歳以上５００万下(混)(特指)定量,2,新潟,田中清隆 (美浦),1050、420、260、160、105万円,17,サンクタリリアス,良,3,江田照男,4
0,0:55.3,直線,芝1000m,454.0,閃光特別,,曇,牝,55.0,2016/07/30,14:35,サラ系３歳以上５００万下(混)(特指)定量,2,新潟,高橋祥泰 (美浦),1050、420、260、160、105万円,4,ピュアリーソリッド,良,4,伴啓太,4
0,0:56.3,直線,芝1000m,506.0,閃光特別,,曇,牝,55.0,2016/07/30,14:35,サラ系３歳以上５００万下(混)(特指)定量,3,新潟,石栗龍彦 (美浦),1050、420、260、160、105万円,16,コウユーココロザシ,良,5,村田一誠,4
0,0:56.3,直線,芝1000m,438.0,閃光特別,,曇,牝,55.0,2016/07/30,14:35,サラ系３歳以上５００万下(混)(特指)定量,3,新潟,尾関知人 (美浦),1050、420、260、160、105万円,14,トラストレイカ,良,6,田中勝春,4
0,0:55.4,直線,芝1000m,476.0,閃光特別,,曇,牡,54.0,2016/07/30,14:35,サラ系３歳以上５００万下(混)(特指)定量,4,新潟,南田美知 (美浦),1050、420、260、160、105万円,6,ミキノドラマー,良,7,大野拓弥,3
0,0:54.8,直線,芝1000m,440.0,閃光特別,,曇,牝,55.0,2016/07/30,14:35,サラ系３歳以上５００万下(混)(特指)定量,4,新潟,田中剛 (美浦),1050、420、260、160、105万円,1,アースエンジェル,良,8,Ｍ．デム,4
0,0:54.9,直線,芝1000m,478.0,閃光特別,,曇,牝,55.0,2016/07/30,14:35,サラ系３歳以上５００万下(混)(特指)定量,5,新潟,高橋祥泰 (美浦),1050、420、260、160、105万円,2,ワラッチャオ,良,9,柴田善臣,4
0,0:55.3,直線,芝1000m,468.0,閃光特別,,曇,牝,55.0,2016/07/30,14:35,サラ系３歳以上５００万下(混)(特指)定量,5,新潟,矢野英一 (美浦),1050、420、260、160、105万円,5,スペチアーレ,良,10,石川裕紀,4
0,0:56.1,直線,芝1000m,494.0,閃光特別,,曇,牝,52.0,2016/07/30,14:35,サラ系３歳以上５００万下(混)(特指)定量,6,新潟,川西毅 (愛知),1050、420、260、160、105万円,12,ラブミーリバティー,良,11,丸野勝虎,3
0,0:55.1,直線,芝1000m,506.0,閃光特別,,曇,牝,55.0,2016/07/30,14:35,サラ系３歳以上５００万下(混)(特指)定量,6,新潟,矢野英一 (美浦),1050、420、260、160、105万円,3,パンプルムース,良,12,蛯名正義,4
0,0:56.3,直線,芝1000m,454.0,閃光特別,,曇,牝,55.0,2016/07/30,14:35,サラ系３歳以上５００万下(混)(特指)定量,7,新潟,天間昭一 (美浦),1050、420、260、160、105万円,15,テセラレフィナード,良,13,木幡巧也,4
0,0:56.1,直線,芝1000m,486.0,閃光特別,,曇,牝,55.0,2016/07/30,14:35,サラ系３歳以上５００万下(混)(特指)定量,7,新潟,高橋義博 (美浦),1050、420、260、160、105万円,11,クリノチョモラーリ,良,14,木幡初広,6
0,0:56.0,直線,芝1000m,474.0,閃光特別,,曇,牝,55.0,2016/07/30,14:35,サラ系３歳以上５００万下(混)(特指)定量,7,新潟,蛯名利弘 (美浦),1050、420、260、160、105万円,10,メランコリア,良,15,嘉藤貴行,4
0,0:55.7,直線,芝1000m,442.0,閃光特別,,曇,牝,52.0,2016/07/30,14:35,サラ系３歳以上５００万下(混)(特指)定量,8,新潟,上原博之 (美浦),1050、420、260、160、105万円,7,キーウエスト,良,16,丸山元気,3
0,0:55.8,直線,芝1000m,498.0,閃光特別,,曇,牡,57.0,2016/07/30,14:35,サラ系３歳以上５００万下(混)(特指)定量,8,新潟,堀井雅広 (美浦),1050、420、260、160、105万円,9,ソアリングホーク,良,17,西田雄一,5
0,0:55.8,直線,芝1000m,434.0,閃光特別,,曇,牝,55.0,2016/07/30,14:35,サラ系３歳以上５００万下(混)(特指)定量,8,新潟,藤原辰雄 (美浦),1050、420、260、160、105万円,8,ブロンディジェニー,良,18,内田博幸,4
