,タイム,レース周り,レース情報,体重,名称,外回りフラグ,天気,性別,斤量,時刻,条件,枠番,競技場,賞金,順位,馬名,馬場状態,馬番,齢
0,1:13.9,左,ダ1200m,450.0,２歳未勝利,,晴,牡,54.0,10:10,サラ系２歳未勝利(混)[指]馬齢,1,新潟,500、200、130、75、50万円,3,ハシルキセキ,良,1,2
0,1:13.9,左,ダ1200m,432.0,２歳未勝利,,晴,牝,54.0,10:10,サラ系２歳未勝利(混)[指]馬齢,2,新潟,500、200、130、75、50万円,4,ユウギリジョウ,良,2,2
0,1:15.3,左,ダ1200m,476.0,２歳未勝利,,晴,牡,54.0,10:10,サラ系２歳未勝利(混)[指]馬齢,2,新潟,500、200、130、75、50万円,11,サンアンカレッジ,良,3,2
0,1:14.6,左,ダ1200m,474.0,２歳未勝利,,晴,牝,54.0,10:10,サラ系２歳未勝利(混)[指]馬齢,3,新潟,500、200、130、75、50万円,8,アイティプリンセス,良,4,2
0,1:13.9,左,ダ1200m,474.0,２歳未勝利,,晴,牡,51.0,10:10,サラ系２歳未勝利(混)[指]馬齢,3,新潟,500、200、130、75、50万円,5,シンボリスーマラン,良,5,2
0,1:16.0,左,ダ1200m,426.0,２歳未勝利,,晴,牝,54.0,10:10,サラ系２歳未勝利(混)[指]馬齢,4,新潟,500、200、130、75、50万円,15,フクハウチ,良,6,2
0,1:15.7,左,ダ1200m,464.0,２歳未勝利,,晴,牡,54.0,10:10,サラ系２歳未勝利(混)[指]馬齢,4,新潟,500、200、130、75、50万円,14,セイプレジール,良,7,2
0,1:15.4,左,ダ1200m,462.0,２歳未勝利,,晴,牡,54.0,10:10,サラ系２歳未勝利(混)[指]馬齢,5,新潟,500、200、130、75、50万円,12,キョウエイバロック,良,8,2
0,1:15.6,左,ダ1200m,456.0,２歳未勝利,,晴,牡,54.0,10:10,サラ系２歳未勝利(混)[指]馬齢,5,新潟,500、200、130、75、50万円,13,ボウソウノカゼ,良,9,2
0,1:15.0,左,ダ1200m,472.0,２歳未勝利,,晴,牡,54.0,10:10,サラ系２歳未勝利(混)[指]馬齢,6,新潟,500、200、130、75、50万円,10,デュトロノミー,良,10,2
0,1:13.4,左,ダ1200m,432.0,２歳未勝利,,晴,牝,54.0,10:10,サラ系２歳未勝利(混)[指]馬齢,6,新潟,500、200、130、75、50万円,1,スッチェッソ,良,11,2
0,1:14.5,左,ダ1200m,428.0,２歳未勝利,,晴,牝,51.0,10:10,サラ系２歳未勝利(混)[指]馬齢,7,新潟,500、200、130、75、50万円,7,テルルフォレスト,良,12,2
0,1:14.0,左,ダ1200m,468.0,２歳未勝利,,晴,牝,54.0,10:10,サラ系２歳未勝利(混)[指]馬齢,7,新潟,500、200、130、75、50万円,6,ワンダフルメモリー,良,13,2
0,1:13.5,左,ダ1200m,484.0,２歳未勝利,,晴,牡,54.0,10:10,サラ系２歳未勝利(混)[指]馬齢,8,新潟,500、200、130、75、50万円,2,ファストシップ,良,14,2
0,1:14.8,左,ダ1200m,454.0,２歳未勝利,,晴,牝,51.0,10:10,サラ系２歳未勝利(混)[指]馬齢,8,新潟,500、200、130、75、50万円,9,クリノヒミコ,良,15,2
