,単勝,枠番,複勝最大,複勝最小,馬名,馬番
0,26.2,1.0,6.7,4.0,デルマサリーチャン,1.0
0,12.3,2.0,4.0,2.5,セルバンテス,2.0
0,2.5,3.0,1.4,1.2,タケルラムセス,3.0
0,68.3,3.0,29.8,17.3,フェンガリ,4.0
0,12.9,4.0,4.3,2.7,ディスピュート,5.0
0,57.6,4.0,13.4,7.8,トーセンナチュラル,6.0
0,68.9,5.0,19.6,11.4,オペラハット,7.0
0,31.8,5.0,8.0,4.7,ウォーターミリオン,8.0
0,26.6,6.0,8.0,4.7,アグリッパーバイオ,9.0
0,4.4,6.0,2.0,1.4,エアワイバーン,10.0
0,19.9,7.0,5.9,3.5,アドマイヤロワ,11.0
0,20.9,7.0,6.5,3.9,ウインブルースカイ,12.0
0,7.1,8.0,3.1,2.0,ロードグリッター,13.0
0,12.9,8.0,4.4,2.7,ララエクラテール,14.0
