,単勝,枠番,複勝最大,複勝最小,馬名,馬番
0,55.5,1.0,33.7,6.6,サンバダンサー,1.0
0,34.0,2.0,17.0,3.5,ジッテ,2.0
0,138.4,3.0,96.4,18.1,ブランシュ,3.0
0,28.9,4.0,13.6,2.9,ダンツプロシード,4.0
0,39.7,5.0,19.0,3.9,リングリンクリン,5.0
0,176.9,5.0,98.9,18.6,ジャストヒーロー,6.0
0,16.7,6.0,7.6,1.8,サンジレット,7.0
0,217.1,6.0,132.5,24.8,セイユウレディ,8.0
0,2.0,7.0,1.1,1.1,エスシーエイト,9.0
0,17.7,7.0,9.1,2.1,アースヴィグラス,10.0
0,2.8,8.0,1.5,1.1,ハシルキセキ,11.0
0,9.8,8.0,5.9,1.5,ソルティピース,12.0
