,タイム,レース周り,レース情報,体重,名称,外回りフラグ,天気,性別,斤量,日付,時刻,条件,枠番,競技場,調教師名,賞金,順位,馬名,馬場状態,馬番,騎手名,齢
0,1:29.5,右,芝1500m,464.0,千歳特別,,晴,牝,55.0,2016/08/27,15:01,サラ系３歳以上５００万下(混)[指]定量,1,2札幌,二ノ宮敬 (美浦),1050、420、260、160、105万円,5,ホクラニミサ,良,1,蛯名正義,5
0,1:29.9,右,芝1500m,450.0,千歳特別,,晴,牝,52.0,2016/08/27,15:01,サラ系３歳以上５００万下(混)[指]定量,2,2札幌,松永康利 (美浦),1050、420、260、160、105万円,9,ペイシャマリヤ,良,2,黛弘人,3
0,1:29.3,右,芝1500m,472.0,千歳特別,,晴,牡,57.0,2016/08/27,15:01,サラ系３歳以上５００万下(混)[指]定量,3,2札幌,昆貢 (栗東),1050、420、260、160、105万円,3,アルパーシャン,良,3,四位洋文,4
0,1:30.5,右,芝1500m,428.0,千歳特別,,晴,牝,55.0,2016/08/27,15:01,サラ系３歳以上５００万下(混)[指]定量,3,2札幌,奥村豊 (栗東),1050、420、260、160、105万円,11,トリニティプレイス,良,4,Ｃ．デム,5
0,1:29.6,右,芝1500m,458.0,千歳特別,,晴,牝,52.0,2016/08/27,15:01,サラ系３歳以上５００万下(混)[指]定量,4,2札幌,松下武士 (栗東),1050、420、260、160、105万円,8,ルピナスベル,良,5,古川吉洋,3
0,1:29.6,右,芝1500m,502.0,千歳特別,,晴,牡,57.0,2016/08/27,15:01,サラ系３歳以上５００万下(混)[指]定量,4,2札幌,加用正 (栗東),1050、420、260、160、105万円,7,ブライトボイス,良,6,モレイラ,4
0,1:29.2,右,芝1500m,452.0,千歳特別,,晴,牝,55.0,2016/08/27,15:01,サラ系３歳以上５００万下(混)[指]定量,5,2札幌,伊藤伸一 (美浦),1050、420、260、160、105万円,2,ユメノマイホーム,良,7,松岡正海,4
0,1:30.7,右,芝1500m,444.0,千歳特別,,晴,牡,54.0,2016/08/27,15:01,サラ系３歳以上５００万下(混)[指]定量,5,2札幌,池江泰寿 (栗東),1050、420、260、160、105万円,12,アイアンマン,良,8,ルメール,3
0,1:30.9,右,芝1500m,522.0,千歳特別,,晴,牡,57.0,2016/08/27,15:01,サラ系３歳以上５００万下(混)[指]定量,6,2札幌,南井克巳 (栗東),1050、420、260、160、105万円,13,メイショウナガマサ,良,9,吉田隼人,4
0,1:30.0,右,芝1500m,492.0,千歳特別,,晴,セ,57.0,2016/08/27,15:01,サラ系３歳以上５００万下(混)[指]定量,6,2札幌,柴田政人 (美浦),1050、420、260、160、105万円,10,レーヴドプランス,良,10,井上敏樹,6
0,1:37.4,右,芝1500m,560.0,千歳特別,,晴,牝,55.0,2016/08/27,15:01,サラ系３歳以上５００万下(混)[指]定量,7,2札幌,手塚貴久 (美浦),1050、420、260、160、105万円,14,ミスエリカ,良,11,岩田康誠,4
0,1:29.5,右,芝1500m,452.0,千歳特別,,晴,牡,57.0,2016/08/27,15:01,サラ系３歳以上５００万下(混)[指]定量,7,2札幌,小野次郎 (美浦),1050、420、260、160、105万円,4,ムーンドロップ,良,12,横山和生,5
0,1:29.5,右,芝1500m,498.0,千歳特別,,晴,牡,54.0,2016/08/27,15:01,サラ系３歳以上５００万下(混)[指]定量,8,2札幌,相沢郁 (美浦),1050、420、260、160、105万円,6,イスズブライト,良,13,ウィリア,3
0,1:29.1,右,芝1500m,478.0,千歳特別,,晴,牡,54.0,2016/08/27,15:01,サラ系３歳以上５００万下(混)[指]定量,8,2札幌,作田誠二 (栗東),1050、420、260、160、105万円,1,ドゥーカ,良,14,内田博幸,3
