,タイム,レース周り,レース情報,体重,名称,外回りフラグ,天気,性別,斤量,日付,時刻,条件,枠番,競技場,調教師名,賞金,順位,馬名,馬場状態,馬番,騎手名,齢
0,1:10.2,右,芝1200m,450.0,ＷＡＳＪ第３戦,,晴,牡,58.0,2016/08/28,15:01,サラ系３歳以上１０００万下(混)[指]定量,1,2札幌,橋田満 (栗東),1500、600、380、230、150万円,11,アドマイヤスカイ,良,1,ルメール,4
0,,右,芝1200m,448.0,ＷＡＳＪ第３戦,,晴,セ,58.0,2016/08/28,15:01,サラ系３歳以上１０００万下(混)[指]定量,2,2札幌,蛯名利弘 (美浦),1500、600、380、230、150万円,13,レヴァンタール,良,2,スペンサ,7
0,1:09.8,右,芝1200m,486.0,ＷＡＳＪ第３戦,,晴,牝,54.0,2016/08/28,15:01,サラ系３歳以上１０００万下(混)[指]定量,3,2札幌,安田隆行 (栗東),1500、600、380、230、150万円,6,オウケンビリーヴ,良,3,戸崎圭太,3
0,1:10.2,右,芝1200m,466.0,ＷＡＳＪ第３戦,,晴,牝,56.0,2016/08/28,15:01,サラ系３歳以上１０００万下(混)[指]定量,3,2札幌,牧浦充徳 (栗東),1500、600、380、230、150万円,12,アヴァール,良,4,岩田康誠,5
0,1:09.9,右,芝1200m,540.0,ＷＡＳＪ第３戦,,晴,牡,58.0,2016/08/28,15:01,サラ系３歳以上１０００万下(混)[指]定量,4,2札幌,戸田博文 (美浦),1500、600、380、230、150万円,7,クロムレック,良,5,ウィリア,6
0,1:10.0,右,芝1200m,460.0,ＷＡＳＪ第３戦,,晴,牝,56.0,2016/08/28,15:01,サラ系３歳以上１０００万下(混)[指]定量,4,2札幌,高橋康之 (栗東),1500、600、380、230、150万円,8,レオパルディナ,良,6,川田将雅,4
0,1:09.5,右,芝1200m,476.0,ＷＡＳＪ第３戦,,晴,牝,56.0,2016/08/28,15:01,サラ系３歳以上１０００万下(混)[指]定量,5,2札幌,本田優 (栗東),1500、600、380、230、150万円,3,グレイスミノル,良,7,ウィルソ,4
0,1:10.2,右,芝1200m,508.0,ＷＡＳＪ第３戦,,晴,牡,58.0,2016/08/28,15:01,サラ系３歳以上１０００万下(混)[指]定量,5,2札幌,柄崎孝 (美浦),1500、600、380、230、150万円,9,スズカプリオール,良,8,内田博幸,5
0,1:09.8,右,芝1200m,440.0,ＷＡＳＪ第３戦,,晴,牡,58.0,2016/08/28,15:01,サラ系３歳以上１０００万下(混)[指]定量,6,2札幌,杉浦宏昭 (美浦),1500、600、380、230、150万円,5,イキオイ,良,9,永森大智,4
0,1:09.6,右,芝1200m,504.0,ＷＡＳＪ第３戦,,晴,牡,58.0,2016/08/28,15:01,サラ系３歳以上１０００万下(混)[指]定量,6,2札幌,池上昌弘 (美浦),1500、600、380、230、150万円,4,サザンライツ,良,10,Ｃ．デム,5
0,1:09.5,右,芝1200m,486.0,ＷＡＳＪ第３戦,,晴,牡,58.0,2016/08/28,15:01,サラ系３歳以上１０００万下(混)[指]定量,7,2札幌,斎藤誠 (美浦),1500、600、380、230、150万円,2,イッテツ,良,11,武豊,4
0,1:09.5,右,芝1200m,478.0,ＷＡＳＪ第３戦,,晴,牝,56.0,2016/08/28,15:01,サラ系３歳以上１０００万下(混)[指]定量,7,2札幌,高市圭二 (美浦),1500、600、380、230、150万円,1,クリノハッチャン,良,12,Ｍ．デム,5
0,1:10.2,右,芝1200m,480.0,ＷＡＳＪ第３戦,,晴,牡,58.0,2016/08/28,15:01,サラ系３歳以上１０００万下(混)[指]定量,8,2札幌,岡田稲男 (栗東),1500、600、380、230、150万円,10,ケッキセヨ,良,14,蛯名正義,6
