,単勝,枠番,複勝最大,複勝最小,馬名,馬番
0,3.2,1.0,1.8,1.2,ゴールデンティアラ,1.0
0,51.3,2.0,8.5,4.7,アジロ,2.0
0,17.1,3.0,4.3,2.5,アグネスルコリエ,3.0
0,21.4,4.0,5.9,3.4,バークレアヴィガ,4.0
0,213.3,4.0,56.9,30.5,シンボリテレサ,5.0
0,279.9,5.0,63.6,34.1,リョーシンヒナタ,6.0
0,6.2,5.0,2.4,1.5,アルマレイモミ,7.0
0,11.4,6.0,5.3,3.0,ゴールドトパーズ,8.0
0,82.4,6.0,22.8,12.3,タカイチモン,9.0
0,50.1,7.0,17.0,9.2,オルテジー,10.0
0,48.6,7.0,13.1,7.1,ソットヴォーチェ,11.0
0,2.6,8.0,1.5,1.1,シャインプラチナム,12.0
0,7.7,8.0,2.6,1.6,ミスズマンボ,13.0
