,競技場,時刻,レース情報,レース周り,天気,馬場状態,枠番,馬番,馬名,性別,齢,騎手名,斤量,体重,順位,タイム
0,小倉,12:20,芝1200m,右,晴,良,1.0,1.0,カズマペッピーノ,牡,2.0,藤岡康,54.0,490.0,4.0,1:11.0
0,小倉,12:20,芝1200m,右,晴,良,2.0,2.0,シゲルクーガー,,0.0,松若,54.0,464.0,11.0,1:13.6
0,小倉,12:20,芝1200m,右,晴,良,3.0,3.0,カシノタイム,,0.0,太宰,54.0,420.0,10.0,1:13.0
0,小倉,12:20,芝1200m,右,晴,良,4.0,4.0,イノレンジャー,牡,2.0,バルジュー,54.0,472.0,12.0,1:17.4
0,小倉,12:20,芝1200m,右,晴,良,5.0,5.0,シゲルカモシカ,牡,2.0,和田,54.0,446.0,5.0,1:11.0
0,小倉,12:20,芝1200m,右,晴,良,5.0,6.0,メイショウシラサギ,牝,2.0,酒井,54.0,432.0,8.0,1:11.8
0,小倉,12:20,芝1200m,右,晴,良,6.0,7.0,シゲルアミメキリン,牡,2.0,義,52.0,460.0,9.0,1:11.9
0,小倉,12:20,芝1200m,右,晴,良,6.0,8.0,ヤクシャハソロッタ,牝,2.0,荻野極,51.0,440.0,7.0,1:11.2
0,小倉,12:20,芝1200m,右,晴,良,7.0,9.0,シュンヒーロー,牡,2.0,ホワイト,54.0,480.0,6.0,1:11.2
0,小倉,12:20,芝1200m,右,晴,良,7.0,10.0,ハッピーマテリアル,牝,2.0,武豊,54.0,464.0,3.0,1:10.9
0,小倉,12:20,芝1200m,右,晴,良,8.0,11.0,ドリームアロー,牡,2.0,松山,54.0,394.0,1.0,1:10.6
0,小倉,12:20,芝1200m,右,晴,良,8.0,12.0,アッティーヴォ,牡,2.0,幸,54.0,436.0,2.0,1:10.9
