,競技場,時刻,レース情報,レース周り,天気,馬場状態,枠番,馬番,馬名,性別,齢,騎手名,斤量,体重,順位,タイム
0,新潟,10:10,芝1600m,左,晴,良,1.0,1.0,ゴールドステップ,牝,2.0,横山典,54.0,472.0,8.0,1:36.7
0,新潟,10:10,芝1600m,左,晴,良,2.0,2.0,ココホレワンワン,牡,2.0,嘉藤,54.0,456.0,13.0,1:37.5
0,新潟,10:10,芝1600m,左,晴,良,2.0,3.0,テンエイハヤブサ,牡,2.0,杉原,54.0,422.0,11.0,1:37.3
0,新潟,10:10,芝1600m,左,晴,良,3.0,4.0,マスラオ,牡,2.0,戸崎圭,54.0,434.0,9.0,1:36.8
0,新潟,10:10,芝1600m,左,晴,良,3.0,5.0,ジュニエーブル,牡,2.0,吉田豊,54.0,432.0,1.0,1:34.7
0,新潟,10:10,芝1600m,左,晴,良,4.0,6.0,オレンジポピー,牝,2.0,武士沢,54.0,468.0,14.0,1:37.9
0,新潟,10:10,芝1600m,左,晴,良,4.0,7.0,シゲルクロジャガー,牡,2.0,田中勝,54.0,444.0,15.0,1:40.0
0,新潟,10:10,芝1600m,左,晴,良,5.0,8.0,コスモメソッド,牝,2.0,柴田大,54.0,496.0,7.0,1:36.6
0,新潟,10:10,芝1600m,左,晴,良,5.0,9.0,ミスミーチャン,牝,2.0,Ｍデムーロ,54.0,420.0,4.0,1:35.6
0,新潟,10:10,芝1600m,左,晴,良,6.0,10.0,コスモローイエット,牡,2.0,津村,54.0,486.0,10.0,1:37.0
0,新潟,10:10,芝1600m,左,晴,良,6.0,11.0,スグスキシッパイ,牡,2.0,野中,51.0,430.0,5.0,1:36.4
0,新潟,10:10,芝1600m,左,晴,良,7.0,12.0,ムーンザムーン,牝,2.0,蛯名,54.0,452.0,2.0,1:35.0
0,新潟,10:10,芝1600m,左,晴,良,7.0,13.0,ステラポラーレ,牡,2.0,石川,53.0,448.0,12.0,1:37.3
0,新潟,10:10,芝1600m,左,晴,良,8.0,14.0,マツリダダイキチ,牡,2.0,内田博,54.0,496.0,6.0,1:36.6
0,新潟,10:10,芝1600m,左,晴,良,8.0,15.0,シュウチョウ,牡,2.0,大野,54.0,460.0,3.0,1:35.6
