,競技場,時刻,レース情報,レース周り,天気,馬場状態,枠番,馬番,馬名,性別,齢,騎手名,斤量,体重,順位,タイム
0,新潟,11:35,芝1800m,左,晴,良,1.0,1.0,ゴールドエフォート,牝,3.0,丸山,54.0,450.0,4.0,1:46.4
0,新潟,11:35,芝1800m,左,晴,良,1.0,2.0,アンジェリカス,牝,3.0,大野,54.0,478.0,11.0,1:46.7
0,新潟,11:35,芝1800m,左,晴,良,2.0,3.0,ユキハナ,牝,3.0,武士沢,54.0,482.0,16.0,1:47.7
0,新潟,11:35,芝1800m,左,晴,良,2.0,4.0,クラウングレイス,牝,3.0,蛯名,54.0,482.0,6.0,1:46.5
0,新潟,11:35,芝1800m,左,晴,良,3.0,5.0,レッドヴァローレ,牝,3.0,石橋脩,54.0,448.0,12.0,1:46.8
0,新潟,11:35,芝1800m,左,晴,良,3.0,6.0,ニシノケイト,牝,3.0,木幡巧,51.0,456.0,10.0,1:46.7
0,新潟,11:35,芝1800m,左,晴,良,4.0,7.0,ダノンミラクル,牝,3.0,木幡初,51.0,442.0,13.0,1:47.1
0,新潟,11:35,芝1800m,左,晴,良,4.0,8.0,デイジーベル,牝,3.0,津村,54.0,452.0,14.0,1:47.4
0,新潟,11:35,芝1800m,左,晴,良,5.0,9.0,フジコハルビヨリ,牝,3.0,野中,51.0,432.0,17.0,1:48.1
0,新潟,11:35,芝1800m,左,晴,良,5.0,10.0,コスモレティクルム,牝,3.0,柴田大,54.0,436.0,8.0,1:46.5
0,新潟,11:35,芝1800m,左,晴,良,6.0,11.0,デネブ,牝,3.0,吉井友,54.0,522.0,18.0,1:48.7
0,新潟,11:35,芝1800m,左,晴,良,6.0,12.0,アポロオスカー,牝,3.0,戸崎圭,54.0,436.0,1.0,1:46.1
0,新潟,11:35,芝1800m,左,晴,良,7.0,13.0,スターズレディ,牝,3.0,Ｍデムーロ,54.0,454.0,7.0,1:46.5
0,新潟,11:35,芝1800m,左,晴,良,7.0,14.0,フォルテミニョン,牝,3.0,吉田豊,54.0,448.0,15.0,1:47.6
0,新潟,11:35,芝1800m,左,晴,良,7.0,15.0,ヘラルドスクエア,牝,3.0,石川,53.0,400.0,3.0,1:46.4
0,新潟,11:35,芝1800m,左,晴,良,8.0,16.0,ブリリアントタイム,牝,3.0,柴田善,54.0,434.0,9.0,1:46.6
0,新潟,11:35,芝1800m,左,晴,良,8.0,17.0,ダンスパープル,牝,3.0,内田博,54.0,452.0,2.0,1:46.2
0,新潟,11:35,芝1800m,左,晴,良,8.0,18.0,フィールザオーロラ,牝,3.0,田中勝,54.0,446.0,5.0,1:46.4
