,競技場,時刻,レース情報,レース周り,天気,馬場状態,枠番,馬番,馬名,性別,齢,騎手名,斤量,体重,順位,タイム
0,小倉,10:30,芝1800m,右,晴,良,1.0,1.0,シゲルクロサイ,牡,2.0,国分優,54.0,464.0,16.0,1:53.7
0,小倉,10:30,芝1800m,右,晴,良,1.0,2.0,ナインゴラン,牡,2.0,高倉,54.0,458.0,11.0,1:51.3
0,小倉,10:30,芝1800m,右,晴,良,2.0,3.0,ダノンオブザイヤー,牡,2.0,ホワイト,54.0,484.0,3.0,1:49.2
0,小倉,10:30,芝1800m,右,晴,良,2.0,4.0,ジューンリーザ,牝,2.0,国分恭,54.0,442.0,14.0,1:52.3
0,小倉,10:30,芝1800m,右,晴,良,3.0,5.0,マイティドリーム,牡,2.0,武豊,54.0,472.0,2.0,1:49.2
0,小倉,10:30,芝1800m,右,晴,良,3.0,6.0,シンゼンキング,牡,2.0,小牧,54.0,454.0,9.0,1:51.1
0,小倉,10:30,芝1800m,右,晴,良,4.0,7.0,サマーサプライズ,牡,2.0,浜中,54.0,462.0,1.0,1:49.2
0,小倉,10:30,芝1800m,右,晴,良,4.0,8.0,フレーバー,牝,2.0,バルジュー,54.0,456.0,6.0,1:50.1
0,小倉,10:30,芝1800m,右,晴,良,5.0,9.0,シゲルキツネ,牝,2.0,義,52.0,420.0,7.0,1:50.3
0,小倉,10:30,芝1800m,右,晴,良,5.0,10.0,タガノラガッツォ,牡,2.0,和田,54.0,430.0,10.0,1:51.3
0,小倉,10:30,芝1800m,右,晴,良,6.0,11.0,ドライビングレイン,牝,2.0,鮫島良,54.0,456.0,13.0,1:52.3
0,小倉,10:30,芝1800m,右,晴,良,6.0,12.0,レッドクライム,牡,2.0,川田,54.0,470.0,4.0,1:49.5
0,小倉,10:30,芝1800m,右,晴,良,7.0,13.0,バーニングテイスト,牝,2.0,酒井,54.0,480.0,15.0,1:52.8
0,小倉,10:30,芝1800m,右,晴,良,7.0,14.0,リネンロマン,牝,2.0,鮫島駿,53.0,410.0,5.0,1:49.6
0,小倉,10:30,芝1800m,右,晴,良,8.0,15.0,ハイクアウト,牡,2.0,幸,54.0,482.0,8.0,1:50.5
0,小倉,10:30,芝1800m,右,晴,良,8.0,16.0,トーキングポイント,牡,2.0,中谷,54.0,520.0,12.0,1:51.6
