,競技場,時刻,レース情報,レース周り,天気,馬場状態,枠番,馬番,馬名,性別,齢,騎手名,斤量,体重,順位,タイム
0,新潟,11:40,障2850m,芝,晴,良,1.0,1.0,ダイメイサンジ,牡,7.0,中村,60.0,490.0,10.0,3:09.2
0,新潟,11:40,障2850m,芝,晴,良,2.0,2.0,マンボネフュー,牡,6.0,石神,60.0,502.0,7.0,3:07.5
0,新潟,11:40,障2850m,芝,晴,良,3.0,3.0,ブレイドフォース,牡,3.0,小野寺,58.0,480.0,9.0,3:08.3
0,新潟,11:40,障2850m,芝,晴,良,3.0,4.0,シゲルロウニンアジ,牡,3.0,植野,58.0,478.0,5.0,3:07.2
0,新潟,11:40,障2850m,芝,晴,良,4.0,5.0,ガチバトル,牡,6.0,五十嵐,60.0,454.0,3.0,3:05.8
0,新潟,11:40,障2850m,芝,晴,良,4.0,6.0,ウインイルソーレ,牡,5.0,山本,60.0,480.0,1.0,3:05.5
0,新潟,11:40,障2850m,芝,晴,良,5.0,7.0,ナンヨーケンゴー,,0.0,草野,60.0,472.0,4.0,3:06.3
0,新潟,11:40,障2850m,芝,晴,良,5.0,8.0,グリーティングワン,牡,6.0,蓑島,60.0,440.0,2.0,3:05.6
0,新潟,11:40,障2850m,芝,晴,良,6.0,9.0,ドリームメモリー,牝,4.0,高野,58.0,460.0,14.0,3:11.9
0,新潟,11:40,障2850m,芝,晴,良,6.0,10.0,アサクサゴールド,牡,6.0,浜野谷,60.0,466.0,11.0,3:09.4
0,新潟,11:40,障2850m,芝,晴,良,7.0,11.0,ブリリアントミノル,牡,5.0,鈴木,60.0,458.0,6.0,3:07.4
0,新潟,11:40,障2850m,芝,晴,良,7.0,12.0,オリエンタルイギー,牡,3.0,大江原,58.0,468.0,8.0,3:08.0
0,新潟,11:40,障2850m,芝,晴,良,8.0,13.0,タマモマズルカ,牡,5.0,金子,60.0,530.0,13.0,3:11.7
0,新潟,11:40,障2850m,芝,晴,良,8.0,14.0,サードグラッド,牡,4.0,江田勇,60.0,500.0,12.0,3:09.6
