,枠番,馬番,馬名,単勝オッズ,複勝オッズ最小,複勝オッズ最大
0,1.0,1.0,アクアマリンブレス,36.1,6.1,9.9
0,2.0,2.0,ツクバイーメーカー,28.1,3.8,6.1
0,3.0,3.0,コスモアルマク,38.6,7.0,11.4
0,4.0,4.0,ワンダフルニュース,46.3,7.2,11.7
0,5.0,5.0,サトノギャラクシー,75.4,9.6,15.6
0,5.0,6.0,フレンドミラクル,4.2,1.3,1.6
0,6.0,7.0,プラネットブルー,99.3,8.5,13.9
0,6.0,8.0,レオニーズ,4.5,1.7,2.5
0,7.0,9.0,ペイシャゴンジセ,25.4,4.2,6.7
0,7.0,10.0,トーセンアーネスト,3.4,1.3,1.7
0,8.0,11.0,サングラスポテト,7.1,2.0,3.0
0,8.0,12.0,トウシンタイガー,5.1,1.5,2.3
