,枠番,馬番,馬名,単勝オッズ,複勝オッズ最小,複勝オッズ最大
0,1.0,1.0,ニーマルキング,26.8,4.3,7.0
0,1.0,2.0,ケルベロス,14.9,2.7,4.3
0,2.0,3.0,ウインスラッガー,97.9,12.8,21.6
0,2.0,4.0,ミラクルナイト,173.0,19.4,32.9
0,3.0,5.0,セレナビアンカ,152.9,18.8,31.9
0,3.0,6.0,クインズサン,4.3,1.4,2.1
0,4.0,7.0,ヤギリジャスパー,107.9,9.1,15.2
0,4.0,8.0,ストリートキャップ,2.6,1.2,1.5
0,5.0,9.0,シャドウカラーズ,179.7,24.7,41.8
0,5.0,10.0,ヨイミヤ,24.8,4.7,7.7
0,6.0,11.0,サイモングレゴリー,376.1,56.5,96.0
0,6.0,12.0,ボルゲーゼ,11.8,2.5,4.0
0,7.0,13.0,モンテエベレスト,15.4,2.9,4.6
0,7.0,14.0,シークレットベース,129.2,17.4,29.4
0,7.0,15.0,エーデルメイシュ,10.8,2.9,4.6
0,8.0,16.0,カケダシ,388.8,60.9,103.5
0,8.0,17.0,スミレタンポポ,165.3,22.1,37.4
0,8.0,18.0,スモークフリー,4.9,1.5,2.2
