,枠番,馬番,馬名,単勝オッズ,複勝オッズ最小,複勝オッズ最大
0,1.0,1.0,シンキロウ,73.2,8.3,23.7
0,2.0,2.0,メナスコ,51.2,6.6,18.7
0,3.0,3.0,オブリゲーション,8.8,1.8,4.3
0,4.0,4.0,ストロングタイタン,1.7,1.1,1.1
0,5.0,5.0,レッドカイザー,15.1,2.3,5.8
0,6.0,6.0,ラブコール,27.9,3.9,10.8
0,6.0,7.0,マコトサダイジン,7.0,1.6,3.9
0,7.0,8.0,フロレットアレー,6.4,1.4,3.1
0,7.0,9.0,エリタージュゲラン,86.6,9.8,28.1
0,8.0,10.0,ゴールドインゴット,8.8,1.8,4.4
0,8.0,11.0,エアシーラン,82.0,11.4,33.0
