,枠番,馬番,馬名,単勝オッズ,複勝オッズ最小,複勝オッズ最大
0,1.0,1.0,カズマペッピーノ,12.4,3.0,4.3
0,2.0,2.0,シゲルクーガー,29.1,5.7,8.3
0,3.0,3.0,カシノタイム,103.7,19.2,27.9
0,4.0,4.0,イノレンジャー,40.5,6.9,10.1
0,5.0,5.0,シゲルカモシカ,7.9,1.7,2.3
0,5.0,6.0,メイショウシラサギ,13.3,2.9,4.1
0,6.0,7.0,シゲルアミメキリン,103.7,17.0,24.8
0,6.0,8.0,ヤクシャハソロッタ,4.8,1.5,2.0
0,7.0,9.0,シュンヒーロー,4.5,1.6,2.2
0,7.0,10.0,ハッピーマテリアル,4.1,1.6,2.1
0,8.0,11.0,ドリームアロー,8.1,2.1,2.9
0,8.0,12.0,アッティーヴォ,25.7,6.3,9.1
