,枠番,馬番,馬名,単勝オッズ,複勝オッズ最小,複勝オッズ最大
0,1.0,1.0,ダブルフラワー,35.0,4.6,7.3
0,2.0,2.0,レッドリュンヌ,98.0,16.5,26.9
0,3.0,3.0,ティルヴィング,14.0,3.4,5.4
0,3.0,4.0,トーセンナチュラル,118.2,17.6,28.8
0,4.0,5.0,ウインアキレア,2.7,1.3,1.6
0,4.0,6.0,エクストラファイン,11.8,2.2,3.3
0,5.0,7.0,ニシノハナムスメ,8.4,2.1,3.1
0,5.0,8.0,アドマイヤアロマ,11.1,2.4,3.6
0,6.0,9.0,クリスタルキャノン,42.9,9.7,15.7
0,6.0,10.0,ロッカフラベイビー,4.4,1.5,2.0
0,7.0,11.0,ヌーヴェルダンス,32.8,6.1,9.7
0,7.0,12.0,クリノクレオパトラ,166.2,28.1,46.0
0,8.0,13.0,エミーズレシピ,17.0,4.0,6.3
0,8.0,14.0,フェイズベロシティ,8.0,1.9,2.9
