,枠番,馬番,馬名,単勝オッズ,複勝オッズ最小,複勝オッズ最大
0,1.0,1.0,ショウナンカラーズ,262.6,29.9,65.8
0,1.0,2.0,グランドガール,9.4,1.5,2.7
0,2.0,3.0,ナムラバウアー,198.2,18.3,40.1
0,2.0,4.0,マイアミトロピカル,4.4,1.2,1.8
0,3.0,5.0,ホノルア,36.1,3.8,7.8
0,3.0,6.0,メイショウグジョウ,66.1,8.8,19.0
0,4.0,7.0,コウエイダリア,371.6,36.2,79.6
0,4.0,8.0,オニチャン,42.1,4.8,10.1
0,5.0,9.0,ラニカイサンデー,1.8,1.1,1.2
0,5.0,10.0,イイコトバカリ,17.2,3.0,6.1
0,6.0,11.0,ダンツアムール,205.1,24.6,54.2
0,6.0,12.0,ナムラボンド,95.6,8.8,18.9
0,7.0,13.0,リッカゴールド,179.1,20.5,44.9
0,7.0,14.0,ミュークレックス,20.2,3.0,6.0
0,7.0,15.0,メイショウカリン,23.8,3.2,6.6
0,8.0,16.0,ヴィグランドサヤカ,70.4,7.9,17.0
0,8.0,17.0,タガノグルナ,40.1,4.8,10.1
0,8.0,18.0,ペプチドホープ,35.5,4.8,10.2
