,枠番,馬番,馬名,単勝オッズ,複勝オッズ最小,複勝オッズ最大
0,1.0,1.0,サノノジャングル,60.5,10.7,16.7
0,2.0,2.0,パシオンシャンス,52.3,9.2,14.4
0,3.0,3.0,リンクスゼロ,4.7,1.6,2.3
0,4.0,4.0,マイネルバールマン,2.0,1.2,1.4
0,5.0,5.0,サンアンカレッジ,124.4,35.8,55.6
0,6.0,6.0,ハッピーランラン,3.1,1.4,2.0
0,7.0,7.0,タケショウベスト,7.4,2.4,3.6
