,枠番,馬番,馬名,単勝オッズ,複勝オッズ最小,複勝オッズ最大
0,1.0,1.0,シンボリマティス,118.7,22.4,33.5
0,1.0,2.0,リックカグラ,564.1,95.5,142.6
0,2.0,3.0,サンクタリリアス,26.3,6.6,9.6
0,2.0,4.0,ピュアリーソリッド,11.1,2.9,4.0
0,3.0,5.0,コウユーココロザシ,19.5,3.5,5.1
0,3.0,6.0,トラストレイカ,87.5,15.8,23.5
0,4.0,7.0,ミキノドラマー,6.9,2.1,2.9
0,4.0,8.0,アースエンジェル,3.1,1.4,1.7
0,5.0,9.0,ワラッチャオ,18.4,4.3,6.2
0,5.0,10.0,スペチアーレ,13.0,3.2,4.6
0,6.0,11.0,ラブミーリバティー,120.8,19.4,28.9
0,6.0,12.0,パンプルムース,15.2,4.0,5.7
0,7.0,13.0,テセラレフィナード,39.3,5.9,8.7
0,7.0,14.0,クリノチョモラーリ,304.1,43.5,65.0
0,7.0,15.0,メランコリア,38.1,6.5,9.6
0,8.0,16.0,キーウエスト,10.0,3.2,4.6
0,8.0,17.0,ソアリングホーク,6.3,1.9,2.6
0,8.0,18.0,ブロンディジェニー,13.6,3.1,4.4
