,枠番,馬番,馬名,単勝オッズ,複勝オッズ最小,複勝オッズ最大
0,1.0,1.0,フェルメッツァ,3.4,1.2,1.6
0,2.0,2.0,ダイヤモンドダンス,21.7,3.2,5.1
0,3.0,3.0,ウインマーレライ,8.1,1.8,2.8
0,4.0,4.0,シャドウアプローチ,2.9,1.2,1.7
0,5.0,5.0,キャットコイン,20.3,4.4,7.1
0,6.0,6.0,サンソヴール,7.4,1.8,2.8
0,7.0,7.0,トウカイオーロラ,55.7,7.5,12.4
0,7.0,8.0,ミエノワンダー,5.2,1.4,2.0
0,8.0,9.0,レッドシャンクス,23.6,4.3,7.1
0,8.0,10.0,ロードエフォール,62.9,7.6,12.5
