,枠番,馬番,馬名,単勝オッズ,複勝オッズ最小,複勝オッズ最大
0,1.0,1.0,メイショウハバネラ,1.8,1.1,1.1
0,2.0,2.0,エドワード,144.5,10.7,35.5
0,3.0,3.0,ベルウッドカペラ,4.2,1.2,3.0
0,4.0,4.0,シゲルベンガルトラ,4.5,1.1,2.2
0,5.0,5.0,ウイナーズロード,12.5,1.5,3.9
0,6.0,6.0,ミルトドリーム,32.3,4.2,13.2
0,7.0,7.0,ラニカイシチー,47.6,4.0,12.5
0,7.0,8.0,タガノエクレール,24.5,2.5,7.4
0,8.0,9.0,シゲルオカピ,167.5,12.6,41.7
0,8.0,10.0,マイネルファート,90.3,6.9,22.5
