,枠番,馬番,馬名,単勝オッズ,複勝オッズ最小,複勝オッズ最大
0,1.0,1.0,サンボストン,129.7,17.1,34.4
0,2.0,2.0,ピンクスター,21.3,3.2,6.2
0,3.0,3.0,ユアスイスイ,2.2,1.1,1.3
0,4.0,4.0,オコルデヤスシ,31.8,4.7,9.2
0,5.0,5.0,バルコラベーロ,17.6,3.2,6.2
0,6.0,6.0,ジュンキタフーレン,9.3,1.7,3.0
0,7.0,7.0,コンゴウトシオー,3.7,1.1,1.7
0,8.0,8.0,マイネルヴィレ,13.4,2.0,3.7
0,8.0,9.0,ミスパンテール,6.5,1.3,2.3
