,枠番,馬番,馬名,単勝オッズ,複勝オッズ最小,複勝オッズ最大
0,1.0,1.0,アカネバローロ,19.8,4.5,6.8
0,1.0,2.0,イリデッセンス,6.4,1.7,2.4
0,2.0,3.0,スターリットナイト,3.6,1.4,1.8
0,2.0,4.0,ダイトカイ,88.5,20.0,31.3
0,3.0,5.0,ドゥラセア,51.9,9.8,15.3
0,3.0,6.0,アイアンアヴァロン,40.6,5.9,9.1
0,4.0,7.0,メイショウゴッデス,126.9,15.0,23.5
0,4.0,8.0,フォーチュンラック,17.7,5.0,7.6
0,5.0,9.0,アップスタイル,230.3,45.7,71.6
0,5.0,10.0,オールフォーユー,153.6,31.7,49.6
0,6.0,11.0,エイシンウィキ,8.6,2.3,3.3
0,6.0,12.0,セトノチーター,7.2,2.2,3.2
0,7.0,13.0,シゲルメジロザメ,3.9,1.5,2.0
0,7.0,14.0,パッソ,37.8,9.6,14.9
0,8.0,15.0,フラックス,17.7,3.7,5.6
0,8.0,16.0,イケジュンクイーン,17.7,2.8,4.2
