,枠番,馬番,馬名,単勝オッズ,複勝オッズ最小,複勝オッズ最大
0,1.0,1.0,サトノアッシュ,10.7,2.1,3.6
0,2.0,2.0,サトノキングダム,2.4,1.2,1.6
0,3.0,3.0,ノガロ,7.2,1.6,2.6
0,4.0,4.0,レインボーフラッグ,15.5,2.7,4.7
0,5.0,5.0,レインボーラヴラヴ,19.5,2.9,5.1
0,5.0,6.0,ワキノヒビキ,81.4,7.7,14.5
0,6.0,7.0,サーストンコラルド,122.4,11.6,22.0
0,6.0,8.0,アストラエンブレム,2.8,1.2,1.6
0,7.0,9.0,チャンピオンルパン,23.8,3.2,5.7
0,7.0,10.0,メイショウオオゼキ,378.5,37.5,71.9
0,8.0,11.0,プレミオテーラー,11.7,2.0,3.5
0,8.0,12.0,スパーブデイ,368.3,32.1,61.5
