,枠番,馬番,馬名,単勝オッズ,複勝オッズ最小,複勝オッズ最大
0,1.0,1.0,シャンタルエット,13.2,3.1,4.1
0,2.0,2.0,ギブナッシンバック,59.2,10.9,14.5
0,3.0,3.0,リヴァイバル,5.2,2.5,3.2
0,4.0,4.0,エヴォリューション,14.0,3.4,4.5
0,4.0,5.0,エンパイアブレイク,10.2,3.2,4.2
0,5.0,6.0,サンヘレナ,8.2,2.2,2.9
0,5.0,7.0,ハマヒルガオ,5.3,2.2,2.8
0,6.0,8.0,エクストラペトル,26.5,4.9,6.6
0,6.0,9.0,メイショウナゴミ,12.3,2.7,3.5
0,7.0,10.0,コウセイマユヒメ,21.9,4.3,5.7
0,7.0,11.0,ロックキャンディ,7.8,2.5,3.3
0,8.0,12.0,パパラヴズマンボ,5.2,1.6,1.9
0,8.0,13.0,ジョンブドール,96.4,20.4,27.0
