,枠番,馬番,馬名,単勝オッズ,複勝オッズ最小,複勝オッズ最大
0,1.0,1.0,ドウディ,17.9,3.6,5.2
0,1.0,2.0,キューティロンプ,24.0,4.4,6.4
0,2.0,3.0,メロディーア,6.9,2.2,3.0
0,2.0,4.0,シゲルボスザル,137.2,21.8,32.4
0,3.0,5.0,セイクリッドサイト,28.4,6.3,9.3
0,3.0,6.0,ドラゴンランス,5.9,1.9,2.6
0,4.0,7.0,ニーマルサンデー,34.1,6.1,8.9
0,4.0,8.0,ミヤビキャッスル,79.7,13.4,19.9
0,5.0,9.0,グリトニル,46.7,8.7,12.9
0,5.0,10.0,サントリーニ,85.3,12.6,18.8
0,6.0,11.0,ハルスケッテ,130.4,23.5,35.0
0,6.0,12.0,ヴォーガ,47.7,6.7,9.9
0,7.0,13.0,プロディジャス,3.2,1.4,1.7
0,7.0,14.0,カリーニョミノル,8.5,2.2,3.0
0,8.0,15.0,ヴェルディアーナ,11.4,2.7,3.8
0,8.0,16.0,マイネルルミノーソ,59.2,10.5,15.6
0,8.0,17.0,スリーグリン,9.9,2.3,3.2
