,枠番,馬番,馬名,単勝オッズ,複勝オッズ最小,複勝オッズ最大
0,1.0,1.0,ラディウス,6.0,1.9,2.6
0,2.0,2.0,マイネルネーベル,15.1,2.9,4.1
0,3.0,3.0,パリカラノテガミ,12.1,2.7,3.7
0,3.0,4.0,シングンジョーカー,12.2,2.9,4.1
0,4.0,5.0,ピックミータッチ,3.1,1.5,1.9
0,4.0,6.0,シベリアンタイガー,60.5,12.1,17.5
0,5.0,7.0,クロニクルスカイ,115.1,19.3,27.9
0,5.0,8.0,エイシンノーティス,18.2,3.4,4.7
0,6.0,9.0,オウケンブラック,6.5,1.8,2.4
0,6.0,10.0,ブルーホール,170.3,33.8,48.8
0,7.0,11.0,イレプレイスブル,77.9,8.3,11.9
0,7.0,12.0,ロードヴァンドール,4.4,1.8,2.3
0,8.0,13.0,ショウナンハルカス,18.5,3.7,5.3
0,8.0,14.0,メイショウテッサイ,97.6,15.2,21.9
