,枠番,馬番,馬名,単勝オッズ,複勝オッズ最小,複勝オッズ最大
0,1.0,1.0,マイネルラムセス,68.8,9.8,15.0
0,2.0,2.0,サンジレット,26.9,3.4,5.2
0,3.0,3.0,ビーチマリカ,3.4,1.3,1.6
0,4.0,4.0,シークレットプラン,24.6,3.9,5.9
0,5.0,5.0,レヴリミット,25.6,4.6,7.0
0,6.0,6.0,カンムル,37.1,7.7,11.8
0,6.0,7.0,カツヴィーナス,15.8,2.9,4.4
0,7.0,8.0,バニーテール,3.6,1.5,2.1
0,7.0,9.0,ゴールドスカル,10.2,2.2,3.2
0,8.0,10.0,ボクハチャーリー,5.6,1.5,2.2
0,8.0,11.0,フィアマロッサ,8.6,1.9,2.8
