,枠番,馬番,馬名,単勝オッズ,複勝オッズ最小,複勝オッズ最大
0,1.0,1.0,ニシノタカラモノ,287.5,36.1,63.9
0,1.0,2.0,マイネルラザンツ,32.5,3.9,6.6
0,2.0,3.0,フェルナンド,92.5,16.4,28.8
0,2.0,4.0,ヒラボクマドンナ,3.4,1.3,1.7
0,3.0,5.0,アフィニータ,3.9,1.4,2.2
0,3.0,6.0,デルマネネ,330.0,35.9,63.6
0,4.0,7.0,ベルウッドサコン,73.8,9.5,16.6
0,4.0,8.0,カーニバル,17.6,4.2,7.1
0,5.0,9.0,トーホウカンナ,34.7,4.6,7.8
0,5.0,10.0,ルックオブラヴ,54.9,7.7,13.3
0,6.0,11.0,シャンティエン,269.0,46.8,82.8
0,6.0,12.0,ミガット,368.4,43.7,77.3
0,7.0,13.0,ウエスタンエスプリ,8.6,2.3,3.7
0,7.0,14.0,ドーンフライト,389.2,30.4,53.7
0,7.0,15.0,ウインクロノス,32.4,6.0,10.4
0,8.0,16.0,キングドラゴン,3.3,1.2,1.6
0,8.0,17.0,ウインガーネット,12.9,2.2,3.6
0,8.0,18.0,ミカタ,75.4,7.4,12.7
