,単勝,枠番,複勝最大,複勝最小,馬名,馬番
0,55.6,1.0,11.5,6.1,タピエス,1.0
0,6.3,2.0,2.4,1.4,スズカチャンプ,2.0
0,3.5,3.0,1.7,1.2,メイショウオヤシオ,3.0
0,2.3,4.0,1.2,1.1,ダンツメガヒット,4.0
0,5.9,5.0,2.6,1.5,メイショウヒデタダ,5.0
0,10.9,6.0,4.1,2.2,テイエムシシーポス,6.0
0,12.8,7.0,3.7,2.1,エースワン,7.0
0,34.8,8.0,6.2,3.4,クリノキングムーン,8.0
