,単勝,枠番,複勝最大,複勝最小,馬名,馬番
0,158.4,1.0,41.6,21.3,ダウンタウンブギ,1.0
0,23.2,1.0,6.4,3.5,スズカマサル,2.0
0,130.2,2.0,41.4,21.3,メイショウヤクシマ,3.0
0,1.9,2.0,1.3,1.1,フランドル,4.0
0,27.8,3.0,8.0,4.3,ラファータ,5.0
0,281.7,3.0,79.9,40.8,ニホンピログレード,6.0
0,374.8,4.0,129.0,65.7,リトルトウキョウ,7.0
0,12.0,4.0,3.5,2.0,キングジュエリー,8.0
0,350.2,5.0,83.2,42.4,ワンダールワヨーム,9.0
0,40.7,5.0,10.0,5.3,ブレイジンフェザー,10.0
0,7.3,6.0,2.6,1.5,デューズワイルズ,11.0
0,155.6,6.0,44.9,23.0,エンプレスクー,12.0
0,46.2,7.0,15.1,7.9,イージーゴー,13.0
0,24.2,7.0,8.3,4.5,ダブルアックス,14.0
0,8.3,8.0,3.1,1.8,エイシンリーダー,15.0
0,5.1,8.0,2.2,1.4,テイエムボンドン,16.0
