,タイム,レース周り,レース情報,体重,名称,外回りフラグ,天気,性別,斤量,日付,時刻,条件,枠番,競技場,調教師名,賞金,順位,馬名,馬場状態,馬番,騎手名,齢
0,2:01.7,右,芝2000m,450.0,玄海特別,,曇,牝,52.0,2016/09/03,15:01,サラ系３歳以上１０００万下(混)ハンデ,1,小倉,音無秀孝 (栗東),1500、600、380、230、150万円,11,レッドラヴィータ,良,1,松若風馬,5
0,2:01.1,右,芝2000m,458.0,玄海特別,,曇,牡,54.0,2016/09/03,15:01,サラ系３歳以上１０００万下(混)ハンデ,2,小倉,北出成人 (栗東),1500、600、380、230、150万円,10,イイデフューチャー,良,2,北村友一,5
0,2:01.0,右,芝2000m,496.0,玄海特別,,曇,牡,56.0,2016/09/03,15:01,サラ系３歳以上１０００万下(混)ハンデ,3,小倉,角田晃一 (栗東),1500、600、380、230、150万円,6,ジャズファンク,良,3,秋山真一,4
0,2:00.8,右,芝2000m,484.0,玄海特別,,曇,セ,53.0,2016/09/03,15:01,サラ系３歳以上１０００万下(混)ハンデ,4,小倉,池添兼雄 (栗東),1500、600、380、230、150万円,2,メイショウオオゼキ,良,4,松山弘平,6
0,2:00.2,右,芝2000m,522.0,玄海特別,,曇,牡,53.0,2016/09/03,15:01,サラ系３歳以上１０００万下(混)ハンデ,5,小倉,池江泰寿 (栗東),1500、600、380、230、150万円,1,ストロングタイタン,良,5,川田将雅,3
0,2:01.0,右,芝2000m,454.0,玄海特別,,曇,牡,55.0,2016/09/03,15:01,サラ系３歳以上１０００万下(混)ハンデ,5,小倉,角居勝彦 (栗東),1500、600、380、230、150万円,7,モンドシャルナ,良,6,松田大作,5
0,2:01.0,右,芝2000m,448.0,玄海特別,,曇,牡,53.0,2016/09/03,15:01,サラ系３歳以上１０００万下(混)ハンデ,6,小倉,橋田満 (栗東),1500、600、380、230、150万円,4,アドマイヤコリン,良,7,藤岡康太,8
0,2:01.0,右,芝2000m,474.0,玄海特別,,曇,牡,54.0,2016/09/03,15:01,サラ系３歳以上１０００万下(混)ハンデ,6,小倉,谷潔 (栗東),1500、600、380、230、150万円,8,スズカビスタ,良,8,太宰啓介,5
0,2:01.0,右,芝2000m,474.0,玄海特別,,曇,牡,53.0,2016/09/03,15:01,サラ系３歳以上１０００万下(混)ハンデ,7,小倉,飯田雄三 (栗東),1500、600、380、230、150万円,9,ケージーキンカメ,良,9,酒井学,5
0,2:00.9,右,芝2000m,468.0,玄海特別,,曇,セ,54.0,2016/09/03,15:01,サラ系３歳以上１０００万下(混)ハンデ,7,小倉,松永昌博 (栗東),1500、600、380、230、150万円,3,ビオラフォーエバー,良,10,熊沢重文,5
0,2:02.3,右,芝2000m,468.0,玄海特別,,曇,牡,54.0,2016/09/03,15:01,サラ系３歳以上１０００万下(混)ハンデ,8,小倉,坪憲章 (栗東),1500、600、380、230、150万円,12,スズカウラノス,良,11,義英真,7
0,2:01.0,右,芝2000m,504.0,玄海特別,,曇,牡,54.0,2016/09/03,15:01,サラ系３歳以上１０００万下(混)ハンデ,8,小倉,梅田智之 (栗東),1500、600、380、230、150万円,5,エクストレミティー,良,12,幸英明,5
