,単勝,枠番,複勝最大,複勝最小,馬名,馬番
0,52.7,1.0,26.0,6.2,ハクユウマックス,1.0
0,7.5,2.0,4.2,1.3,ミスターロンリー,2.0
0,33.2,3.0,10.2,2.7,マーブルクリス,3.0
0,224.4,4.0,77.3,17.8,ハナハタチバナ,4.0
0,22.4,5.0,8.5,2.3,ヤクシャハソロッタ,5.0
0,54.8,5.0,17.0,4.2,カシノロマンス,6.0
0,2.1,6.0,1.1,1.1,メイショウルーシー,7.0
0,107.6,6.0,35.1,8.3,コウエイダリア,8.0
0,87.1,7.0,33.0,7.8,マヤアムール,9.0
0,2.5,7.0,1.8,1.1,ダノンチャンス,10.0
0,138.5,8.0,37.0,8.7,ナムラボンド,11.0
0,16.4,8.0,7.2,2.0,ビーカーリー,12.0
