,単勝,枠番,複勝最大,複勝最小,馬名,馬番
0,1.6,1.0,1.1,1.1,リリーシューター,1.0
0,26.3,1.0,9.0,3.2,ニホンピロプレー,2.0
0,25.1,2.0,12.6,4.3,キングジュエリー,3.0
0,33.3,2.0,15.5,5.2,メイショウバッハ,4.0
0,27.3,3.0,10.8,3.8,ユメミグサ,5.0
0,7.4,3.0,3.1,1.4,テイエムボンドン,6.0
0,181.8,4.0,100.9,32.4,スイートアリエッタ,7.0
0,134.2,4.0,35.6,11.6,ナリタマカニ,8.0
0,19.0,5.0,8.4,3.0,ストレイタス,9.0
0,69.2,5.0,55.1,17.8,ファントムカフェ,10.0
0,9.1,6.0,4.7,1.8,ガリゲット,11.0
0,35.1,6.0,14.7,5.0,ドリームフォー,12.0
0,68.4,7.0,35.2,11.5,ティーパフォーマー,13.0
0,24.7,7.0,13.1,4.5,メイショウセグレタ,14.0
0,15.4,8.0,7.9,2.8,ラインダール,15.0
0,22.1,8.0,11.8,4.1,ペリコール,16.0
