,タイム,レース周り,レース情報,体重,名称,外回りフラグ,天気,性別,斤量,日付,時刻,条件,枠番,競技場,調教師名,賞金,順位,馬名,馬場状態,馬番,騎手名,齢
0,1:10.3,右,芝1200m,424.0,北九州記念,,晴,牡,55.0,2016/08/21,15:25,サラ系３歳以上オープン(国際)(特指)ハンデ,1,小倉,松永昌博 (栗東),3900、1600、980、590、390万円,12,ラインスピリット,良,1,幸英明,5
0,1:09.3,右,芝1200m,492.0,北九州記念,,晴,牝,51.0,2016/08/21,15:25,サラ系３歳以上オープン(国際)(特指)ハンデ,2,小倉,木原一良 (栗東),3900、1600、980、590、390万円,8,ヤマニンプチガトー,良,2,村田一誠,7
0,1:09.5,右,芝1200m,546.0,北九州記念,,晴,牡,54.0,2016/08/21,15:25,サラ系３歳以上オープン(国際)(特指)ハンデ,3,小倉,羽月友彦 (栗東),3900、1600、980、590、390万円,10,ローズミラクル,良,3,松山弘平,6
0,1:08.9,右,芝1200m,474.0,北九州記念,,晴,牝,53.0,2016/08/21,15:25,サラ系３歳以上オープン(国際)(特指)ハンデ,4,小倉,高橋亮 (栗東),3900、1600、980、590、390万円,5,ベルルミエール,良,4,太宰啓介,5
0,1:08.7,右,芝1200m,488.0,北九州記念,,晴,牝,56.0,2016/08/21,15:25,サラ系３歳以上オープン(国際)(特指)ハンデ,4,小倉,角田晃一 (栗東),3900、1600、980、590、390万円,2,ベルカント,良,5,Ｍ．デム,5
0,1:09.1,右,芝1200m,476.0,北九州記念,,晴,牡,54.0,2016/08/21,15:25,サラ系３歳以上オープン(国際)(特指)ハンデ,5,小倉,高橋義忠 (栗東),3900、1600、980、590、390万円,7,メイショウライナー,良,6,バルジュ,6
0,1:09.3,右,芝1200m,488.0,北九州記念,,晴,牡,54.0,2016/08/21,15:25,サラ系３歳以上オープン(国際)(特指)ハンデ,5,小倉,西園正都 (栗東),3900、1600、980、590、390万円,9,マイネルエテルネル,良,7,和田竜二,6
0,1:08.9,右,芝1200m,480.0,北九州記念,,晴,牡,54.0,2016/08/21,15:25,サラ系３歳以上オープン(国際)(特指)ハンデ,6,小倉,佐々木晶 (栗東),3900、1600、980、590、390万円,3,オウノミチ,良,8,川田将雅,5
0,1:08.5,右,芝1200m,474.0,北九州記念,,晴,牡,54.0,2016/08/21,15:25,サラ系３歳以上オープン(国際)(特指)ハンデ,6,小倉,堀宣行 (美浦),3900、1600、980、590、390万円,1,バクシンテイオー,良,9,藤岡康太,7
0,1:09.0,右,芝1200m,500.0,北九州記念,,晴,牝,54.0,2016/08/21,15:25,サラ系３歳以上オープン(国際)(特指)ハンデ,7,小倉,安田隆行 (栗東),3900、1600、980、590、390万円,6,プリンセスムーン,良,11,北村友一,6
0,1:08.9,右,芝1200m,544.0,北九州記念,,晴,牡,54.0,2016/08/21,15:25,サラ系３歳以上オープン(国際)(特指)ハンデ,8,小倉,中竹和也 (栗東),3900、1600、980、590、390万円,4,ジャストドゥイング,良,12,石橋脩,4
0,1:09.6,右,芝1200m,506.0,北九州記念,,晴,牝,51.0,2016/08/21,15:25,サラ系３歳以上オープン(国際)(特指)ハンデ,8,小倉,高橋康之 (栗東),3900、1600、980、590、390万円,11,ラヴァーズポイント,良,13,松若風馬,6
