,タイム,レース周り,レース情報,体重,名称,外回りフラグ,天気,性別,斤量,日付,時刻,条件,枠番,競技場,調教師名,賞金,順位,馬名,馬場状態,馬番,騎手名,齢
0,1:01.6,右,ダ1000m,498.0,３歳未勝利,,晴,牝,54.0,2016/08/21,11:20,サラ系３歳未勝利(混)[指]馬齢,1,小倉,安達昭夫 (栗東),480、190、120、72、48万円,11,クリノアンボワーズ,良,1,太宰啓介,3
0,1:00.0,右,ダ1000m,516.0,３歳未勝利,,晴,牝,51.0,2016/08/21,11:20,サラ系３歳未勝利(混)[指]馬齢,2,小倉,田所秀孝 (栗東),480、190、120、72、48万円,4,エイシンチムニー,良,2,三津谷隼,3
0,0:59.4,右,ダ1000m,438.0,３歳未勝利,,晴,牝,54.0,2016/08/21,11:20,サラ系３歳未勝利(混)[指]馬齢,3,小倉,日吉正和 (栗東),480、190、120、72、48万円,2,シゲルカマス,良,3,和田竜二,3
0,0:59.0,右,ダ1000m,470.0,３歳未勝利,,晴,牡,56.0,2016/08/21,11:20,サラ系３歳未勝利(混)[指]馬齢,3,小倉,大久保龍 (栗東),480、190、120、72、48万円,1,タイキラメール,良,4,幸英明,3
0,1:00.4,右,ダ1000m,440.0,３歳未勝利,,晴,牝,54.0,2016/08/21,11:20,サラ系３歳未勝利(混)[指]馬齢,4,小倉,荒川義之 (栗東),480、190、120、72、48万円,6,メイショウレオネス,良,5,藤岡康太,3
0,1:01.5,右,ダ1000m,418.0,３歳未勝利,,晴,牡,53.0,2016/08/21,11:20,サラ系３歳未勝利(混)[指]馬齢,4,小倉,佐藤正雄 (栗東),480、190、120、72、48万円,10,バルビオス,良,6,荻野極,3
0,1:00.4,右,ダ1000m,480.0,３歳未勝利,,晴,牡,56.0,2016/08/21,11:20,サラ系３歳未勝利(混)[指]馬齢,5,小倉,日吉正和 (栗東),480、190、120、72、48万円,7,ワンダールジール,良,7,藤懸貴志,3
0,1:01.0,右,ダ1000m,440.0,３歳未勝利,,晴,牝,52.0,2016/08/21,11:20,サラ系３歳未勝利(混)[指]馬齢,5,小倉,野中賢二 (栗東),480、190、120、72、48万円,9,トウカイペアーナ,良,8,義英真,3
0,1:02.4,右,ダ1000m,474.0,３歳未勝利,,晴,牡,55.0,2016/08/21,11:20,サラ系３歳未勝利(混)[指]馬齢,6,小倉,佐々木晶 (栗東),480、190、120、72、48万円,14,エーデルローゼ,良,9,鮫島克駿,3
0,1:00.0,右,ダ1000m,412.0,３歳未勝利,,晴,牝,54.0,2016/08/21,11:20,サラ系３歳未勝利(混)[指]馬齢,6,小倉,角居勝彦 (栗東),480、190、120、72、48万円,3,クラウンドヘッド,良,10,バルジュ,3
0,1:00.1,右,ダ1000m,474.0,３歳未勝利,,晴,牝,54.0,2016/08/21,11:20,サラ系３歳未勝利(混)[指]馬齢,7,小倉,中内田充 (栗東),480、190、120、72、48万円,5,レディオブフレイム,良,11,藤岡佑介,3
0,1:00.9,右,ダ1000m,468.0,３歳未勝利,,晴,牝,54.0,2016/08/21,11:20,サラ系３歳未勝利(混)[指]馬齢,7,小倉,田所秀孝 (栗東),480、190、120、72、48万円,8,ネオヴィッパー,良,12,酒井学,3
0,1:02.0,右,ダ1000m,422.0,３歳未勝利,,晴,牝,54.0,2016/08/21,11:20,サラ系３歳未勝利(混)[指]馬齢,8,小倉,藤沢則雄 (栗東),480、190、120、72、48万円,13,メイショウフクロウ,良,13,武幸四郎,3
0,1:01.7,右,ダ1000m,462.0,３歳未勝利,,晴,牡,56.0,2016/08/21,11:20,サラ系３歳未勝利(混)[指]馬齢,8,小倉,坂口正則 (栗東),480、190、120、72、48万円,12,シゲルシマアジ,良,14,田中健,3
