,枠番1,枠番2,枠連
0,1.0,1.0,1000.6
0,1.0,2.0,47.7
0,1.0,3.0,130.8
0,1.0,4.0,66.4
0,1.0,5.0,286.5
0,1.0,6.0,59.2
0,1.0,7.0,23.3
0,1.0,8.0,118.0
0,2.0,2.0,89.4
0,2.0,3.0,59.9
0,2.0,4.0,16.3
0,2.0,5.0,163.0
0,2.0,6.0,16.8
0,2.0,7.0,4.4
0,2.0,8.0,43.1
0,3.0,3.0,628.4
0,3.0,4.0,66.6
0,3.0,5.0,235.2
0,3.0,6.0,57.1
0,3.0,7.0,26.0
0,3.0,8.0,82.1
0,4.0,4.0,170.9
0,4.0,5.0,211.8
0,4.0,6.0,19.5
0,4.0,7.0,6.3
0,4.0,8.0,49.6
0,5.0,5.0,2365.1
0,5.0,6.0,189.3
0,5.0,7.0,70.2
0,5.0,8.0,206.4
0,6.0,6.0,66.7
0,6.0,7.0,4.8
0,6.0,8.0,35.1
0,7.0,7.0,11.9
0,7.0,8.0,12.4
0,8.0,8.0,197.3
