,単勝,枠番,複勝最大,複勝最小,馬名,馬番
0,34.1,1.0,11.1,7.0,ブルブルブル,1.0
0,62.6,2.0,20.0,12.4,サンバダンサー,2.0
0,133.9,3.0,41.6,25.8,ペイシャリサ,3.0
0,57.6,3.0,8.4,5.3,クレードラリュンヌ,4.0
0,12.6,4.0,3.4,2.3,ベニノシリウス,5.0
0,62.7,4.0,17.5,10.9,マスターマインド,6.0
0,3.5,5.0,1.8,1.4,ジェイケイマヤヒメ,7.0
0,3.0,5.0,1.8,1.4,コロラトゥーレ,8.0
0,34.1,6.0,10.1,6.3,サザンアルプス,9.0
0,9.4,6.0,3.2,2.1,ソルティピース,10.0
0,21.2,7.0,6.0,3.8,タイセイブリット,11.0
0,6.6,7.0,2.4,1.7,ラブフルーツ,12.0
0,53.8,8.0,18.4,11.4,ローズジャイプール,13.0
0,14.2,8.0,3.3,2.2,アントレーン,14.0
