,単勝,枠番,複勝最大,複勝最小,馬名,馬番
0,12.3,1.0,5.2,1.8,マンカストラップ,1.0
0,49.3,2.0,14.8,4.5,ベッティング,2.0
0,53.8,3.0,16.2,4.9,ミライヘノビジョン,3.0
0,78.6,4.0,30.0,8.8,オルディル,4.0
0,7.4,5.0,4.0,1.5,ローズジュレップ,5.0
0,1.7,6.0,1.1,1.1,タイムトリップ,6.0
0,32.3,7.0,10.6,3.3,カンテサンス,7.0
0,4.0,7.0,2.0,1.1,リエノテソーロ,8.0
0,58.5,8.0,22.1,6.5,ギンチャン,9.0
0,16.5,8.0,4.7,1.7,ワイナルダム,10.0
