,単勝,枠番,複勝最大,複勝最小,馬名,馬番
0,99.7,1.0,21.8,10.9,エバーハーモニー,1.0
0,2.0,1.0,1.3,1.1,サトノメサイア,2.0
0,184.2,2.0,43.9,21.6,タルトオポム,3.0
0,73.8,2.0,18.1,9.1,ヴィンセンツイヤー,4.0
0,18.6,3.0,5.2,2.8,ユークリッド,5.0
0,212.3,3.0,69.1,34.0,メイショウクロタカ,6.0
0,3.9,4.0,2.0,1.3,シャインブライト,7.0
0,37.7,4.0,9.7,5.0,サンホッブズ,8.0
0,6.0,5.0,2.4,1.4,イチダイ,9.0
0,138.0,5.0,38.6,19.0,コスモアルマク,10.0
0,11.7,6.0,3.9,2.2,ダノンサンシャイン,11.0
0,40.2,6.0,9.0,4.6,プレイヤーハウス,12.0
0,32.7,7.0,9.4,4.8,ウインブルーローズ,13.0
0,28.6,7.0,7.9,4.1,ビービーブレスユー,14.0
0,67.2,8.0,19.5,9.7,ダイフク,15.0
0,25.3,8.0,9.4,4.8,ブロウユアマインド,16.0
