,単勝,枠番,複勝最大,複勝最小,馬名,馬番
0,31.5,1.0,10.3,5.6,レディーピンク,1.0
0,48.6,2.0,12.1,6.6,カンタベリーマイン,2.0
0,2.2,3.0,1.3,1.1,アメリカントップ,3.0
0,38.0,4.0,9.8,5.4,マダムアグライア,4.0
0,120.3,5.0,22.9,12.4,ハドウホウ,5.0
0,3.8,5.0,2.3,1.5,エクシードリミッツ,6.0
0,68.1,6.0,18.0,9.8,セイウンアワード,7.0
0,34.7,6.0,8.2,4.5,サンビショップ,8.0
0,20.1,7.0,6.5,3.6,キチロクステージ,9.0
0,6.9,7.0,2.2,1.4,レッツイットラン,10.0
0,5.4,8.0,2.0,1.3,カネトシボヌール,11.0
0,27.0,8.0,6.9,3.8,トーセンミッション,12.0
