,単勝,枠番,複勝最大,複勝最小,馬名,馬番
0,23.5,1.0,6.1,3.4,メディアルナ,1.0
0,40.4,2.0,11.2,6.1,シーザワールド,2.0
0,212.9,3.0,70.3,37.2,サニーヴィクトリー,3.0
0,10.6,3.0,3.6,2.1,ベイビーティンク,4.0
0,21.5,4.0,6.0,3.4,マイネルシャウト,5.0
0,32.2,4.0,11.4,6.2,ホットメッセージ,6.0
0,3.7,5.0,1.8,1.2,アドルナメンテ,7.0
0,7.9,5.0,3.0,1.8,ワークショップ,8.0
0,2.4,6.0,1.5,1.1,グランドバローズ,9.0
0,169.2,6.0,51.3,27.2,ファントムジオペラ,10.0
0,123.0,7.0,41.4,22.0,グラシアール,11.0
0,248.7,7.0,107.4,56.8,テトラコード,12.0
0,37.4,8.0,9.1,5.0,ヘキサゴン,13.0
0,6.3,8.0,2.4,1.5,ヴェリタスフェスタ,14.0
