,単勝,枠番,複勝最大,複勝最小,馬名,馬番
0,6.2,1.0,3.8,1.0,サングレーザー,1.0
0,21.2,2.0,11.3,1.7,ビービーガウディ,2.0
0,1.2,3.0,1.1,1.0,サトノアレス,3.0
0,91.8,4.0,40.7,5.0,コスモスコーチ,4.0
0,164.3,5.0,93.5,10.9,ジャガーゲイム,5.0
0,36.7,6.0,18.2,2.5,ジュンキタフーレン,6.0
0,67.1,7.0,29.9,3.8,マイネルヴィレ,7.0
0,94.2,8.0,58.5,7.0,シゲルヤマアラシ,8.0
0,8.0,8.0,5.9,1.1,カロス,9.0
