,単勝,枠番,複勝最大,複勝最小,馬名,馬番
0,5.3,1.0,2.5,1.7,ファインニードル,1.0
0,18.9,1.0,5.8,3.7,メジャータイフーン,2.0
0,32.7,2.0,10.2,6.4,アンクルダイチ,3.0
0,223.4,2.0,55.0,33.7,ゴースルー,4.0
0,145.1,3.0,33.4,20.6,ボーンレジェンド,5.0
0,12.7,3.0,4.0,2.6,ペイシャオブロー,6.0
0,3.7,4.0,1.9,1.4,アズマクィーン,7.0
0,135.6,4.0,32.7,20.1,アスペンサミット,8.0
0,5.5,5.0,2.3,1.6,イッテツ,9.0
0,21.2,5.0,7.0,4.5,ペイシャフェリシタ,10.0
0,302.2,6.0,72.5,44.5,ラインロバート,11.0
0,33.3,6.0,7.2,4.6,イーグルアモン,12.0
0,3.5,7.0,1.8,1.4,スターオブペルシャ,13.0
0,442.2,7.0,99.6,61.1,ソロフライト,14.0
0,33.2,8.0,10.6,6.6,オフクヒメ,15.0
0,23.2,8.0,7.3,4.6,バシレウスライオン,16.0
