,タイム,レース周り,レース情報,体重,名称,外回りフラグ,天気,性別,斤量,日付,時刻,条件,枠番,競技場,調教師名,賞金,順位,馬名,馬場状態,馬番,騎手名,齢
0,1:10.7,右,芝1200m,466.0,３歳未勝利,,曇,牡,55.0,2016/09/03,11:25,サラ系３歳未勝利[指]馬齢,1,2札幌,岩戸孝樹 (美浦),480、190、120、72、48万円,4,ソニックタイガー,良,1,長岡禎仁,3
0,1:11.3,右,芝1200m,472.0,３歳未勝利,,曇,牝,53.0,2016/09/03,11:25,サラ系３歳未勝利[指]馬齢,1,2札幌,和田正道 (美浦),480、190、120、72、48万円,11,プロジェクション,良,2,加藤祥太,3
0,1:12.5,右,芝1200m,452.0,３歳未勝利,,曇,牡,56.0,2016/09/03,11:25,サラ系３歳未勝利[指]馬齢,2,2札幌,森田直行 (栗東),480、190、120、72、48万円,15,ショウナンアーリー,良,3,松岡正海,3
0,1:10.7,右,芝1200m,454.0,３歳未勝利,,曇,牡,56.0,2016/09/03,11:25,サラ系３歳未勝利[指]馬齢,2,2札幌,西浦勝一 (栗東),480、190、120、72、48万円,3,ゴールデンバイオ,良,4,勝浦正樹,3
0,1:11.7,右,芝1200m,424.0,３歳未勝利,,曇,牝,54.0,2016/09/03,11:25,サラ系３歳未勝利[指]馬齢,3,2札幌,羽月友彦 (栗東),480、190、120、72、48万円,13,サクラグレイス,良,5,丸山元気,3
0,1:11.3,右,芝1200m,466.0,３歳未勝利,,曇,セ,56.0,2016/09/03,11:25,サラ系３歳未勝利[指]馬齢,3,2札幌,土田稔 (美浦),480、190、120、72、48万円,10,マグレブ,良,6,黛弘人,3
0,1:12.6,右,芝1200m,468.0,３歳未勝利,,曇,牝,53.0,2016/09/03,11:25,サラ系３歳未勝利[指]馬齢,4,2札幌,清水英克 (美浦),480、190、120、72、48万円,16,ハルノアシオト,良,7,中井裕二,3
0,1:12.1,右,芝1200m,442.0,３歳未勝利,,曇,牝,54.0,2016/09/03,11:25,サラ系３歳未勝利[指]馬齢,4,2札幌,的場均 (美浦),480、190、120、72、48万円,14,グローリア,良,8,古川吉洋,3
0,1:11.5,右,芝1200m,466.0,３歳未勝利,,曇,牝,54.0,2016/09/03,11:25,サラ系３歳未勝利[指]馬齢,5,2札幌,勢司和浩 (美浦),480、190、120、72、48万円,12,フォーシーム,良,9,横山和生,3
0,1:11.2,右,芝1200m,404.0,３歳未勝利,,曇,牝,52.0,2016/09/03,11:25,サラ系３歳未勝利[指]馬齢,5,2札幌,二ノ宮敬 (美浦),480、190、120、72、48万円,6,ステイインハート,良,10,井上敏樹,3
0,1:10.6,右,芝1200m,442.0,３歳未勝利,,曇,牝,54.0,2016/09/03,11:25,サラ系３歳未勝利[指]馬齢,6,2札幌,久保田貴 (美浦),480、190、120、72、48万円,2,フレンチジェンヌ,良,11,福永祐一,3
0,1:11.0,右,芝1200m,450.0,３歳未勝利,,曇,牡,56.0,2016/09/03,11:25,サラ系３歳未勝利[指]馬齢,6,2札幌,牧浦充徳 (栗東),480、190、120、72、48万円,5,ドンボラーレ,良,12,浜中俊,3
0,1:11.3,右,芝1200m,436.0,３歳未勝利,,曇,牝,52.0,2016/09/03,11:25,サラ系３歳未勝利[指]馬齢,7,2札幌,和田雄二 (美浦),480、190、120、72、48万円,8,プレアマール,良,13,原田和真,3
0,1:11.2,右,芝1200m,440.0,３歳未勝利,,曇,牝,54.0,2016/09/03,11:25,サラ系３歳未勝利[指]馬齢,7,2札幌,西浦勝一 (栗東),480、190、120、72、48万円,7,ミュゲプリンセス,良,14,池添謙一,3
0,1:10.6,右,芝1200m,516.0,３歳未勝利,,曇,牡,56.0,2016/09/03,11:25,サラ系３歳未勝利[指]馬齢,8,2札幌,藤沢和雄 (美浦),480、190、120、72、48万円,1,インジャスティス,良,15,ルメール,3
0,1:11.3,右,芝1200m,396.0,３歳未勝利,,曇,牝,51.0,2016/09/03,11:25,サラ系３歳未勝利[指]馬齢,8,2札幌,吉田直弘 (栗東),480、190、120、72、48万円,9,プラチナメモリー,良,16,坂井瑠星,3
