,馬番1,馬番2,馬単
0,1.0,2.0,146.0
0,1.0,3.0,259.0
0,1.0,4.0,158.1
0,1.0,5.0,195.1
0,1.0,6.0,777.9
0,1.0,7.0,145.2
0,1.0,8.0,613.3
0,1.0,9.0,623.6
0,1.0,10.0,408.1
0,1.0,11.0,137.3
0,2.0,1.0,95.2
0,2.0,3.0,51.9
0,2.0,4.0,23.5
0,2.0,5.0,39.1
0,2.0,6.0,122.4
0,2.0,7.0,22.4
0,2.0,8.0,213.2
0,2.0,9.0,220.8
0,2.0,10.0,95.0
0,2.0,11.0,27.8
0,3.0,1.0,222.8
0,3.0,2.0,69.7
0,3.0,4.0,79.3
0,3.0,5.0,94.5
0,3.0,6.0,459.4
0,3.0,7.0,56.8
0,3.0,8.0,484.3
0,3.0,9.0,512.0
0,3.0,10.0,239.8
0,3.0,11.0,71.6
0,4.0,1.0,99.4
0,4.0,2.0,22.9
0,4.0,3.0,50.1
0,4.0,5.0,37.4
0,4.0,6.0,172.4
0,4.0,7.0,21.5
0,4.0,8.0,197.5
0,4.0,9.0,238.7
0,4.0,10.0,109.8
0,4.0,11.0,25.3
0,5.0,1.0,130.4
0,5.0,2.0,43.9
0,5.0,3.0,81.6
0,5.0,4.0,48.1
0,5.0,6.0,281.1
0,5.0,7.0,35.9
0,5.0,8.0,294.1
0,5.0,9.0,295.7
0,5.0,10.0,130.9
0,5.0,11.0,38.9
0,6.0,1.0,791.7
0,6.0,2.0,204.8
0,6.0,3.0,686.9
0,6.0,4.0,322.1
0,6.0,5.0,401.5
0,6.0,7.0,255.4
0,6.0,8.0,958.2
0,6.0,9.0,1181.3
0,6.0,10.0,823.8
0,6.0,11.0,309.2
0,7.0,1.0,80.0
0,7.0,2.0,17.0
0,7.0,3.0,34.9
0,7.0,4.0,17.3
0,7.0,5.0,23.8
0,7.0,6.0,130.0
0,7.0,8.0,140.7
0,7.0,9.0,140.9
0,7.0,10.0,69.4
0,7.0,11.0,13.3
0,8.0,1.0,628.9
0,8.0,2.0,354.3
0,8.0,3.0,581.4
0,8.0,4.0,388.2
0,8.0,5.0,388.2
0,8.0,6.0,836.2
0,8.0,7.0,289.9
0,8.0,9.0,1078.5
0,8.0,10.0,823.8
0,8.0,11.0,365.4
0,9.0,1.0,676.5
0,9.0,2.0,395.1
0,9.0,3.0,634.2
0,9.0,4.0,433.5
0,9.0,5.0,385.6
0,9.0,6.0,1094.4
0,9.0,7.0,282.9
0,9.0,8.0,1175.1
0,9.0,10.0,736.8
0,9.0,11.0,347.2
0,10.0,1.0,435.2
0,10.0,2.0,166.1
0,10.0,3.0,314.0
0,10.0,4.0,191.1
0,10.0,5.0,194.4
0,10.0,6.0,689.1
0,10.0,7.0,125.9
0,10.0,8.0,833.0
0,10.0,9.0,749.2
0,10.0,11.0,127.6
0,11.0,1.0,79.6
0,11.0,2.0,23.5
0,11.0,3.0,44.8
0,11.0,4.0,22.9
0,11.0,5.0,35.0
0,11.0,6.0,169.9
0,11.0,7.0,16.9
0,11.0,8.0,189.2
0,11.0,9.0,194.4
0,11.0,10.0,70.8
