,単勝,枠番,複勝最大,複勝最小,馬名,馬番
0,11.4,1.0,2.5,1.5,グランドデザイン,1.0
0,13.6,2.0,3.8,2.2,ステイウェル,2.0
0,47.0,3.0,7.5,4.2,メイショウメイザン,3.0
0,26.3,4.0,5.5,3.1,ゴールドメダリオン,4.0
0,22.0,5.0,5.9,3.3,エスティレジェンド,5.0
0,2.6,6.0,1.5,1.1,ツイセキシャ,6.0
0,2.1,7.0,1.5,1.1,ホウライアキコ,7.0
0,98.3,8.0,20.3,11.3,メイショウハイネス,8.0
0,7.2,8.0,2.2,1.4,ツカサブレイブ,9.0
