,枠番1,枠番2,枠連
0,1.0,1.0,33.9
0,1.0,2.0,35.9
0,1.0,3.0,55.7
0,1.0,4.0,7.9
0,1.0,5.0,34.6
0,1.0,6.0,38.6
0,1.0,7.0,5.7
0,1.0,8.0,15.6
0,2.0,2.0,970.6
0,2.0,3.0,168.5
0,2.0,4.0,31.1
0,2.0,5.0,110.3
0,2.0,6.0,120.7
0,2.0,7.0,18.2
0,2.0,8.0,54.1
0,3.0,3.0,733.3
0,3.0,4.0,64.4
0,3.0,5.0,128.7
0,3.0,6.0,147.6
0,3.0,7.0,41.8
0,3.0,8.0,72.5
0,4.0,4.0,125.7
0,4.0,5.0,34.2
0,4.0,6.0,34.4
0,4.0,7.0,4.9
0,4.0,8.0,23.6
0,5.0,5.0,498.1
0,5.0,6.0,89.2
0,5.0,7.0,19.9
0,5.0,8.0,54.4
0,6.0,6.0,431.3
0,6.0,7.0,20.5
0,6.0,8.0,56.6
0,7.0,7.0,23.6
0,7.0,8.0,10.6
0,8.0,8.0,250.9
