,単勝,枠番,複勝最大,複勝最小,馬名,馬番
0,8.2,1.0,4.2,1.6,トーヨーエース,1.0
0,6.6,2.0,3.9,1.5,ショーウェイ,2.0
0,15.9,3.0,6.0,2.1,メイショウオクヒダ,3.0
0,27.9,4.0,9.9,3.2,テイエムソッキュウ,4.0
0,113.3,5.0,46.4,13.8,ハナハタチバナ,5.0
0,26.6,6.0,8.9,2.9,ナムラアイドル,6.0
0,87.7,6.0,29.1,8.8,テイエムチェロキー,7.0
0,137.3,7.0,50.3,15.0,スズカフューラー,8.0
0,8.5,7.0,3.5,1.4,マーブルクリス,9.0
0,70.4,8.0,21.2,6.5,シゲルマサイキリン,10.0
0,1.5,8.0,1.1,1.1,ダノンチャンス,11.0
