,枠番1,枠番2,枠連
0,1.0,2.0,104.1
0,1.0,3.0,272.6
0,1.0,4.0,18.9
0,1.0,5.0,246.5
0,1.0,6.0,27.4
0,1.0,7.0,103.5
0,1.0,8.0,31.5
0,2.0,3.0,371.9
0,2.0,4.0,20.3
0,2.0,5.0,306.0
0,2.0,6.0,22.7
0,2.0,7.0,111.9
0,2.0,8.0,31.4
0,3.0,4.0,113.6
0,3.0,5.0,336.8
0,3.0,6.0,141.6
0,3.0,7.0,213.4
0,3.0,8.0,139.4
0,4.0,5.0,79.6
0,4.0,6.0,3.3
0,4.0,7.0,19.1
0,4.0,8.0,4.2
0,5.0,6.0,96.1
0,5.0,7.0,172.8
0,5.0,8.0,98.4
0,6.0,6.0,16.7
0,6.0,7.0,21.4
0,6.0,8.0,6.1
0,7.0,7.0,450.7
0,7.0,8.0,27.9
0,8.0,8.0,27.8
