,レース周り,レース情報,体重,名称,外回りフラグ,天気,性別,斤量,日付,時刻,条件,枠番,競技場,調教師名,賞金,馬名,馬場状態,馬番,騎手名,齢
0,右,芝1200m,462.0,伊万里特別,,晴,牝,55.0,2016/07/30,14:25,サラ系３歳以上５００万下(混)(特指)定量,1,小倉,藤原英昭 (栗東),1050、420、260、160、105万円,ジェントルヴァウ,良,1,浜中俊,4
0,右,芝1200m,458.0,伊万里特別,,晴,牡,57.0,2016/07/30,14:25,サラ系３歳以上５００万下(混)(特指)定量,1,小倉,小崎憲 (栗東),1050、420、260、160、105万円,キングカーティス,良,2,武豊,4
0,右,芝1200m,422.0,伊万里特別,,晴,牝,52.0,2016/07/30,14:25,サラ系３歳以上５００万下(混)(特指)定量,2,小倉,福島信晴 (栗東),1050、420、260、160、105万円,ブライティアレディ,良,3,幸英明,3
0,右,芝1200m,448.0,伊万里特別,,晴,セ,57.0,2016/07/30,14:25,サラ系３歳以上５００万下(混)(特指)定量,2,小倉,川村禎彦 (栗東),1050、420、260、160、105万円,ゲンキチハヤブサ,良,4,和田竜二,4
0,右,芝1200m,550.0,伊万里特別,,晴,牡,54.0,2016/07/30,14:25,サラ系３歳以上５００万下(混)(特指)定量,3,小倉,日吉正和 (栗東),1050、420、260、160、105万円,カシノエイシ,良,5,国分優作,3
0,右,芝1200m,424.0,伊万里特別,,晴,牝,52.0,2016/07/30,14:25,サラ系３歳以上５００万下(混)(特指)定量,3,小倉,東眞市 (佐賀),1050、420、260、160、105万円,ローカルロマン,良,6,鮫島克也,3
0,右,芝1200m,480.0,伊万里特別,,晴,牡,54.0,2016/07/30,14:25,サラ系３歳以上５００万下(混)(特指)定量,4,小倉,浅見秀一 (栗東),1050、420、260、160、105万円,キンシロケット,良,7,田中健,3
0,右,芝1200m,446.0,伊万里特別,,晴,牡,54.0,2016/07/30,14:25,サラ系３歳以上５００万下(混)(特指)定量,4,小倉,中竹和也 (栗東),1050、420、260、160、105万円,フルムーンソング,良,8,藤岡佑介,3
0,右,芝1200m,464.0,伊万里特別,,晴,牡,57.0,2016/07/30,14:25,サラ系３歳以上５００万下(混)(特指)定量,5,小倉,矢作芳人 (栗東),1050、420、260、160、105万円,ノミネーション,良,9,岩田康誠,4
0,右,芝1200m,454.0,伊万里特別,,晴,牝,55.0,2016/07/30,14:25,サラ系３歳以上５００万下(混)(特指)定量,5,小倉,佐々木晶 (栗東),1050、420、260、160、105万円,メッサーウイング,良,10,鮫島克駿,4
0,右,芝1200m,468.0,伊万里特別,,晴,牝,55.0,2016/07/30,14:25,サラ系３歳以上５００万下(混)(特指)定量,6,小倉,長浜博之 (栗東),1050、420、260、160、105万円,アグネスリュシアン,良,11,岩崎翼,4
0,右,芝1200m,452.0,伊万里特別,,晴,牝,52.0,2016/07/30,14:25,サラ系３歳以上５００万下(混)(特指)定量,6,小倉,野中賢二 (栗東),1050、420、260、160、105万円,エイシンピカソ,良,12,藤岡康太,3
0,右,芝1200m,432.0,伊万里特別,,晴,牝,55.0,2016/07/30,14:25,サラ系３歳以上５００万下(混)(特指)定量,7,小倉,吉村圭司 (栗東),1050、420、260、160、105万円,ウィズアミッション,良,13,ホワイト,5
0,右,芝1200m,464.0,伊万里特別,,晴,牡,57.0,2016/07/30,14:25,サラ系３歳以上５００万下(混)(特指)定量,7,小倉,長浜博之 (栗東),1050、420、260、160、105万円,アグネスユーリヤ,良,14,バルジュ,4
0,右,芝1200m,440.0,伊万里特別,,晴,牡,57.0,2016/07/30,14:25,サラ系３歳以上５００万下(混)(特指)定量,7,小倉,西村真幸 (栗東),1050、420、260、160、105万円,ケイアイヴァーゲ,良,15,川田将雅,6
0,右,芝1200m,420.0,伊万里特別,,晴,セ,57.0,2016/07/30,14:25,サラ系３歳以上５００万下(混)(特指)定量,8,小倉,坪憲章 (栗東),1050、420、260、160、105万円,スズカグランデ,良,16,義英真,5
0,右,芝1200m,426.0,伊万里特別,,晴,牝,55.0,2016/07/30,14:25,サラ系３歳以上５００万下(混)(特指)定量,8,小倉,岡田稲男 (栗東),1050、420、260、160、105万円,ハコダテローズ,良,17,中谷雄太,4
0,右,芝1200m,490.0,伊万里特別,,晴,牡,57.0,2016/07/30,14:25,サラ系３歳以上５００万下(混)(特指)定量,8,小倉,本田優 (栗東),1050、420、260、160、105万円,ミリオンフレッシュ,良,18,北村友一,6
