,レース周り,レース情報,体重,名称,外回りフラグ,天気,性別,斤量,日付,時刻,条件,枠番,競技場,調教師名,賞金,馬名,馬場状態,馬番,騎手名,齢
0,右,芝1800m,472.0,不知火特別,,晴,牡,55.0,2016/07/30,15:01,サラ系３歳以上１０００万下(混)[指]ハンデ,1,小倉,梅田智之 (栗東),1500、600、380、230、150万円,アドマイヤツヨシ,良,1,幸英明,6
0,右,芝1800m,524.0,不知火特別,,晴,牝,51.0,2016/07/30,15:01,サラ系３歳以上１０００万下(混)[指]ハンデ,2,小倉,浜田多実 (栗東),1500、600、380、230、150万円,フェイトカラー,良,2,荻野極,5
0,右,芝1800m,476.0,不知火特別,,晴,セ,53.0,2016/07/30,15:01,サラ系３歳以上１０００万下(混)[指]ハンデ,3,小倉,石坂正 (栗東),1500、600、380、230、150万円,クラウディオス,良,3,和田竜二,6
0,右,芝1800m,498.0,不知火特別,,晴,牡,55.0,2016/07/30,15:01,サラ系３歳以上１０００万下(混)[指]ハンデ,4,小倉,藤岡健一 (栗東),1500、600、380、230、150万円,テーオービックバン,良,4,藤岡佑介,5
0,右,芝1800m,536.0,不知火特別,,晴,牡,53.0,2016/07/30,15:01,サラ系３歳以上１０００万下(混)[指]ハンデ,5,小倉,橋口慎介 (栗東),1500、600、380、230、150万円,エイヴィアンボス,良,5,北村友一,6
0,右,芝1800m,480.0,不知火特別,,晴,牡,56.0,2016/07/30,15:01,サラ系３歳以上１０００万下(混)[指]ハンデ,6,小倉,宮徹 (栗東),1500、600、380、230、150万円,ブレイヴリー,良,6,国分恭介,5
0,右,芝1800m,516.0,不知火特別,,晴,牡,57.0,2016/07/30,15:01,サラ系３歳以上１０００万下(混)[指]ハンデ,6,小倉,橋口慎介 (栗東),1500、600、380、230、150万円,キリシマホーマ,良,7,小牧太,5
0,右,芝1800m,448.0,不知火特別,,晴,牝,52.0,2016/07/30,15:01,サラ系３歳以上１０００万下(混)[指]ハンデ,7,小倉,中尾秀正 (栗東),1500、600、380、230、150万円,ビキニスタイル,良,8,藤岡康太,5
0,右,芝1800m,464.0,不知火特別,,晴,牡,54.0,2016/07/30,15:01,サラ系３歳以上１０００万下(混)[指]ハンデ,7,小倉,谷潔 (栗東),1500、600、380、230、150万円,スズカビスタ,良,9,太宰啓介,5
0,右,芝1800m,474.0,不知火特別,,晴,牡,55.0,2016/07/30,15:01,サラ系３歳以上１０００万下(混)[指]ハンデ,8,小倉,宮本博 (栗東),1500、600、380、230、150万円,サンセットスカイ,良,10,浜中俊,6
0,右,芝1800m,462.0,不知火特別,,晴,牝,54.0,2016/07/30,15:01,サラ系３歳以上１０００万下(混)[指]ハンデ,8,小倉,高橋康之 (栗東),1500、600、380、230、150万円,カゼルタ,良,11,鮫島克駿,4
