,レース周り,レース情報,体重,名称,外回りフラグ,天気,性別,斤量,日付,時刻,条件,枠番,競技場,調教師名,賞金,馬名,馬場状態,馬番,騎手名,齢
0,右,芝2000m,468.0,３歳未勝利,,晴,セ,56.0,2016/07/30,12:45,サラ系３歳未勝利(混)[指]馬齢,1,小倉,服部利之 (栗東),480、190、120、72、48万円,ウイングカイユウ,良,1,鮫島良太,3
0,右,芝2000m,428.0,３歳未勝利,,晴,牝,54.0,2016/07/30,12:45,サラ系３歳未勝利(混)[指]馬齢,1,小倉,橋田満 (栗東),480、190、120、72、48万円,トーコージュエリー,良,2,藤岡佑介,3
0,右,芝2000m,444.0,３歳未勝利,,晴,牝,54.0,2016/07/30,12:45,サラ系３歳未勝利(混)[指]馬齢,2,小倉,大橋勇樹 (栗東),480、190、120、72、48万円,メイショウバラード,良,3,松田大作,3
0,右,芝2000m,494.0,３歳未勝利,,晴,牡,56.0,2016/07/30,12:45,サラ系３歳未勝利(混)[指]馬齢,2,小倉,沖芳夫 (栗東),480、190、120、72、48万円,エイシンミキサー,良,4,和田竜二,3
0,右,芝2000m,506.0,３歳未勝利,,晴,牡,56.0,2016/07/30,12:45,サラ系３歳未勝利(混)[指]馬齢,3,小倉,西園正都 (栗東),480、190、120、72、48万円,ミラクルメーカー,良,5,バルジュ,3
0,右,芝2000m,432.0,３歳未勝利,,晴,牝,54.0,2016/07/30,12:45,サラ系３歳未勝利(混)[指]馬齢,3,小倉,昆貢 (栗東),480、190、120、72、48万円,エンジェルユー,良,6,太宰啓介,3
0,右,芝2000m,464.0,３歳未勝利,,晴,牡,56.0,2016/07/30,12:45,サラ系３歳未勝利(混)[指]馬齢,4,小倉,藤原英昭 (栗東),480、190、120、72、48万円,ムーチャスエルテ,良,7,浜中俊,3
0,右,芝2000m,472.0,３歳未勝利,,晴,牡,56.0,2016/07/30,12:45,サラ系３歳未勝利(混)[指]馬齢,4,小倉,村山明 (栗東),480、190、120、72、48万円,スズカワンダー,良,8,国分恭介,3
0,右,芝2000m,440.0,３歳未勝利,,晴,牝,54.0,2016/07/30,12:45,サラ系３歳未勝利(混)[指]馬齢,5,小倉,坂口正則 (栗東),480、190、120、72、48万円,メイショウメリリー,良,9,田中健,3
0,右,芝2000m,428.0,３歳未勝利,,晴,牡,53.0,2016/07/30,12:45,サラ系３歳未勝利(混)[指]馬齢,5,小倉,森山英雄 (笠松),480、190、120、72、48万円,ヤマニンゲイナー,良,10,荻野極,3
0,右,芝2000m,502.0,３歳未勝利,,晴,牡,56.0,2016/07/30,12:45,サラ系３歳未勝利(混)[指]馬齢,6,小倉,笹田和秀 (栗東),480、190、120、72、48万円,コウザンアプローチ,良,11,幸英明,3
0,右,芝2000m,468.0,３歳未勝利,,晴,牝,54.0,2016/07/30,12:45,サラ系３歳未勝利(混)[指]馬齢,6,小倉,浜田多実 (栗東),480、190、120、72、48万円,テーオーピコタン,良,12,松山弘平,3
0,右,芝2000m,422.0,３歳未勝利,,晴,牝,54.0,2016/07/30,12:45,サラ系３歳未勝利(混)[指]馬齢,7,小倉,牧浦充徳 (栗東),480、190、120、72、48万円,ピンクノオウマサン,良,13,岩田康誠,3
0,右,芝2000m,508.0,３歳未勝利,,晴,牡,56.0,2016/07/30,12:45,サラ系３歳未勝利(混)[指]馬齢,7,小倉,田中淳司 (北海道),480、190、120、72、48万円,ワンダラーズ,良,14,松若風馬,3
0,右,芝2000m,412.0,３歳未勝利,,晴,牝,53.0,2016/07/30,12:45,サラ系３歳未勝利(混)[指]馬齢,8,小倉,吉田直弘 (栗東),480、190、120、72、48万円,スタンリープール,良,15,鮫島克駿,3
0,右,芝2000m,496.0,３歳未勝利,,晴,牡,56.0,2016/07/30,12:45,サラ系３歳未勝利(混)[指]馬齢,8,小倉,福島信晴 (栗東),480、190、120、72、48万円,ナムラルパン,良,16,小牧太,3
0,右,芝2000m,472.0,３歳未勝利,,晴,牡,56.0,2016/07/30,12:45,サラ系３歳未勝利(混)[指]馬齢,8,小倉,池江泰寿 (栗東),480、190、120、72、48万円,ゴールドラッシュ,良,17,ホワイト,3
