,単勝,枠番,複勝最大,複勝最小,馬名,馬番
0,271.0,1.0,80.5,54.9,クリノチョモラーリ,1.0
0,4.7,1.0,2.3,1.7,アデレードヒル,2.0
0,9.3,2.0,3.0,2.2,シゲルカゼノボン,3.0
0,171.0,2.0,58.5,39.9,レッドランタン,4.0
0,116.6,3.0,44.3,30.2,デルマオカル,5.0
0,14.7,3.0,5.7,4.0,ミディ,6.0
0,128.5,4.0,28.4,19.4,クリスタルガーデン,7.0
0,5.7,4.0,2.2,1.7,スペチアーレ,8.0
0,36.5,5.0,10.0,6.9,メランコリア,9.0
0,66.8,5.0,19.3,13.2,ビジータイム,10.0
0,18.5,6.0,5.8,4.1,プリンセスオーラ,11.0
0,72.0,6.0,18.5,12.7,オルティラアスール,12.0
0,16.9,7.0,5.7,4.0,キーウエスト,13.0
0,9.6,7.0,3.7,2.7,グリーンバシリスク,14.0
0,8.4,8.0,3.1,2.3,カシノリノ,15.0
0,95.6,8.0,23.3,15.9,ラトゥール,16.0
0,3.7,8.0,2.0,1.6,グラミスキャッスル,17.0
