,タイム,レース周り,レース情報,体重,名称,外回りフラグ,天気,性別,斤量,日付,時刻,条件,枠番,競技場,調教師名,賞金,順位,馬名,馬場状態,馬番,騎手名,齢
0,2:28.1,左,芝2400m,448.0,３歳未勝利,,晴,牡,56.0,2016/08/21,12:50,サラ系３歳未勝利(混)[指]馬齢,1,新潟,奥平雅士 (美浦),480、190、120、72、48万円,7,チョンマゲ,良,1,嘉藤貴行,3
0,2:28.1,左,芝2400m,424.0,３歳未勝利,,晴,牡,56.0,2016/08/21,12:50,サラ系３歳未勝利(混)[指]馬齢,1,新潟,国枝栄 (美浦),480、190、120、72、48万円,8,マイネルヴァッサー,良,2,武士沢友,3
0,2:28.6,左,芝2400m,456.0,３歳未勝利,,晴,牝,54.0,2016/08/21,12:50,サラ系３歳未勝利(混)[指]馬齢,2,新潟,粕谷昌央 (美浦),480、190、120、72、48万円,12,ケットシー,良,3,江田照男,3
0,2:27.6,左,芝2400m,470.0,３歳未勝利,,晴,牝,54.0,2016/08/21,12:50,サラ系３歳未勝利(混)[指]馬齢,2,新潟,田中清隆 (美浦),480、190、120、72、48万円,4,カルマフォース,良,4,内田博幸,3
0,2:27.3,左,芝2400m,486.0,３歳未勝利,,晴,牡,56.0,2016/08/21,12:50,サラ系３歳未勝利(混)[指]馬齢,3,新潟,伊藤大士 (美浦),480、190、120、72、48万円,2,スギノグローアップ,良,5,田辺裕信,3
0,2:27.3,左,芝2400m,468.0,３歳未勝利,,晴,牡,56.0,2016/08/21,12:50,サラ系３歳未勝利(混)[指]馬齢,3,新潟,大竹正博 (美浦),480、190、120、72、48万円,1,バンダムザブラッド,良,6,丸田恭介,3
0,2:27.8,左,芝2400m,474.0,３歳未勝利,,晴,牡,56.0,2016/08/21,12:50,サラ系３歳未勝利(混)[指]馬齢,4,新潟,武市康男 (美浦),480、190、120、72、48万円,6,シンキングダンサー,良,7,大野拓弥,3
0,2:29.5,左,芝2400m,462.0,３歳未勝利,,晴,牡,56.0,2016/08/21,12:50,サラ系３歳未勝利(混)[指]馬齢,4,新潟,藤原辰雄 (美浦),480、190、120、72、48万円,14,ピースフルゲラン,良,8,五十嵐雄,3
0,2:32.7,左,芝2400m,420.0,３歳未勝利,,晴,牝,52.0,2016/08/21,12:50,サラ系３歳未勝利(混)[指]馬齢,5,新潟,高橋文雅 (美浦),480、190、120、72、48万円,18,コンサバ,良,9,木幡初也,3
0,2:29.1,左,芝2400m,492.0,３歳未勝利,,晴,セ,53.0,2016/08/21,12:50,サラ系３歳未勝利(混)[指]馬齢,5,新潟,二ノ宮敬 (美浦),480、190、120、72、48万円,13,タイセイアスリート,良,10,菊沢一樹,3
0,2:30.7,左,芝2400m,472.0,３歳未勝利,,晴,牡,56.0,2016/08/21,12:50,サラ系３歳未勝利(混)[指]馬齢,6,新潟,石毛善彦 (美浦),480、190、120、72、48万円,15,アンサーフォンテン,良,11,西田雄一,3
0,2:28.4,左,芝2400m,440.0,３歳未勝利,,晴,牝,54.0,2016/08/21,12:50,サラ系３歳未勝利(混)[指]馬齢,6,新潟,竹内正洋 (美浦),480、190、120、72、48万円,11,デルマセンヒメ,良,12,津村明秀,3
0,2:28.2,左,芝2400m,428.0,３歳未勝利,,晴,牝,53.0,2016/08/21,12:50,サラ系３歳未勝利(混)[指]馬齢,7,新潟,萩原清 (美浦),480、190、120、72、48万円,9,ピッレウス,良,13,石川裕紀,3
0,2:32.0,左,芝2400m,534.0,３歳未勝利,,晴,牡,56.0,2016/08/21,12:50,サラ系３歳未勝利(混)[指]馬齢,7,新潟,畠山吉宏 (美浦),480、190、120、72、48万円,16,マイネルカラット,良,14,宮崎北斗,3
0,2:27.5,左,芝2400m,528.0,３歳未勝利,,晴,牝,52.0,2016/08/21,12:50,サラ系３歳未勝利(混)[指]馬齢,7,新潟,武井亮 (美浦),480、190、120、72、48万円,3,ジョニーエンジェル,良,15,伴啓太,3
0,2:28.4,左,芝2400m,428.0,３歳未勝利,,晴,牡,53.0,2016/08/21,12:50,サラ系３歳未勝利(混)[指]馬齢,8,新潟,大江原哲 (美浦),480、190、120、72、48万円,10,ミュゼウェルズ,良,16,野中悠太,3
0,2:32.6,左,芝2400m,462.0,３歳未勝利,,晴,牝,54.0,2016/08/21,12:50,サラ系３歳未勝利(混)[指]馬齢,8,新潟,松山将樹 (美浦),480、190、120、72、48万円,17,シゲルヒメコダイ,良,17,田中勝春,3
0,2:27.7,左,芝2400m,474.0,３歳未勝利,,晴,牡,56.0,2016/08/21,12:50,サラ系３歳未勝利(混)[指]馬齢,8,新潟,栗田徹 (美浦),480、190、120、72、48万円,5,シュティルヴァルト,良,18,戸崎圭太,3
