,馬番1,馬番2,ワイド
0,1.0,2.0,322.7
0,1.0,3.0,112.6
0,1.0,4.0,289.5
0,1.0,5.0,101.2
0,1.0,6.0,422.0
0,1.0,7.0,82.9
0,1.0,8.0,598.9
0,1.0,9.0,337.7
0,1.0,10.0,338.6
0,1.0,11.0,1021.4
0,1.0,12.0,177.2
0,1.0,13.0,479.3
0,1.0,14.0,365.0
0,1.0,15.0,626.7
0,1.0,16.0,541.7
0,2.0,3.0,42.9
0,2.0,4.0,296.8
0,2.0,5.0,42.6
0,2.0,6.0,230.9
0,2.0,7.0,42.1
0,2.0,8.0,210.5
0,2.0,9.0,282.7
0,2.0,10.0,141.6
0,2.0,11.0,735.7
0,2.0,12.0,54.6
0,2.0,13.0,263.0
0,2.0,14.0,90.7
0,2.0,15.0,276.5
0,2.0,16.0,286.6
0,3.0,4.0,85.9
0,3.0,5.0,2.4
0,3.0,6.0,40.8
0,3.0,7.0,2.6
0,3.0,8.0,25.2
0,3.0,9.0,72.9
0,3.0,10.0,9.1
0,3.0,11.0,212.9
0,3.0,12.0,4.2
0,3.0,13.0,30.2
0,3.0,14.0,11.4
0,3.0,15.0,27.5
0,3.0,16.0,22.9
0,4.0,5.0,78.0
0,4.0,6.0,398.9
0,4.0,7.0,48.4
0,4.0,8.0,297.4
0,4.0,9.0,508.6
0,4.0,10.0,203.4
0,4.0,11.0,1204.5
0,4.0,12.0,135.1
0,4.0,13.0,578.8
0,4.0,14.0,213.9
0,4.0,15.0,578.0
0,4.0,16.0,552.0
0,5.0,6.0,29.5
0,5.0,7.0,2.4
0,5.0,8.0,26.3
0,5.0,9.0,54.2
0,5.0,10.0,7.2
0,5.0,11.0,180.7
0,5.0,12.0,3.4
0,5.0,13.0,24.7
0,5.0,14.0,9.8
0,5.0,15.0,22.1
0,5.0,16.0,20.2
0,6.0,7.0,27.7
0,6.0,8.0,141.2
0,6.0,9.0,366.1
0,6.0,10.0,104.1
0,6.0,11.0,812.6
0,6.0,12.0,53.2
0,6.0,13.0,216.9
0,6.0,14.0,115.6
0,6.0,15.0,202.4
0,6.0,16.0,183.0
0,7.0,8.0,25.8
0,7.0,9.0,64.3
0,7.0,10.0,8.4
0,7.0,11.0,215.0
0,7.0,12.0,4.5
0,7.0,13.0,30.0
0,7.0,14.0,9.2
0,7.0,15.0,25.6
0,7.0,16.0,19.4
0,8.0,9.0,335.5
0,8.0,10.0,57.9
0,8.0,11.0,799.6
0,8.0,12.0,47.8
0,8.0,13.0,146.2
0,8.0,14.0,83.4
0,8.0,15.0,151.9
0,8.0,16.0,167.1
0,9.0,10.0,191.8
0,9.0,11.0,1060.3
0,9.0,12.0,50.3
0,9.0,13.0,395.7
0,9.0,14.0,191.3
0,9.0,15.0,420.5
0,9.0,16.0,481.6
0,10.0,11.0,547.7
0,10.0,12.0,13.9
0,10.0,13.0,67.0
0,10.0,14.0,29.4
0,10.0,15.0,62.4
0,10.0,16.0,43.2
0,11.0,12.0,271.6
0,11.0,13.0,517.3
0,11.0,14.0,418.7
0,11.0,15.0,849.8
0,11.0,16.0,974.4
0,12.0,13.0,39.7
0,12.0,14.0,14.9
0,12.0,15.0,38.4
0,12.0,16.0,33.6
0,13.0,14.0,86.7
0,13.0,15.0,120.5
0,13.0,16.0,125.6
0,14.0,15.0,91.5
0,14.0,16.0,57.6
0,15.0,16.0,107.3
