,馬番1,馬番2,馬単
0,1.0,2.0,1392.9
0,1.0,3.0,270.3
0,1.0,4.0,320.5
0,1.0,5.0,136.7
0,1.0,6.0,1040.2
0,1.0,7.0,571.3
0,1.0,8.0,218.7
0,1.0,9.0,630.8
0,1.0,10.0,1257.9
0,1.0,11.0,1442.4
0,1.0,12.0,1173.7
0,1.0,13.0,176.9
0,1.0,14.0,394.3
0,1.0,15.0,93.0
0,1.0,16.0,339.4
0,1.0,17.0,967.3
0,1.0,18.0,408.7
0,2.0,1.0,1798.0
0,2.0,3.0,2230.6
0,2.0,4.0,2128.2
0,2.0,5.0,1602.7
0,2.0,6.0,2142.2
0,2.0,7.0,3795.9
0,2.0,8.0,1808.0
0,2.0,9.0,2859.5
0,2.0,10.0,6363.8
0,2.0,11.0,5955.1
0,2.0,12.0,5234.7
0,2.0,13.0,1972.9
0,2.0,14.0,4187.7
0,2.0,15.0,741.8
0,2.0,16.0,4445.9
0,2.0,17.0,6691.8
0,2.0,18.0,4571.1
0,3.0,1.0,268.3
0,3.0,2.0,1773.5
0,3.0,4.0,497.0
0,3.0,5.0,137.1
0,3.0,6.0,1132.8
0,3.0,7.0,587.4
0,3.0,8.0,247.0
0,3.0,9.0,801.3
0,3.0,10.0,1740.2
0,3.0,11.0,2093.8
0,3.0,12.0,1053.7
0,3.0,13.0,155.9
0,3.0,14.0,384.5
0,3.0,15.0,84.1
0,3.0,16.0,357.8
0,3.0,17.0,1017.4
0,3.0,18.0,413.9
0,4.0,1.0,325.5
0,4.0,2.0,1798.0
0,4.0,3.0,532.0
0,4.0,5.0,121.6
0,4.0,6.0,987.9
0,4.0,7.0,447.0
0,4.0,8.0,262.9
0,4.0,9.0,782.0
0,4.0,10.0,2060.6
0,4.0,11.0,2682.2
0,4.0,12.0,1173.7
0,4.0,13.0,227.2
0,4.0,14.0,354.7
0,4.0,15.0,92.9
0,4.0,16.0,323.2
0,4.0,17.0,842.9
0,4.0,18.0,700.2
0,5.0,1.0,103.3
0,5.0,2.0,842.9
0,5.0,3.0,110.6
0,5.0,4.0,80.7
0,5.0,6.0,327.3
0,5.0,7.0,138.1
0,5.0,8.0,53.6
0,5.0,9.0,183.9
0,5.0,10.0,465.9
0,5.0,11.0,708.6
0,5.0,12.0,306.6
0,5.0,13.0,34.5
0,5.0,14.0,84.9
0,5.0,15.0,19.1
0,5.0,16.0,69.7
0,5.0,17.0,210.5
0,5.0,18.0,141.6
0,6.0,1.0,1255.5
0,6.0,2.0,2617.3
0,6.0,3.0,1567.8
0,6.0,4.0,1248.2
0,6.0,5.0,598.8
0,6.0,7.0,1759.0
0,6.0,8.0,752.1
0,6.0,9.0,1389.9
0,6.0,10.0,2797.8
0,6.0,11.0,2377.6
0,6.0,12.0,1763.8
0,6.0,13.0,451.3
0,6.0,14.0,1275.2
0,6.0,15.0,259.8
0,6.0,16.0,936.6
0,6.0,17.0,3005.1
0,6.0,18.0,1556.6
0,7.0,1.0,652.3
0,7.0,2.0,3752.0
0,7.0,3.0,627.1
0,7.0,4.0,454.8
0,7.0,5.0,202.5
0,7.0,6.0,1538.1
0,7.0,8.0,322.7
0,7.0,9.0,1372.3
0,7.0,10.0,2458.7
0,7.0,11.0,2910.7
0,7.0,12.0,1859.9
0,7.0,13.0,316.6
0,7.0,14.0,633.2
0,7.0,15.0,144.4
0,7.0,16.0,521.3
0,7.0,17.0,1094.6
0,7.0,18.0,873.6
0,8.0,1.0,203.3
0,8.0,2.0,1442.4
0,8.0,3.0,215.5
0,8.0,4.0,242.1
0,8.0,5.0,68.7
0,8.0,6.0,543.1
0,8.0,7.0,280.8
0,8.0,9.0,370.2
0,8.0,10.0,1211.0
0,8.0,11.0,1618.7
0,8.0,12.0,787.7
0,8.0,13.0,61.7
0,8.0,14.0,209.0
0,8.0,15.0,37.9
0,8.0,16.0,112.3
0,8.0,17.0,498.1
0,8.0,18.0,286.3
0,9.0,1.0,707.8
0,9.0,2.0,4056.9
0,9.0,3.0,960.2
0,9.0,4.0,902.7
0,9.0,5.0,322.4
0,9.0,6.0,1332.8
0,9.0,7.0,1423.4
0,9.0,8.0,521.3
0,9.0,10.0,2285.5
0,9.0,11.0,3527.7
0,9.0,12.0,1067.6
0,9.0,13.0,319.7
0,9.0,14.0,616.4
0,9.0,15.0,177.4
0,9.0,16.0,661.6
0,9.0,17.0,1778.3
0,9.0,18.0,1089.1
0,10.0,1.0,1818.2
0,10.0,2.0,6556.6
0,10.0,3.0,2230.6
0,10.0,4.0,2545.5
0,10.0,5.0,931.2
0,10.0,6.0,3033.2
0,10.0,7.0,3019.1
0,10.0,8.0,1587.0
0,10.0,9.0,2496.5
0,10.0,11.0,4108.2
0,10.0,12.0,2859.5
0,10.0,13.0,1102.0
0,10.0,14.0,1343.9
0,10.0,15.0,441.2
0,10.0,16.0,2022.1
0,10.0,17.0,4955.0
0,10.0,18.0,1813.1
0,11.0,1.0,1643.3
0,11.0,2.0,4082.4
0,11.0,3.0,2923.9
0,11.0,4.0,2846.9
0,11.0,5.0,1275.2
0,11.0,6.0,2277.5
0,11.0,7.0,2704.6
0,11.0,8.0,1552.8
0,11.0,9.0,3398.4
0,11.0,10.0,3311.7
0,11.0,12.0,2977.5
0,11.0,13.0,1530.9
0,11.0,14.0,2128.2
0,11.0,15.0,594.9
0,11.0,16.0,2872.1
0,11.0,17.0,5409.2
0,11.0,18.0,3508.6
0,12.0,1.0,1455.3
0,12.0,2.0,4571.1
0,12.0,3.0,1730.9
0,12.0,4.0,1639.1
0,12.0,5.0,722.0
0,12.0,6.0,1386.9
0,12.0,7.0,2222.9
0,12.0,8.0,865.4
0,12.0,9.0,1048.6
0,12.0,10.0,2386.4
0,12.0,11.0,3773.8
0,12.0,13.0,667.1
0,12.0,14.0,1098.3
0,12.0,15.0,275.8
0,12.0,16.0,1152.9
0,12.0,17.0,2846.9
0,12.0,18.0,1672.9
0,13.0,1.0,158.7
0,13.0,2.0,1121.0
0,13.0,3.0,145.3
0,13.0,4.0,178.9
0,13.0,5.0,47.1
0,13.0,6.0,363.0
0,13.0,7.0,255.1
0,13.0,8.0,57.0
0,13.0,9.0,235.6
0,13.0,10.0,733.4
0,13.0,11.0,1020.6
0,13.0,12.0,505.9
0,13.0,14.0,96.5
0,13.0,15.0,21.2
0,13.0,16.0,67.4
0,13.0,17.0,293.0
0,13.0,18.0,166.3
0,14.0,1.0,401.6
0,14.0,2.0,2872.1
0,14.0,3.0,461.0
0,14.0,4.0,352.3
0,14.0,5.0,153.7
0,14.0,6.0,951.7
0,14.0,7.0,618.7
0,14.0,8.0,247.8
0,14.0,9.0,555.7
0,14.0,10.0,1243.5
0,14.0,11.0,1914.7
0,14.0,12.0,1028.6
0,14.0,13.0,126.7
0,14.0,15.0,77.3
0,14.0,16.0,253.3
0,14.0,17.0,782.0
0,14.0,18.0,369.6
0,15.0,1.0,48.0
0,15.0,2.0,315.1
0,15.0,3.0,51.7
0,15.0,4.0,52.6
0,15.0,5.0,13.6
0,15.0,6.0,119.6
0,15.0,7.0,76.8
0,15.0,8.0,19.9
0,15.0,9.0,88.3
0,15.0,10.0,234.2
0,15.0,11.0,365.0
0,15.0,12.0,157.0
0,15.0,13.0,11.9
0,15.0,14.0,36.3
0,15.0,16.0,20.9
0,15.0,17.0,73.6
0,15.0,18.0,53.8
0,16.0,1.0,346.0
0,16.0,2.0,2897.8
0,16.0,3.0,308.9
0,16.0,4.0,317.4
0,16.0,5.0,94.1
0,16.0,6.0,690.5
0,16.0,7.0,477.9
0,16.0,8.0,119.8
0,16.0,9.0,547.3
0,16.0,10.0,1485.3
0,16.0,11.0,2156.5
0,16.0,12.0,928.6
0,16.0,13.0,82.8
0,16.0,14.0,229.6
0,16.0,15.0,44.0
0,16.0,17.0,457.1
0,16.0,18.0,328.6
0,17.0,1.0,1182.3
0,17.0,2.0,7376.2
0,17.0,3.0,1332.8
0,17.0,4.0,823.7
0,17.0,5.0,366.3
0,17.0,6.0,2937.1
0,17.0,7.0,1115.3
0,17.0,8.0,678.9
0,17.0,9.0,1920.4
0,17.0,10.0,4006.8
0,17.0,11.0,6066.4
0,17.0,12.0,3213.4
0,17.0,13.0,467.9
0,17.0,14.0,946.2
0,17.0,15.0,173.6
0,17.0,16.0,604.3
0,17.0,18.0,1119.1
0,18.0,1.0,406.9
0,18.0,2.0,2923.9
0,18.0,3.0,460.3
0,18.0,4.0,684.7
0,18.0,5.0,222.5
0,18.0,6.0,1234.0
0,18.0,7.0,714.8
0,18.0,8.0,291.7
0,18.0,9.0,817.5
0,18.0,10.0,1381.0
0,18.0,11.0,2277.5
0,18.0,12.0,1330.1
0,18.0,13.0,193.0
0,18.0,14.0,351.6
0,18.0,15.0,105.6
0,18.0,16.0,310.2
0,18.0,17.0,891.6
