,馬番1,馬番2,馬単
0,1.0,2.0,142.8
0,1.0,3.0,92.3
0,1.0,4.0,1480.5
0,1.0,5.0,946.4
0,1.0,6.0,607.8
0,1.0,7.0,1159.2
0,1.0,8.0,352.6
0,1.0,9.0,2300.5
0,1.0,10.0,1993.8
0,1.0,11.0,187.6
0,1.0,12.0,143.7
0,1.0,13.0,119.8
0,1.0,14.0,747.6
0,1.0,15.0,305.8
0,1.0,16.0,236.9
0,2.0,1.0,101.7
0,2.0,3.0,24.3
0,2.0,4.0,312.1
0,2.0,5.0,283.7
0,2.0,6.0,135.9
0,2.0,7.0,490.2
0,2.0,8.0,106.9
0,2.0,9.0,1159.2
0,2.0,10.0,740.2
0,2.0,11.0,50.4
0,2.0,12.0,45.6
0,2.0,13.0,31.1
0,2.0,14.0,267.0
0,2.0,15.0,106.5
0,2.0,16.0,82.3
0,3.0,1.0,55.5
0,3.0,2.0,20.6
0,3.0,4.0,344.5
0,3.0,5.0,149.9
0,3.0,6.0,134.5
0,3.0,7.0,218.9
0,3.0,8.0,63.4
0,3.0,9.0,541.8
0,3.0,10.0,357.7
0,3.0,11.0,33.9
0,3.0,12.0,27.4
0,3.0,13.0,17.2
0,3.0,14.0,186.4
0,3.0,15.0,49.1
0,3.0,16.0,38.0
0,4.0,1.0,1993.8
0,4.0,2.0,537.9
0,4.0,3.0,615.3
0,4.0,5.0,2534.5
0,4.0,6.0,2136.2
0,4.0,7.0,4823.8
0,4.0,8.0,1557.6
0,4.0,9.0,5538.4
0,4.0,10.0,5981.5
0,4.0,11.0,1451.8
0,4.0,12.0,952.4
0,4.0,13.0,812.7
0,4.0,14.0,1967.6
0,4.0,15.0,1993.8
0,4.0,16.0,1525.9
0,5.0,1.0,1159.2
0,5.0,2.0,219.2
0,5.0,3.0,166.3
0,5.0,4.0,2231.9
0,5.0,6.0,1045.7
0,5.0,7.0,1557.6
0,5.0,8.0,906.2
0,5.0,9.0,3647.2
0,5.0,10.0,3834.3
0,5.0,11.0,237.3
0,5.0,12.0,262.3
0,5.0,13.0,209.4
0,5.0,14.0,1917.1
0,5.0,15.0,895.4
0,5.0,16.0,923.0
0,6.0,1.0,835.4
0,6.0,2.0,230.7
0,6.0,3.0,259.1
0,6.0,4.0,1466.0
0,6.0,5.0,1168.2
0,6.0,7.0,1480.5
0,6.0,8.0,830.7
0,6.0,9.0,3647.2
0,6.0,10.0,3647.2
0,6.0,11.0,417.7
0,6.0,12.0,282.1
0,6.0,13.0,235.8
0,6.0,14.0,1643.2
0,6.0,15.0,318.8
0,6.0,16.0,476.2
0,7.0,1.0,1801.6
0,7.0,2.0,826.1
0,7.0,3.0,482.3
0,7.0,4.0,2718.8
0,7.0,5.0,1869.2
0,7.0,6.0,2106.1
0,7.0,8.0,1495.3
0,7.0,9.0,3477.6
0,7.0,10.0,3477.6
0,7.0,11.0,1289.1
0,7.0,12.0,1235.8
0,7.0,13.0,890.1
0,7.0,14.0,2932.1
0,7.0,15.0,1942.0
0,7.0,16.0,1574.0
0,8.0,1.0,333.0
0,8.0,2.0,137.1
0,8.0,3.0,81.7
0,8.0,4.0,1099.5
0,8.0,5.0,715.4
0,8.0,6.0,581.8
0,8.0,7.0,1186.8
0,8.0,9.0,1718.8
0,8.0,10.0,1205.9
0,8.0,11.0,185.9
0,8.0,12.0,169.9
0,8.0,13.0,125.6
0,8.0,14.0,560.0
0,8.0,15.0,279.5
0,8.0,16.0,198.5
0,9.0,1.0,2578.2
0,9.0,2.0,1869.2
0,9.0,3.0,1045.7
0,9.0,4.0,4272.5
0,9.0,5.0,4272.5
0,9.0,6.0,3398.6
0,9.0,7.0,3560.4
0,9.0,8.0,2048.4
0,9.0,10.0,6501.6
0,9.0,11.0,2451.4
0,9.0,12.0,3477.6
0,9.0,13.0,1495.3
0,9.0,14.0,4272.5
0,9.0,15.0,4984.6
0,9.0,16.0,2411.9
0,10.0,1.0,2821.4
0,10.0,2.0,1371.9
0,10.0,3.0,689.1
0,10.0,4.0,3935.2
0,10.0,5.0,4153.8
0,10.0,6.0,4153.8
0,10.0,7.0,3738.4
0,10.0,8.0,1495.3
0,10.0,9.0,4673.0
0,10.0,11.0,2076.9
0,10.0,12.0,1993.8
0,10.0,13.0,1384.6
0,10.0,14.0,3051.8
0,10.0,15.0,2932.1
0,10.0,16.0,1625.4
0,11.0,1.0,151.8
0,11.0,2.0,67.3
0,11.0,3.0,46.0
0,11.0,4.0,917.4
0,11.0,5.0,351.8
0,11.0,6.0,266.0
0,11.0,7.0,879.6
0,11.0,8.0,182.1
0,11.0,9.0,2199.0
0,11.0,10.0,1359.4
0,11.0,12.0,50.2
0,11.0,13.0,42.2
0,11.0,14.0,306.4
0,11.0,15.0,135.8
0,11.0,16.0,110.6
0,12.0,1.0,129.4
0,12.0,2.0,57.0
0,12.0,3.0,39.6
0,12.0,4.0,718.9
0,12.0,5.0,315.4
0,12.0,6.0,220.2
0,12.0,7.0,712.0
0,12.0,8.0,175.7
0,12.0,9.0,1607.9
0,12.0,10.0,1141.5
0,12.0,11.0,64.3
0,12.0,13.0,30.2
0,12.0,14.0,362.9
0,12.0,15.0,111.5
0,12.0,16.0,94.7
0,13.0,1.0,80.6
0,13.0,2.0,31.8
0,13.0,3.0,20.5
0,13.0,4.0,403.0
0,13.0,5.0,230.0
0,13.0,6.0,108.8
0,13.0,7.0,446.3
0,13.0,8.0,92.1
0,13.0,9.0,799.6
0,13.0,10.0,708.7
0,13.0,11.0,45.2
0,13.0,12.0,22.0
0,13.0,14.0,223.5
0,13.0,15.0,66.2
0,13.0,16.0,52.9
0,14.0,1.0,835.4
0,14.0,2.0,356.0
0,14.0,3.0,262.3
0,14.0,4.0,1699.3
0,14.0,5.0,1738.8
0,14.0,6.0,1424.1
0,14.0,7.0,2300.5
0,14.0,8.0,708.7
0,14.0,9.0,4153.8
0,14.0,10.0,2932.1
0,14.0,11.0,410.8
0,14.0,12.0,401.9
0,14.0,13.0,303.3
0,14.0,15.0,623.0
0,14.0,16.0,562.1
0,15.0,1.0,285.9
0,15.0,2.0,138.0
0,15.0,3.0,86.0
0,15.0,4.0,1246.1
0,15.0,5.0,729.4
0,15.0,6.0,351.0
0,15.0,7.0,1335.1
0,15.0,8.0,294.3
0,15.0,9.0,3323.0
0,15.0,10.0,1993.8
0,15.0,11.0,168.5
0,15.0,12.0,112.4
0,15.0,13.0,90.9
0,15.0,14.0,564.2
0,15.0,16.0,170.3
0,16.0,1.0,223.1
0,16.0,2.0,104.9
0,16.0,3.0,58.9
0,16.0,4.0,1141.5
0,16.0,5.0,698.7
0,16.0,6.0,395.6
0,16.0,7.0,1159.2
0,16.0,8.0,205.4
0,16.0,9.0,2231.9
0,16.0,10.0,1466.0
0,16.0,11.0,134.3
0,16.0,12.0,99.8
0,16.0,13.0,73.4
0,16.0,14.0,547.7
0,16.0,15.0,150.5
