,枠番1,枠番2,枠連
0,1.0,2.0,247.7
0,1.0,3.0,238.9
0,1.0,4.0,356.2
0,1.0,5.0,115.5
0,1.0,6.0,356.7
0,1.0,7.0,204.5
0,1.0,8.0,199.0
0,2.0,3.0,84.9
0,2.0,4.0,91.7
0,2.0,5.0,18.2
0,2.0,6.0,50.2
0,2.0,7.0,44.1
0,2.0,8.0,49.0
0,3.0,3.0,507.9
0,3.0,4.0,89.7
0,3.0,5.0,18.4
0,3.0,6.0,43.1
0,3.0,7.0,37.9
0,3.0,8.0,38.7
0,4.0,4.0,747.1
0,4.0,5.0,23.1
0,4.0,6.0,55.1
0,4.0,7.0,46.1
0,4.0,8.0,56.4
0,5.0,5.0,8.7
0,5.0,6.0,6.0
0,5.0,7.0,4.9
0,5.0,8.0,7.5
0,6.0,6.0,144.1
0,6.0,7.0,12.6
0,6.0,8.0,17.5
0,7.0,7.0,34.4
0,7.0,8.0,14.0
0,8.0,8.0,69.6
