,馬番1,馬番2,馬連
0,1.0,2.0,630.1
0,1.0,3.0,776.9
0,1.0,4.0,1908.0
0,1.0,5.0,658.4
0,1.0,6.0,1158.8
0,1.0,7.0,375.6
0,1.0,8.0,605.9
0,1.0,9.0,265.1
0,1.0,10.0,652.1
0,1.0,11.0,976.7
0,2.0,3.0,104.3
0,2.0,4.0,443.9
0,2.0,5.0,89.9
0,2.0,6.0,119.8
0,2.0,7.0,24.4
0,2.0,8.0,65.4
0,2.0,9.0,24.2
0,2.0,10.0,54.1
0,2.0,11.0,64.1
0,3.0,4.0,700.0
0,3.0,5.0,190.0
0,3.0,6.0,282.7
0,3.0,7.0,59.7
0,3.0,8.0,144.1
0,3.0,9.0,59.7
0,3.0,10.0,146.8
0,3.0,11.0,181.4
0,4.0,5.0,611.3
0,4.0,6.0,361.7
0,4.0,7.0,127.4
0,4.0,8.0,365.9
0,4.0,9.0,151.3
0,4.0,10.0,333.7
0,4.0,11.0,405.3
0,5.0,6.0,158.4
0,5.0,7.0,30.8
0,5.0,8.0,91.8
0,5.0,9.0,37.8
0,5.0,10.0,86.6
0,5.0,11.0,106.2
0,6.0,7.0,23.9
0,6.0,8.0,64.8
0,6.0,9.0,25.6
0,6.0,10.0,55.5
0,6.0,11.0,83.7
0,7.0,8.0,17.1
0,7.0,9.0,4.0
0,7.0,10.0,10.6
0,7.0,11.0,14.7
0,8.0,9.0,13.9
0,8.0,10.0,30.3
0,8.0,11.0,57.4
0,9.0,10.0,9.4
0,9.0,11.0,15.2
0,10.0,11.0,28.7
