,馬番1,馬番2,馬単
0,1.0,2.0,227.5
0,1.0,3.0,660.1
0,1.0,4.0,361.8
0,1.0,5.0,95.9
0,1.0,6.0,126.5
0,1.0,7.0,672.2
0,1.0,8.0,59.7
0,1.0,9.0,62.9
0,1.0,10.0,56.0
0,1.0,11.0,72.7
0,1.0,12.0,223.7
0,2.0,1.0,234.4
0,2.0,3.0,1069.7
0,2.0,4.0,542.7
0,2.0,5.0,185.0
0,2.0,6.0,278.6
0,2.0,7.0,1010.7
0,2.0,8.0,141.1
0,2.0,9.0,158.7
0,2.0,10.0,132.8
0,2.0,11.0,166.3
0,2.0,12.0,356.5
0,3.0,1.0,867.1
0,3.0,2.0,1285.5
0,3.0,4.0,1356.9
0,3.0,5.0,747.7
0,3.0,6.0,1308.5
0,3.0,7.0,2990.9
0,3.0,8.0,779.5
0,3.0,9.0,657.1
0,3.0,10.0,600.6
0,3.0,11.0,701.2
0,3.0,12.0,1704.1
0,4.0,1.0,469.7
0,4.0,2.0,626.3
0,4.0,3.0,1191.5
0,4.0,5.0,426.0
0,4.0,6.0,538.8
0,4.0,7.0,1510.8
0,4.0,8.0,335.3
0,4.0,9.0,256.2
0,4.0,10.0,254.8
0,4.0,11.0,380.6
0,4.0,12.0,672.2
0,5.0,1.0,81.3
0,5.0,2.0,163.3
0,5.0,3.0,525.2
0,5.0,4.0,311.8
0,5.0,6.0,109.2
0,5.0,7.0,409.3
0,5.0,8.0,58.6
0,5.0,9.0,43.2
0,5.0,10.0,42.9
0,5.0,11.0,68.0
0,5.0,12.0,182.7
0,6.0,1.0,145.8
0,6.0,2.0,215.5
0,6.0,3.0,927.5
0,6.0,4.0,478.9
0,6.0,5.0,125.3
0,6.0,7.0,1017.7
0,6.0,8.0,54.2
0,6.0,9.0,72.3
0,6.0,10.0,72.8
0,6.0,11.0,107.6
0,6.0,12.0,293.1
0,7.0,1.0,910.2
0,7.0,2.0,1296.9
0,7.0,3.0,2483.9
0,7.0,4.0,1592.9
0,7.0,5.0,666.1
0,7.0,6.0,1495.4
0,7.0,8.0,736.4
0,7.0,9.0,684.8
0,7.0,10.0,645.6
0,7.0,11.0,814.1
0,7.0,12.0,2123.9
0,8.0,1.0,43.8
0,8.0,2.0,94.7
0,8.0,3.0,418.7
0,8.0,4.0,199.3
0,8.0,5.0,45.1
0,8.0,6.0,40.4
0,8.0,7.0,519.6
0,8.0,9.0,20.7
0,8.0,10.0,22.1
0,8.0,11.0,30.1
0,8.0,12.0,116.7
0,9.0,1.0,42.3
0,9.0,2.0,109.1
0,9.0,3.0,349.7
0,9.0,4.0,155.9
0,9.0,5.0,35.5
0,9.0,6.0,45.1
0,9.0,7.0,375.7
0,9.0,8.0,20.4
0,9.0,10.0,15.6
0,9.0,11.0,24.7
0,9.0,12.0,103.4
0,10.0,1.0,39.2
0,10.0,2.0,94.1
0,10.0,3.0,332.3
0,10.0,4.0,155.2
0,10.0,5.0,37.0
0,10.0,6.0,48.6
0,10.0,7.0,343.2
0,10.0,8.0,19.5
0,10.0,9.0,15.7
0,10.0,11.0,24.6
0,10.0,12.0,75.5
0,11.0,1.0,66.9
0,11.0,2.0,120.7
0,11.0,3.0,568.0
0,11.0,4.0,262.6
0,11.0,5.0,71.9
0,11.0,6.0,80.8
0,11.0,7.0,532.9
0,11.0,8.0,37.9
0,11.0,9.0,33.4
0,11.0,10.0,30.5
0,11.0,12.0,127.4
0,12.0,1.0,259.8
0,12.0,2.0,405.9
0,12.0,3.0,1495.4
0,12.0,4.0,600.6
0,12.0,5.0,243.8
0,12.0,6.0,336.9
0,12.0,7.0,1831.9
0,12.0,8.0,186.4
0,12.0,9.0,164.8
0,12.0,10.0,143.1
0,12.0,11.0,172.4
