,タイム,レース周り,レース情報,体重,名称,外回りフラグ,天気,性別,斤量,日付,時刻,条件,枠番,競技場,調教師名,賞金,順位,馬名,馬場状態,馬番,騎手名,齢
0,1:48.8,右,ダ1700m,456.0,３歳未勝利,,晴,牝,54.0,2016/08/06,12:50,サラ系３歳未勝利[指]馬齢,1,小倉,中内田充 (栗東),480、190、120、72、48万円,4,キトゥンズグレイス,良,1,バルジュ,3
0,1:48.4,右,ダ1700m,484.0,３歳未勝利,,晴,セ,56.0,2016/08/06,12:50,サラ系３歳未勝利[指]馬齢,1,小倉,松永幹夫 (栗東),480、190、120、72、48万円,2,オーバーカム,良,2,武豊,3
0,1:48.8,右,ダ1700m,476.0,３歳未勝利,,晴,牡,56.0,2016/08/06,12:50,サラ系３歳未勝利[指]馬齢,2,小倉,湯窪幸雄 (栗東),480、190、120、72、48万円,3,コウザンベル,良,3,酒井学,3
0,1:49.4,右,ダ1700m,418.0,３歳未勝利,,晴,牝,54.0,2016/08/06,12:50,サラ系３歳未勝利[指]馬齢,2,小倉,飯田雄三 (栗東),480、190、120、72、48万円,6,ロワール,良,4,鮫島良太,3
0,1:49.5,右,ダ1700m,480.0,３歳未勝利,,晴,牝,54.0,2016/08/06,12:50,サラ系３歳未勝利[指]馬齢,3,小倉,荒川義之 (栗東),480、190、120、72、48万円,8,カネトシフェアリー,良,5,松若風馬,3
0,1:49.4,右,ダ1700m,414.0,３歳未勝利,,晴,牡,53.0,2016/08/06,12:50,サラ系３歳未勝利[指]馬齢,3,小倉,(地方),480、190、120、72、48万円,7,シソーラス,良,6,森裕太朗,3
0,1:49.8,右,ダ1700m,496.0,３歳未勝利,,晴,セ,56.0,2016/08/06,12:50,サラ系３歳未勝利[指]馬齢,4,小倉,庄野靖志 (栗東),480、190、120、72、48万円,9,アブソルプション,良,7,小牧太,3
0,1:51.3,右,ダ1700m,486.0,３歳未勝利,,晴,牝,54.0,2016/08/06,12:50,サラ系３歳未勝利[指]馬齢,4,小倉,福島信晴 (栗東),480、190、120、72、48万円,10,ボンテアトル,良,8,田中健,3
0,1:51.4,右,ダ1700m,532.0,３歳未勝利,,晴,牝,54.0,2016/08/06,12:50,サラ系３歳未勝利[指]馬齢,5,小倉,大久保龍 (栗東),480、190、120、72、48万円,11,ビッグステラ,良,9,幸英明,3
0,1:52.7,右,ダ1700m,456.0,３歳未勝利,,晴,牝,54.0,2016/08/06,12:50,サラ系３歳未勝利[指]馬齢,5,小倉,松永昌博 (栗東),480、190、120、72、48万円,14,シルヴィーボーテ,良,10,岩田康誠,3
0,1:51.7,右,ダ1700m,460.0,３歳未勝利,,晴,牡,54.0,2016/08/06,12:50,サラ系３歳未勝利[指]馬齢,6,小倉,橋田満 (栗東),480、190、120、72、48万円,12,アドマイヤフォルム,良,11,義英真,3
0,1:53.6,右,ダ1700m,460.0,３歳未勝利,,晴,牝,53.0,2016/08/06,12:50,サラ系３歳未勝利[指]馬齢,6,小倉,今野貞一 (栗東),480、190、120、72、48万円,16,ジューンマドレーヌ,良,12,岩崎翼,3
0,1:48.3,右,ダ1700m,538.0,３歳未勝利,,晴,牡,56.0,2016/08/06,12:50,サラ系３歳未勝利[指]馬齢,7,小倉,谷潔 (栗東),480、190、120、72、48万円,1,クリノプラハ,良,13,藤岡佑介,3
0,1:49.0,右,ダ1700m,496.0,３歳未勝利,,晴,牝,53.0,2016/08/06,12:50,サラ系３歳未勝利[指]馬齢,7,小倉,藤岡健一 (栗東),480、190、120、72、48万円,5,ラインダール,良,14,鮫島克駿,3
0,1:53.3,右,ダ1700m,500.0,３歳未勝利,,晴,牡,56.0,2016/08/06,12:50,サラ系３歳未勝利[指]馬齢,8,小倉,奥村豊 (栗東),480、190、120、72、48万円,15,ヤマニンアルルカン,良,15,藤懸貴志,3
0,1:51.7,右,ダ1700m,448.0,３歳未勝利,,晴,牡,53.0,2016/08/06,12:50,サラ系３歳未勝利[指]馬齢,8,小倉,五十嵐忠 (栗東),480、190、120、72、48万円,13,アルファヴィル,良,16,荻野極,3
