,タイム,レース周り,レース情報,体重,名称,外回りフラグ,天気,性別,斤量,日付,時刻,条件,枠番,競技場,調教師名,賞金,順位,馬名,馬場状態,馬番,騎手名,齢
0,1:01.4,右,ダ1000m,394.0,３歳上５００万下,,晴,牝,55.0,2016/08/06,16:15,サラ系３歳以上５００万下[指]定量,1,小倉,坪憲章 (栗東),750、300、190、110、75万円,14,アグリナンバーワン,良,1,藤懸貴志,4
0,0:59.6,右,ダ1000m,436.0,３歳上５００万下,,晴,牝,53.0,2016/08/06,16:15,サラ系３歳以上５００万下[指]定量,2,小倉,飯田祐史 (栗東),750、300、190、110、75万円,10,メイショウフライキ,良,2,義英真,4
0,0:59.5,右,ダ1000m,446.0,３歳上５００万下,,晴,牡,57.0,2016/08/06,16:15,サラ系３歳以上５００万下[指]定量,3,小倉,北出成人 (栗東),750、300、190、110、75万円,9,アーネストミノル,良,3,酒井学,5
0,0:59.8,右,ダ1000m,482.0,３歳上５００万下,,晴,牡,57.0,2016/08/06,16:15,サラ系３歳以上５００万下[指]定量,3,小倉,西橋豊治 (栗東),750、300、190、110、75万円,11,スリーエスペラント,良,4,和田竜二,6
0,1:00.5,右,ダ1000m,494.0,３歳上５００万下,,晴,牡,54.0,2016/08/06,16:15,サラ系３歳以上５００万下[指]定量,4,小倉,坪憲章 (栗東),750、300、190、110、75万円,12,スズカブリザード,良,5,三津谷隼,10
0,1:00.6,右,ダ1000m,468.0,３歳上５００万下,,晴,牝,49.0,2016/08/06,16:15,サラ系３歳以上５００万下[指]定量,4,小倉,庄野靖志 (栗東),750、300、190、110、75万円,13,クロスアンジュ,良,6,荻野極,3
0,0:58.8,右,ダ1000m,482.0,３歳上５００万下,,晴,牡,57.0,2016/08/06,16:15,サラ系３歳以上５００万下[指]定量,5,小倉,高橋亮 (栗東),750、300、190、110、75万円,4,ナガラブルボン,良,7,太宰啓介,5
0,0:58.5,右,ダ1000m,480.0,３歳上５００万下,,晴,牡,54.0,2016/08/06,16:15,サラ系３歳以上５００万下[指]定量,5,小倉,山内研二 (栗東),750、300、190、110、75万円,1,テイエムシャンパン,良,8,森裕太朗,4
0,0:59.5,右,ダ1000m,498.0,３歳上５００万下,,晴,牡,56.0,2016/08/06,16:15,サラ系３歳以上５００万下[指]定量,6,小倉,長浜博之 (栗東),750、300、190、110、75万円,7,バーサーカー,良,9,岩崎翼,4
0,0:58.8,右,ダ1000m,492.0,３歳上５００万下,,晴,牡,57.0,2016/08/06,16:15,サラ系３歳以上５００万下[指]定量,6,小倉,吉田直弘 (栗東),750、300、190、110、75万円,3,ダイシンバルカン,良,10,松山弘平,4
0,0:58.6,右,ダ1000m,496.0,３歳上５００万下,,晴,牡,53.0,2016/08/06,16:15,サラ系３歳以上５００万下[指]定量,7,小倉,川村禎彦 (栗東),750、300、190、110、75万円,2,クリノシャンボール,良,11,鮫島克駿,3
0,0:59.4,右,ダ1000m,454.0,３歳上５００万下,,晴,牝,52.0,2016/08/06,16:15,サラ系３歳以上５００万下[指]定量,7,小倉,高野友和 (栗東),750、300、190、110、75万円,6,ジュエルメッセージ,良,12,川須栄彦,3
0,0:59.5,右,ダ1000m,436.0,３歳上５００万下,,晴,牝,52.0,2016/08/06,16:15,サラ系３歳以上５００万下[指]定量,8,小倉,千田輝彦 (栗東),750、300、190、110、75万円,8,スワニルダ,良,13,岩田康誠,3
0,0:59.4,右,ダ1000m,424.0,３歳上５００万下,,晴,牝,55.0,2016/08/06,16:15,サラ系３歳以上５００万下[指]定量,8,小倉,安田隆行 (栗東),750、300、190、110、75万円,5,ハッピーロングラン,良,14,松若風馬,5
