,単勝,枠番,複勝最大,複勝最小,馬名,馬番
0,91.3,1.0,28.6,18.0,サニーデイヒーロー,1.0
0,7.3,1.0,2.7,1.8,オフクヒメ,2.0
0,13.4,2.0,3.7,2.5,リップルトウショウ,3.0
0,123.3,2.0,42.4,26.7,ビアンコカンドーレ,4.0
0,18.1,3.0,5.0,3.3,オメガタックスマン,5.0
0,16.6,3.0,5.3,3.5,ハギノナトゥーラ,6.0
0,3.8,4.0,2.1,1.5,コスモフレンチ,7.0
0,22.3,4.0,6.7,4.3,クラウンノキミ,8.0
0,34.6,5.0,13.2,8.4,レッドファーレン,9.0
0,12.6,5.0,3.9,2.6,タマモブリリアン,10.0
0,2.7,6.0,1.7,1.4,オウケンビリーヴ,11.0
0,22.6,6.0,8.5,5.5,イルーシヴキャット,12.0
0,23.3,7.0,5.5,3.6,エターナルユース,13.0
0,233.4,7.0,45.9,28.9,ヴァッフシュテルケ,14.0
0,152.9,8.0,23.4,14.7,レッドルシアン,15.0
0,31.2,8.0,6.8,4.4,フルオブスターズ,16.0
