,タイム,レース周り,レース情報,体重,名称,外回りフラグ,天気,性別,斤量,日付,時刻,条件,枠番,競技場,調教師名,賞金,順位,馬名,馬場状態,馬番,騎手名,齢
0,1:10.2,右,芝1200m,464.0,３歳上５００万下,,晴,セ,52.0,2016/08/06,13:40,サラ系３歳以上５００万下(混)[指]定量,1,札幌,菊川正達 (美浦),750、300、190、110、75万円,12,サニーデイヒーロー,良,1,長岡禎仁,3
0,1:09.0,右,芝1200m,444.0,３歳上５００万下,,晴,牝,52.0,2016/08/06,13:40,サラ系３歳以上５００万下(混)[指]定量,1,札幌,松下武士 (栗東),750、300、190、110、75万円,4,オフクヒメ,良,2,荻野琢真,3
0,1:09.7,右,芝1200m,444.0,３歳上５００万下,,晴,牝,49.0,2016/08/06,13:40,サラ系３歳以上５００万下(混)[指]定量,2,札幌,武井亮 (美浦),750、300、190、110、75万円,10,リップルトウショウ,良,3,坂井瑠星,3
0,1:10.5,右,芝1200m,468.0,３歳上５００万下,,晴,牝,54.0,2016/08/06,13:40,サラ系３歳以上５００万下(混)[指]定量,2,札幌,西村真幸 (栗東),750、300、190、110、75万円,13,ビアンコカンドーレ,良,4,加藤祥太,5
0,1:09.6,右,芝1200m,462.0,３歳上５００万下,,晴,牡,57.0,2016/08/06,13:40,サラ系３歳以上５００万下(混)[指]定量,3,札幌,今野貞一 (栗東),750、300、190、110、75万円,8,オメガタックスマン,良,5,菱田裕二,4
0,1:09.9,右,芝1200m,504.0,３歳上５００万下,,晴,牝,55.0,2016/08/06,13:40,サラ系３歳以上５００万下(混)[指]定量,3,札幌,高野友和 (栗東),750、300、190、110、75万円,11,ハギノナトゥーラ,良,6,丸山元気,4
0,1:09.2,右,芝1200m,506.0,３歳上５００万下,,晴,牡,54.0,2016/08/06,13:40,サラ系３歳以上５００万下(混)[指]定量,4,札幌,岩戸孝樹 (美浦),750、300、190、110、75万円,5,コスモフレンチ,良,7,丹内祐次,3
0,1:11.7,右,芝1200m,494.0,３歳上５００万下,,晴,牡,55.0,2016/08/06,13:40,サラ系３歳以上５００万下(混)[指]定量,4,札幌,金成貴史 (美浦),750、300、190、110、75万円,16,クラウンノキミ,良,8,原田和真,4
0,1:10.7,右,芝1200m,444.0,３歳上５００万下,,晴,牝,53.0,2016/08/06,13:40,サラ系３歳以上５００万下(混)[指]定量,5,札幌,宗像義忠 (美浦),750、300、190、110、75万円,14,レッドファーレン,良,9,井上敏樹,4
0,1:08.9,右,芝1200m,458.0,３歳上５００万下,,晴,牝,52.0,2016/08/06,13:40,サラ系３歳以上５００万下(混)[指]定量,5,札幌,南井克巳 (栗東),750、300、190、110、75万円,2,タマモブリリアン,良,10,吉田隼人,3
0,1:08.9,右,芝1200m,482.0,３歳上５００万下,,晴,牝,52.0,2016/08/06,13:40,サラ系３歳以上５００万下(混)[指]定量,6,札幌,安田隆行 (栗東),750、300、190、110、75万円,1,オウケンビリーヴ,良,11,福永祐一,3
0,1:11.2,右,芝1200m,480.0,３歳上５００万下,,晴,牝,55.0,2016/08/06,13:40,サラ系３歳以上５００万下(混)[指]定量,6,札幌,松元茂樹 (栗東),750、300、190、110、75万円,15,イルーシヴキャット,良,12,三浦皇成,5
0,1:09.5,右,芝1200m,422.0,３歳上５００万下,,晴,牝,52.0,2016/08/06,13:40,サラ系３歳以上５００万下(混)[指]定量,7,札幌,宮徹 (栗東),750、300、190、110、75万円,7,エターナルユース,良,13,古川吉洋,3
0,1:08.9,右,芝1200m,486.0,３歳上５００万下,,晴,牡,57.0,2016/08/06,13:40,サラ系３歳以上５００万下(混)[指]定量,7,札幌,岩元市三 (栗東),750、300、190、110、75万円,3,ヴァッフシュテルケ,良,14,水口優也,5
0,1:09.7,右,芝1200m,442.0,３歳上５００万下,,晴,牝,55.0,2016/08/06,13:40,サラ系３歳以上５００万下(混)[指]定量,8,札幌,斉藤崇史 (栗東),750、300、190、110、75万円,9,レッドルシアン,良,15,横山和生,5
0,1:09.3,右,芝1200m,426.0,３歳上５００万下,,晴,牝,52.0,2016/08/06,13:40,サラ系３歳以上５００万下(混)[指]定量,8,札幌,奥村武 (美浦),750、300、190、110、75万円,6,フルオブスターズ,良,16,丸田恭介,3
