,馬番1,馬番2,馬単
0,1.0,2.0,398.3
0,1.0,3.0,577.7
0,1.0,4.0,247.9
0,1.0,5.0,176.5
0,1.0,6.0,2207.0
0,1.0,7.0,197.0
0,1.0,8.0,103.4
0,1.0,9.0,1396.8
0,1.0,10.0,2043.5
0,1.0,11.0,471.5
0,1.0,12.0,1031.3
0,1.0,13.0,308.2
0,1.0,14.0,6130.6
0,1.0,15.0,3065.3
0,1.0,16.0,6130.6
0,2.0,1.0,343.7
0,2.0,3.0,369.0
0,2.0,4.0,109.5
0,2.0,5.0,85.5
0,2.0,6.0,1071.3
0,2.0,7.0,88.9
0,2.0,8.0,46.9
0,2.0,9.0,613.0
0,2.0,10.0,919.6
0,2.0,11.0,325.5
0,2.0,12.0,358.2
0,2.0,13.0,144.2
0,2.0,14.0,1936.0
0,2.0,15.0,889.9
0,2.0,16.0,3245.6
0,3.0,1.0,557.3
0,3.0,2.0,410.2
0,3.0,4.0,230.8
0,3.0,5.0,187.0
0,3.0,6.0,1041.0
0,3.0,7.0,190.9
0,3.0,8.0,99.3
0,3.0,9.0,897.1
0,3.0,10.0,1414.7
0,3.0,11.0,652.9
0,3.0,12.0,882.8
0,3.0,13.0,298.2
0,3.0,14.0,4797.9
0,3.0,15.0,4797.9
0,3.0,16.0,6130.6
0,4.0,1.0,171.3
0,4.0,2.0,81.8
0,4.0,3.0,176.5
0,4.0,5.0,36.6
0,4.0,6.0,408.7
0,4.0,7.0,34.8
0,4.0,8.0,21.8
0,4.0,9.0,568.8
0,4.0,10.0,309.1
0,4.0,11.0,197.0
0,4.0,12.0,259.6
0,4.0,13.0,65.2
0,4.0,14.0,698.4
0,4.0,15.0,252.5
0,4.0,16.0,1126.0
0,5.0,1.0,105.2
0,5.0,2.0,58.5
0,5.0,3.0,133.7
0,5.0,4.0,29.9
0,5.0,6.0,239.3
0,5.0,7.0,29.2
0,5.0,8.0,16.7
0,5.0,9.0,363.0
0,5.0,10.0,303.1
0,5.0,11.0,133.2
0,5.0,12.0,140.2
0,5.0,13.0,49.0
0,5.0,14.0,546.2
0,5.0,15.0,239.8
0,5.0,16.0,755.8
0,6.0,1.0,2691.5
0,6.0,2.0,1622.8
0,6.0,3.0,1114.6
0,6.0,4.0,685.4
0,6.0,5.0,469.5
0,6.0,7.0,469.5
0,6.0,8.0,413.3
0,6.0,9.0,2758.8
0,6.0,10.0,3678.4
0,6.0,11.0,1902.6
0,6.0,12.0,2982.4
0,6.0,13.0,1647.0
0,6.0,14.0,7882.2
0,6.0,15.0,4797.9
0,6.0,16.0,6130.6
0,7.0,1.0,151.7
0,7.0,2.0,69.3
0,7.0,3.0,156.3
0,7.0,4.0,34.4
0,7.0,5.0,35.8
0,7.0,6.0,361.8
0,7.0,8.0,18.5
0,7.0,9.0,645.3
0,7.0,10.0,389.9
0,7.0,11.0,158.5
0,7.0,12.0,304.8
0,7.0,13.0,55.3
0,7.0,14.0,721.2
0,7.0,15.0,457.8
0,7.0,16.0,672.8
0,8.0,1.0,53.0
0,8.0,2.0,27.6
0,8.0,3.0,69.5
0,8.0,4.0,14.4
0,8.0,5.0,13.5
0,8.0,6.0,185.1
0,8.0,7.0,11.5
0,8.0,9.0,164.2
0,8.0,10.0,136.4
0,8.0,11.0,61.8
0,8.0,12.0,110.6
0,8.0,13.0,20.7
0,8.0,14.0,300.6
0,8.0,15.0,176.0
0,8.0,16.0,437.9
0,9.0,1.0,1471.3
0,9.0,2.0,904.5
0,9.0,3.0,2691.5
0,9.0,4.0,793.8
0,9.0,5.0,811.4
0,9.0,6.0,4087.1
0,9.0,7.0,875.8
0,9.0,8.0,327.4
0,9.0,10.0,3805.2
0,9.0,11.0,1433.1
0,9.0,12.0,2082.1
0,9.0,13.0,919.6
0,9.0,14.0,4244.3
0,9.0,15.0,5254.8
0,9.0,16.0,9196.0
0,10.0,1.0,3152.9
0,10.0,2.0,1226.1
0,10.0,3.0,1647.0
0,10.0,4.0,750.6
0,10.0,5.0,652.9
0,10.0,6.0,2904.0
0,10.0,7.0,660.7
0,10.0,8.0,238.8
0,10.0,9.0,3805.2
0,10.0,11.0,3152.9
0,10.0,12.0,2904.0
0,10.0,13.0,1003.2
0,10.0,14.0,5808.0
0,10.0,15.0,3344.0
0,10.0,16.0,3448.5
0,11.0,1.0,520.5
0,11.0,2.0,436.1
0,11.0,3.0,943.1
0,11.0,4.0,268.4
0,11.0,5.0,188.9
0,11.0,6.0,1672.0
0,11.0,7.0,180.9
0,11.0,8.0,106.2
0,11.0,9.0,1283.1
0,11.0,10.0,2627.4
0,11.0,12.0,1329.5
0,11.0,13.0,413.3
0,11.0,14.0,3245.6
0,11.0,15.0,2566.3
0,11.0,16.0,5808.0
0,12.0,1.0,761.0
0,12.0,2.0,528.0
0,12.0,3.0,1647.0
0,12.0,4.0,376.6
0,12.0,5.0,194.2
0,12.0,6.0,2982.4
0,12.0,7.0,295.8
0,12.0,8.0,163.2
0,12.0,9.0,1599.3
0,12.0,10.0,2904.0
0,12.0,11.0,1345.7
0,12.0,13.0,338.5
0,12.0,14.0,4598.0
0,12.0,15.0,2566.3
0,12.0,16.0,5016.0
0,13.0,1.0,273.8
0,13.0,2.0,155.4
0,13.0,3.0,303.1
0,13.0,4.0,74.3
0,13.0,5.0,59.3
0,13.0,6.0,793.8
0,13.0,7.0,63.4
0,13.0,8.0,34.0
0,13.0,9.0,750.6
0,13.0,10.0,530.5
0,13.0,11.0,304.8
0,13.0,12.0,437.9
0,13.0,14.0,1576.4
0,13.0,15.0,848.8
0,13.0,16.0,1254.0
0,14.0,1.0,10032.0
0,14.0,2.0,2982.4
0,14.0,3.0,6897.0
0,14.0,4.0,1724.2
0,14.0,5.0,1226.1
0,14.0,6.0,11035.2
0,14.0,7.0,1081.8
0,14.0,8.0,1021.7
0,14.0,9.0,3941.1
0,14.0,10.0,6130.6
0,14.0,11.0,5517.6
0,14.0,12.0,5254.8
0,14.0,13.0,3559.7
0,14.0,15.0,9196.0
0,14.0,16.0,12261.3
0,15.0,1.0,3941.1
0,15.0,2.0,1471.3
0,15.0,3.0,4414.0
0,15.0,4.0,664.7
0,15.0,5.0,522.9
0,15.0,6.0,5016.0
0,15.0,7.0,829.7
0,15.0,8.0,331.3
0,15.0,9.0,5517.6
0,15.0,10.0,3152.9
0,15.0,11.0,3559.7
0,15.0,12.0,2829.5
0,15.0,13.0,1511.6
0,15.0,14.0,6130.6
0,15.0,16.0,3448.5
0,16.0,1.0,11035.2
0,16.0,2.0,3805.2
0,16.0,3.0,7356.8
0,16.0,4.0,2398.9
0,16.0,5.0,1970.5
0,16.0,6.0,6130.6
0,16.0,7.0,1672.0
0,16.0,8.0,1554.2
0,16.0,9.0,10032.0
0,16.0,10.0,5808.0
0,16.0,11.0,6491.2
0,16.0,12.0,5808.0
0,16.0,13.0,3559.7
0,16.0,14.0,10032.0
0,16.0,15.0,4414.0
