,馬番1,馬番2,馬連
0,1.0,2.0,638.6
0,1.0,3.0,169.2
0,1.0,4.0,126.6
0,1.0,5.0,450.6
0,1.0,6.0,87.7
0,1.0,7.0,209.0
0,1.0,8.0,665.2
0,1.0,9.0,315.4
0,1.0,10.0,466.1
0,2.0,3.0,172.7
0,2.0,4.0,158.5
0,2.0,5.0,508.5
0,2.0,6.0,99.0
0,2.0,7.0,244.0
0,2.0,8.0,685.6
0,2.0,9.0,280.2
0,2.0,10.0,488.5
0,3.0,4.0,9.4
0,3.0,5.0,47.3
0,3.0,6.0,5.7
0,3.0,7.0,14.0
0,3.0,8.0,114.2
0,3.0,9.0,29.5
0,3.0,10.0,57.1
0,4.0,5.0,39.9
0,4.0,6.0,4.5
0,4.0,7.0,12.4
0,4.0,8.0,131.8
0,4.0,9.0,25.3
0,4.0,10.0,51.7
0,5.0,6.0,27.0
0,5.0,7.0,66.4
0,5.0,8.0,438.6
0,5.0,9.0,101.2
0,5.0,10.0,232.2
0,6.0,7.0,7.2
0,6.0,8.0,67.6
0,6.0,9.0,13.7
0,6.0,10.0,29.5
0,7.0,8.0,167.4
0,7.0,9.0,39.6
0,7.0,10.0,87.4
0,8.0,9.0,268.6
0,8.0,10.0,348.4
0,9.0,10.0,99.1
