,レース周り,レース情報,体重,名称,外回りフラグ,性別,斤量,日付,時刻,条件,枠番,競技場,調教師名,賞金,馬名,馬場状態,馬番,騎手名,齢
0,左,芝2400m,472.0,本栖湖特別,,牡,53.0,2016/10/08,15:10,サラ系３歳以上１０００万下(混)[指]ハンデ,1,東京,加藤和宏,1500、600、380、230、150万円,エアポートメサ,良,1,Ｌ．オー,8
0,左,芝2400m,434.0,本栖湖特別,,牝,51.0,2016/10/08,15:10,サラ系３歳以上１０００万下(混)[指]ハンデ,2,東京,森秀行,1500、600、380、230、150万円,カルシャン,良,2,吉田豊,4
0,左,芝2400m,516.0,本栖湖特別,,牡,55.0,2016/10/08,15:10,サラ系３歳以上１０００万下(混)[指]ハンデ,3,東京,中舘英二,1500、600、380、230、150万円,マイネルカレッツァ,良,3,柴田大知,4
0,左,芝2400m,460.0,本栖湖特別,,牡,53.0,2016/10/08,15:10,サラ系３歳以上１０００万下(混)[指]ハンデ,4,東京,久保田貴,1500、600、380、230、150万円,ステイブラビッシモ,良,4,Ｍ．デム,3
0,左,芝2400m,444.0,本栖湖特別,,牡,54.0,2016/10/08,15:10,サラ系３歳以上１０００万下(混)[指]ハンデ,5,東京,石栗龍彦,1500、600、380、230、150万円,トレジャーマップ,良,5,内田博幸,5
0,左,芝2400m,506.0,本栖湖特別,,牡,56.0,2016/10/08,15:10,サラ系３歳以上１０００万下(混)[指]ハンデ,6,東京,木村哲也,1500、600、380、230、150万円,ヴェラヴァルスター,良,6,Ｃ．ルメ,4
0,左,芝2400m,502.0,本栖湖特別,,牡,57.0,2016/10/08,15:10,サラ系３歳以上１０００万下(混)[指]ハンデ,7,東京,池上昌弘,1500、600、380、230、150万円,サブライムカイザー,良,7,戸崎圭太,4
0,左,芝2400m,530.0,本栖湖特別,,牡,54.0,2016/10/08,15:10,サラ系３歳以上１０００万下(混)[指]ハンデ,7,東京,堀井雅広,1500、600、380、230、150万円,スパーブデイ,良,8,田中勝春,5
0,左,芝2400m,510.0,本栖湖特別,,牡,54.0,2016/10/08,15:10,サラ系３歳以上１０００万下(混)[指]ハンデ,8,東京,西園正都,1500、600、380、230、150万円,リノリオ,良,9,丸田恭介,5
0,左,芝2400m,482.0,本栖湖特別,,牝,52.0,2016/10/08,15:10,サラ系３歳以上１０００万下(混)[指]ハンデ,8,東京,堀井雅広,1500、600、380、230、150万円,デルマサリーチャン,良,10,吉田隼人,5
