,レース周り,レース情報,体重,名称,外回りフラグ,性別,斤量,日付,時刻,条件,枠番,競技場,調教師名,賞金,馬名,馬場状態,馬番,騎手名,齢
0,左,ダ1600m,456.0,２歳未勝利,,牡,55.0,2016/10/08,10:40,サラ系２歳未勝利[指]馬齢,1,東京,萩原清,500、200、130、75、50万円,ランプルール,良,1,戸崎圭太,2
0,左,ダ1600m,486.0,２歳未勝利,,牝,54.0,2016/10/08,10:40,サラ系２歳未勝利[指]馬齢,1,東京,鈴木伸尋,500、200、130、75、50万円,アシャカダイキ,良,2,横山典弘,2
0,左,ダ1600m,470.0,２歳未勝利,,牡,55.0,2016/10/08,10:40,サラ系２歳未勝利[指]馬齢,2,東京,岩戸孝樹,500、200、130、75、50万円,サンアンカレッジ,良,3,二本柳壮,2
0,左,ダ1600m,476.0,２歳未勝利,,牡,55.0,2016/10/08,10:40,サラ系２歳未勝利[指]馬齢,2,東京,小西一男,500、200、130、75、50万円,ブラウンヘルシャー,良,4,吉田豊,2
0,左,ダ1600m,484.0,２歳未勝利,,牡,55.0,2016/10/08,10:40,サラ系２歳未勝利[指]馬齢,3,東京,本間忍,500、200、130、75、50万円,ダダッコ,良,5,内田博幸,2
0,左,ダ1600m,450.0,２歳未勝利,,牡,55.0,2016/10/08,10:40,サラ系２歳未勝利[指]馬齢,3,東京,清水英克,500、200、130、75、50万円,ウインエスターテ,良,6,松岡正海,2
0,左,ダ1600m,472.0,２歳未勝利,,牡,55.0,2016/10/08,10:40,サラ系２歳未勝利[指]馬齢,4,東京,畠山吉宏,500、200、130、75、50万円,エゾグレイン,良,7,柴山雄一,2
0,左,ダ1600m,492.0,２歳未勝利,,牡,55.0,2016/10/08,10:40,サラ系２歳未勝利[指]馬齢,4,東京,鹿戸雄一,500、200、130、75、50万円,スマートエレメンツ,良,8,Ｍ．デム,2
0,左,ダ1600m,430.0,２歳未勝利,,牝,52.0,2016/10/08,10:40,サラ系２歳未勝利[指]馬齢,5,東京,伊藤伸一,500、200、130、75、50万円,ジョリーウッド,良,9,木幡巧也,2
0,左,ダ1600m,460.0,２歳未勝利,,牡,55.0,2016/10/08,10:40,サラ系２歳未勝利[指]馬齢,5,東京,石毛善彦,500、200、130、75、50万円,ファウスト,良,10,岩部純二,2
0,左,ダ1600m,496.0,２歳未勝利,,牡,55.0,2016/10/08,10:40,サラ系２歳未勝利[指]馬齢,6,東京,尾形和幸,500、200、130、75、50万円,バトルサンバ,良,11,田辺裕信,2
0,左,ダ1600m,464.0,２歳未勝利,,牡,55.0,2016/10/08,10:40,サラ系２歳未勝利[指]馬齢,6,東京,柴田政人,500、200、130、75、50万円,ジェイケイライジン,良,12,勝浦正樹,2
0,左,ダ1600m,474.0,２歳未勝利,,牡,55.0,2016/10/08,10:40,サラ系２歳未勝利[指]馬齢,7,東京,根本康広,500、200、130、75、50万円,ヤマタケエヴァル,良,13,柴田善臣,2
0,左,ダ1600m,450.0,２歳未勝利,,牡,55.0,2016/10/08,10:40,サラ系２歳未勝利[指]馬齢,7,東京,加藤征弘,500、200、130、75、50万円,トワードポラリス,良,14,Ｃ．ルメ,2
0,左,ダ1600m,444.0,２歳未勝利,,牡,55.0,2016/10/08,10:40,サラ系２歳未勝利[指]馬齢,8,東京,中舘英二,500、200、130、75、50万円,サノサマー,良,15,大野拓弥,2
0,左,ダ1600m,456.0,２歳未勝利,,牡,55.0,2016/10/08,10:40,サラ系２歳未勝利[指]馬齢,8,東京,土田稔,500、200、130、75、50万円,バガーチ,良,16,田中勝春,2
