,単勝,枠番,複勝最大,複勝最小,馬名,馬番
0,122.4,1.0,22.2,13.9,ラフェットデメール,1.0
0,14.7,1.0,4.8,3.2,コスモメリー,2.0
0,46.3,2.0,9.6,6.1,イメージガール,3.0
0,7.0,2.0,2.9,2.0,ブラックバゴ,4.0
0,21.9,3.0,5.8,3.7,キズナエンドレス,5.0
0,246.6,3.0,84.9,53.2,エアーウェーブ,6.0
0,29.8,4.0,8.2,5.3,シンボリジャズ,7.0
0,16.0,4.0,5.9,3.8,ハドソンヤード,8.0
0,15.4,5.0,4.2,2.8,アドマイヤコリン,10.0
0,2.3,6.0,1.5,1.3,サンライズクロンヌ,11.0
0,68.1,6.0,14.4,9.1,シルクブルックリン,12.0
0,24.0,7.0,12.2,7.7,メジャーステップ,13.0
0,7.3,7.0,3.0,2.1,エイシンハドソン,14.0
0,30.9,8.0,8.2,5.2,ロンギングゴールド,15.0
0,95.7,8.0,23.6,14.8,ウェーブゴールド,16.0
0,7.1,8.0,2.5,1.8,エスオンマイチェス,17.0
