,タイム,レース周り,レース情報,体重,名称,外回りフラグ,天気,性別,斤量,日付,時刻,条件,枠番,競技場,調教師名,賞金,順位,馬名,馬場状態,馬番,騎手名,齢
0,1:38.9,左,芝1600m,448.0,２歳新馬,外,晴,牡,54.0,2016/08/06,12:30,サラ系２歳新馬[指]馬齢,1,新潟,宗像義忠 (美浦),700、280、180、110、70万円,16,ウインエアリーズ,良,1,石橋脩,2
0,1:36.2,左,芝1600m,424.0,２歳新馬,外,晴,牝,54.0,2016/08/06,12:30,サラ系２歳新馬[指]馬齢,1,新潟,勢司和浩 (美浦),700、280、180、110、70万円,4,プーカローズ,良,2,柴田大知,2
0,1:37.0,左,芝1600m,464.0,２歳新馬,外,晴,牡,51.0,2016/08/06,12:30,サラ系２歳新馬[指]馬齢,2,新潟,牧光二 (美浦),700、280、180、110、70万円,7,ウィズネイチャー,良,3,木幡巧也,2
0,1:35.9,左,芝1600m,506.0,２歳新馬,外,晴,牡,54.0,2016/08/06,12:30,サラ系２歳新馬[指]馬齢,2,新潟,河内洋 (栗東),700、280、180、110、70万円,1,サンライズソア,良,4,Ｍ．デム,2
0,1:37.1,左,芝1600m,454.0,２歳新馬,外,晴,牝,54.0,2016/08/06,12:30,サラ系２歳新馬[指]馬齢,3,新潟,金成貴史 (美浦),700、280、180、110、70万円,8,トゥザイオン,良,5,横山典弘,2
0,1:38.7,左,芝1600m,466.0,２歳新馬,外,晴,牡,54.0,2016/08/06,12:30,サラ系２歳新馬[指]馬齢,3,新潟,古賀史生 (美浦),700、280、180、110、70万円,14,ネコビッチ,良,6,武士沢友,2
0,1:38.3,左,芝1600m,458.0,２歳新馬,外,晴,牡,54.0,2016/08/06,12:30,サラ系２歳新馬[指]馬齢,4,新潟,野中賢二 (栗東),700、280、180、110、70万円,12,ノーティカルマイル,良,7,内田博幸,2
0,1:37.8,左,芝1600m,458.0,２歳新馬,外,晴,牡,54.0,2016/08/06,12:30,サラ系２歳新馬[指]馬齢,4,新潟,的場均 (美浦),700、280、180、110、70万円,10,コントローラー,良,8,的場勇人,2
0,1:36.0,左,芝1600m,464.0,２歳新馬,外,晴,牡,54.0,2016/08/06,12:30,サラ系２歳新馬[指]馬齢,5,新潟,国枝栄 (美浦),700、280、180、110、70万円,3,レッドローゼス,良,9,蛯名正義,2
0,1:38.4,左,芝1600m,400.0,２歳新馬,外,晴,牡,54.0,2016/08/06,12:30,サラ系２歳新馬[指]馬齢,5,新潟,宗像義忠 (美浦),700、280、180、110、70万円,13,ナンヨーサターン,良,10,柴田善臣,2
0,1:38.9,左,芝1600m,448.0,２歳新馬,外,晴,牝,54.0,2016/08/06,12:30,サラ系２歳新馬[指]馬齢,6,新潟,柴田政人 (美浦),700、280、180、110、70万円,15,ブラックモトヒメ,良,11,大野拓弥,2
0,1:38.0,左,芝1600m,464.0,２歳新馬,外,晴,牝,54.0,2016/08/06,12:30,サラ系２歳新馬[指]馬齢,6,新潟,大江原哲 (美浦),700、280、180、110、70万円,11,パレスハングリー,良,12,村田一誠,2
0,1:36.3,左,芝1600m,446.0,２歳新馬,外,晴,牡,54.0,2016/08/06,12:30,サラ系２歳新馬[指]馬齢,7,新潟,中川公成 (美浦),700、280、180、110、70万円,5,コンボルド,良,13,江田照男,2
0,1:39.0,左,芝1600m,508.0,２歳新馬,外,晴,牡,54.0,2016/08/06,12:30,サラ系２歳新馬[指]馬齢,7,新潟,奥村武 (美浦),700、280、180、110、70万円,17,タイセイサニー,良,14,津村明秀,2
0,1:36.7,左,芝1600m,460.0,２歳新馬,外,晴,牡,54.0,2016/08/06,12:30,サラ系２歳新馬[指]馬齢,7,新潟,萩原清 (美浦),700、280、180、110、70万円,6,ランプルール,良,15,戸崎圭太,2
0,1:36.0,左,芝1600m,474.0,２歳新馬,外,晴,牡,54.0,2016/08/06,12:30,サラ系２歳新馬[指]馬齢,8,新潟,小島茂之 (美浦),700、280、180、110、70万円,2,アウトライアーズ,良,16,田辺裕信,2
0,1:39.7,左,芝1600m,484.0,２歳新馬,外,晴,牝,54.0,2016/08/06,12:30,サラ系２歳新馬[指]馬齢,8,新潟,松山将樹 (美浦),700、280、180、110、70万円,18,シゲルヤマネコ,良,17,田中勝春,2
0,1:37.3,左,芝1600m,448.0,２歳新馬,外,晴,牝,53.0,2016/08/06,12:30,サラ系２歳新馬[指]馬齢,8,新潟,武藤善則 (美浦),700、280、180、110、70万円,9,グリッタードリーム,良,18,石川裕紀,2
