,タイム,レース周り,レース情報,体重,名称,外回りフラグ,天気,性別,斤量,日付,時刻,条件,枠番,競技場,調教師名,賞金,順位,馬名,馬場状態,馬番,騎手名,齢
0,1:25.1,左,芝1400m,394.0,ダリア賞,,晴,牡,54.0,2016/08/06,14:01,サラ系２歳オープン(混)(特指)別定,1,新潟,中野栄治 (美浦),1600、640、400、240、160万円,7,サノノジャングル,良,1,内田博幸,2
0,1:24.7,左,芝1400m,438.0,ダリア賞,,晴,牝,54.0,2016/08/06,14:01,サラ系２歳オープン(混)(特指)別定,2,新潟,水野貴広 (美浦),1600、640、400、240、160万円,6,パシオンシャンス,良,2,江田照男,2
0,1:23.4,左,芝1400m,460.0,ダリア賞,,晴,牡,54.0,2016/08/06,14:01,サラ系２歳オープン(混)(特指)別定,3,新潟,森秀行 (栗東),1600、640、400、240、160万円,1,リンクスゼロ,良,3,Ｍ．デム,2
0,1:23.6,左,芝1400m,498.0,ダリア賞,,晴,牡,54.0,2016/08/06,14:01,サラ系２歳オープン(混)(特指)別定,4,新潟,栗田博憲 (美浦),1600、640、400、240、160万円,2,マイネルバールマン,良,4,柴田大知,2
0,1:24.2,左,芝1400m,474.0,ダリア賞,,晴,牡,54.0,2016/08/06,14:01,サラ系２歳オープン(混)(特指)別定,5,新潟,岩戸孝樹 (美浦),1600、640、400、240、160万円,4,サンアンカレッジ,良,5,二本柳壮,2
0,1:24.4,左,芝1400m,478.0,ダリア賞,,晴,牝,54.0,2016/08/06,14:01,サラ系２歳オープン(混)(特指)別定,6,新潟,手塚貴久 (美浦),1600、640、400、240、160万円,5,ハッピーランラン,良,6,戸崎圭太,2
0,1:23.8,左,芝1400m,452.0,ダリア賞,,晴,牝,54.0,2016/08/06,14:01,サラ系２歳オープン(混)(特指)別定,7,新潟,田中清隆 (美浦),1600、640、400、240、160万円,3,タケショウベスト,良,7,蛯名正義,2
