,単勝,枠番,複勝最大,複勝最小,馬名,馬番
0,16.2,1.0,6.7,3.9,ノートルスウェ,1.0
0,49.6,2.0,11.6,6.6,ハコダテキミコ,2.0
0,6.5,3.0,2.7,1.7,レッドアルソード,3.0
0,27.1,4.0,12.0,6.8,ストレイン,4.0
0,6.6,4.0,2.4,1.5,ダークフォース,5.0
0,9.1,5.0,3.9,2.4,ドンボラーレ,6.0
0,4.4,5.0,1.8,1.3,インテグリティー,7.0
0,51.6,6.0,20.9,11.7,ボールドアテンプト,8.0
0,143.7,6.0,34.1,19.1,ノーブルブラック,9.0
0,66.4,7.0,15.9,8.9,トーキョーキッド,10.0
0,17.4,7.0,6.0,3.5,トリプライト,11.0
0,2.7,8.0,1.5,1.2,リーガルオフィス,12.0
0,27.3,8.0,8.1,4.7,ニシノライト,13.0
