,タイム,レース周り,レース情報,体重,名称,外回りフラグ,天気,性別,斤量,日付,時刻,条件,枠番,競技場,調教師名,賞金,順位,馬名,馬場状態,馬番,騎手名,齢
0,1:00.6,右,ダ1000m,454.0,３歳未勝利,,雨,牡,56.0,2016/08/20,11:20,サラ系３歳未勝利(混)[指]馬齢,1,2札幌,森田直行 (栗東),480、190、120、72、48万円,10,アレッチ,稍,1,黛弘人,3
0,1:00.5,右,ダ1000m,456.0,３歳未勝利,,雨,牡,53.0,2016/08/20,11:20,サラ系３歳未勝利(混)[指]馬齢,2,2札幌,加藤征弘 (美浦),480、190、120、72、48万円,9,タケルアロー,稍,2,坂井瑠星,3
0,0:59.6,右,ダ1000m,486.0,３歳未勝利,,雨,牡,56.0,2016/08/20,11:20,サラ系３歳未勝利(混)[指]馬齢,3,2札幌,田中剛 (美浦),480、190、120、72、48万円,3,マックール,稍,3,モレイラ,3
0,0:59.4,右,ダ1000m,482.0,３歳未勝利,,雨,牝,54.0,2016/08/20,11:20,サラ系３歳未勝利(混)[指]馬齢,4,2札幌,伊藤圭三 (美浦),480、190、120、72、48万円,1,ハヤブサレディゴー,稍,4,吉田隼人,3
0,0:59.7,右,ダ1000m,448.0,３歳未勝利,,雨,牝,53.0,2016/08/20,11:20,サラ系３歳未勝利(混)[指]馬齢,5,2札幌,小野次郎 (美浦),480、190、120、72、48万円,5,キセキノムスメ,稍,5,中井裕二,3
0,0:59.4,右,ダ1000m,486.0,３歳未勝利,,雨,牡,56.0,2016/08/20,11:20,サラ系３歳未勝利(混)[指]馬齢,5,2札幌,岩戸孝樹 (美浦),480、190、120、72、48万円,2,アポロリュウセイ,稍,6,丹内祐次,3
0,1:00.5,右,ダ1000m,500.0,３歳未勝利,,雨,牝,52.0,2016/08/20,11:20,サラ系３歳未勝利(混)[指]馬齢,6,2札幌,西橋豊治 (栗東),480、190、120、72、48万円,8,ヤマニンブルネット,稍,7,井上敏樹,3
0,0:59.6,右,ダ1000m,440.0,３歳未勝利,,雨,牝,54.0,2016/08/20,11:20,サラ系３歳未勝利(混)[指]馬齢,6,2札幌,武市康男 (美浦),480、190、120、72、48万円,4,タイトルリーフ,稍,8,勝浦正樹,3
0,1:01.1,右,ダ1000m,422.0,３歳未勝利,,雨,牝,52.0,2016/08/20,11:20,サラ系３歳未勝利(混)[指]馬齢,7,2札幌,和田正道 (美浦),480、190、120、72、48万円,12,モリガンドール,稍,9,原田和真,3
0,1:00.3,右,ダ1000m,454.0,３歳未勝利,,雨,牝,54.0,2016/08/20,11:20,サラ系３歳未勝利(混)[指]馬齢,7,2札幌,武藤善則 (美浦),480、190、120、72、48万円,7,アクティベート,稍,10,横山和生,3
0,0:59.9,右,ダ1000m,428.0,３歳未勝利,,雨,牝,54.0,2016/08/20,11:20,サラ系３歳未勝利(混)[指]馬齢,8,2札幌,斎藤誠 (美浦),480、190、120、72、48万円,6,ラパンノワール,稍,11,福永祐一,3
0,1:00.7,右,ダ1000m,470.0,３歳未勝利,,雨,牝,54.0,2016/08/20,11:20,サラ系３歳未勝利(混)[指]馬齢,8,2札幌,田中清隆 (美浦),480、190、120、72、48万円,11,ルルインザレイン,稍,12,西村太一,3
