,タイム,レース周り,レース情報,体重,名称,外回りフラグ,天気,性別,斤量,日付,時刻,条件,枠番,競技場,調教師名,賞金,順位,馬名,馬場状態,馬番,騎手名,齢
0,1:53.4,左,ダ1800m,494.0,両津湾特別,,晴,牡,57.0,2016/09/04,14:35,サラ系３歳以上５００万下(混)(特指)定量,1,新潟,牧光二 (美浦),1050、420、260、160、105万円,3,ピアシングステア,良,1,戸崎圭太,4
0,1:53.1,左,ダ1800m,462.0,両津湾特別,,晴,牡,57.0,2016/09/04,14:35,サラ系３歳以上５００万下(混)(特指)定量,2,新潟,大和田成 (美浦),1050、420、260、160、105万円,1,レッツゴースター,良,2,柴山雄一,4
0,1:53.4,左,ダ1800m,470.0,両津湾特別,,晴,牡,54.0,2016/09/04,14:35,サラ系３歳以上５００万下(混)(特指)定量,2,新潟,小桧山悟 (美浦),1050、420、260、160、105万円,4,タニガワ,良,3,柴田善臣,3
0,1:54.0,左,ダ1800m,482.0,両津湾特別,,晴,牡,57.0,2016/09/04,14:35,サラ系３歳以上５００万下(混)(特指)定量,3,新潟,和田雄二 (美浦),1050、420、260、160、105万円,6,カシノカーム,良,4,西田雄一,5
0,1:55.5,左,ダ1800m,502.0,両津湾特別,,晴,牡,57.0,2016/09/04,14:35,サラ系３歳以上５００万下(混)(特指)定量,3,新潟,奥村豊 (栗東),1050、420、260、160、105万円,12,ワンダーヴァローレ,良,5,Ｍ．デム,4
0,1:56.2,左,ダ1800m,486.0,両津湾特別,,晴,牡,57.0,2016/09/04,14:35,サラ系３歳以上５００万下(混)(特指)定量,4,新潟,伊藤大士 (美浦),1050、420、260、160、105万円,14,ピーキー,良,6,木幡巧也,5
0,1:53.3,左,ダ1800m,498.0,両津湾特別,,晴,牡,57.0,2016/09/04,14:35,サラ系３歳以上５００万下(混)(特指)定量,4,新潟,新開幸一 (美浦),1050、420、260、160、105万円,2,タイセイストーム,良,7,和田竜二,4
0,1:54.3,左,ダ1800m,466.0,両津湾特別,,晴,牝,55.0,2016/09/04,14:35,サラ系３歳以上５００万下(混)(特指)定量,5,新潟,鮫島一歩 (栗東),1050、420、260、160、105万円,7,ハギノセゾン,良,8,石橋脩,5
0,1:55.5,左,ダ1800m,492.0,両津湾特別,,晴,牡,54.0,2016/09/04,14:35,サラ系３歳以上５００万下(混)(特指)定量,5,新潟,加藤征弘 (美浦),1050、420、260、160、105万円,11,シャドウトルーパー,良,9,内田博幸,3
0,1:53.4,左,ダ1800m,476.0,両津湾特別,,晴,牡,54.0,2016/09/04,14:35,サラ系３歳以上５００万下(混)(特指)定量,6,新潟,尾関知人 (美浦),1050、420、260、160、105万円,5,プライズコレクター,良,10,吉田豊,3
0,1:54.8,左,ダ1800m,516.0,両津湾特別,,晴,牡,54.0,2016/09/04,14:35,サラ系３歳以上５００万下(混)(特指)定量,6,新潟,二ノ宮敬 (美浦),1050、420、260、160、105万円,9,ボーシエル,良,11,蛯名正義,3
0,1:54.8,左,ダ1800m,532.0,両津湾特別,,晴,牝,55.0,2016/09/04,14:35,サラ系３歳以上５００万下(混)(特指)定量,7,新潟,小島茂之 (美浦),1050、420、260、160、105万円,8,ヌーナ,良,12,田辺裕信,4
0,2:00.2,左,ダ1800m,506.0,両津湾特別,,晴,牡,54.0,2016/09/04,14:35,サラ系３歳以上５００万下(混)(特指)定量,7,新潟,清水英克 (美浦),1050、420、260、160、105万円,15,スケールアップ,良,13,石川裕紀,3
0,1:56.2,左,ダ1800m,466.0,両津湾特別,,晴,牡,54.0,2016/09/04,14:35,サラ系３歳以上５００万下(混)(特指)定量,8,新潟,柄崎孝 (美浦),1050、420、260、160、105万円,13,イデアオブダンディ,良,14,岩田康誠,3
0,1:55.4,左,ダ1800m,512.0,両津湾特別,,晴,牡,54.0,2016/09/04,14:35,サラ系３歳以上５００万下(混)(特指)定量,8,新潟,鈴木伸尋 (美浦),1050、420、260、160、105万円,10,ノーブルポセイドン,良,15,津村明秀,3
