,馬番1,馬番2,馬単
0,1.0,2.0,94.4
0,1.0,3.0,154.1
0,1.0,4.0,769.3
0,1.0,5.0,143.8
0,1.0,6.0,695.9
0,1.0,7.0,443.2
0,1.0,8.0,79.4
0,1.0,9.0,1407.8
0,1.0,10.0,609.3
0,1.0,11.0,57.3
0,1.0,12.0,134.2
0,2.0,1.0,77.8
0,2.0,3.0,61.8
0,2.0,4.0,452.0
0,2.0,5.0,45.5
0,2.0,6.0,253.2
0,2.0,7.0,202.9
0,2.0,8.0,29.4
0,2.0,9.0,605.0
0,2.0,10.0,263.6
0,2.0,11.0,22.1
0,2.0,12.0,47.5
0,3.0,1.0,148.4
0,3.0,2.0,70.0
0,3.0,4.0,615.4
0,3.0,5.0,122.2
0,3.0,6.0,429.9
0,3.0,7.0,271.4
0,3.0,8.0,71.4
0,3.0,9.0,858.1
0,3.0,10.0,482.9
0,3.0,11.0,46.9
0,3.0,12.0,118.4
0,4.0,1.0,1148.8
0,4.0,2.0,794.8
0,4.0,3.0,997.2
0,4.0,5.0,1018.4
0,4.0,6.0,2834.3
0,4.0,7.0,2061.3
0,4.0,8.0,705.0
0,4.0,9.0,3881.2
0,4.0,10.0,3419.1
0,4.0,11.0,444.5
0,4.0,12.0,777.6
0,5.0,1.0,112.5
0,5.0,2.0,46.2
0,5.0,3.0,101.6
0,5.0,4.0,517.1
0,5.0,6.0,222.4
0,5.0,7.0,239.2
0,5.0,8.0,34.6
0,5.0,9.0,544.6
0,5.0,10.0,229.6
0,5.0,11.0,22.3
0,5.0,12.0,56.6
0,6.0,1.0,822.1
0,6.0,2.0,335.0
0,6.0,3.0,575.1
0,6.0,4.0,2328.7
0,6.0,5.0,367.5
0,6.0,7.0,1297.6
0,6.0,8.0,307.2
0,6.0,9.0,2013.1
0,6.0,10.0,1549.6
0,6.0,11.0,179.1
0,6.0,12.0,429.0
0,7.0,1.0,563.1
0,7.0,2.0,331.9
0,7.0,3.0,380.5
0,7.0,4.0,2022.6
0,7.0,5.0,436.9
0,7.0,6.0,1241.5
0,7.0,8.0,236.7
0,7.0,9.0,1994.5
0,7.0,10.0,1090.6
0,7.0,11.0,147.4
0,7.0,12.0,362.0
0,8.0,1.0,58.2
0,8.0,2.0,26.4
0,8.0,3.0,55.8
0,8.0,4.0,346.3
0,8.0,5.0,30.5
0,8.0,6.0,226.9
0,8.0,7.0,140.5
0,8.0,9.0,436.4
0,8.0,10.0,198.6
0,8.0,11.0,12.9
0,8.0,12.0,29.5
0,9.0,1.0,2081.2
0,9.0,2.0,1028.1
0,9.0,3.0,1445.6
0,9.0,4.0,3881.2
0,9.0,5.0,1161.2
0,9.0,6.0,2220.6
0,9.0,7.0,2420.3
0,9.0,8.0,654.7
0,9.0,10.0,2853.0
0,9.0,11.0,557.3
0,9.0,12.0,870.3
0,10.0,1.0,822.1
0,10.0,2.0,456.3
0,10.0,3.0,706.2
0,10.0,4.0,2853.0
0,10.0,5.0,389.1
0,10.0,6.0,2154.0
0,10.0,7.0,1297.6
0,10.0,8.0,297.9
0,10.0,9.0,2490.2
0,10.0,11.0,236.7
0,10.0,12.0,480.2
0,11.0,1.0,36.4
0,11.0,2.0,16.7
0,11.0,3.0,34.2
0,11.0,4.0,204.2
0,11.0,5.0,17.7
0,11.0,6.0,127.7
0,11.0,7.0,78.7
0,11.0,8.0,10.7
0,11.0,9.0,274.9
0,11.0,10.0,137.1
0,11.0,12.0,13.7
0,12.0,1.0,101.9
0,12.0,2.0,45.2
0,12.0,3.0,107.4
0,12.0,4.0,453.9
0,12.0,5.0,49.2
0,12.0,6.0,297.9
0,12.0,7.0,238.9
0,12.0,8.0,30.0
0,12.0,9.0,531.8
0,12.0,10.0,297.7
0,12.0,11.0,18.2
