,馬番1,馬番2,馬連
0,1.0,2.0,442.2
0,1.0,3.0,192.1
0,1.0,4.0,397.5
0,1.0,5.0,56.3
0,1.0,6.0,90.1
0,1.0,7.0,663.7
0,1.0,8.0,1065.1
0,1.0,9.0,164.7
0,1.0,10.0,155.9
0,1.0,11.0,125.8
0,1.0,12.0,949.6
0,1.0,13.0,38.0
0,1.0,14.0,192.6
0,2.0,3.0,529.0
0,2.0,4.0,808.4
0,2.0,5.0,188.9
0,2.0,6.0,195.5
0,2.0,7.0,949.6
0,2.0,8.0,1695.1
0,2.0,9.0,441.5
0,2.0,10.0,461.6
0,2.0,11.0,349.9
0,2.0,12.0,1642.1
0,2.0,13.0,110.4
0,2.0,14.0,710.1
0,3.0,4.0,362.8
0,3.0,5.0,50.3
0,3.0,6.0,61.6
0,3.0,7.0,433.6
0,3.0,8.0,759.7
0,3.0,9.0,105.2
0,3.0,10.0,124.1
0,3.0,11.0,87.5
0,3.0,12.0,733.2
0,3.0,13.0,26.4
0,3.0,14.0,223.4
0,4.0,5.0,119.6
0,4.0,6.0,156.3
0,4.0,7.0,556.0
0,4.0,8.0,1256.1
0,4.0,9.0,150.4
0,4.0,10.0,232.6
0,4.0,11.0,182.5
0,4.0,12.0,550.2
0,4.0,13.0,59.9
0,4.0,14.0,339.3
0,5.0,6.0,14.4
0,5.0,7.0,160.6
0,5.0,8.0,319.1
0,5.0,9.0,27.8
0,5.0,10.0,32.1
0,5.0,11.0,19.7
0,5.0,12.0,145.5
0,5.0,13.0,6.2
0,5.0,14.0,51.0
0,6.0,7.0,166.9
0,6.0,8.0,386.3
0,6.0,9.0,36.6
0,6.0,10.0,47.8
0,6.0,11.0,25.0
0,6.0,12.0,139.1
0,6.0,13.0,9.9
0,6.0,14.0,72.5
0,7.0,8.0,1625.2
0,7.0,9.0,225.3
0,7.0,10.0,353.4
0,7.0,11.0,267.4
0,7.0,12.0,426.6
0,7.0,13.0,97.3
0,7.0,14.0,467.7
0,8.0,9.0,847.5
0,8.0,10.0,666.5
0,8.0,11.0,584.9
0,8.0,12.0,1722.9
0,8.0,13.0,202.6
0,8.0,14.0,1208.0
0,9.0,10.0,60.0
0,9.0,11.0,53.9
0,9.0,12.0,156.0
0,9.0,13.0,15.8
0,9.0,14.0,86.0
0,10.0,11.0,57.9
0,10.0,12.0,470.5
0,10.0,13.0,18.3
0,10.0,14.0,117.5
0,11.0,12.0,267.4
0,11.0,13.0,11.4
0,11.0,14.0,96.3
0,12.0,13.0,117.2
0,12.0,14.0,331.5
0,13.0,14.0,23.4
