,単勝,枠番,複勝最大,複勝最小,馬名,馬番
0,10.1,1.0,3.5,1.9,サンシャワー,1.0
0,59.6,2.0,9.1,4.5,メイショウラクエン,2.0
0,3.5,3.0,1.5,1.1,メイショウミズカゼ,3.0
0,121.3,4.0,24.7,11.6,キングラズベリー,4.0
0,151.4,4.0,34.3,16.0,エイユーエンプレス,5.0
0,20.5,5.0,5.2,2.6,シゲルシャチ,6.0
0,162.2,5.0,47.3,22.0,クリノイサベル,7.0
0,163.4,6.0,43.7,20.3,トミケンナプロスト,8.0
0,9.5,6.0,3.4,1.8,ロードコランダム,9.0
0,91.0,7.0,23.2,10.9,タイガーヴェロス,10.0
0,169.5,7.0,48.0,22.3,ブルベアバブーン,11.0
0,2.9,8.0,1.4,1.1,ウイナーズロード,12.0
0,3.1,8.0,2.3,1.3,ジーエンゲージ,13.0
