,枠番1,枠番2,枠連
0,1.0,1.0,243.8
0,1.0,2.0,56.4
0,1.0,3.0,40.4
0,1.0,4.0,13.7
0,1.0,5.0,5.4
0,1.0,6.0,5.7
0,1.0,7.0,41.7
0,1.0,8.0,5.1
0,2.0,2.0,2045.4
0,2.0,3.0,183.6
0,2.0,4.0,147.5
0,2.0,5.0,144.9
0,2.0,6.0,106.2
0,2.0,7.0,211.5
0,2.0,8.0,105.9
0,3.0,3.0,1443.8
0,3.0,4.0,125.0
0,3.0,5.0,74.8
0,3.0,6.0,54.7
0,3.0,7.0,168.8
0,3.0,8.0,63.2
0,4.0,4.0,257.4
0,4.0,5.0,30.7
0,4.0,6.0,24.6
0,4.0,7.0,100.5
0,4.0,8.0,22.1
0,5.0,5.0,340.9
0,5.0,6.0,14.5
0,5.0,7.0,77.3
0,5.0,8.0,13.6
0,6.0,6.0,40.5
0,6.0,7.0,55.9
0,6.0,8.0,8.5
0,7.0,7.0,876.6
0,7.0,8.0,48.8
0,8.0,8.0,43.9
