,馬番1,馬番2,ワイド
0,1.0,2.0,31.0
0,1.0,3.0,400.1
0,1.0,4.0,49.9
0,1.0,5.0,140.0
0,1.0,6.0,146.5
0,1.0,7.0,23.4
0,1.0,8.0,36.6
0,1.0,9.0,10.7
0,1.0,10.0,337.3
0,1.0,11.0,61.2
0,1.0,12.0,10.8
0,1.0,13.0,12.3
0,1.0,14.0,341.3
0,1.0,15.0,82.9
0,1.0,16.0,229.1
0,1.0,17.0,80.4
0,2.0,3.0,441.4
0,2.0,4.0,62.6
0,2.0,5.0,155.9
0,2.0,6.0,152.6
0,2.0,7.0,28.7
0,2.0,8.0,35.8
0,2.0,9.0,16.2
0,2.0,10.0,263.0
0,2.0,11.0,69.5
0,2.0,12.0,9.5
0,2.0,13.0,13.4
0,2.0,14.0,364.5
0,2.0,15.0,110.5
0,2.0,16.0,250.8
0,2.0,17.0,105.1
0,3.0,4.0,500.8
0,3.0,5.0,751.3
0,3.0,6.0,1056.0
0,3.0,7.0,469.2
0,3.0,8.0,676.5
0,3.0,9.0,214.3
0,3.0,10.0,1709.8
0,3.0,11.0,828.8
0,3.0,12.0,223.2
0,3.0,13.0,236.9
0,3.0,14.0,1709.0
0,3.0,15.0,1515.9
0,3.0,16.0,1567.1
0,3.0,17.0,1865.5
0,4.0,5.0,99.5
0,4.0,6.0,166.3
0,4.0,7.0,31.5
0,4.0,8.0,38.4
0,4.0,9.0,15.3
0,4.0,10.0,423.4
0,4.0,11.0,87.1
0,4.0,12.0,18.0
0,4.0,13.0,17.6
0,4.0,14.0,394.0
0,4.0,15.0,117.2
0,4.0,16.0,434.5
0,4.0,17.0,131.8
0,5.0,6.0,304.6
0,5.0,7.0,85.2
0,5.0,8.0,115.0
0,5.0,9.0,40.0
0,5.0,10.0,791.7
0,5.0,11.0,234.4
0,5.0,12.0,36.7
0,5.0,13.0,39.5
0,5.0,14.0,694.9
0,5.0,15.0,233.1
0,5.0,16.0,769.2
0,5.0,17.0,426.1
0,6.0,7.0,101.7
0,6.0,8.0,90.1
0,6.0,9.0,55.2
0,6.0,10.0,596.7
0,6.0,11.0,199.0
0,6.0,12.0,33.9
0,6.0,13.0,31.0
0,6.0,14.0,629.2
0,6.0,15.0,325.2
0,6.0,16.0,621.9
0,6.0,17.0,360.4
0,7.0,8.0,20.7
0,7.0,9.0,6.7
0,7.0,10.0,243.3
0,7.0,11.0,42.8
0,7.0,12.0,5.3
0,7.0,13.0,6.4
0,7.0,14.0,205.8
0,7.0,15.0,57.4
0,7.0,16.0,222.7
0,7.0,17.0,49.7
0,8.0,9.0,12.5
0,8.0,10.0,289.0
0,8.0,11.0,70.5
0,8.0,12.0,8.1
0,8.0,13.0,9.0
0,8.0,14.0,329.8
0,8.0,15.0,101.0
0,8.0,16.0,283.4
0,8.0,17.0,97.0
0,9.0,10.0,97.4
0,9.0,11.0,18.7
0,9.0,12.0,2.4
0,9.0,13.0,3.5
0,9.0,14.0,113.5
0,9.0,15.0,26.2
0,9.0,16.0,80.1
0,9.0,17.0,29.9
0,10.0,11.0,273.4
0,10.0,12.0,86.2
0,10.0,13.0,118.9
0,10.0,14.0,960.9
0,10.0,15.0,617.2
0,10.0,16.0,1228.2
0,10.0,17.0,657.4
0,11.0,12.0,12.1
0,11.0,13.0,13.1
0,11.0,14.0,423.1
0,11.0,15.0,138.1
0,11.0,16.0,331.7
0,11.0,17.0,166.0
0,12.0,13.0,2.1
0,12.0,14.0,73.1
0,12.0,15.0,22.3
0,12.0,16.0,56.1
0,12.0,17.0,26.1
0,13.0,14.0,86.1
0,13.0,15.0,24.9
0,13.0,16.0,72.3
0,13.0,17.0,24.4
0,14.0,15.0,545.7
0,14.0,16.0,736.8
0,14.0,17.0,512.1
0,15.0,16.0,414.0
0,15.0,17.0,159.1
0,16.0,17.0,368.9
