,馬番1,馬番2,馬連
0,1.0,2.0,262.0
0,1.0,3.0,261.2
0,1.0,4.0,89.7
0,1.0,5.0,107.3
0,1.0,6.0,70.6
0,1.0,7.0,18.0
0,1.0,8.0,39.8
0,1.0,9.0,7.9
0,1.0,10.0,149.7
0,1.0,11.0,6.2
0,1.0,12.0,14.3
0,1.0,13.0,49.9
0,1.0,14.0,277.5
0,1.0,15.0,13.6
0,1.0,16.0,7.3
0,2.0,3.0,2859.3
0,2.0,4.0,2624.6
0,2.0,5.0,2813.6
0,2.0,6.0,2442.4
0,2.0,7.0,1724.0
0,2.0,8.0,2769.3
0,2.0,9.0,915.9
0,2.0,10.0,9018.0
0,2.0,11.0,993.5
0,2.0,12.0,1776.2
0,2.0,13.0,4342.0
0,2.0,14.0,16747.8
0,2.0,15.0,2198.1
0,2.0,16.0,1297.8
0,3.0,4.0,3588.8
0,3.0,5.0,3197.3
0,3.0,6.0,3197.3
0,3.0,7.0,1822.3
0,3.0,8.0,1715.6
0,3.0,9.0,1327.1
0,3.0,10.0,6280.4
0,3.0,11.0,1046.7
0,3.0,12.0,2425.5
0,3.0,13.0,3702.1
0,3.0,14.0,15291.5
0,3.0,15.0,2044.8
0,3.0,16.0,1160.7
0,4.0,5.0,1911.4
0,4.0,6.0,1577.1
0,4.0,7.0,557.3
0,4.0,8.0,918.2
0,4.0,9.0,272.4
0,4.0,10.0,2859.3
0,4.0,11.0,256.5
0,4.0,12.0,622.4
0,4.0,13.0,1317.2
0,4.0,14.0,6280.4
0,4.0,15.0,650.1
0,4.0,16.0,330.5
0,5.0,6.0,1741.1
0,5.0,7.0,647.7
0,5.0,8.0,1072.2
0,5.0,9.0,275.2
0,5.0,10.0,4689.4
0,5.0,11.0,224.4
0,5.0,12.0,937.8
0,5.0,13.0,1577.1
0,5.0,14.0,7034.1
0,5.0,15.0,675.0
0,5.0,16.0,421.7
0,6.0,7.0,397.4
0,6.0,8.0,835.4
0,6.0,9.0,189.8
0,6.0,10.0,1851.0
0,6.0,11.0,165.8
0,6.0,12.0,263.0
0,6.0,13.0,1065.7
0,6.0,14.0,5410.8
0,6.0,15.0,439.6
0,6.0,16.0,152.4
0,7.0,8.0,288.5
0,7.0,9.0,56.9
0,7.0,10.0,1105.9
0,7.0,11.0,41.2
0,7.0,12.0,78.5
0,7.0,13.0,323.5
0,7.0,14.0,2548.5
0,7.0,15.0,98.8
0,7.0,16.0,59.7
0,8.0,9.0,121.4
0,8.0,10.0,901.8
0,8.0,11.0,123.5
0,8.0,12.0,282.0
0,8.0,13.0,564.5
0,8.0,14.0,3552.5
0,8.0,15.0,281.3
0,8.0,16.0,138.4
0,9.0,10.0,427.3
0,9.0,11.0,18.6
0,9.0,12.0,45.5
0,9.0,13.0,124.9
0,9.0,14.0,1085.5
0,9.0,15.0,46.6
0,9.0,16.0,23.8
0,10.0,11.0,511.9
0,10.0,12.0,930.4
0,10.0,13.0,1987.0
0,10.0,14.0,7815.6
0,10.0,15.0,985.1
0,10.0,16.0,468.3
0,11.0,12.0,33.0
0,11.0,13.0,115.2
0,11.0,14.0,835.4
0,11.0,15.0,29.1
0,11.0,16.0,18.8
0,12.0,13.0,265.6
0,12.0,14.0,1901.1
0,12.0,15.0,50.1
0,12.0,16.0,45.1
0,13.0,14.0,3448.0
0,13.0,15.0,344.4
0,13.0,16.0,108.0
0,14.0,15.0,1841.3
0,14.0,16.0,942.9
0,15.0,16.0,38.0
