,馬番1,馬番2,馬連
0,1.0,2.0,90.8
0,1.0,3.0,42.3
0,1.0,4.0,106.1
0,1.0,5.0,600.3
0,1.0,6.0,2401.3
0,1.0,7.0,2137.3
0,1.0,8.0,379.3
0,1.0,9.0,245.0
0,1.0,10.0,2230.7
0,1.0,11.0,159.0
0,1.0,12.0,478.5
0,2.0,3.0,3.8
0,2.0,4.0,13.5
0,2.0,5.0,100.4
0,2.0,6.0,447.6
0,2.0,7.0,305.1
0,2.0,8.0,42.2
0,2.0,9.0,28.3
0,2.0,10.0,500.2
0,2.0,11.0,19.6
0,2.0,12.0,82.0
0,3.0,4.0,5.7
0,3.0,5.0,43.0
0,3.0,6.0,140.9
0,3.0,7.0,116.9
0,3.0,8.0,13.6
0,3.0,9.0,10.3
0,3.0,10.0,155.6
0,3.0,11.0,7.0
0,3.0,12.0,34.4
0,4.0,5.0,119.1
0,4.0,6.0,622.3
0,4.0,7.0,454.5
0,4.0,8.0,56.9
0,4.0,9.0,40.6
0,4.0,10.0,471.3
0,4.0,11.0,24.0
0,4.0,12.0,98.1
0,5.0,6.0,2137.3
0,5.0,7.0,2030.9
0,5.0,8.0,395.9
0,5.0,9.0,304.8
0,5.0,10.0,3023.9
0,5.0,11.0,185.3
0,5.0,12.0,703.8
0,6.0,7.0,2668.1
0,6.0,8.0,879.8
0,6.0,9.0,760.2
0,6.0,10.0,2958.1
0,6.0,11.0,670.3
0,6.0,12.0,2218.6
0,7.0,8.0,978.9
0,7.0,9.0,663.7
0,7.0,10.0,3779.9
0,7.0,11.0,574.9
0,7.0,12.0,2206.6
0,8.0,9.0,86.7
0,8.0,10.0,824.7
0,8.0,11.0,64.8
0,8.0,12.0,380.4
0,9.0,10.0,746.3
0,9.0,11.0,57.4
0,9.0,12.0,244.7
0,10.0,11.0,661.6
0,10.0,12.0,2474.1
0,11.0,12.0,119.2
