,単勝,枠番,複勝最大,複勝最小,馬名,馬番
0,6.0,1.0,3.2,1.4,シホウ,1.0
0,21.6,2.0,8.2,2.9,ハッピーモーメント,2.0
0,33.7,3.0,11.2,3.8,ディスキーダンス,3.0
0,60.5,4.0,22.3,7.3,マイネルジェイド,4.0
0,12.0,5.0,4.4,1.7,トルークマクト,5.0
0,1.7,6.0,1.1,1.1,ヴォルシェーブ,6.0
0,10.8,7.0,6.2,2.2,シンボリジャズ,7.0
0,33.6,7.0,14.5,4.8,サトノフェアリー,8.0
0,6.4,8.0,3.9,1.5,グランドサッシュ,9.0
0,22.6,8.0,11.4,3.8,ショウナンラグーン,10.0
