,タイム,レース周り,レース情報,体重,名称,外回りフラグ,天気,性別,斤量,日付,時刻,条件,枠番,競技場,調教師名,賞金,順位,馬名,馬場状態,馬番,騎手名,齢
0,1:11.7,左,ダ1200m,462.0,３歳上５００万下,,晴,牝,52.0,2016/08/20,16:30,サラ系３歳以上５００万下[指]定量,1,新潟,菊沢隆徳 (美浦),750、300、190、110、75万円,5,モンサンビアンカ,良,1,菊沢一樹,4
0,1:11.7,左,ダ1200m,484.0,３歳上５００万下,,晴,牡,57.0,2016/08/20,16:30,サラ系３歳以上５００万下[指]定量,2,新潟,武市康男 (美浦),750、300、190、110、75万円,6,イアペトス,良,2,江田照男,4
0,1:13.6,左,ダ1200m,464.0,３歳上５００万下,,晴,セ,57.0,2016/08/20,16:30,サラ系３歳以上５００万下[指]定量,2,新潟,中舘英二 (美浦),750、300、190、110、75万円,13,トレノカチドキ,良,3,大野拓弥,5
0,1:12.1,左,ダ1200m,498.0,３歳上５００万下,,晴,牝,55.0,2016/08/20,16:30,サラ系３歳以上５００万下[指]定量,3,新潟,松山将樹 (美浦),750、300、190、110、75万円,8,ジュエルアラモード,良,4,石橋脩,4
0,1:13.7,左,ダ1200m,454.0,３歳上５００万下,,晴,牡,57.0,2016/08/20,16:30,サラ系３歳以上５００万下[指]定量,3,新潟,池上昌弘 (美浦),750、300、190、110、75万円,14,ドリームマークス,良,5,大庭和弥,6
0,1:12.2,左,ダ1200m,468.0,３歳上５００万下,,晴,牝,49.0,2016/08/20,16:30,サラ系３歳以上５００万下[指]定量,4,新潟,尾形和幸 (美浦),750、300、190、110、75万円,9,レディエントブルー,良,6,野中悠太,3
0,1:13.1,左,ダ1200m,492.0,３歳上５００万下,,晴,牝,54.0,2016/08/20,16:30,サラ系３歳以上５００万下[指]定量,4,新潟,柄崎孝 (美浦),750、300、190、110、75万円,11,スズカプリティー,良,7,石川裕紀,5
0,1:14.9,左,ダ1200m,492.0,３歳上５００万下,,晴,牡,57.0,2016/08/20,16:30,サラ系３歳以上５００万下[指]定量,5,新潟,天間昭一 (美浦),750、300、190、110、75万円,15,クラウンルシフェル,良,8,西田雄一,5
0,1:11.7,左,ダ1200m,492.0,３歳上５００万下,,晴,牡,57.0,2016/08/20,16:30,サラ系３歳以上５００万下[指]定量,5,新潟,星野忍 (美浦),750、300、190、110、75万円,4,ウサギノカケアシ,良,9,武士沢友,4
0,1:11.3,左,ダ1200m,506.0,３歳上５００万下,,晴,牡,57.0,2016/08/20,16:30,サラ系３歳以上５００万下[指]定量,6,新潟,大和田成 (美浦),750、300、190、110、75万円,2,トミケンキルカス,良,10,柴田善臣,4
0,1:13.2,左,ダ1200m,506.0,３歳上５００万下,,晴,牝,55.0,2016/08/20,16:30,サラ系３歳以上５００万下[指]定量,6,新潟,鈴木伸尋 (美浦),750、300、190、110、75万円,12,ワイエムテイラー,良,11,丸田恭介,5
0,1:12.5,左,ダ1200m,472.0,３歳上５００万下,,晴,牡,55.0,2016/08/20,16:30,サラ系３歳以上５００万下[指]定量,7,新潟,堀井雅広 (美浦),750、300、190、110、75万円,10,ドゥーイット,良,12,伴啓太,5
0,1:11.1,左,ダ1200m,474.0,３歳上５００万下,,晴,牡,57.0,2016/08/20,16:30,サラ系３歳以上５００万下[指]定量,7,新潟,大和田成 (美浦),750、300、190、110、75万円,1,オメガハイヌーン,良,13,横山典弘,4
0,1:12.0,左,ダ1200m,454.0,３歳上５００万下,,晴,牡,54.0,2016/08/20,16:30,サラ系３歳以上５００万下[指]定量,8,新潟,土田稔 (美浦),750、300、190、110、75万円,7,オーロラッシュ,良,14,木幡巧也,4
0,1:11.5,左,ダ1200m,448.0,３歳上５００万下,,晴,牝,55.0,2016/08/20,16:30,サラ系３歳以上５００万下[指]定量,8,新潟,武藤善則 (美浦),750、300、190、110、75万円,3,ピュアノアール,良,15,津村明秀,4
