,タイム,レース周り,レース情報,体重,名称,外回りフラグ,天気,性別,斤量,日付,時刻,条件,枠番,競技場,調教師名,賞金,順位,馬名,馬場状態,馬番,騎手名,齢
0,1:37.7,左,芝1600m,456.0,２歳未勝利,外,晴,牝,51.0,2016/08/20,10:10,サラ系２歳未勝利牝[指]馬齢,1,新潟,二本柳俊 (美浦),500、200、130、75、50万円,17,キチロクエンパイア,良,1,菊沢一樹,2
0,1:36.1,左,芝1600m,448.0,２歳未勝利,外,晴,牝,54.0,2016/08/20,10:10,サラ系２歳未勝利牝[指]馬齢,1,新潟,浅野洋一 (美浦),500、200、130、75、50万円,9,ミスパイロ,良,2,石橋脩,2
0,1:35.5,左,芝1600m,442.0,２歳未勝利,外,晴,牝,54.0,2016/08/20,10:10,サラ系２歳未勝利牝[指]馬齢,2,新潟,栗田徹 (美浦),500、200、130、75、50万円,6,シュピールカルテ,良,3,柴田大知,2
0,1:35.3,左,芝1600m,444.0,２歳未勝利,外,晴,牝,54.0,2016/08/20,10:10,サラ系２歳未勝利牝[指]馬齢,2,新潟,高橋義博 (美浦),500、200、130、75、50万円,4,ルックアットミー,良,4,的場勇人,2
0,1:36.7,左,芝1600m,466.0,２歳未勝利,外,晴,牝,53.0,2016/08/20,10:10,サラ系２歳未勝利牝[指]馬齢,3,新潟,相沢郁 (美浦),500、200、130、75、50万円,12,イタリアンホワイト,良,5,石川裕紀,2
0,1:34.7,左,芝1600m,420.0,２歳未勝利,外,晴,牝,52.0,2016/08/20,10:10,サラ系２歳未勝利牝[指]馬齢,3,新潟,粕谷昌央 (美浦),500、200、130、75、50万円,1,ハートオブスワロー,良,6,木幡初也,2
0,1:37.0,左,芝1600m,450.0,２歳未勝利,外,晴,牝,51.0,2016/08/20,10:10,サラ系２歳未勝利牝[指]馬齢,4,新潟,根本康広 (美浦),500、200、130、75、50万円,15,ニシノヒナマツリ,良,7,野中悠太,2
0,1:35.3,左,芝1600m,456.0,２歳未勝利,外,晴,牝,54.0,2016/08/20,10:10,サラ系２歳未勝利牝[指]馬齢,4,新潟,武藤善則 (美浦),500、200、130、75、50万円,5,キューティロンプ,良,8,戸崎圭太,2
0,1:35.7,左,芝1600m,418.0,２歳未勝利,外,晴,牝,54.0,2016/08/20,10:10,サラ系２歳未勝利牝[指]馬齢,5,新潟,中舘英二 (美浦),500、200、130、75、50万円,7,コスモエアターン,良,9,嘉藤貴行,2
0,1:36.2,左,芝1600m,488.0,２歳未勝利,外,晴,牝,52.0,2016/08/20,10:10,サラ系２歳未勝利牝[指]馬齢,5,新潟,和田雄二 (美浦),500、200、130、75、50万円,10,コスモメソッド,良,10,伴啓太,2
0,1:34.7,左,芝1600m,428.0,２歳未勝利,外,晴,牝,51.0,2016/08/20,10:10,サラ系２歳未勝利牝[指]馬齢,6,新潟,相沢郁 (美浦),500、200、130、75、50万円,2,パフォーム,良,11,木幡巧也,2
0,1:37.3,左,芝1600m,448.0,２歳未勝利,外,晴,牝,54.0,2016/08/20,10:10,サラ系２歳未勝利牝[指]馬齢,6,新潟,中舘英二 (美浦),500、200、130、75、50万円,16,プレシャスジュエル,良,12,内田博幸,2
0,1:36.0,左,芝1600m,422.0,２歳未勝利,外,晴,牝,54.0,2016/08/20,10:10,サラ系２歳未勝利牝[指]馬齢,7,新潟,水野貴広 (美浦),500、200、130、75、50万円,8,ノアスパーク,良,13,津村明秀,2
0,1:35.2,左,芝1600m,472.0,２歳未勝利,外,晴,牝,54.0,2016/08/20,10:10,サラ系２歳未勝利牝[指]馬齢,7,新潟,田村康仁 (美浦),500、200、130、75、50万円,3,ドラゴンランス,良,14,Ｍ．デム,2
0,1:36.8,左,芝1600m,392.0,２歳未勝利,外,晴,牝,54.0,2016/08/20,10:10,サラ系２歳未勝利牝[指]馬齢,7,新潟,竹内正洋 (美浦),500、200、130、75、50万円,14,ヴァニラエッセンス,良,15,丸田恭介,2
0,1:36.6,左,芝1600m,476.0,２歳未勝利,外,晴,牝,54.0,2016/08/20,10:10,サラ系２歳未勝利牝[指]馬齢,8,新潟,星野忍 (美浦),500、200、130、75、50万円,11,ニシノヒスイ,良,16,村田一誠,2
0,1:38.1,左,芝1600m,478.0,２歳未勝利,外,晴,牝,54.0,2016/08/20,10:10,サラ系２歳未勝利牝[指]馬齢,8,新潟,萱野浩二 (美浦),500、200、130、75、50万円,18,ハッピーカンパニー,良,17,岩部純二,2
0,1:36.7,左,芝1600m,432.0,２歳未勝利,外,晴,牝,54.0,2016/08/20,10:10,サラ系２歳未勝利牝[指]馬齢,8,新潟,大江原哲 (美浦),500、200、130、75、50万円,13,ブライトエピローグ,良,18,大野拓弥,2
