,単勝,枠番,複勝最大,複勝最小,馬名,馬番
0,161.5,1.0,79.0,43.0,ハギノティムシェル,1.0
0,196.8,1.0,73.4,39.9,リュッケンヴィント,2.0
0,27.5,2.0,8.6,4.9,インヴィジブル,3.0
0,13.0,2.0,4.2,2.5,シゲルオニカマス,4.0
0,8.5,3.0,5.2,3.0,ストーミーストーム,5.0
0,5.0,3.0,2.0,1.4,オースミマルス,6.0
0,8.1,4.0,2.6,1.6,ロードグレイス,7.0
0,19.7,4.0,6.6,3.8,メイショウオルソ,8.0
0,32.6,5.0,13.0,7.2,ジランドラ,9.0
0,106.3,5.0,40.2,21.9,オースミフォース,10.0
0,282.6,6.0,98.9,53.7,アドヴァントアロー,11.0
0,2.3,6.0,1.4,1.1,ドルチェリア,12.0
0,33.8,7.0,10.5,5.9,キングエイティ,13.0
0,9.4,7.0,3.1,1.9,ガリゲット,14.0
0,132.6,8.0,24.3,13.4,スズカウエーブ,15.0
0,34.8,8.0,8.1,4.6,ロイヤルネイビー,16.0
