,単勝,枠番,複勝最大,複勝最小,馬名,馬番
0,20.1,1.0,11.3,1.9,ライラックパープル,1.0
0,86.5,2.0,66.5,9.4,クリノピョートル,2.0
0,9.8,3.0,7.9,1.5,アスタークライ,3.0
0,20.9,4.0,13.6,2.2,カンナ,4.0
0,6.4,5.0,4.9,1.2,ディランフィールド,5.0
0,38.7,6.0,25.8,3.9,メインスピーチ,6.0
0,35.8,6.0,21.5,3.3,カレドヴルフ,7.0
0,41.6,7.0,26.3,3.9,シビックファミユ,8.0
0,36.9,7.0,23.5,3.6,レイナプティ,9.0
0,1.3,8.0,1.1,1.0,ヴァナヘイム,10.0
0,108.5,8.0,79.4,11.1,ヌンクウボ,11.0
