,単勝,枠番,複勝最大,複勝最小,馬名,馬番
0,4.9,1.0,2.1,1.5,シンシアズブレス,1.0
0,36.6,2.0,9.1,5.9,ビリーヴザワン,2.0
0,133.6,3.0,22.1,14.1,レーヴドプランス,3.0
0,3.4,4.0,1.8,1.4,ウインムート,4.0
0,181.4,4.0,43.7,27.8,ハドウホウ,5.0
0,4.2,5.0,1.9,1.4,アドマイヤロマン,6.0
0,5.0,5.0,2.3,1.6,ブラックバード,7.0
0,13.8,6.0,4.7,3.1,キングライオン,8.0
0,41.8,6.0,10.8,7.0,マイネルラック,9.0
0,19.8,7.0,5.9,3.9,ポートレイト,10.0
0,8.4,7.0,2.9,2.0,ニシノカブケ,11.0
0,111.2,8.0,27.8,17.6,アルトゥーナ,12.0
0,146.5,8.0,26.6,16.9,ペイシャマリヤ,13.0
