,タイム,レース周り,レース情報,体重,名称,外回りフラグ,天気,性別,斤量,日付,時刻,条件,枠番,競技場,調教師名,賞金,順位,馬名,馬場状態,馬番,騎手名,齢
0,1:28.8,右,芝1500m,478.0,羊ケ丘特別,,曇,牝,52.0,2016/07/30,14:50,サラ系３歳以上５００万下(混)(特指)定量,1,札幌,池江泰寿 (栗東),1050、420、260、160、105万円,2,シンシアズブレス,良,1,三浦皇成,3
0,1:29.9,右,芝1500m,482.0,羊ケ丘特別,,曇,セ,57.0,2016/07/30,14:50,サラ系３歳以上５００万下(混)(特指)定量,2,札幌,中野栄治 (美浦),1050、420、260、160、105万円,11,ビリーヴザワン,良,2,長岡禎仁,5
0,1:29.2,右,芝1500m,480.0,羊ケ丘特別,,曇,セ,57.0,2016/07/30,14:50,サラ系３歳以上５００万下(混)(特指)定量,3,札幌,柴田政人 (美浦),1050、420、260、160、105万円,5,レーヴドプランス,良,3,井上敏樹,6
0,1:28.7,右,芝1500m,476.0,羊ケ丘特別,,曇,牡,54.0,2016/07/30,14:50,サラ系３歳以上５００万下(混)(特指)定量,4,札幌,加用正 (栗東),1050、420、260、160、105万円,1,ウインムート,良,4,菱田裕二,3
0,1:31.0,右,芝1500m,498.0,羊ケ丘特別,,曇,牡,57.0,2016/07/30,14:50,サラ系３歳以上５００万下(混)(特指)定量,4,札幌,崎山博樹 (栗東),1050、420、260、160、105万円,13,ハドウホウ,良,5,水口優也,4
0,1:28.9,右,芝1500m,476.0,羊ケ丘特別,,曇,牡,54.0,2016/07/30,14:50,サラ系３歳以上５００万下(混)(特指)定量,5,札幌,梅田智之 (栗東),1050、420、260、160、105万円,3,アドマイヤロマン,良,6,福永祐一,3
0,1:29.3,右,芝1500m,466.0,羊ケ丘特別,,曇,牡,57.0,2016/07/30,14:50,サラ系３歳以上５００万下(混)(特指)定量,5,札幌,加用正 (栗東),1050、420、260、160、105万円,7,ブラックバード,良,7,ルメール,4
0,1:29.2,右,芝1500m,496.0,羊ケ丘特別,,曇,牡,54.0,2016/07/30,14:50,サラ系３歳以上５００万下(混)(特指)定量,6,札幌,矢作芳人 (栗東),1050、420、260、160、105万円,6,キングライオン,良,8,坂井瑠星,3
0,1:29.7,右,芝1500m,464.0,羊ケ丘特別,,曇,牡,54.0,2016/07/30,14:50,サラ系３歳以上５００万下(混)(特指)定量,6,札幌,梅田智之 (栗東),1050、420、260、160、105万円,9,マイネルラック,良,9,丹内祐次,3
0,1:30.0,右,芝1500m,420.0,羊ケ丘特別,,曇,牝,52.0,2016/07/30,14:50,サラ系３歳以上５００万下(混)(特指)定量,7,札幌,高市圭二 (美浦),1050、420、260、160、105万円,12,ポートレイト,良,10,古川吉洋,3
0,1:29.1,右,芝1500m,484.0,羊ケ丘特別,,曇,牡,57.0,2016/07/30,14:50,サラ系３歳以上５００万下(混)(特指)定量,7,札幌,萱野浩二 (美浦),1050、420、260、160、105万円,4,ニシノカブケ,良,11,勝浦正樹,4
0,1:29.9,右,芝1500m,426.0,羊ケ丘特別,,曇,牝,55.0,2016/07/30,14:50,サラ系３歳以上５００万下(混)(特指)定量,8,札幌,長浜博之 (栗東),1050、420、260、160、105万円,10,アルトゥーナ,良,12,池添謙一,5
0,1:29.5,右,芝1500m,440.0,羊ケ丘特別,,曇,牝,52.0,2016/07/30,14:50,サラ系３歳以上５００万下(混)(特指)定量,8,札幌,松永康利 (美浦),1050、420、260、160、105万円,8,ペイシャマリヤ,良,13,黛弘人,3
