,単勝,枠番,複勝最大,複勝最小,馬名,馬番
0,1.6,1.0,1.4,1.2,カゼルタ,1.0
0,14.1,2.0,4.5,3.0,フェイトカラー,2.0
0,3.5,3.0,1.9,1.3,プリメラアスール,3.0
0,19.6,4.0,8.0,5.3,カルシャン,4.0
0,11.8,5.0,6.6,4.5,メイショウクローバ,5.0
0,73.8,6.0,14.6,9.9,ラトーヌワイズ,6.0
0,7.0,7.0,3.0,2.1,スペランツァデーア,7.0
