,単勝,枠番,複勝最大,複勝最小,馬名,馬番
0,14.4,1.0,4.7,2.5,ハッピーマテリアル,1.0
0,94.4,2.0,27.2,12.9,クリノアスカ,2.0
0,6.0,3.0,2.5,1.4,ヤマノヒマワリ,3.0
0,80.2,3.0,21.9,10.5,ダンツアムール,4.0
0,85.1,4.0,33.4,15.9,ウインプルミエ,5.0
0,31.7,4.0,8.4,4.2,ゼットパール,6.0
0,87.0,5.0,18.3,8.8,メイショウシラサギ,7.0
0,10.7,5.0,3.4,1.9,メイショウハバネラ,8.0
0,3.1,6.0,1.4,1.1,ショーウェイ,9.0
0,18.7,6.0,7.3,3.6,デッラサルーテ,10.0
0,2.8,7.0,1.5,1.1,ベルカプリ,11.0
0,19.9,7.0,7.6,3.8,エンジェルパルフェ,12.0
0,65.9,8.0,15.4,7.4,コウエイダリア,13.0
0,119.7,8.0,27.5,13.1,ゲイムフリー,14.0
