,タイム,レース周り,レース情報,体重,名称,外回りフラグ,天気,性別,斤量,日付,時刻,条件,枠番,競技場,調教師名,賞金,順位,馬名,馬場状態,馬番,騎手名,齢
0,2:41.5,右,芝2600m,454.0,３歳未勝利,,曇,牝,54.0,2016/08/27,10:45,サラ系３歳未勝利(混)[指]馬齢,1,小倉,橋口慎介 (栗東),480、190、120、72、48万円,11,ロサモスカータ,良,1,小牧太,3
0,2:41.3,右,芝2600m,474.0,３歳未勝利,,曇,セ,56.0,2016/08/27,10:45,サラ系３歳未勝利(混)[指]馬齢,1,小倉,服部利之 (栗東),480、190、120、72、48万円,10,ウイングカイユウ,良,2,鮫島良太,3
0,2:40.5,右,芝2600m,474.0,３歳未勝利,,曇,牡,56.0,2016/08/27,10:45,サラ系３歳未勝利(混)[指]馬齢,2,小倉,松田国英 (栗東),480、190、120、72、48万円,6,ラプルーズ,良,3,松若風馬,3
0,2:40.0,右,芝2600m,444.0,３歳未勝利,,曇,牝,54.0,2016/08/27,10:45,サラ系３歳未勝利(混)[指]馬齢,2,小倉,荒川義之 (栗東),480、190、120、72、48万円,2,アナザーワールド,良,4,藤岡康太,3
0,2:41.8,右,芝2600m,494.0,３歳未勝利,,曇,牡,56.0,2016/08/27,10:45,サラ系３歳未勝利(混)[指]馬齢,3,小倉,庄野靖志 (栗東),480、190、120、72、48万円,12,ダイシンサクセス,良,5,和田竜二,3
0,2:40.3,右,芝2600m,454.0,３歳未勝利,,曇,牡,56.0,2016/08/27,10:45,サラ系３歳未勝利(混)[指]馬齢,3,小倉,谷潔 (栗東),480、190、120、72、48万円,5,ディモンド,良,6,幸英明,3
0,2:40.9,右,芝2600m,466.0,３歳未勝利,,曇,牝,54.0,2016/08/27,10:45,サラ系３歳未勝利(混)[指]馬齢,4,小倉,斉藤崇史 (栗東),480、190、120、72、48万円,7,ジョリーザスターズ,良,7,浜中俊,3
0,2:41.1,右,芝2600m,482.0,３歳未勝利,,曇,牝,53.0,2016/08/27,10:45,サラ系３歳未勝利(混)[指]馬齢,4,小倉,松永幹夫 (栗東),480、190、120、72、48万円,8,デッセシャテーヌ,良,8,鮫島克駿,3
0,2:46.6,右,芝2600m,494.0,３歳未勝利,,曇,牡,56.0,2016/08/27,10:45,サラ系３歳未勝利(混)[指]馬齢,5,小倉,加藤敬二 (栗東),480、190、120、72、48万円,16,ゴッツアン,良,9,北村友一,3
0,2:40.2,右,芝2600m,440.0,３歳未勝利,,曇,牡,56.0,2016/08/27,10:45,サラ系３歳未勝利(混)[指]馬齢,5,小倉,福島信晴 (栗東),480、190、120、72、48万円,4,シゲルクルマダイ,良,10,酒井学,3
0,2:40.2,右,芝2600m,518.0,３歳未勝利,,曇,牡,56.0,2016/08/27,10:45,サラ系３歳未勝利(混)[指]馬齢,6,小倉,池江泰寿 (栗東),480、190、120、72、48万円,3,グローサーザール,良,11,バルジュ,3
0,2:39.8,右,芝2600m,510.0,３歳未勝利,,曇,牡,56.0,2016/08/27,10:45,サラ系３歳未勝利(混)[指]馬齢,6,小倉,本田優 (栗東),480、190、120、72、48万円,1,ライペンミノル,良,12,高倉稜,3
0,2:45.9,右,芝2600m,482.0,３歳未勝利,,曇,牡,53.0,2016/08/27,10:45,サラ系３歳未勝利(混)[指]馬齢,7,小倉,西園正都 (栗東),480、190、120、72、48万円,15,タムロゴーゴー,良,13,三津谷隼,3
0,2:43.4,右,芝2600m,444.0,３歳未勝利,,曇,牝,54.0,2016/08/27,10:45,サラ系３歳未勝利(混)[指]馬齢,7,小倉,渡辺薫彦 (栗東),480、190、120、72、48万円,14,ハーマイオニー,良,14,国分優作,3
0,2:43.1,右,芝2600m,442.0,３歳未勝利,,曇,牡,53.0,2016/08/27,10:45,サラ系３歳未勝利(混)[指]馬齢,8,小倉,牧浦充徳 (栗東),480、190、120、72、48万円,13,ジャストザネクスト,良,15,荻野極,3
0,2:41.2,右,芝2600m,452.0,３歳未勝利,,曇,牝,54.0,2016/08/27,10:45,サラ系３歳未勝利(混)[指]馬齢,8,小倉,大根田裕 (栗東),480、190、120、72、48万円,9,タガノプリンセス,良,16,太宰啓介,3
