,単勝,枠番,複勝最大,複勝最小,馬名,馬番
0,58.4,1.0,12.4,6.3,エルパンドール,1.0
0,80.5,2.0,22.3,11.2,ラタンドレス,2.0
0,3.3,3.0,1.9,1.3,デジタルフラッシュ,3.0
0,8.5,4.0,3.3,1.9,ダノングランツ,4.0
0,2.6,4.0,1.3,1.1,サンヘレナ,5.0
0,11.3,5.0,4.7,2.6,エミーズレシピ,6.0
0,38.7,5.0,11.0,5.6,ティーゲット,7.0
0,18.7,6.0,5.1,2.8,オンワードハンター,8.0
0,26.4,6.0,8.1,4.2,ネコダンサー,9.0
0,8.0,7.0,3.3,1.8,ファニーヒロイン,10.0
0,62.7,7.0,16.5,8.3,ジョンブドール,11.0
0,222.5,8.0,36.5,18.2,ジェイシックス,12.0
0,13.1,8.0,4.9,2.6,アポロリベリオン,13.0
