,タイム,レース周り,レース情報,体重,名称,外回りフラグ,天気,性別,斤量,日付,時刻,条件,枠番,競技場,調教師名,賞金,順位,馬名,馬場状態,馬番,騎手名,齢
0,1:00.2,右,ダ1000m,444.0,３歳未勝利,,晴,牝,54.0,2016/09/04,10:50,サラ系３歳未勝利(混)[指]馬齢,1,2札幌,武市康男 (美浦),480、190、120、72、48万円,7,タイトルリーフ,良,1,勝浦正樹,3
0,0:59.1,右,ダ1000m,500.0,３歳未勝利,,晴,牡,56.0,2016/09/04,10:50,サラ系３歳未勝利(混)[指]馬齢,2,2札幌,大竹正博 (美浦),480、190、120、72、48万円,1,スワーヴラーシド,良,2,池添謙一,3
0,0:59.7,右,ダ1000m,492.0,３歳未勝利,,晴,牡,56.0,2016/09/04,10:50,サラ系３歳未勝利(混)[指]馬齢,3,2札幌,田中剛 (美浦),480、190、120、72、48万円,5,マックール,良,3,ルメール,3
0,0:59.9,右,ダ1000m,430.0,３歳未勝利,,晴,牝,54.0,2016/09/04,10:50,サラ系３歳未勝利(混)[指]馬齢,4,2札幌,池添兼雄 (栗東),480、190、120、72、48万円,6,ゼットガガ,良,4,小林徹弥,3
0,1:00.9,右,ダ1000m,454.0,３歳未勝利,,晴,牝,52.0,2016/09/04,10:50,サラ系３歳未勝利(混)[指]馬齢,5,2札幌,宗像義忠 (美浦),480、190、120、72、48万円,9,レッドビアンカ,良,5,井上敏樹,3
0,1:00.7,右,ダ1000m,458.0,３歳未勝利,,晴,牡,55.0,2016/09/04,10:50,サラ系３歳未勝利(混)[指]馬齢,5,2札幌,菊沢隆徳 (美浦),480、190、120、72、48万円,8,トウショウアパッチ,良,6,長岡禎仁,3
0,1:01.1,右,ダ1000m,466.0,３歳未勝利,,晴,牡,56.0,2016/09/04,10:50,サラ系３歳未勝利(混)[指]馬齢,6,2札幌,竹内正洋 (美浦),480、190、120、72、48万円,11,サンメサベルデ,良,7,古川吉洋,3
0,1:01.0,右,ダ1000m,514.0,３歳未勝利,,晴,牡,56.0,2016/09/04,10:50,サラ系３歳未勝利(混)[指]馬齢,6,2札幌,和田正一 (美浦),480、190、120、72、48万円,10,トゥルーリーウィル,良,8,福永祐一,3
0,0:59.3,右,ダ1000m,488.0,３歳未勝利,,晴,牡,56.0,2016/09/04,10:50,サラ系３歳未勝利(混)[指]馬齢,7,2札幌,岩戸孝樹 (美浦),480、190、120、72、48万円,3,アポロリュウセイ,良,9,丹内祐次,3
0,0:59.4,右,ダ1000m,406.0,３歳未勝利,,晴,牝,52.0,2016/09/04,10:50,サラ系３歳未勝利(混)[指]馬齢,7,2札幌,和田雄二 (美浦),480、190、120、72、48万円,4,フレアリングブルー,良,10,原田和真,3
0,1:01.4,右,ダ1000m,438.0,３歳未勝利,,晴,牝,51.0,2016/09/04,10:50,サラ系３歳未勝利(混)[指]馬齢,8,2札幌,鮫島一歩 (栗東),480、190、120、72、48万円,12,ウォータースイング,良,11,坂井瑠星,3
0,0:59.2,右,ダ1000m,454.0,３歳未勝利,,晴,牝,53.0,2016/09/04,10:50,サラ系３歳未勝利(混)[指]馬齢,8,2札幌,小野次郎 (美浦),480、190、120、72、48万円,2,キセキノムスメ,良,12,中井裕二,3
