,単勝,枠番,複勝最大,複勝最小,馬名,馬番
0,14.1,2.0,4.1,2.7,クレスコブレイブ,2.0
0,6.1,2.0,2.0,1.5,トレンドライン,3.0
0,23.4,3.0,6.7,4.3,フリーフリッカー,4.0
0,2.3,3.0,1.6,1.3,エピカリス,5.0
0,24.2,4.0,6.9,4.4,フェニックスマーク,6.0
0,73.2,4.0,14.9,9.2,フォルテメンテ,7.0
0,44.2,5.0,10.9,6.8,ドリームキャンパス,8.0
0,87.1,5.0,20.8,12.8,スカイヴォヤージュ,9.0
0,27.0,6.0,7.5,4.8,アシャカセルクル,10.0
0,7.0,6.0,2.8,1.9,リゾネーター,11.0
0,11.1,7.0,3.1,2.1,ワンダーウマス,12.0
0,27.0,7.0,6.7,4.2,ショウナンライデン,13.0
0,184.0,8.0,38.4,23.7,ケルビン,14.0
0,12.3,8.0,3.6,2.4,ウォーターメロン,15.0
