,単勝,枠番,複勝最大,複勝最小,馬名,馬番
0,21.1,1.0,5.6,3.5,プレイヤード,1.0
0,10.0,1.0,3.3,2.2,エルブランシュ,2.0
0,245.8,2.0,55.3,32.7,リーネアロッサ,3.0
0,4.0,2.0,1.9,1.3,チェルカービレ,4.0
0,260.2,3.0,49.2,29.2,クラウンボルチモア,5.0
0,135.9,3.0,38.9,23.1,ヤマニンパスティユ,6.0
0,75.2,4.0,13.6,8.2,シンボリサッチャー,7.0
0,16.3,4.0,5.0,3.1,ハミルトンパーク,8.0
0,2.9,5.0,1.7,1.3,クラウンアゲン,9.0
0,164.7,5.0,46.1,27.3,ウインマリカ,10.0
0,3.8,6.0,1.8,1.3,プルメリアブーケ,11.0
0,13.3,6.0,4.1,2.6,アルマラナキラ,12.0
0,304.9,7.0,57.6,34.1,ドラゴンザムライ,13.0
0,324.9,7.0,68.7,40.6,キャサリンガール,14.0
0,19.3,7.0,6.7,4.1,フィオレンツァ,15.0
0,330.8,8.0,95.2,56.3,ハーティフェスト,16.0
0,47.6,8.0,16.2,9.8,ハリウッドクイーン,17.0
0,129.6,8.0,21.4,12.8,ティーハウス,18.0
