,タイム,レース周り,レース情報,体重,名称,外回りフラグ,天気,性別,斤量,日付,時刻,条件,枠番,競技場,調教師名,賞金,順位,馬名,馬場状態,馬番,騎手名,齢
0,1:50.9,左,ダ1800m,500.0,レパードＳ,,晴,牡,56.0,2016/08/07,15:45,サラ系３歳オープン(国際)(指)馬齢,1,新潟,大久保龍 (栗東),4000、1600、1000、600、400万円,3,レガーロ,良,1,田辺裕信,3
0,1:52.3,左,ダ1800m,516.0,レパードＳ,,晴,牡,56.0,2016/08/07,15:45,サラ系３歳オープン(国際)(指)馬齢,2,新潟,清水久詞 (栗東),4000、1600、1000、600、400万円,7,ネクストムーブ,良,2,Ｍ．デム,3
0,1:55.0,左,ダ1800m,462.0,レパードＳ,,晴,牡,56.0,2016/08/07,15:45,サラ系３歳オープン(国際)(指)馬齢,3,新潟,森秀行 (栗東),4000、1600、1000、600、400万円,13,ヨシオ,良,3,石橋脩,3
0,1:51.9,左,ダ1800m,500.0,レパードＳ,,晴,牡,56.0,2016/08/07,15:45,サラ系３歳オープン(国際)(指)馬齢,4,新潟,和田雄二 (美浦),4000、1600、1000、600、400万円,5,エネスク,良,4,丸田恭介,3
0,1:50.6,左,ダ1800m,492.0,レパードＳ,,晴,牡,56.0,2016/08/07,15:45,サラ系３歳オープン(国際)(指)馬齢,4,新潟,目野哲也 (栗東),4000、1600、1000、600、400万円,2,ケイティブレイブ,良,5,武豊,3
0,1:50.6,左,ダ1800m,468.0,レパードＳ,,晴,牡,56.0,2016/08/07,15:45,サラ系３歳オープン(国際)(指)馬齢,5,新潟,加藤征弘 (美浦),4000、1600、1000、600、400万円,1,グレンツェント,良,6,戸崎圭太,3
0,1:51.0,左,ダ1800m,502.0,レパードＳ,,晴,牡,56.0,2016/08/07,15:45,サラ系３歳オープン(国際)(指)馬齢,5,新潟,清水久詞 (栗東),4000、1600、1000、600、400万円,4,ピットボス,良,7,内田博幸,3
0,1:52.8,左,ダ1800m,518.0,レパードＳ,,晴,牡,56.0,2016/08/07,15:45,サラ系３歳オープン(国際)(指)馬齢,6,新潟,田村康仁 (美浦),4000、1600、1000、600、400万円,8,ラテールプロミーズ,良,8,吉田豊,3
0,1:52.9,左,ダ1800m,466.0,レパードＳ,,晴,牡,56.0,2016/08/07,15:45,サラ系３歳オープン(国際)(指)馬齢,6,新潟,加藤征弘 (美浦),4000、1600、1000、600、400万円,9,フォースリッチ,良,9,田中勝春,3
0,1:54.1,左,ダ1800m,488.0,レパードＳ,,晴,牡,56.0,2016/08/07,15:45,サラ系３歳オープン(国際)(指)馬齢,7,新潟,村山明 (栗東),4000、1600、1000、600、400万円,12,コパノリスボン,良,10,大野拓弥,3
0,1:52.9,左,ダ1800m,434.0,レパードＳ,,晴,牡,56.0,2016/08/07,15:45,サラ系３歳オープン(国際)(指)馬齢,7,新潟,伊藤伸一 (美浦),4000、1600、1000、600、400万円,10,オーシャンビュー,良,11,嘉藤貴行,3
0,1:52.3,左,ダ1800m,462.0,レパードＳ,,晴,牡,56.0,2016/08/07,15:45,サラ系３歳オープン(国際)(指)馬齢,8,新潟,松山将樹 (美浦),4000、1600、1000、600、400万円,6,マイネルバサラ,良,12,柴田大知,3
0,1:53.6,左,ダ1800m,482.0,レパードＳ,,晴,牡,56.0,2016/08/07,15:45,サラ系３歳オープン(国際)(指)馬齢,8,新潟,森秀行 (栗東),4000、1600、1000、600、400万円,11,グランセブルス,良,13,石川裕紀,3
