,タイム,レース周り,レース情報,体重,名称,外回りフラグ,天気,性別,斤量,日付,時刻,条件,枠番,競技場,調教師名,賞金,順位,馬名,馬場状態,馬番,騎手名,齢
0,1:09.3,左,芝1200m,510.0,３歳未勝利,,晴,牡,56.0,2016/08/07,11:40,サラ系３歳未勝利[指]馬齢,1,新潟,田中剛 (美浦),480、190、120、72、48万円,4,プレイヤード,良,1,江田照男,3
0,1:09.5,左,芝1200m,448.0,３歳未勝利,,晴,牝,54.0,2016/08/07,11:40,サラ系３歳未勝利[指]馬齢,1,新潟,林和弘 (北海道),480、190、120、72、48万円,8,エルブランシュ,良,2,柴田大知,3
0,1:09.7,左,芝1200m,428.0,３歳未勝利,,晴,牝,54.0,2016/08/07,11:40,サラ系３歳未勝利[指]馬齢,2,新潟,杉浦宏昭 (美浦),480、190、120、72、48万円,9,リーネアロッサ,良,3,木幡初広,3
0,1:09.2,左,芝1200m,420.0,３歳未勝利,,晴,牝,54.0,2016/08/07,11:40,サラ系３歳未勝利[指]馬齢,2,新潟,古賀慎明 (美浦),480、190、120、72、48万円,3,チェルカービレ,良,4,田辺裕信,3
0,1:10.6,左,芝1200m,442.0,３歳未勝利,,晴,牝,52.0,2016/08/07,11:40,サラ系３歳未勝利[指]馬齢,3,新潟,松永康利 (美浦),480、190、120、72、48万円,14,クラウンボルチモア,良,5,伴啓太,3
0,1:10.3,左,芝1200m,464.0,３歳未勝利,,晴,牝,51.0,2016/08/07,11:40,サラ系３歳未勝利[指]馬齢,3,新潟,蛯名利弘 (美浦),480、190、120、72、48万円,13,ヤマニンパスティユ,良,6,野中悠太,3
0,1:10.2,左,芝1200m,462.0,３歳未勝利,,晴,牝,54.0,2016/08/07,11:40,サラ系３歳未勝利[指]馬齢,4,新潟,久保田貴 (美浦),480、190、120、72、48万円,12,シンボリサッチャー,良,7,伊藤工真,3
0,1:09.4,左,芝1200m,494.0,３歳未勝利,,晴,牡,53.0,2016/08/07,11:40,サラ系３歳未勝利[指]馬齢,4,新潟,牧光二 (美浦),480、190、120、72、48万円,6,ハミルトンパーク,良,8,木幡巧也,3
0,1:08.9,左,芝1200m,424.0,３歳未勝利,,晴,牝,51.0,2016/08/07,11:40,サラ系３歳未勝利[指]馬齢,5,新潟,萱野浩二 (美浦),480、190、120、72、48万円,2,クラウンアゲン,良,9,木幡初也,3
0,1:10.8,左,芝1200m,434.0,３歳未勝利,,晴,牝,54.0,2016/08/07,11:40,サラ系３歳未勝利[指]馬齢,5,新潟,宗像義忠 (美浦),480、190、120、72、48万円,15,ウインマリカ,良,10,津村明秀,3
0,1:08.8,左,芝1200m,450.0,３歳未勝利,,晴,牝,54.0,2016/08/07,11:40,サラ系３歳未勝利[指]馬齢,6,新潟,高橋裕 (美浦),480、190、120、72、48万円,1,プルメリアブーケ,良,11,戸崎圭太,3
0,1:09.4,左,芝1200m,468.0,３歳未勝利,,晴,牡,56.0,2016/08/07,11:40,サラ系３歳未勝利[指]馬齢,6,新潟,高橋文雅 (美浦),480、190、120、72、48万円,7,アルマラナキラ,良,12,内田博幸,3
0,1:11.4,左,芝1200m,452.0,３歳未勝利,,晴,牝,54.0,2016/08/07,11:40,サラ系３歳未勝利[指]馬齢,7,新潟,竹内正洋 (美浦),480、190、120、72、48万円,18,ドラゴンザムライ,良,13,吉田豊,3
0,1:10.0,左,芝1200m,436.0,３歳未勝利,,晴,牝,51.0,2016/08/07,11:40,サラ系３歳未勝利[指]馬齢,7,新潟,勢司和浩 (美浦),480、190、120、72、48万円,11,キャサリンガール,良,14,菊沢一樹,3
0,1:10.9,左,芝1200m,504.0,３歳未勝利,,晴,牝,54.0,2016/08/07,11:40,サラ系３歳未勝利[指]馬齢,7,新潟,清水英克 (美浦),480、190、120、72、48万円,16,フィオレンツァ,良,15,大野拓弥,3
0,1:10.9,左,芝1200m,432.0,３歳未勝利,,晴,牝,54.0,2016/08/07,11:40,サラ系３歳未勝利[指]馬齢,8,新潟,天間昭一 (美浦),480、190、120、72、48万円,17,ハーティフェスト,良,16,嘉藤貴行,3
0,1:09.3,左,芝1200m,490.0,３歳未勝利,,晴,牝,54.0,2016/08/07,11:40,サラ系３歳未勝利[指]馬齢,8,新潟,菊川正達 (美浦),480、190、120、72、48万円,5,ハリウッドクイーン,良,17,蛯名正義,3
0,1:09.7,左,芝1200m,458.0,３歳未勝利,,晴,牝,54.0,2016/08/07,11:40,サラ系３歳未勝利[指]馬齢,8,新潟,二ノ宮敬 (美浦),480、190、120、72、48万円,10,ティーハウス,良,18,柴田善臣,3
