,タイム,レース周り,レース情報,体重,名称,外回りフラグ,天気,性別,斤量,日付,時刻,条件,枠番,競技場,調教師名,賞金,順位,馬名,馬場状態,馬番,騎手名,齢
0,1:10.2,右,芝1200m,484.0,３歳未勝利,,曇,牡,55.0,2016/09/04,11:30,サラ系３歳未勝利[指]馬齢,1,小倉,橋田満 (栗東),480、190、120、72、48万円,13,トーコーブリザード,良,1,鮫島克駿,3
0,1:09.9,右,芝1200m,506.0,３歳未勝利,,曇,牝,54.0,2016/09/04,11:30,サラ系３歳未勝利[指]馬齢,1,小倉,音無秀孝 (栗東),480、190、120、72、48万円,8,ブラボーウォーム,良,2,松若風馬,3
0,1:09.3,右,芝1200m,498.0,３歳未勝利,,曇,牡,56.0,2016/09/04,11:30,サラ系３歳未勝利[指]馬齢,2,小倉,本田優 (栗東),480、190、120、72、48万円,3,メイショウオニマル,良,3,松山弘平,3
0,1:10.1,右,芝1200m,426.0,３歳未勝利,,曇,牡,53.0,2016/09/04,11:30,サラ系３歳未勝利[指]馬齢,2,小倉,木原一良 (栗東),480、190、120、72、48万円,12,クーパーズヒル,良,4,三津谷隼,3
0,1:10.1,右,芝1200m,518.0,３歳未勝利,,曇,セ,56.0,2016/09/04,11:30,サラ系３歳未勝利[指]馬齢,3,小倉,西園正都 (栗東),480、190、120、72、48万円,11,ベルロック,良,5,幸英明,3
0,1:09.6,右,芝1200m,444.0,３歳未勝利,,曇,牡,56.0,2016/09/04,11:30,サラ系３歳未勝利[指]馬齢,3,小倉,藤岡健一 (栗東),480、190、120、72、48万円,5,アリエルバローズ,良,6,浜中俊,3
0,1:10.5,右,芝1200m,470.0,３歳未勝利,,曇,牝,54.0,2016/09/04,11:30,サラ系３歳未勝利[指]馬齢,4,小倉,五十嵐忠 (栗東),480、190、120、72、48万円,17,ナスノチドリ,良,7,大野拓弥,3
0,1:09.7,右,芝1200m,438.0,３歳未勝利,,曇,牝,51.0,2016/09/04,11:30,サラ系３歳未勝利[指]馬齢,4,小倉,加用正 (栗東),480、190、120、72、48万円,6,マイヒメ,良,8,荻野極,3
0,1:10.6,右,芝1200m,450.0,３歳未勝利,,曇,牡,56.0,2016/09/04,11:30,サラ系３歳未勝利[指]馬齢,5,小倉,藤岡健一 (栗東),480、190、120、72、48万円,18,アキノプリンス,良,9,大下智,3
0,1:10.4,右,芝1200m,446.0,３歳未勝利,,曇,牝,54.0,2016/09/04,11:30,サラ系３歳未勝利[指]馬齢,5,小倉,牧浦充徳 (栗東),480、190、120、72、48万円,16,サンマルゴージャス,良,10,畑端省吾,3
0,1:09.3,右,芝1200m,430.0,３歳未勝利,,曇,牝,54.0,2016/09/04,11:30,サラ系３歳未勝利[指]馬齢,6,小倉,石橋守 (栗東),480、190、120、72、48万円,2,ラブリーラッフル,良,11,川田将雅,3
0,1:10.0,右,芝1200m,466.0,３歳未勝利,,曇,牡,56.0,2016/09/04,11:30,サラ系３歳未勝利[指]馬齢,6,小倉,北出成人 (栗東),480、190、120、72、48万円,9,トウケイドライヴ,良,12,中谷雄太,3
0,1:10.3,右,芝1200m,458.0,３歳未勝利,,曇,牡,55.0,2016/09/04,11:30,サラ系３歳未勝利[指]馬齢,7,小倉,柴田光陽 (栗東),480、190、120、72、48万円,14,テイエムスタンリー,良,13,岩崎翼,3
0,1:09.3,右,芝1200m,510.0,３歳未勝利,,曇,牡,56.0,2016/09/04,11:30,サラ系３歳未勝利[指]馬齢,7,小倉,福島信晴 (栗東),480、190、120、72、48万円,1,テイエムダグラス,良,14,田中健,3
0,1:09.5,右,芝1200m,480.0,３歳未勝利,,曇,牡,56.0,2016/09/04,11:30,サラ系３歳未勝利[指]馬齢,7,小倉,庄野靖志 (栗東),480、190、120、72、48万円,4,エターナル,良,15,藤岡康太,3
0,1:10.3,右,芝1200m,490.0,３歳未勝利,,曇,牡,56.0,2016/09/04,11:30,サラ系３歳未勝利[指]馬齢,8,小倉,小崎憲 (栗東),480、190、120、72、48万円,15,スピードジャンパー,良,16,小牧太,3
0,1:09.8,右,芝1200m,446.0,３歳未勝利,,曇,牝,54.0,2016/09/04,11:30,サラ系３歳未勝利[指]馬齢,8,小倉,羽月友彦 (栗東),480、190、120、72、48万円,7,ノーザンメジャー,良,17,川須栄彦,3
0,1:10.0,右,芝1200m,398.0,３歳未勝利,,曇,牝,54.0,2016/09/04,11:30,サラ系３歳未勝利[指]馬齢,8,小倉,坂口正則 (栗東),480、190、120、72、48万円,10,メイショウウララカ,良,18,高倉稜,3
