,タイム,レース周り,レース情報,体重,名称,外回りフラグ,天気,性別,斤量,日付,時刻,条件,枠番,競技場,調教師名,賞金,順位,馬名,馬場状態,馬番,騎手名,齢
0,1:46.7,右,ダ1700m,492.0,西日本スポーツ杯,,曇,牡,57.0,2016/09/04,15:01,サラ系３歳以上１０００万下(混)(特指)定量,1,小倉,大橋勇樹 (栗東),1500、600、380、230、150万円,7,スズカアドニス,良,1,義英真,6
0,1:51.9,右,ダ1700m,480.0,西日本スポーツ杯,,曇,牡,57.0,2016/09/04,15:01,サラ系３歳以上１０００万下(混)(特指)定量,1,小倉,橋口慎介 (栗東),1500、600、380、230、150万円,16,カレンバッドボーイ,良,2,小牧太,6
0,1:47.3,右,ダ1700m,480.0,西日本スポーツ杯,,曇,牝,55.0,2016/09/04,15:01,サラ系３歳以上１０００万下(混)(特指)定量,2,小倉,角居勝彦 (栗東),1500、600、380、230、150万円,11,メイショウルンバ,良,3,川須栄彦,5
0,1:47.0,右,ダ1700m,478.0,西日本スポーツ杯,,曇,牡,57.0,2016/09/04,15:01,サラ系３歳以上１０００万下(混)(特指)定量,2,小倉,加藤敬二 (栗東),1500、600、380、230、150万円,10,アチーヴ,良,4,武豊,6
0,1:46.8,右,ダ1700m,462.0,西日本スポーツ杯,,曇,牡,57.0,2016/09/04,15:01,サラ系３歳以上１０００万下(混)(特指)定量,3,小倉,羽月友彦 (栗東),1500、600、380、230、150万円,9,サンライズウェイ,良,5,酒井学,6
0,1:46.7,右,ダ1700m,492.0,西日本スポーツ杯,,曇,牝,55.0,2016/09/04,15:01,サラ系３歳以上１０００万下(混)(特指)定量,3,小倉,松元茂樹 (栗東),1500、600、380、230、150万円,6,セレッソレアル,良,6,高倉稜,5
0,1:46.8,右,ダ1700m,494.0,西日本スポーツ杯,,曇,牝,55.0,2016/09/04,15:01,サラ系３歳以上１０００万下(混)(特指)定量,4,小倉,長浜博之 (栗東),1500、600、380、230、150万円,8,アグネスアーニャ,良,7,秋山真一,4
0,1:47.3,右,ダ1700m,472.0,西日本スポーツ杯,,曇,牡,57.0,2016/09/04,15:01,サラ系３歳以上１０００万下(混)(特指)定量,4,小倉,目野哲也 (栗東),1500、600、380、230、150万円,12,セフティーエムアイ,良,8,三津谷隼,5
0,1:45.5,右,ダ1700m,510.0,西日本スポーツ杯,,曇,牡,54.0,2016/09/04,15:01,サラ系３歳以上１０００万下(混)(特指)定量,5,小倉,牧田和弥 (栗東),1500、600、380、230、150万円,1,ロンドンタウン,良,9,川田将雅,3
0,1:46.3,右,ダ1700m,492.0,西日本スポーツ杯,,曇,牝,55.0,2016/09/04,15:01,サラ系３歳以上１０００万下(混)(特指)定量,5,小倉,中村均 (栗東),1500、600、380、230、150万円,2,コスモピーコック,良,10,幸英明,4
0,1:46.6,右,ダ1700m,484.0,西日本スポーツ杯,,曇,牡,57.0,2016/09/04,15:01,サラ系３歳以上１０００万下(混)(特指)定量,6,小倉,村山明 (栗東),1500、600、380、230、150万円,5,タニノマンボ,良,11,浜中俊,6
0,1:49.3,右,ダ1700m,492.0,西日本スポーツ杯,,曇,牡,57.0,2016/09/04,15:01,サラ系３歳以上１０００万下(混)(特指)定量,6,小倉,池江泰寿 (栗東),1500、600、380、230、150万円,15,ミッキーシーガル,良,12,藤岡康太,4
0,1:48.3,右,ダ1700m,490.0,西日本スポーツ杯,,曇,牝,55.0,2016/09/04,15:01,サラ系３歳以上１０００万下(混)(特指)定量,7,小倉,高橋亮 (栗東),1500、600、380、230、150万円,14,ウインクルキラリ,良,13,松若風馬,6
0,1:47.7,右,ダ1700m,482.0,西日本スポーツ杯,,曇,牡,57.0,2016/09/04,15:01,サラ系３歳以上１０００万下(混)(特指)定量,7,小倉,松下武士 (栗東),1500、600、380、230、150万円,13,インテグラード,良,14,松山弘平,5
0,1:46.5,右,ダ1700m,534.0,西日本スポーツ杯,,曇,牡,57.0,2016/09/04,15:01,サラ系３歳以上１０００万下(混)(特指)定量,8,小倉,大久保龍 (栗東),1500、600、380、230、150万円,4,ネオジェネシス,良,15,北村友一,5
0,1:46.5,右,ダ1700m,484.0,西日本スポーツ杯,,曇,牝,55.0,2016/09/04,15:01,サラ系３歳以上１０００万下(混)(特指)定量,8,小倉,庄野靖志 (栗東),1500、600、380、230、150万円,3,タガノスマイル,良,16,武幸四郎,4
