,タイム,レース周り,レース情報,体重,名称,外回りフラグ,天気,性別,斤量,日付,時刻,条件,枠番,競技場,調教師名,賞金,順位,馬名,馬場状態,馬番,騎手名,齢
0,1:10.2,右,芝1200m,408.0,２歳未勝利,,曇,牡,54.0,2016/09/04,10:01,サラ系２歳未勝利(混)[指]馬齢,1,小倉,西橋豊治 (栗東),500、200、130、75、50万円,12,スズカフューラー,良,1,鮫島良太,2
0,1:11.5,右,芝1200m,404.0,２歳未勝利,,曇,牝,53.0,2016/09/04,10:01,サラ系２歳未勝利(混)[指]馬齢,1,小倉,鈴木孝志 (栗東),500、200、130、75、50万円,18,カシノカンナ,良,2,岩崎翼,2
0,1:09.5,右,芝1200m,424.0,２歳未勝利,,曇,牝,53.0,2016/09/04,10:01,サラ系２歳未勝利(混)[指]馬齢,2,小倉,松下武士 (栗東),500、200、130、75、50万円,1,デスティニーソング,良,3,鮫島克駿,2
0,1:10.1,右,芝1200m,444.0,２歳未勝利,,曇,牡,54.0,2016/09/04,10:01,サラ系２歳未勝利(混)[指]馬齢,2,小倉,沖芳夫 (栗東),500、200、130、75、50万円,11,シゲルカモシカ,良,4,小牧太,2
0,1:09.7,右,芝1200m,508.0,２歳未勝利,,曇,牡,54.0,2016/09/04,10:01,サラ系２歳未勝利(混)[指]馬齢,3,小倉,湯窪幸雄 (栗東),500、200、130、75、50万円,6,カフジリバー,良,5,国分恭介,2
0,1:10.7,右,芝1200m,476.0,２歳未勝利,,曇,牡,54.0,2016/09/04,10:01,サラ系２歳未勝利(混)[指]馬齢,3,小倉,佐々木晶 (栗東),500、200、130、75、50万円,16,トーヨーエース,良,6,浜中俊,2
0,1:10.8,右,芝1200m,444.0,２歳未勝利,,曇,牡,54.0,2016/09/04,10:01,サラ系２歳未勝利(混)[指]馬齢,4,小倉,池添兼雄 (栗東),500、200、130、75、50万円,17,メイショウラクエン,良,7,酒井学,2
0,1:09.5,右,芝1200m,426.0,２歳未勝利,,曇,牡,54.0,2016/09/04,10:01,サラ系２歳未勝利(混)[指]馬齢,4,小倉,藤沢則雄 (栗東),500、200、130、75、50万円,2,ミュークレックス,良,8,幸英明,2
0,1:10.5,右,芝1200m,404.0,２歳未勝利,,曇,牡,51.0,2016/09/04,10:01,サラ系２歳未勝利(混)[指]馬齢,5,小倉,二本柳俊 (美浦),500、200、130、75、50万円,14,カシノレビン,良,9,森裕太朗,2
0,1:09.9,右,芝1200m,434.0,２歳未勝利,,曇,牡,54.0,2016/09/04,10:01,サラ系２歳未勝利(混)[指]馬齢,5,小倉,大橋勇樹 (栗東),500、200、130、75、50万円,8,オーミシューマン,良,10,畑端省吾,2
0,1:09.5,右,芝1200m,442.0,２歳未勝利,,曇,牡,54.0,2016/09/04,10:01,サラ系２歳未勝利(混)[指]馬齢,6,小倉,山内研二 (栗東),500、200、130、75、50万円,3,テイエムイキオイ,良,11,松山弘平,2
0,1:10.6,右,芝1200m,414.0,２歳未勝利,,曇,牝,54.0,2016/09/04,10:01,サラ系２歳未勝利(混)[指]馬齢,6,小倉,坂口正則 (栗東),500、200、130、75、50万円,15,メイショウルーシー,良,12,田中健,2
0,1:09.9,右,芝1200m,460.0,２歳未勝利,,曇,牡,51.0,2016/09/04,10:01,サラ系２歳未勝利(混)[指]馬齢,7,小倉,五十嵐忠 (栗東),500、200、130、75、50万円,7,ミスターロンリー,良,13,荻野極,2
0,1:10.0,右,芝1200m,448.0,２歳未勝利,,曇,牡,54.0,2016/09/04,10:01,サラ系２歳未勝利(混)[指]馬齢,7,小倉,作田誠二 (栗東),500、200、130、75、50万円,10,アクラー,良,14,藤岡佑介,2
0,1:10.5,右,芝1200m,452.0,２歳未勝利,,曇,牡,54.0,2016/09/04,10:01,サラ系２歳未勝利(混)[指]馬齢,7,小倉,高橋康之 (栗東),500、200、130、75、50万円,13,ベルウッドカペラ,良,15,武豊,2
0,1:09.6,右,芝1200m,444.0,２歳未勝利,,曇,牡,54.0,2016/09/04,10:01,サラ系２歳未勝利(混)[指]馬齢,8,小倉,西浦勝一 (栗東),500、200、130、75、50万円,5,デザートストーム,良,16,国分優作,2
0,1:10.0,右,芝1200m,434.0,２歳未勝利,,曇,牝,52.0,2016/09/04,10:01,サラ系２歳未勝利(混)[指]馬齢,8,小倉,音無秀孝 (栗東),500、200、130、75、50万円,9,ヤクシャハソロッタ,良,17,義英真,2
0,1:09.5,右,芝1200m,424.0,２歳未勝利,,曇,牡,54.0,2016/09/04,10:01,サラ系２歳未勝利(混)[指]馬齢,8,小倉,清水久詞 (栗東),500、200、130、75、50万円,4,ディグアップセンス,良,18,松若風馬,2
