,単勝,枠番,複勝最大,複勝最小,馬名,馬番
0,22.7,1.0,5.9,3.8,マロンタキシード,1.0
0,68.4,1.0,13.2,8.3,ウインドブリバティ,2.0
0,8.4,2.0,2.9,2.0,コスモスピード,3.0
0,5.2,2.0,2.0,1.4,マイネルスフェーン,4.0
0,246.6,3.0,50.2,30.9,ピンキージョーンズ,5.0
0,35.2,3.0,9.6,6.1,ミヤコギムレット,6.0
0,2.6,4.0,1.7,1.3,リパーカッション,7.0
0,22.6,4.0,6.2,4.0,ワインアンドダイン,8.0
0,61.8,5.0,20.8,12.9,ディアマイラブ,9.0
0,26.6,5.0,7.7,4.9,ジェイケイオジョウ,10.0
0,63.6,6.0,13.2,8.3,セイユウルビー,11.0
0,54.1,6.0,13.1,8.2,ミラドール,12.0
0,43.0,7.0,10.0,6.3,サクラサクコロ,13.0
0,4.2,7.0,2.1,1.5,コンボルド,14.0
0,14.0,8.0,5.4,3.5,トーホウカンタール,15.0
0,224.2,8.0,74.7,46.0,スカイヴォヤージュ,16.0
0,402.5,8.0,80.1,49.3,イノデラックス,17.0
