,レース周り,レース情報,体重,名称,外回りフラグ,性別,斤量,日付,時刻,条件,枠番,競技場,調教師名,賞金,馬名,馬場状態,馬番,騎手名,齢
0,右,ダ1200m,454.0,２歳未勝利,,牝,54.0,2016/10/02,10:05,サラ系２歳未勝利[指]馬齢,1,中山,石栗龍彦,500、200、130、75、50万円,ネコマル,良,1,Ｌ．オー,2
0,右,ダ1200m,426.0,２歳未勝利,,牝,54.0,2016/10/02,10:05,サラ系２歳未勝利[指]馬齢,1,中山,粕谷昌央,500、200、130、75、50万円,アースヴィグラス,良,2,丸山元気,2
0,右,ダ1200m,436.0,２歳未勝利,,牝,51.0,2016/10/02,10:05,サラ系２歳未勝利[指]馬齢,2,中山,伊藤圭三,500、200、130、75、50万円,シゲルジャコウネコ,良,3,菊沢一樹,2
0,右,ダ1200m,472.0,２歳未勝利,,牡,55.0,2016/10/02,10:05,サラ系２歳未勝利[指]馬齢,2,中山,新開幸一,500、200、130、75、50万円,ユキノドリーム,良,4,田中勝春,2
0,右,ダ1200m,498.0,２歳未勝利,,牡,55.0,2016/10/02,10:05,サラ系２歳未勝利[指]馬齢,3,中山,菅原泰夫,500、200、130、75、50万円,ファストシップ,良,5,宮崎北斗,2
0,右,ダ1200m,466.0,２歳未勝利,,牡,55.0,2016/10/02,10:05,サラ系２歳未勝利[指]馬齢,3,中山,加藤和宏,500、200、130、75、50万円,リネンカイソク,良,6,村田一誠,2
0,右,ダ1200m,464.0,２歳未勝利,,牡,55.0,2016/10/02,10:05,サラ系２歳未勝利[指]馬齢,4,中山,田中清隆,500、200、130、75、50万円,ヤマノブロンコ,良,7,津村明秀,2
0,右,ダ1200m,410.0,２歳未勝利,,牝,54.0,2016/10/02,10:05,サラ系２歳未勝利[指]馬齢,4,中山,池上昌和,500、200、130、75、50万円,ミコマッシグラ,良,8,松岡正海,2
0,右,ダ1200m,466.0,２歳未勝利,,牝,54.0,2016/10/02,10:05,サラ系２歳未勝利[指]馬齢,5,中山,金成貴史,500、200、130、75、50万円,カレン,良,9,伊藤工真,2
0,右,ダ1200m,444.0,２歳未勝利,,牡,52.0,2016/10/02,10:05,サラ系２歳未勝利[指]馬齢,5,中山,尾形充弘,500、200、130、75、50万円,ドゥマイモナーク,良,10,野中悠太,2
0,右,ダ1200m,462.0,２歳未勝利,,牡,55.0,2016/10/02,10:05,サラ系２歳未勝利[指]馬齢,6,中山,石栗龍彦,500、200、130、75、50万円,テイエムボサノバ,良,11,柴田善臣,2
0,右,ダ1200m,396.0,２歳未勝利,,牝,54.0,2016/10/02,10:05,サラ系２歳未勝利[指]馬齢,6,中山,石毛善彦,500、200、130、75、50万円,シルバニアラブ,良,12,西村太一,2
0,右,ダ1200m,484.0,２歳未勝利,,牝,51.0,2016/10/02,10:05,サラ系２歳未勝利[指]馬齢,7,中山,牧光二,500、200、130、75、50万円,ヴィーエンプレス,良,13,木幡巧也,2
0,右,ダ1200m,438.0,２歳未勝利,,牝,54.0,2016/10/02,10:05,サラ系２歳未勝利[指]馬齢,7,中山,南田美知,500、200、130、75、50万円,フレンドパリ,良,14,戸崎圭太,2
0,右,ダ1200m,448.0,２歳未勝利,,牝,52.0,2016/10/02,10:05,サラ系２歳未勝利[指]馬齢,8,中山,伊藤圭三,500、200、130、75、50万円,プティトシャンティ,良,15,木幡初也,2
0,右,ダ1200m,486.0,２歳未勝利,,牡,55.0,2016/10/02,10:05,サラ系２歳未勝利[指]馬齢,8,中山,武市康男,500、200、130、75、50万円,ハノハノボーイ,良,16,江田照男,2
