,単勝,枠番,複勝最大,複勝最小,馬名,馬番
0,28.5,1.0,7.2,4.6,スノーイルナ,1.0
0,6.6,2.0,2.1,1.5,サンシャワー,2.0
0,48.5,3.0,15.7,9.8,ブロードビーチ,3.0
0,10.5,4.0,3.7,2.4,スマートサクソン,4.0
0,37.1,5.0,10.3,6.4,マラデボワ,5.0
0,2.7,6.0,1.6,1.2,ヴィーナスフローラ,6.0
0,4.4,6.0,1.9,1.4,ラユロット,7.0
0,5.7,7.0,2.2,1.5,ステレオグラム,8.0
0,38.6,7.0,8.5,5.3,サザンアルプス,9.0
0,58.2,8.0,16.6,10.4,モンテゾーロ,10.0
0,14.8,8.0,4.1,2.7,ショルト,11.0
