,タイム,レース周り,レース情報,体重,名称,外回りフラグ,天気,性別,斤量,日付,時刻,条件,枠番,競技場,調教師名,賞金,順位,馬名,馬場状態,馬番,騎手名,齢
0,1:50.8,右,芝1800m,430.0,２歳未勝利,,晴,牝,51.0,2016/08/13,10:20,サラ系２歳未勝利(混)[指]馬齢,1,札幌,鮫島一歩 (栗東),500、200、130、75、50万円,3,ハローユニコーン,良,1,坂井瑠星,2
0,1:52.2,右,芝1800m,434.0,２歳未勝利,,晴,牡,52.0,2016/08/13,10:20,サラ系２歳未勝利(混)[指]馬齢,2,札幌,湯窪幸雄 (栗東),500、200、130、75、50万円,14,アロマティカス,良,2,城戸義政,2
0,1:50.8,右,芝1800m,452.0,２歳未勝利,,晴,牡,54.0,2016/08/13,10:20,サラ系２歳未勝利(混)[指]馬齢,3,札幌,田中清隆 (美浦),500、200、130、75、50万円,2,マイネルパンドーロ,良,3,丹内祐次,2
0,1:52.1,右,芝1800m,466.0,２歳未勝利,,晴,牡,54.0,2016/08/13,10:20,サラ系２歳未勝利(混)[指]馬齢,3,札幌,小野次郎 (美浦),500、200、130、75、50万円,13,サンタンパ,良,4,五十嵐冬,2
0,1:51.6,右,芝1800m,464.0,２歳未勝利,,晴,牡,52.0,2016/08/13,10:20,サラ系２歳未勝利(混)[指]馬齢,4,札幌,黒岩陽一 (美浦),500、200、130、75、50万円,6,ウインコーラル,良,5,井上敏樹,2
0,1:50.5,右,芝1800m,476.0,２歳未勝利,,晴,牡,52.0,2016/08/13,10:20,サラ系２歳未勝利(混)[指]馬齢,4,札幌,小桧山悟 (美浦),500、200、130、75、50万円,1,エトルディーニュ,良,6,原田和真,2
0,1:51.7,右,芝1800m,428.0,２歳未勝利,,晴,牡,53.0,2016/08/13,10:20,サラ系２歳未勝利(混)[指]馬齢,5,札幌,和田正一 (美浦),500、200、130、75、50万円,7,ビヨンドザスター,良,7,加藤祥太,2
0,1:51.2,右,芝1800m,432.0,２歳未勝利,,晴,牡,54.0,2016/08/13,10:20,サラ系２歳未勝利(混)[指]馬齢,5,札幌,岡田稲男 (栗東),500、200、130、75、50万円,5,ユノディエール,良,8,四位洋文,2
0,1:51.0,右,芝1800m,450.0,２歳未勝利,,晴,牡,54.0,2016/08/13,10:20,サラ系２歳未勝利(混)[指]馬齢,6,札幌,杉浦宏昭 (美浦),500、200、130、75、50万円,4,ロザンジェ,良,9,菱田裕二,2
0,1:52.1,右,芝1800m,488.0,２歳未勝利,,晴,牡,54.0,2016/08/13,10:20,サラ系２歳未勝利(混)[指]馬齢,6,札幌,金成貴史 (美浦),500、200、130、75、50万円,12,マイネルアクスト,良,10,黛弘人,2
0,1:51.7,右,芝1800m,490.0,２歳未勝利,,晴,牡,54.0,2016/08/13,10:20,サラ系２歳未勝利(混)[指]馬齢,7,札幌,庄野靖志 (栗東),500、200、130、75、50万円,8,ボナパルト,良,11,福永祐一,2
0,1:51.8,右,芝1800m,462.0,２歳未勝利,,晴,牡,54.0,2016/08/13,10:20,サラ系２歳未勝利(混)[指]馬齢,7,札幌,高橋祥泰 (美浦),500、200、130、75、50万円,10,マイネルヘミニス,良,12,柴田大知,2
0,1:52.1,右,芝1800m,490.0,２歳未勝利,,晴,牡,52.0,2016/08/13,10:20,サラ系２歳未勝利(混)[指]馬齢,8,札幌,松山将樹 (美浦),500、200、130、75、50万円,11,シゲルヤマアラシ,良,13,長岡禎仁,2
0,1:51.7,右,芝1800m,446.0,２歳未勝利,,晴,牝,54.0,2016/08/13,10:20,サラ系２歳未勝利(混)[指]馬齢,8,札幌,武市康男 (美浦),500、200、130、75、50万円,9,ウインミストレス,良,14,松岡正海,2
