,タイム,レース周り,レース情報,体重,名称,外回りフラグ,天気,性別,斤量,日付,時刻,条件,枠番,競技場,調教師名,賞金,順位,馬名,馬場状態,馬番,騎手名,齢
0,1:46.0,右,ダ1700m,440.0,３歳上５００万下,,晴,牝,55.0,2016/08/13,13:10,サラ系３歳以上５００万下牝[指]定量,1,札幌,尾形和幸 (美浦),750、300、190、110、75万円,3,シードパール,良,1,嶋田純次,4
0,1:47.8,右,ダ1700m,468.0,３歳上５００万下,,晴,牝,53.0,2016/08/13,13:10,サラ系３歳以上５００万下牝[指]定量,2,札幌,二ノ宮敬 (美浦),750、300、190、110、75万円,11,インソムニア,良,2,長岡禎仁,4
0,1:46.9,右,ダ1700m,458.0,３歳上５００万下,,晴,牝,52.0,2016/08/13,13:10,サラ系３歳以上５００万下牝[指]定量,3,札幌,伊藤大士 (美浦),750、300、190、110、75万円,9,バトルグランドリイ,良,3,勝浦正樹,3
0,1:48.2,右,ダ1700m,474.0,３歳上５００万下,,晴,牝,52.0,2016/08/13,13:10,サラ系３歳以上５００万下牝[指]定量,4,札幌,池添兼雄 (栗東),750、300、190、110、75万円,13,ティーゲット,良,4,池添謙一,3
0,1:46.0,右,ダ1700m,478.0,３歳上５００万下,,晴,牝,55.0,2016/08/13,13:10,サラ系３歳以上５００万下牝[指]定量,4,札幌,藤原英昭 (栗東),750、300、190、110、75万円,4,サトノシャルマン,良,5,三浦皇成,4
0,1:45.9,右,ダ1700m,458.0,３歳上５００万下,,晴,牝,55.0,2016/08/13,13:10,サラ系３歳以上５００万下牝[指]定量,5,札幌,牧浦充徳 (栗東),750、300、190、110、75万円,2,ベーリングメファ,良,6,モレイラ,4
0,1:46.7,右,ダ1700m,446.0,３歳上５００万下,,晴,牝,55.0,2016/08/13,13:10,サラ系３歳以上５００万下牝[指]定量,5,札幌,奥村武 (美浦),750、300、190、110、75万円,6,サンウィノナ,良,7,五十嵐冬,4
0,1:46.8,右,ダ1700m,482.0,３歳上５００万下,,晴,牝,52.0,2016/08/13,13:10,サラ系３歳以上５００万下牝[指]定量,6,札幌,羽月友彦 (栗東),750、300、190、110、75万円,7,トラストマヴィア,良,8,荻野琢真,3
0,1:47.9,右,ダ1700m,484.0,３歳上５００万下,,晴,牝,52.0,2016/08/13,13:10,サラ系３歳以上５００万下牝[指]定量,6,札幌,戸田博文 (美浦),750、300、190、110、75万円,12,ファニーヒロイン,良,9,福永祐一,3
0,1:46.1,右,ダ1700m,466.0,３歳上５００万下,,晴,牝,55.0,2016/08/13,13:10,サラ系３歳以上５００万下牝[指]定量,7,札幌,伊藤伸一 (美浦),750、300、190、110、75万円,5,マラカイトスター,良,10,柴山雄一,4
0,1:45.8,右,ダ1700m,484.0,３歳上５００万下,,晴,牝,55.0,2016/08/13,13:10,サラ系３歳以上５００万下牝[指]定量,7,札幌,中内田充 (栗東),750、300、190、110、75万円,1,レインボーソング,良,11,菱田裕二,4
0,1:47.2,右,ダ1700m,482.0,３歳上５００万下,,晴,牝,53.0,2016/08/13,13:10,サラ系３歳以上５００万下牝[指]定量,8,札幌,大橋勇樹 (栗東),750、300、190、110、75万円,10,スリーチアサウス,良,12,城戸義政,5
0,1:46.9,右,ダ1700m,454.0,３歳上５００万下,,晴,牝,52.0,2016/08/13,13:10,サラ系３歳以上５００万下牝[指]定量,8,札幌,野中賢二 (栗東),750、300、190、110、75万円,8,エアショウ,良,13,四位洋文,3
