,単勝,枠番,複勝最大,複勝最小,馬名,馬番
0,6.0,1.0,2.7,1.8,アメイズミー,1.0
0,3.5,1.0,1.7,1.4,ユメチョキン,2.0
0,23.2,2.0,6.4,4.1,コスモクウェンチ,3.0
0,104.1,2.0,32.6,20.2,ハルスケッテ,4.0
0,38.3,3.0,12.0,7.6,コウゲンレッシャ,5.0
0,15.1,3.0,5.3,3.5,インフルエンサー,6.0
0,259.5,4.0,100.5,62.3,ペルビスワンダー,7.0
0,31.9,4.0,8.9,5.6,ワイナルダム,8.0
0,12.1,5.0,3.5,2.3,ガッテンパートナー,9.0
0,4.7,5.0,2.0,1.5,タリズマ,10.0
0,54.5,6.0,19.2,12.0,セレステアルスター,11.0
0,12.0,6.0,3.7,2.4,エマーブル,12.0
0,200.4,7.0,76.6,47.5,シゲルラッコ,13.0
0,35.8,7.0,12.9,8.1,ロイヤルルシアン,14.0
0,8.7,8.0,3.1,2.1,ニシノマッハ,15.0
0,62.3,8.0,17.0,10.7,ピンクドルフィン,16.0
