,単勝,枠番,複勝最大,複勝最小,馬名,馬番
0,4.9,1.0,3.8,1.7,フォースマジュール,1.0
0,100.3,2.0,31.6,12.0,ショウナンマハロ,2.0
0,83.0,2.0,23.9,9.2,テアニン,3.0
0,164.9,3.0,53.1,20.0,グアディアーナ,4.0
0,66.6,3.0,19.5,7.5,クリノリーズ,5.0
0,220.7,4.0,80.2,30.1,ショショット,6.0
0,61.0,4.0,21.0,8.1,ココロノキャンバス,7.0
0,211.1,5.0,71.3,26.8,サクラトップピサ,8.0
0,1.8,5.0,1.1,1.1,ゼロカラノキセキ,9.0
0,30.7,6.0,9.3,3.8,ムチャチャマヒカ,10.0
0,112.0,6.0,33.7,12.8,ポーラバイオ,11.0
0,7.2,7.0,3.1,1.5,パントコート,12.0
0,37.4,7.0,19.8,7.6,アームズレングス,13.0
0,12.5,8.0,4.0,1.8,セシャルマン,14.0
0,6.9,8.0,3.0,1.4,エバーパッション,15.0
