,単勝,枠番,複勝最大,複勝最小,馬名,馬番
0,8.6,1.0,3.0,2.0,アメリカンゴールド,1.0
0,14.5,2.0,6.7,4.2,ローレルブレット,2.0
0,11.7,3.0,5.0,3.2,アムールスキー,3.0
0,2.5,3.0,1.4,1.2,ルートヴィヒコード,4.0
0,33.0,4.0,7.8,4.9,ツジスーパーサクラ,5.0
0,5.3,4.0,2.6,1.7,クリノイザナミ,6.0
0,7.7,5.0,2.6,1.8,セイクリッドロード,7.0
0,71.6,5.0,25.7,15.7,ヒューガライゼン,8.0
0,29.3,6.0,8.5,5.3,ネクスト,9.0
0,67.4,6.0,21.4,13.1,サウスポールツアー,10.0
0,51.0,7.0,16.9,10.4,エンパイアライン,11.0
0,37.7,7.0,8.8,5.5,トーセンスラッガー,12.0
0,16.0,8.0,5.1,3.3,バルダメンテ,13.0
0,15.1,8.0,4.3,2.8,レッドソレイユ,14.0
