,タイム,レース周り,レース情報,体重,名称,外回りフラグ,天気,性別,斤量,日付,時刻,条件,枠番,競技場,調教師名,賞金,順位,馬名,馬場状態,馬番,騎手名,齢
0,1:54.1,左,ダ1800m,480.0,３歳上５００万下,,晴,牡,54.0,2016/08/13,14:01,サラ系３歳以上５００万下[指]定量,1,新潟,高木登 (美浦),750、300、190、110、75万円,6,チェストケゴールド,良,1,大野拓弥,3
0,1:54.1,左,ダ1800m,488.0,３歳上５００万下,,晴,牡,56.0,2016/08/13,14:01,サラ系３歳以上５００万下[指]定量,2,新潟,武井亮 (美浦),750、300、190、110、75万円,7,ポルトボナール,良,2,石川裕紀,4
0,1:52.7,左,ダ1800m,470.0,３歳上５００万下,,晴,牡,54.0,2016/08/13,14:01,サラ系３歳以上５００万下[指]定量,3,新潟,池上昌弘 (美浦),750、300、190、110、75万円,3,タイセイスペリオル,良,3,戸崎圭太,3
0,1:54.2,左,ダ1800m,452.0,３歳上５００万下,,晴,牡,54.0,2016/08/13,14:01,サラ系３歳以上５００万下[指]定量,3,新潟,斎藤誠 (美浦),750、300、190、110、75万円,9,ナンヨーファミユ,良,4,石橋脩,3
0,1:54.4,左,ダ1800m,458.0,３歳上５００万下,,晴,牝,55.0,2016/08/13,14:01,サラ系３歳以上５００万下[指]定量,4,新潟,藤原辰雄 (美浦),750、300、190、110、75万円,10,グランドエンジェル,良,5,内田博幸,5
0,1:54.8,左,ダ1800m,502.0,３歳上５００万下,,晴,牡,57.0,2016/08/13,14:01,サラ系３歳以上５００万下[指]定量,4,新潟,蛯名利弘 (美浦),750、300、190、110、75万円,12,コスモボアソルテ,良,6,津村明秀,4
0,1:58.9,左,ダ1800m,454.0,３歳上５００万下,,晴,牡,57.0,2016/08/13,14:01,サラ系３歳以上５００万下[指]定量,5,新潟,鹿戸雄一 (美浦),750、300、190、110、75万円,14,タイタニウム,良,7,Ｍ．デム,4
0,1:54.1,左,ダ1800m,516.0,３歳上５００万下,,晴,牡,54.0,2016/08/13,14:01,サラ系３歳以上５００万下[指]定量,5,新潟,手塚貴久 (美浦),750、300、190、110、75万円,8,クロノスタシス,良,8,ルメール,3
0,1:54.0,左,ダ1800m,504.0,３歳上５００万下,,晴,牡,57.0,2016/08/13,14:01,サラ系３歳以上５００万下[指]定量,6,新潟,奥平雅士 (美浦),750、300、190、110、75万円,5,メイショウフェイク,良,9,嘉藤貴行,4
0,1:53.8,左,ダ1800m,446.0,３歳上５００万下,,晴,牝,55.0,2016/08/13,14:01,サラ系３歳以上５００万下[指]定量,6,新潟,尾形充弘 (美浦),750、300、190、110、75万円,4,ニシノプレシャス,良,10,吉田豊,4
0,1:54.6,左,ダ1800m,494.0,３歳上５００万下,,晴,牡,54.0,2016/08/13,14:01,サラ系３歳以上５００万下[指]定量,7,新潟,新開幸一 (美浦),750、300、190、110、75万円,11,タイセイストーム,良,11,木幡初也,4
0,1:55.8,左,ダ1800m,474.0,３歳上５００万下,,晴,セ,57.0,2016/08/13,14:01,サラ系３歳以上５００万下[指]定量,7,新潟,小笠倫弘 (美浦),750、300、190、110、75万円,13,トーセンモバイル,良,12,江田照男,4
0,1:52.1,左,ダ1800m,512.0,３歳上５００万下,,晴,牡,51.0,2016/08/13,14:01,サラ系３歳以上５００万下[指]定量,8,新潟,牧光二 (美浦),750、300、190、110、75万円,1,モンサンアルナイル,良,13,木幡巧也,3
0,1:52.3,左,ダ1800m,470.0,３歳上５００万下,,晴,牡,57.0,2016/08/13,14:01,サラ系３歳以上５００万下[指]定量,8,新潟,高柳瑞樹 (美浦),750、300、190、110、75万円,2,ロードシャリオ,良,14,田辺裕信,4
