,単勝,枠番,複勝最大,複勝最小,馬名,馬番
0,5.9,1.0,2.5,1.8,ルピナスベル,1.0
0,66.6,1.0,20.3,13.4,トイミサキ,2.0
0,92.0,2.0,22.6,14.9,オルティンド,3.0
0,6.9,2.0,2.2,1.6,プレアマール,4.0
0,294.6,3.0,82.0,53.7,イネディット,5.0
0,52.9,3.0,12.8,8.5,コウセイカルメン,6.0
0,58.0,4.0,15.8,10.5,スウィーティー,7.0
0,8.2,4.0,2.7,1.9,ミュゼジュリエット,8.0
0,29.2,5.0,8.0,5.4,ヌーベルマリエ,9.0
0,292.0,5.0,93.0,60.9,ゲンエイ,10.0
0,8.0,6.0,3.9,2.7,フレンチジェンヌ,11.0
0,11.5,6.0,4.7,3.2,マーブルフレンテ,12.0
0,9.1,7.0,2.6,1.9,ミュゲプリンセス,13.0
0,213.5,7.0,60.1,39.4,レッドイリス,14.0
0,37.2,8.0,11.2,7.5,ティノ,15.0
0,2.7,8.0,1.8,1.5,マカレア,16.0
