,タイム,レース周り,レース情報,体重,名称,外回りフラグ,天気,性別,斤量,日付,時刻,条件,枠番,競技場,調教師名,賞金,順位,馬名,馬場状態,馬番,騎手名,齢
0,1:45.2,右,ダ1700m,526.0,エルムＳ,,晴,牡,56.0,2016/08/14,15:25,サラ系３歳以上オープン(国際)(指)別定,1,札幌,田中淳司 (北海道),3600、1400、900、540、360万円,9,ナムラビクター,良,1,服部茂史,7
0,1:44.6,右,ダ1700m,486.0,エルムＳ,,晴,牡,56.0,2016/08/14,15:25,サラ系３歳以上オープン(国際)(指)別定,2,札幌,加藤敬二 (栗東),3600、1400、900、540、360万円,5,ヒラボクプリンス,良,2,吉田隼人,6
0,1:44.6,右,ダ1700m,560.0,エルムＳ,,晴,牡,57.0,2016/08/14,15:25,サラ系３歳以上オープン(国際)(指)別定,3,札幌,大竹正博 (美浦),3600、1400、900、540、360万円,7,ジェベルムーサ,良,3,岩田康誠,6
0,1:43.5,右,ダ1700m,494.0,エルムＳ,,晴,セ,56.0,2016/08/14,15:25,サラ系３歳以上オープン(国際)(指)別定,4,札幌,黒岩陽一 (美浦),3600、1400、900、540、360万円,1,リッカルド,良,4,黛弘人,5
0,1:44.3,右,ダ1700m,500.0,エルムＳ,,晴,牡,57.0,2016/08/14,15:25,サラ系３歳以上オープン(国際)(指)別定,5,札幌,戸田博文 (美浦),3600、1400、900、540、360万円,4,ロワジャルダン,良,5,モレイラ,5
0,1:45.1,右,ダ1700m,464.0,エルムＳ,,晴,牡,56.0,2016/08/14,15:25,サラ系３歳以上オープン(国際)(指)別定,5,札幌,田中清隆 (美浦),3600、1400、900、540、360万円,8,サイモントルナーレ,良,6,横山和生,10
0,1:45.2,右,ダ1700m,488.0,エルムＳ,,晴,牡,56.0,2016/08/14,15:25,サラ系３歳以上オープン(国際)(指)別定,6,札幌,浜田多実 (栗東),3600、1400、900、540、360万円,10,マルカフリート,良,7,四位洋文,10
0,1:45.9,右,ダ1700m,480.0,エルムＳ,,晴,牡,56.0,2016/08/14,15:25,サラ系３歳以上オープン(国際)(指)別定,6,札幌,松永昌博 (栗東),3600、1400、900、540、360万円,11,ナリタスーパーワン,良,8,池添謙一,7
0,1:44.6,右,ダ1700m,518.0,エルムＳ,,晴,牡,56.0,2016/08/14,15:25,サラ系３歳以上オープン(国際)(指)別定,7,札幌,鮫島一歩 (栗東),3600、1400、900、540、360万円,6,ブライトライン,良,9,福永祐一,7
0,1:47.0,右,ダ1700m,496.0,エルムＳ,,晴,牡,57.0,2016/08/14,15:25,サラ系３歳以上オープン(国際)(指)別定,7,札幌,古賀史生 (美浦),3600、1400、900、540、360万円,12,ショウナンアポロン,良,10,松岡正海,6
0,1:43.8,右,ダ1700m,518.0,エルムＳ,,晴,牡,56.0,2016/08/14,15:25,サラ系３歳以上オープン(国際)(指)別定,8,札幌,清水英克 (美浦),3600、1400、900、540、360万円,3,モンドクラッセ,良,11,柴山雄一,5
0,1:43.5,右,ダ1700m,530.0,エルムＳ,,晴,牡,56.0,2016/08/14,15:25,サラ系３歳以上オープン(国際)(指)別定,8,札幌,高橋義忠 (栗東),3600、1400、900、540、360万円,2,クリノスターオー,良,12,幸英明,6
