,タイム,レース周り,レース情報,体重,名称,外回りフラグ,天気,性別,斤量,日付,時刻,条件,枠番,競技場,調教師名,賞金,順位,馬名,馬場状態,馬番,騎手名,齢
0,1:46.9,右,ダ1700m,432.0,大雪ＨＣ,,晴,牝,52.0,2016/08/14,16:05,サラ系３歳以上１０００万下(混)[指]ハンデ,1,札幌,角田晃一 (栗東),1500、600、380、230、150万円,12,クライミングローズ,良,1,坂井瑠星,4
0,1:44.5,右,ダ1700m,430.0,大雪ＨＣ,,晴,牝,52.0,2016/08/14,16:05,サラ系３歳以上１０００万下(混)[指]ハンデ,2,札幌,藤原英昭 (栗東),1500、600、380、230、150万円,2,ベルフィオーレ,良,2,福永祐一,5
0,1:46.2,右,ダ1700m,510.0,大雪ＨＣ,,晴,牡,56.0,2016/08/14,16:05,サラ系３歳以上１０００万下(混)[指]ハンデ,3,札幌,村山明 (栗東),1500、600、380、230、150万円,10,コパノチャーリー,良,3,丹内祐次,4
0,1:45.7,右,ダ1700m,494.0,大雪ＨＣ,,晴,牝,52.0,2016/08/14,16:05,サラ系３歳以上１０００万下(混)[指]ハンデ,4,札幌,藤原辰雄 (美浦),1500、600、380、230、150万円,9,ロトラトゥール,良,4,勝浦正樹,5
0,1:45.3,右,ダ1700m,510.0,大雪ＨＣ,,晴,牡,58.5,2016/08/14,16:05,サラ系３歳以上１０００万下(混)[指]ハンデ,4,札幌,堀宣行 (美浦),1500、600、380、230、150万円,6,ゴールデンバローズ,良,5,モレイラ,4
0,1:46.3,右,ダ1700m,462.0,大雪ＨＣ,,晴,牝,50.0,2016/08/14,16:05,サラ系３歳以上１０００万下(混)[指]ハンデ,5,札幌,沖芳夫 (栗東),1500、600、380、230、150万円,11,メイショウレンマ,良,6,加藤祥太,3
0,1:44.6,右,ダ1700m,462.0,大雪ＨＣ,,晴,牡,54.0,2016/08/14,16:05,サラ系３歳以上１０００万下(混)[指]ハンデ,5,札幌,小島茂之 (美浦),1500、600、380、230、150万円,4,メイスンウォー,良,7,長岡禎仁,6
0,1:44.5,右,ダ1700m,464.0,大雪ＨＣ,,晴,セ,55.0,2016/08/14,16:05,サラ系３歳以上１０００万下(混)[指]ハンデ,6,札幌,加藤征弘 (美浦),1500、600、380、230、150万円,1,ピグマリオン,良,8,吉田隼人,7
0,1:45.7,右,ダ1700m,484.0,大雪ＨＣ,,晴,牡,53.0,2016/08/14,16:05,サラ系３歳以上１０００万下(混)[指]ハンデ,6,札幌,浅見秀一 (栗東),1500、600、380、230、150万円,8,イーストオブザサン,良,9,岩田康誠,3
0,1:45.4,右,ダ1700m,486.0,大雪ＨＣ,,晴,牡,55.0,2016/08/14,16:05,サラ系３歳以上１０００万下(混)[指]ハンデ,7,札幌,池上昌弘 (美浦),1500、600、380、230、150万円,7,ディアドナテロ,良,10,四位洋文,4
0,1:44.5,右,ダ1700m,470.0,大雪ＨＣ,,晴,牡,54.0,2016/08/14,16:05,サラ系３歳以上１０００万下(混)[指]ハンデ,7,札幌,矢作芳人 (栗東),1500、600、380、230、150万円,3,ドリームキラリ,良,11,黛弘人,4
0,1:47.0,右,ダ1700m,452.0,大雪ＨＣ,,晴,牝,52.0,2016/08/14,16:05,サラ系３歳以上１０００万下(混)[指]ハンデ,8,札幌,安達昭夫 (栗東),1500、600、380、230、150万円,13,レディカリビアン,良,12,松岡正海,5
0,1:44.6,右,ダ1700m,458.0,大雪ＨＣ,,晴,牡,55.0,2016/08/14,16:05,サラ系３歳以上１０００万下(混)[指]ハンデ,8,札幌,高木登 (美浦),1500、600、380、230、150万円,5,ディアコンチェルト,良,13,幸英明,4
