,タイム,レース周り,レース情報,体重,名称,外回りフラグ,天気,性別,斤量,日付,時刻,条件,枠番,競技場,調教師名,賞金,順位,馬名,馬場状態,馬番,騎手名,齢
0,1:00.0,右,ダ1000m,496.0,３歳上５００万下,,晴,牡,56.0,2016/08/14,12:40,サラ系３歳以上５００万下[指]定量,1,札幌,作田誠二 (栗東),750、300、190、110、75万円,6,クリノダイスーシー,良,1,加藤祥太,4
0,1:02.6,右,ダ1000m,464.0,３歳上５００万下,,晴,牡,55.0,2016/08/14,12:40,サラ系３歳以上５００万下[指]定量,2,札幌,二本柳俊 (美浦),750、300、190、110、75万円,12,カシノキングダム,良,2,城戸義政,4
0,0:59.5,右,ダ1000m,462.0,３歳上５００万下,,晴,牝,55.0,2016/08/14,12:40,サラ系３歳以上５００万下[指]定量,3,札幌,的場均 (美浦),750、300、190、110、75万円,2,トウカイマインド,良,3,横山和生,5
0,1:00.3,右,ダ1000m,476.0,３歳上５００万下,,晴,牡,54.0,2016/08/14,12:40,サラ系３歳以上５００万下[指]定量,4,札幌,根本康広 (美浦),750、300、190、110、75万円,8,ラッキーポイント,良,4,丸山元気,3
0,1:00.2,右,ダ1000m,460.0,３歳上５００万下,,晴,セ,57.0,2016/08/14,12:40,サラ系３歳以上５００万下[指]定量,5,札幌,萩原清 (美浦),750、300、190、110、75万円,7,クラウドチェンバー,良,5,田中博康,7
0,1:00.0,右,ダ1000m,468.0,３歳上５００万下,,晴,牝,52.0,2016/08/14,12:40,サラ系３歳以上５００万下[指]定量,5,札幌,竹内正洋 (美浦),750、300、190、110、75万円,5,ペイシャオトメ,良,6,勝浦正樹,3
0,0:59.8,右,ダ1000m,502.0,３歳上５００万下,,晴,牡,55.0,2016/08/14,12:40,サラ系３歳以上５００万下[指]定量,6,札幌,萱野浩二 (美浦),750、300、190、110、75万円,4,トウショウカウント,良,7,井上敏樹,4
0,0:58.8,右,ダ1000m,478.0,３歳上５００万下,,晴,牡,54.0,2016/08/14,12:40,サラ系３歳以上５００万下[指]定量,6,札幌,田中清隆 (美浦),750、300、190、110、75万円,1,タンタラスノオカ,良,8,岩田康誠,3
0,1:00.9,右,ダ1000m,486.0,３歳上５００万下,,晴,牝,55.0,2016/08/14,12:40,サラ系３歳以上５００万下[指]定量,7,札幌,谷原義明 (美浦),750、300、190、110、75万円,10,スイートガーデン,良,9,黛弘人,5
0,1:00.5,右,ダ1000m,442.0,３歳上５００万下,,晴,牝,52.0,2016/08/14,12:40,サラ系３歳以上５００万下[指]定量,7,札幌,牧田和弥 (栗東),750、300、190、110、75万円,9,セレッソプリマベラ,良,10,丹内祐次,3
0,0:59.8,右,ダ1000m,452.0,３歳上５００万下,,晴,牝,49.0,2016/08/14,12:40,サラ系３歳以上５００万下[指]定量,8,札幌,高橋亮 (栗東),750、300、190、110、75万円,3,トルシュローズ,良,11,坂井瑠星,3
0,1:01.1,右,ダ1000m,462.0,３歳上５００万下,,晴,牝,52.0,2016/08/14,12:40,サラ系３歳以上５００万下[指]定量,8,札幌,今野貞一 (栗東),750、300、190、110、75万円,11,ラララルジェス,良,12,吉田隼人,3
