,タイム,レース周り,レース情報,体重,名称,外回りフラグ,天気,性別,斤量,日付,時刻,条件,枠番,競技場,調教師名,賞金,順位,馬名,馬場状態,馬番,騎手名,齢
0,1:29.2,右,芝1500m,436.0,３歳上５００万下,,晴,牝,55.0,2016/08/14,13:40,サラ系３歳以上５００万下牝[指]定量,1,札幌,藤原英昭 (栗東),750、300、190、110、75万円,7,スクエアゴールド,良,1,四位洋文,4
0,1:30.1,右,芝1500m,422.0,３歳上５００万下,,晴,牝,51.0,2016/08/14,13:40,サラ系３歳以上５００万下牝[指]定量,2,札幌,武井亮 (美浦),750、300、190、110、75万円,13,ルーレットクイーン,良,2,加藤祥太,3
0,1:28.6,右,芝1500m,410.0,３歳上５００万下,,晴,牝,52.0,2016/08/14,13:40,サラ系３歳以上５００万下牝[指]定量,3,札幌,安田隆行 (栗東),750、300、190、110、75万円,1,ミッキーグッドネス,良,3,福永祐一,3
0,1:29.5,右,芝1500m,442.0,３歳上５００万下,,晴,牝,52.0,2016/08/14,13:40,サラ系３歳以上５００万下牝[指]定量,3,札幌,高橋康之 (栗東),750、300、190、110、75万円,10,アリアカンタービレ,良,4,古川吉洋,3
0,1:28.9,右,芝1500m,480.0,３歳上５００万下,,晴,牝,55.0,2016/08/14,13:40,サラ系３歳以上５００万下牝[指]定量,4,札幌,斎藤誠 (美浦),750、300、190、110、75万円,3,リヴィエール,良,5,モレイラ,5
0,1:29.9,右,芝1500m,458.0,３歳上５００万下,,晴,牝,55.0,2016/08/14,13:40,サラ系３歳以上５００万下牝[指]定量,4,札幌,菊沢隆徳 (美浦),750、300、190、110、75万円,12,レディゴーラウンド,良,6,横山和生,4
0,1:29.3,右,芝1500m,454.0,３歳上５００万下,,晴,牝,55.0,2016/08/14,13:40,サラ系３歳以上５００万下牝[指]定量,5,札幌,二ノ宮敬 (美浦),750、300、190、110、75万円,8,ビーウィッチド,良,7,柴山雄一,4
0,1:28.8,右,芝1500m,446.0,３歳上５００万下,,晴,牝,55.0,2016/08/14,13:40,サラ系３歳以上５００万下牝[指]定量,5,札幌,伊藤伸一 (美浦),750、300、190、110、75万円,2,ユメノマイホーム,良,8,松岡正海,4
0,1:29.2,右,芝1500m,490.0,３歳上５００万下,,晴,牝,52.0,2016/08/14,13:40,サラ系３歳以上５００万下牝[指]定量,6,札幌,池添兼雄 (栗東),750、300、190、110、75万円,6,ヤマカツサファイヤ,良,9,池添謙一,3
0,1:29.5,右,芝1500m,466.0,３歳上５００万下,,晴,牝,55.0,2016/08/14,13:40,サラ系３歳以上５００万下牝[指]定量,6,札幌,小島太 (美浦),750、300、190、110、75万円,9,メイショウサワヤカ,良,10,岩田康誠,4
0,1:29.7,右,芝1500m,444.0,３歳上５００万下,,晴,牝,55.0,2016/08/14,13:40,サラ系３歳以上５００万下牝[指]定量,7,札幌,大久保龍 (栗東),750、300、190、110、75万円,11,オールオブナイト,良,11,吉田隼人,5
0,1:29.0,右,芝1500m,430.0,３歳上５００万下,,晴,牝,52.0,2016/08/14,13:40,サラ系３歳以上５００万下牝[指]定量,7,札幌,奥村豊 (栗東),750、300、190、110、75万円,4,トリニティプレイス,良,12,坂井瑠星,5
0,1:29.0,右,芝1500m,482.0,３歳上５００万下,,晴,牝,55.0,2016/08/14,13:40,サラ系３歳以上５００万下牝[指]定量,8,札幌,奥平雅士 (美浦),750、300、190、110、75万円,5,サグレス,良,13,黛弘人,5
0,1:30.5,右,芝1500m,424.0,３歳上５００万下,,晴,牝,52.0,2016/08/14,13:40,サラ系３歳以上５００万下牝[指]定量,8,札幌,崎山博樹 (栗東),750、300、190、110、75万円,14,コパノディール,良,14,菱田裕二,3
