,馬番1,馬番2,馬連
0,1.0,2.0,755.2
0,1.0,3.0,173.3
0,1.0,4.0,927.7
0,1.0,5.0,32.9
0,1.0,6.0,109.0
0,1.0,7.0,139.9
0,1.0,8.0,87.9
0,1.0,9.0,550.4
0,1.0,10.0,77.9
0,1.0,11.0,279.7
0,1.0,12.0,1297.9
0,1.0,13.0,156.0
0,1.0,14.0,159.9
0,2.0,3.0,537.0
0,2.0,4.0,1845.4
0,2.0,5.0,173.9
0,2.0,6.0,476.5
0,2.0,7.0,386.8
0,2.0,8.0,427.5
0,2.0,9.0,1364.2
0,2.0,10.0,289.3
0,2.0,11.0,709.7
0,2.0,12.0,3815.8
0,2.0,13.0,759.7
0,2.0,14.0,425.0
0,3.0,4.0,703.8
0,3.0,5.0,26.1
0,3.0,6.0,101.7
0,3.0,7.0,61.6
0,3.0,8.0,103.7
0,3.0,9.0,375.6
0,3.0,10.0,44.5
0,3.0,11.0,195.7
0,3.0,12.0,926.0
0,3.0,13.0,128.5
0,3.0,14.0,73.0
0,4.0,5.0,149.2
0,4.0,6.0,738.7
0,4.0,7.0,701.9
0,4.0,8.0,634.3
0,4.0,9.0,2150.4
0,4.0,10.0,274.9
0,4.0,11.0,1421.5
0,4.0,12.0,3704.3
0,4.0,13.0,1031.5
0,4.0,14.0,685.8
0,5.0,6.0,11.8
0,5.0,7.0,13.9
0,5.0,8.0,13.9
0,5.0,9.0,74.1
0,5.0,10.0,6.6
0,5.0,11.0,44.6
0,5.0,12.0,297.6
0,5.0,13.0,17.9
0,5.0,14.0,13.1
0,6.0,7.0,56.5
0,6.0,8.0,46.2
0,6.0,9.0,264.8
0,6.0,10.0,31.8
0,6.0,11.0,159.7
0,6.0,12.0,1010.9
0,6.0,13.0,76.8
0,6.0,14.0,56.5
0,7.0,8.0,36.0
0,7.0,9.0,270.9
0,7.0,10.0,23.5
0,7.0,11.0,98.1
0,7.0,12.0,692.3
0,7.0,13.0,70.4
0,7.0,14.0,26.9
0,8.0,9.0,306.4
0,8.0,10.0,26.3
0,8.0,11.0,119.5
0,8.0,12.0,717.8
0,8.0,13.0,67.5
0,8.0,14.0,38.9
0,9.0,10.0,148.7
0,9.0,11.0,453.1
0,9.0,12.0,2349.5
0,9.0,13.0,467.7
0,9.0,14.0,298.1
0,10.0,11.0,82.5
0,10.0,12.0,558.9
0,10.0,13.0,41.0
0,10.0,14.0,21.2
0,11.0,12.0,1130.2
0,11.0,13.0,207.8
0,11.0,14.0,124.9
0,12.0,13.0,1002.9
0,12.0,14.0,747.4
0,13.0,14.0,66.0
