,馬番1,馬番2,馬連
0,1.0,2.0,91.2
0,1.0,3.0,144.3
0,1.0,4.0,43.1
0,1.0,5.0,91.6
0,1.0,6.0,194.1
0,1.0,7.0,204.0
0,1.0,8.0,36.6
0,1.0,9.0,865.4
0,1.0,10.0,98.1
0,1.0,11.0,126.5
0,2.0,3.0,74.8
0,2.0,4.0,19.2
0,2.0,5.0,43.8
0,2.0,6.0,96.0
0,2.0,7.0,87.3
0,2.0,8.0,11.9
0,2.0,9.0,531.9
0,2.0,10.0,60.7
0,2.0,11.0,75.1
0,3.0,4.0,32.7
0,3.0,5.0,71.5
0,3.0,6.0,129.5
0,3.0,7.0,88.6
0,3.0,8.0,23.3
0,3.0,9.0,728.4
0,3.0,10.0,119.8
0,3.0,11.0,112.3
0,4.0,5.0,17.7
0,4.0,6.0,41.3
0,4.0,7.0,32.5
0,4.0,8.0,3.4
0,4.0,9.0,238.0
0,4.0,10.0,31.6
0,4.0,11.0,26.5
0,5.0,6.0,89.9
0,5.0,7.0,83.1
0,5.0,8.0,14.0
0,5.0,9.0,443.8
0,5.0,10.0,64.4
0,5.0,11.0,66.7
0,6.0,7.0,103.7
0,6.0,8.0,30.5
0,6.0,9.0,614.8
0,6.0,10.0,139.7
0,6.0,11.0,133.1
0,7.0,8.0,19.5
0,7.0,9.0,640.5
0,7.0,10.0,152.4
0,7.0,11.0,133.6
0,8.0,9.0,176.2
0,8.0,10.0,27.8
0,8.0,11.0,21.7
0,9.0,10.0,797.9
0,9.0,11.0,564.5
0,10.0,11.0,71.4
