,馬番1,馬番2,馬連
0,1.0,2.0,299.5
0,1.0,3.0,126.2
0,1.0,4.0,378.2
0,1.0,5.0,346.2
0,1.0,6.0,546.1
0,1.0,7.0,352.0
0,1.0,8.0,140.9
0,1.0,9.0,286.7
0,1.0,10.0,196.4
0,1.0,11.0,207.6
0,2.0,3.0,37.0
0,2.0,4.0,118.4
0,2.0,5.0,165.1
0,2.0,6.0,198.1
0,2.0,7.0,106.4
0,2.0,8.0,50.3
0,2.0,9.0,58.0
0,2.0,10.0,65.4
0,2.0,11.0,85.2
0,3.0,4.0,30.2
0,3.0,5.0,63.3
0,3.0,6.0,63.3
0,3.0,7.0,17.5
0,3.0,8.0,7.2
0,3.0,9.0,14.9
0,3.0,10.0,10.4
0,3.0,11.0,15.2
0,4.0,5.0,198.1
0,4.0,6.0,250.9
0,4.0,7.0,96.5
0,4.0,8.0,39.3
0,4.0,9.0,73.1
0,4.0,10.0,58.0
0,4.0,11.0,80.6
0,5.0,6.0,417.5
0,5.0,7.0,140.9
0,5.0,8.0,55.0
0,5.0,9.0,116.9
0,5.0,10.0,61.1
0,5.0,11.0,121.4
0,6.0,7.0,175.2
0,6.0,8.0,83.9
0,6.0,9.0,148.8
0,6.0,10.0,128.2
0,6.0,11.0,130.8
0,7.0,8.0,21.3
0,7.0,9.0,46.0
0,7.0,10.0,30.2
0,7.0,11.0,42.4
0,8.0,9.0,19.8
0,8.0,10.0,9.4
0,8.0,11.0,17.7
0,9.0,10.0,24.9
0,9.0,11.0,31.3
0,10.0,11.0,23.3
