,馬番1,馬番2,馬連
0,1.0,2.0,954.0
0,1.0,3.0,197.0
0,1.0,4.0,211.1
0,1.0,5.0,218.1
0,1.0,6.0,73.6
0,1.0,7.0,180.2
0,1.0,8.0,1115.5
0,1.0,9.0,39.2
0,1.0,10.0,129.0
0,1.0,11.0,188.0
0,1.0,12.0,75.9
0,1.0,13.0,1875.2
0,2.0,3.0,1376.7
0,2.0,4.0,1144.8
0,2.0,5.0,1235.9
0,2.0,6.0,399.8
0,2.0,7.0,1098.6
0,2.0,8.0,2265.9
0,2.0,9.0,235.4
0,2.0,10.0,673.4
0,2.0,11.0,1182.2
0,2.0,12.0,392.6
0,2.0,13.0,4943.8
0,3.0,4.0,114.8
0,3.0,5.0,226.8
0,3.0,6.0,48.3
0,3.0,7.0,71.7
0,3.0,8.0,1076.8
0,3.0,9.0,34.9
0,3.0,10.0,118.8
0,3.0,11.0,113.3
0,3.0,12.0,79.9
0,3.0,13.0,1859.2
0,4.0,5.0,176.1
0,4.0,6.0,33.0
0,4.0,7.0,83.5
0,4.0,8.0,1195.2
0,4.0,9.0,31.0
0,4.0,10.0,94.4
0,4.0,11.0,93.3
0,4.0,12.0,58.6
0,4.0,13.0,1510.6
0,5.0,6.0,57.7
0,5.0,7.0,161.6
0,5.0,8.0,1521.1
0,5.0,9.0,33.1
0,5.0,10.0,61.5
0,5.0,11.0,112.4
0,5.0,12.0,48.2
0,5.0,13.0,1576.2
0,6.0,7.0,24.1
0,6.0,8.0,364.9
0,6.0,9.0,8.8
0,6.0,10.0,23.0
0,6.0,11.0,33.2
0,6.0,12.0,16.0
0,6.0,13.0,496.6
0,7.0,8.0,1055.9
0,7.0,9.0,21.7
0,7.0,10.0,62.1
0,7.0,11.0,86.8
0,7.0,12.0,47.5
0,7.0,13.0,1768.5
0,8.0,9.0,195.9
0,8.0,10.0,408.8
0,8.0,11.0,785.2
0,8.0,12.0,331.5
0,8.0,13.0,4728.8
0,9.0,10.0,11.1
0,9.0,11.0,17.9
0,9.0,12.0,5.6
0,9.0,13.0,218.8
0,10.0,11.0,35.9
0,10.0,12.0,17.1
0,10.0,13.0,507.0
0,11.0,12.0,26.5
0,11.0,13.0,1098.6
0,12.0,13.0,368.0
