,枠番,馬番,馬名,単勝,複勝最小,複勝最大
0,1.0,1.0,ジェントルヴァウ,2.8,1.3,1.6
0,1.0,2.0,キングカーティス,17.4,4.0,6.3
0,2.0,3.0,ブライティアレディ,5.5,1.9,2.8
0,2.0,4.0,ゲンキチハヤブサ,47.2,5.8,9.4
0,3.0,5.0,カシノエイシ,216.9,26.3,43.3
0,3.0,6.0,ローカルロマン,269.8,48.8,80.6
0,4.0,7.0,キンシロケット,19.9,4.0,6.2
0,4.0,8.0,フルムーンソング,62.4,11.1,18.1
0,5.0,9.0,ノミネーション,10.0,2.4,3.6
0,5.0,10.0,メッサーウイング,66.2,8.0,12.9
0,6.0,11.0,アグネスリュシアン,328.5,30.9,51.0
0,6.0,12.0,エイシンピカソ,6.5,2.0,3.1
0,7.0,13.0,ウィズアミッション,16.8,3.9,6.1
0,7.0,14.0,アグネスユーリヤ,25.1,4.0,6.4
0,7.0,15.0,ケイアイヴァーゲ,5.6,1.6,2.2
0,8.0,16.0,スズカグランデ,406.6,65.4,107.9
0,8.0,17.0,ハコダテローズ,97.8,13.6,22.2
0,8.0,18.0,ミリオンフレッシュ,73.5,8.6,13.9
