,馬番1,馬番2,馬連
0,1.0,2.0,396.1
0,1.0,3.0,50.8
0,1.0,4.0,79.6
0,1.0,5.0,39.3
0,1.0,6.0,193.7
0,1.0,7.0,184.1
0,1.0,8.0,184.0
0,1.0,9.0,195.1
0,1.0,10.0,9.1
0,1.0,11.0,610.3
0,2.0,3.0,317.7
0,2.0,4.0,420.5
0,2.0,5.0,208.9
0,2.0,6.0,680.9
0,2.0,7.0,674.8
0,2.0,8.0,530.5
0,2.0,9.0,684.0
0,2.0,10.0,56.0
0,2.0,11.0,1150.5
0,3.0,4.0,55.4
0,3.0,5.0,24.0
0,3.0,6.0,111.5
0,3.0,7.0,105.3
0,3.0,8.0,124.5
0,3.0,9.0,122.1
0,3.0,10.0,4.7
0,3.0,11.0,495.5
0,4.0,5.0,36.8
0,4.0,6.0,194.8
0,4.0,7.0,185.1
0,4.0,8.0,188.2
0,4.0,9.0,218.4
0,4.0,10.0,9.3
0,4.0,11.0,641.6
0,5.0,6.0,84.5
0,5.0,7.0,64.3
0,5.0,8.0,82.7
0,5.0,9.0,93.8
0,5.0,10.0,3.2
0,5.0,11.0,278.5
0,6.0,7.0,271.0
0,6.0,8.0,357.0
0,6.0,9.0,353.2
0,6.0,10.0,22.1
0,6.0,11.0,1011.1
0,7.0,8.0,391.5
0,7.0,9.0,328.5
0,7.0,10.0,18.1
0,7.0,11.0,773.9
0,8.0,9.0,275.2
0,8.0,10.0,21.4
0,8.0,11.0,883.2
0,9.0,10.0,19.2
0,9.0,11.0,836.4
0,10.0,11.0,61.0
