,枠番,馬番,馬名,単勝,複勝最小,複勝最大
0,1.0,1.0,ハシルキセキ,1.7,1.1,1.1
0,2.0,2.0,ユウギリジョウ,14.0,2.0,6.3
0,2.0,3.0,サンアンカレッジ,138.9,11.7,43.3
0,3.0,4.0,アイティプリンセス,4.4,1.2,2.5
0,3.0,5.0,シンボリスーマラン,22.8,2.4,7.9
0,4.0,6.0,フクハウチ,74.3,7.0,25.4
0,4.0,7.0,セイプレジール,33.8,3.0,10.0
0,5.0,8.0,キョウエイバロック,94.1,8.2,29.9
0,5.0,9.0,ボウソウノカゼ,127.1,14.7,54.8
0,6.0,10.0,デュトロノミー,174.0,14.8,55.4
0,6.0,11.0,スッチェッソ,19.5,2.0,6.4
0,7.0,12.0,テルルフォレスト,168.1,20.4,76.7
0,7.0,13.0,ワンダフルメモリー,8.0,1.6,4.9
0,8.0,14.0,ファストシップ,117.3,11.9,44.3
0,8.0,15.0,クリノヒミコ,507.7,51.1,193.4
