,枠番,馬番,馬名,単勝,複勝最小,複勝最大
0,1.0,1.0,コクスイセン,3.5,1.3,1.9
0,1.0,2.0,ラディカル,7.4,1.7,2.9
0,2.0,3.0,アグネスアーニャ,109.4,14.8,27.9
0,2.0,4.0,ミッキーシーガル,15.4,3.0,5.3
0,3.0,5.0,スズカウラノス,62.6,7.3,13.5
0,3.0,6.0,サンタエヴィータ,35.4,5.8,10.6
0,4.0,7.0,ナンヨーカノン,8.6,1.9,3.1
0,4.0,8.0,ツィンクルソード,81.7,11.6,21.8
0,5.0,9.0,アチーヴ,124.8,17.6,33.2
0,5.0,10.0,インテグラード,114.5,15.7,29.6
0,6.0,11.0,ハッピーエム,60.1,8.0,14.9
0,6.0,12.0,ワースムーン,18.9,3.1,5.5
0,7.0,13.0,タムロミラクル,2.3,1.1,1.4
0,7.0,14.0,メイショウルンバ,39.1,5.4,9.8
0,8.0,15.0,ダイナミックウオー,18.6,2.6,4.6
0,8.0,16.0,セルリアンラッシュ,297.1,50.9,96.6
