,枠番,馬番,馬名,単勝,複勝最小,複勝最大
0,1.0,1.0,シゲルタイガー,29.4,6.7,10.6
0,1.0,2.0,イヴレア,141.9,15.5,25.1
0,2.0,3.0,セイカチトセ,38.0,6.7,10.6
0,2.0,4.0,キタノリツメイ,19.5,3.1,4.8
0,3.0,5.0,パフォーム,4.7,1.4,1.9
0,3.0,6.0,シゲルクロヒョウ,76.5,8.1,13.0
0,4.0,7.0,シンボリバロン,80.0,13.8,22.3
0,4.0,8.0,ダウンザライン,4.5,1.4,2.1
0,5.0,9.0,カシノワンパンチ,279.4,54.0,88.0
0,5.0,10.0,コスモエアターン,47.8,7.3,11.6
0,6.0,11.0,セイウングロリアス,3.1,1.3,1.7
0,6.0,12.0,カシノレビン,230.7,28.4,46.3
0,7.0,13.0,アロハスピリット,178.2,26.7,43.5
0,7.0,14.0,セイソ,25.8,3.9,6.2
0,8.0,15.0,ルックアットミー,4.7,1.4,2.0
0,8.0,16.0,パムッカレ,44.5,7.8,12.5
