,馬番1,馬番2,馬番3,3連単
0,1.0,2.0,3.0,2707.2
0,1.0,2.0,4.0,13994.5
0,1.0,2.0,5.0,14213.2
0,1.0,2.0,6.0,56852.9
0,1.0,2.0,7.0,36385.8
0,1.0,2.0,8.0,22741.1
0,1.0,2.0,9.0,30321.5
0,1.0,2.0,10.0,75803.8
0,1.0,2.0,11.0,27565.0
0,1.0,2.0,12.0,56852.9
0,1.0,2.0,13.0,18192.9
0,1.0,2.0,14.0,56852.9
0,1.0,2.0,15.0,13576.8
0,1.0,2.0,16.0,227411.6
0,1.0,3.0,2.0,1615.7
0,1.0,3.0,4.0,346.5
0,1.0,3.0,5.0,179.5
0,1.0,3.0,6.0,5025.6
0,1.0,3.0,7.0,452.1
0,1.0,3.0,8.0,515.0
0,1.0,3.0,9.0,970.8
0,1.0,3.0,10.0,2691.2
0,1.0,3.0,11.0,346.4
0,1.0,3.0,12.0,1252.9
0,1.0,3.0,13.0,276.9
0,1.0,3.0,14.0,432.5
0,1.0,3.0,15.0,165.5
0,1.0,3.0,16.0,4838.5
0,1.0,4.0,2.0,13576.8
0,1.0,4.0,3.0,680.3
0,1.0,4.0,5.0,2790.3
0,1.0,4.0,6.0,90964.6
0,1.0,4.0,7.0,5382.5
0,1.0,4.0,8.0,6497.4
0,1.0,4.0,9.0,9781.1
0,1.0,4.0,10.0,56852.9
0,1.0,4.0,11.0,4998.0
0,1.0,4.0,12.0,14213.2
0,1.0,4.0,13.0,3052.5
0,1.0,4.0,14.0,5382.5
0,1.0,4.0,15.0,2739.8
0,1.0,4.0,16.0,64974.7
0,1.0,5.0,2.0,9188.3
0,1.0,5.0,3.0,311.9
0,1.0,5.0,4.0,2240.5
0,1.0,5.0,6.0,36385.8
0,1.0,5.0,7.0,2644.3
0,1.0,5.0,8.0,3094.0
0,1.0,5.0,9.0,7456.1
0,1.0,5.0,10.0,32487.3
0,1.0,5.0,11.0,2438.7
0,1.0,5.0,12.0,10107.1
0,1.0,5.0,13.0,1848.8
0,1.0,5.0,14.0,2982.4
0,1.0,5.0,15.0,802.8
0,1.0,5.0,16.0,32487.3
0,1.0,6.0,2.0,82695.1
0,1.0,6.0,3.0,15958.7
0,1.0,6.0,4.0,82695.1
0,1.0,6.0,5.0,39549.8
0,1.0,6.0,7.0,101071.8
0,1.0,6.0,8.0,37901.9
0,1.0,6.0,9.0,227411.6
0,1.0,6.0,10.0,303215.5
0,1.0,6.0,11.0,129949.5
0,1.0,6.0,12.0,227411.6
0,1.0,6.0,13.0,90964.6
0,1.0,6.0,14.0,181929.3
0,1.0,6.0,15.0,45482.3
0,1.0,6.0,16.0,181929.3
0,1.0,7.0,2.0,32487.3
0,1.0,7.0,3.0,953.5
0,1.0,7.0,4.0,6024.1
0,1.0,7.0,5.0,3624.0
0,1.0,7.0,6.0,101071.8
0,1.0,7.0,8.0,8195.0
0,1.0,7.0,9.0,13377.1
0,1.0,7.0,10.0,75803.8
0,1.0,7.0,11.0,4943.7
0,1.0,7.0,12.0,22741.1
0,1.0,7.0,13.0,4311.1
0,1.0,7.0,14.0,7708.8
0,1.0,7.0,15.0,2972.7
0,1.0,7.0,16.0,101071.8
0,1.0,8.0,2.0,22741.1
0,1.0,8.0,3.0,1254.6
0,1.0,8.0,4.0,6997.2
0,1.0,8.0,5.0,4024.9
0,1.0,8.0,6.0,60643.1
0,1.0,8.0,7.0,8422.6
0,1.0,8.0,9.0,15160.7
0,1.0,8.0,10.0,82695.1
0,1.0,8.0,11.0,6405.9
0,1.0,8.0,12.0,26754.3
0,1.0,8.0,13.0,5414.5
0,1.0,8.0,14.0,11514.5
0,1.0,8.0,15.0,4394.4
0,1.0,8.0,16.0,113705.8
0,1.0,9.0,2.0,60643.1
0,1.0,9.0,3.0,3052.5
0,1.0,9.0,4.0,15417.7
0,1.0,9.0,5.0,11813.5
0,1.0,9.0,6.0,181929.3
0,1.0,9.0,7.0,17493.2
0,1.0,9.0,8.0,21658.2
0,1.0,9.0,10.0,64974.7
0,1.0,9.0,11.0,20214.3
0,1.0,9.0,12.0,69972.8
0,1.0,9.0,13.0,22741.1
0,1.0,9.0,14.0,18564.2
0,1.0,9.0,15.0,11093.2
0,1.0,9.0,16.0,227411.6
0,1.0,10.0,2.0,129949.5
0,1.0,10.0,3.0,6544.2
0,1.0,10.0,4.0,64974.7
0,1.0,10.0,5.0,60643.1
0,1.0,10.0,6.0,303215.5
0,1.0,10.0,7.0,113705.8
0,1.0,10.0,8.0,113705.8
0,1.0,10.0,9.0,90964.6
0,1.0,10.0,11.0,34986.4
0,1.0,10.0,12.0,181929.3
0,1.0,10.0,13.0,43316.5
0,1.0,10.0,14.0,60643.1
0,1.0,10.0,15.0,30321.5
0,1.0,10.0,16.0,454823.3
0,1.0,11.0,2.0,34986.4
0,1.0,11.0,3.0,781.4
0,1.0,11.0,4.0,4571.0
0,1.0,11.0,5.0,2773.3
0,1.0,11.0,6.0,227411.6
0,1.0,11.0,7.0,3972.2
0,1.0,11.0,8.0,5350.8
0,1.0,11.0,9.0,14671.7
0,1.0,11.0,10.0,34986.4
0,1.0,11.0,12.0,11370.5
0,1.0,11.0,13.0,3169.5
0,1.0,11.0,14.0,4917.0
0,1.0,11.0,15.0,2105.6
0,1.0,11.0,16.0,69972.8
0,1.0,12.0,2.0,129949.5
0,1.0,12.0,3.0,3214.2
0,1.0,12.0,4.0,29343.4
0,1.0,12.0,5.0,17493.2
0,1.0,12.0,6.0,129949.5
0,1.0,12.0,7.0,24585.0
0,1.0,12.0,8.0,30321.5
0,1.0,12.0,9.0,69972.8
0,1.0,12.0,10.0,151607.7
0,1.0,12.0,11.0,17836.2
0,1.0,12.0,13.0,13782.5
0,1.0,12.0,14.0,20673.7
0,1.0,12.0,15.0,7979.3
0,1.0,12.0,16.0,181929.3
0,1.0,13.0,2.0,16845.3
0,1.0,13.0,3.0,657.7
0,1.0,13.0,4.0,3125.9
0,1.0,13.0,5.0,2285.5
0,1.0,13.0,6.0,64974.7
0,1.0,13.0,7.0,4211.3
0,1.0,13.0,8.0,4917.0
0,1.0,13.0,9.0,12128.6
0,1.0,13.0,10.0,39549.8
0,1.0,13.0,11.0,3307.8
0,1.0,13.0,12.0,12633.9
0,1.0,13.0,14.0,3595.4
0,1.0,13.0,15.0,1612.8
0,1.0,13.0,16.0,43316.5
0,1.0,14.0,2.0,30321.5
0,1.0,14.0,3.0,884.8
0,1.0,14.0,4.0,4762.5
0,1.0,14.0,5.0,3406.9
0,1.0,14.0,6.0,101071.8
0,1.0,14.0,7.0,5649.9
0,1.0,14.0,8.0,7774.7
0,1.0,14.0,9.0,18192.9
0,1.0,14.0,10.0,41347.5
0,1.0,14.0,11.0,4153.6
0,1.0,14.0,12.0,11969.0
0,1.0,14.0,13.0,3202.9
0,1.0,14.0,15.0,2412.8
0,1.0,14.0,16.0,75803.8
0,1.0,15.0,2.0,10701.7
0,1.0,15.0,3.0,260.4
0,1.0,15.0,4.0,2191.9
0,1.0,15.0,5.0,725.3
0,1.0,15.0,6.0,22741.1
0,1.0,15.0,7.0,2048.7
0,1.0,15.0,8.0,3180.5
0,1.0,15.0,9.0,6146.2
0,1.0,15.0,10.0,18564.2
0,1.0,15.0,11.0,1609.9
0,1.0,15.0,12.0,5793.9
0,1.0,15.0,13.0,1270.4
0,1.0,15.0,14.0,1783.6
0,1.0,15.0,16.0,20214.3
0,1.0,16.0,2.0,227411.6
0,1.0,16.0,3.0,16243.6
0,1.0,16.0,4.0,75803.8
0,1.0,16.0,5.0,60643.1
0,1.0,16.0,6.0,227411.6
0,1.0,16.0,7.0,181929.3
0,1.0,16.0,8.0,227411.6
0,1.0,16.0,9.0,227411.6
0,1.0,16.0,10.0,303215.5
0,1.0,16.0,11.0,82695.1
0,1.0,16.0,12.0,454823.3
0,1.0,16.0,13.0,60643.1
0,1.0,16.0,14.0,129949.5
0,1.0,16.0,15.0,41347.5
0,2.0,1.0,3.0,4230.9
0,2.0,1.0,4.0,15160.7
0,2.0,1.0,5.0,15683.5
0,2.0,1.0,6.0,101071.8
0,2.0,1.0,7.0,25267.9
0,2.0,1.0,8.0,27565.0
0,2.0,1.0,9.0,69972.8
0,2.0,1.0,10.0,90964.6
0,2.0,1.0,11.0,50535.9
0,2.0,1.0,12.0,113705.8
0,2.0,1.0,13.0,22741.1
0,2.0,1.0,14.0,37901.9
0,2.0,1.0,15.0,14671.7
0,2.0,1.0,16.0,303215.5
0,2.0,3.0,1.0,3712.8
0,2.0,3.0,4.0,6497.4
0,2.0,3.0,5.0,3002.1
0,2.0,3.0,6.0,47876.1
0,2.0,3.0,7.0,7979.3
0,2.0,3.0,8.0,8269.5
0,2.0,3.0,9.0,14438.8
0,2.0,3.0,10.0,45482.3
0,2.0,3.0,11.0,6891.2
0,2.0,3.0,12.0,16845.3
0,2.0,3.0,13.0,4917.0
0,2.0,3.0,14.0,8831.5
0,2.0,3.0,15.0,3147.5
0,2.0,3.0,16.0,113705.8
0,2.0,4.0,1.0,16243.6
0,2.0,4.0,3.0,10107.1
0,2.0,4.0,5.0,31367.1
0,2.0,4.0,6.0,75803.8
0,2.0,4.0,7.0,53508.6
0,2.0,4.0,8.0,32487.3
0,2.0,4.0,9.0,129949.5
0,2.0,4.0,10.0,181929.3
0,2.0,4.0,11.0,113705.8
0,2.0,4.0,12.0,303215.5
0,2.0,4.0,13.0,50535.9
0,2.0,4.0,14.0,82695.1
0,2.0,4.0,15.0,37901.9
0,2.0,4.0,16.0,181929.3
0,2.0,5.0,1.0,14671.7
0,2.0,5.0,3.0,4415.7
0,2.0,5.0,4.0,25989.9
0,2.0,5.0,6.0,129949.5
0,2.0,5.0,7.0,23938.0
0,2.0,5.0,8.0,22186.5
0,2.0,5.0,9.0,41347.5
0,2.0,5.0,10.0,56852.9
0,2.0,5.0,11.0,22741.1
0,2.0,5.0,12.0,82695.1
0,2.0,5.0,13.0,16845.3
0,2.0,5.0,14.0,26754.3
0,2.0,5.0,15.0,8345.3
0,2.0,5.0,16.0,227411.6
0,2.0,6.0,1.0,69972.8
0,2.0,6.0,3.0,56852.9
0,2.0,6.0,4.0,113705.8
0,2.0,6.0,5.0,101071.8
0,2.0,6.0,7.0,227411.6
0,2.0,6.0,8.0,129949.5
0,2.0,6.0,9.0,129949.5
0,2.0,6.0,10.0,227411.6
0,2.0,6.0,11.0,151607.7
0,2.0,6.0,12.0,37901.9
0,2.0,6.0,13.0,909646.6
0,2.0,6.0,14.0,454823.3
0,2.0,6.0,15.0,303215.5
0,2.0,6.0,16.0,0.0
0,2.0,7.0,1.0,34986.4
0,2.0,7.0,3.0,12811.9
0,2.0,7.0,4.0,64974.7
0,2.0,7.0,5.0,27565.0
0,2.0,7.0,6.0,227411.6
0,2.0,7.0,8.0,28426.4
0,2.0,7.0,9.0,90964.6
0,2.0,7.0,10.0,75803.8
0,2.0,7.0,11.0,47876.1
0,2.0,7.0,12.0,181929.3
0,2.0,7.0,13.0,41347.5
0,2.0,7.0,14.0,56852.9
0,2.0,7.0,15.0,27565.0
0,2.0,7.0,16.0,909646.6
0,2.0,8.0,1.0,28426.4
0,2.0,8.0,3.0,14912.2
0,2.0,8.0,4.0,30321.5
0,2.0,8.0,5.0,22186.5
0,2.0,8.0,6.0,181929.3
0,2.0,8.0,7.0,56852.9
0,2.0,8.0,9.0,69972.8
0,2.0,8.0,10.0,75803.8
0,2.0,8.0,11.0,50535.9
0,2.0,8.0,12.0,82695.1
0,2.0,8.0,13.0,75803.8
0,2.0,8.0,14.0,75803.8
0,2.0,8.0,15.0,39549.8
0,2.0,8.0,16.0,151607.7
0,2.0,9.0,1.0,101071.8
0,2.0,9.0,3.0,18564.2
0,2.0,9.0,4.0,82695.1
0,2.0,9.0,5.0,60643.1
0,2.0,9.0,6.0,113705.8
0,2.0,9.0,7.0,181929.3
0,2.0,9.0,8.0,90964.6
0,2.0,9.0,10.0,181929.3
0,2.0,9.0,11.0,113705.8
0,2.0,9.0,12.0,129949.5
0,2.0,9.0,13.0,113705.8
0,2.0,9.0,14.0,151607.7
0,2.0,9.0,15.0,56852.9
0,2.0,9.0,16.0,303215.5
0,2.0,10.0,1.0,129949.5
0,2.0,10.0,3.0,41347.5
0,2.0,10.0,4.0,303215.5
0,2.0,10.0,5.0,129949.5
0,2.0,10.0,6.0,227411.6
0,2.0,10.0,7.0,101071.8
0,2.0,10.0,8.0,101071.8
0,2.0,10.0,9.0,181929.3
0,2.0,10.0,11.0,181929.3
0,2.0,10.0,12.0,227411.6
0,2.0,10.0,13.0,113705.8
0,2.0,10.0,14.0,101071.8
0,2.0,10.0,15.0,151607.7
0,2.0,10.0,16.0,454823.3
0,2.0,11.0,1.0,47876.1
0,2.0,11.0,3.0,10829.1
0,2.0,11.0,4.0,101071.8
0,2.0,11.0,5.0,31367.1
0,2.0,11.0,6.0,227411.6
0,2.0,11.0,7.0,60643.1
0,2.0,11.0,8.0,56852.9
0,2.0,11.0,9.0,101071.8
0,2.0,11.0,10.0,129949.5
0,2.0,11.0,12.0,227411.6
0,2.0,11.0,13.0,56852.9
0,2.0,11.0,14.0,53508.6
0,2.0,11.0,15.0,33690.6
0,2.0,11.0,16.0,454823.3
0,2.0,12.0,1.0,129949.5
0,2.0,12.0,3.0,27565.0
0,2.0,12.0,4.0,303215.5
0,2.0,12.0,5.0,69972.8
0,2.0,12.0,6.0,39549.8
0,2.0,12.0,7.0,129949.5
0,2.0,12.0,8.0,129949.5
0,2.0,12.0,9.0,181929.3
0,2.0,12.0,10.0,227411.6
0,2.0,12.0,11.0,129949.5
0,2.0,12.0,13.0,181929.3
0,2.0,12.0,14.0,151607.7
0,2.0,12.0,15.0,56852.9
0,2.0,12.0,16.0,909646.6
0,2.0,13.0,1.0,31367.1
0,2.0,13.0,3.0,7909.9
0,2.0,13.0,4.0,50535.9
0,2.0,13.0,5.0,18564.2
0,2.0,13.0,6.0,909646.6
0,2.0,13.0,7.0,41347.5
0,2.0,13.0,8.0,60643.1
0,2.0,13.0,9.0,151607.7
0,2.0,13.0,10.0,181929.3
0,2.0,13.0,11.0,69972.8
0,2.0,13.0,12.0,227411.6
0,2.0,13.0,14.0,64974.7
0,2.0,13.0,15.0,15160.7
0,2.0,13.0,16.0,303215.5
0,2.0,14.0,1.0,41347.5
0,2.0,14.0,3.0,11969.0
0,2.0,14.0,4.0,113705.8
0,2.0,14.0,5.0,37901.9
0,2.0,14.0,6.0,454823.3
0,2.0,14.0,7.0,69972.8
0,2.0,14.0,8.0,69972.8
0,2.0,14.0,9.0,151607.7
0,2.0,14.0,10.0,181929.3
0,2.0,14.0,11.0,56852.9
0,2.0,14.0,12.0,151607.7
0,2.0,14.0,13.0,64974.7
0,2.0,14.0,15.0,32487.3
0,2.0,14.0,16.0,227411.6
0,2.0,15.0,1.0,12994.9
0,2.0,15.0,3.0,4437.3
0,2.0,15.0,4.0,31367.1
0,2.0,15.0,5.0,8918.1
0,2.0,15.0,6.0,909646.6
0,2.0,15.0,7.0,24585.0
0,2.0,15.0,8.0,32487.3
0,2.0,15.0,9.0,45482.3
0,2.0,15.0,10.0,129949.5
0,2.0,15.0,11.0,25989.9
0,2.0,15.0,12.0,60643.1
0,2.0,15.0,13.0,13377.1
0,2.0,15.0,14.0,25267.9
0,2.0,15.0,16.0,181929.3
0,2.0,16.0,1.0,454823.3
0,2.0,16.0,3.0,101071.8
0,2.0,16.0,4.0,303215.5
0,2.0,16.0,5.0,454823.3
0,2.0,16.0,6.0,909646.6
0,2.0,16.0,7.0,909646.6
0,2.0,16.0,8.0,227411.6
0,2.0,16.0,9.0,909646.6
0,2.0,16.0,10.0,454823.3
0,2.0,16.0,11.0,454823.3
0,2.0,16.0,12.0,454823.3
0,2.0,16.0,13.0,454823.3
0,2.0,16.0,14.0,303215.5
0,2.0,16.0,15.0,181929.3
0,3.0,1.0,2.0,602.4
0,3.0,1.0,4.0,112.7
0,3.0,1.0,5.0,48.5
0,3.0,1.0,6.0,1562.9
0,3.0,1.0,7.0,134.7
0,3.0,1.0,8.0,169.7
0,3.0,1.0,9.0,386.4
0,3.0,1.0,10.0,948.5
0,3.0,1.0,11.0,110.1
0,3.0,1.0,12.0,497.0
0,3.0,1.0,13.0,94.9
0,3.0,1.0,14.0,117.1
0,3.0,1.0,15.0,43.6
0,3.0,1.0,16.0,1450.7
0,3.0,2.0,1.0,1010.7
0,3.0,2.0,4.0,1726.0
0,3.0,2.0,5.0,732.9
0,3.0,2.0,6.0,7051.5
0,3.0,2.0,7.0,1903.0
0,3.0,2.0,8.0,1919.0
0,3.0,2.0,9.0,3191.7
0,3.0,2.0,10.0,7708.8
0,3.0,2.0,11.0,1713.0
0,3.0,2.0,12.0,4172.6
0,3.0,2.0,13.0,1219.3
0,3.0,2.0,14.0,1977.4
0,3.0,2.0,15.0,746.8
0,3.0,2.0,16.0,9282.1
0,3.0,4.0,1.0,149.0
0,3.0,4.0,2.0,1281.1
0,3.0,4.0,5.0,131.7
0,3.0,4.0,6.0,3406.9
0,3.0,4.0,7.0,336.0
0,3.0,4.0,8.0,329.8
0,3.0,4.0,9.0,706.2
0,3.0,4.0,10.0,1756.0
0,3.0,4.0,11.0,293.6
0,3.0,4.0,12.0,1030.1
0,3.0,4.0,13.0,215.6
0,3.0,4.0,14.0,283.2
0,3.0,4.0,15.0,138.5
0,3.0,4.0,16.0,3272.1
0,3.0,5.0,1.0,41.2
0,3.0,5.0,2.0,384.6
0,3.0,5.0,4.0,87.5
0,3.0,5.0,6.0,1209.6
0,3.0,5.0,7.0,71.0
0,3.0,5.0,8.0,95.5
0,3.0,5.0,9.0,254.5
0,3.0,5.0,10.0,705.6
0,3.0,5.0,11.0,64.9
0,3.0,5.0,12.0,360.6
0,3.0,5.0,13.0,58.1
0,3.0,5.0,14.0,79.3
0,3.0,5.0,15.0,21.6
0,3.0,5.0,16.0,1077.7
0,3.0,6.0,1.0,3539.4
0,3.0,6.0,2.0,8663.3
0,3.0,6.0,4.0,5382.5
0,3.0,6.0,5.0,2667.5
0,3.0,6.0,7.0,4737.7
0,3.0,6.0,8.0,6146.2
0,3.0,6.0,9.0,5685.2
0,3.0,6.0,10.0,10701.7
0,3.0,6.0,11.0,4415.7
0,3.0,6.0,12.0,7219.4
0,3.0,6.0,13.0,4459.0
0,3.0,6.0,14.0,6105.0
0,3.0,6.0,15.0,1681.4
0,3.0,6.0,16.0,12811.9
0,3.0,7.0,1.0,183.2
0,3.0,7.0,2.0,1483.9
0,3.0,7.0,4.0,325.8
0,3.0,7.0,5.0,115.6
0,3.0,7.0,6.0,3083.5
0,3.0,7.0,8.0,262.8
0,3.0,7.0,9.0,700.8
0,3.0,7.0,10.0,1681.4
0,3.0,7.0,11.0,229.5
0,3.0,7.0,12.0,898.8
0,3.0,7.0,13.0,210.9
0,3.0,7.0,14.0,233.3
0,3.0,7.0,15.0,96.5
0,3.0,7.0,16.0,2824.9
0,3.0,8.0,1.0,230.7
0,3.0,8.0,2.0,1513.5
0,3.0,8.0,4.0,349.4
0,3.0,8.0,5.0,151.3
0,3.0,8.0,6.0,4641.0
0,3.0,8.0,7.0,322.2
0,3.0,8.0,9.0,963.6
0,3.0,8.0,10.0,2878.6
0,3.0,8.0,11.0,328.5
0,3.0,8.0,12.0,1244.3
0,3.0,8.0,13.0,246.9
0,3.0,8.0,14.0,408.8
0,3.0,8.0,15.0,145.0
0,3.0,8.0,16.0,4007.2
0,3.0,9.0,1.0,649.7
0,3.0,9.0,2.0,3002.1
0,3.0,9.0,4.0,1080.3
0,3.0,9.0,5.0,481.5
0,3.0,9.0,6.0,5615.1
0,3.0,9.0,7.0,897.0
0,3.0,9.0,8.0,1208.0
0,3.0,9.0,10.0,2869.5
0,3.0,9.0,11.0,738.3
0,3.0,9.0,12.0,2406.4
0,3.0,9.0,13.0,684.9
0,3.0,9.0,14.0,973.9
0,3.0,9.0,15.0,452.7
0,3.0,9.0,16.0,6105.0
0,3.0,10.0,1.0,1598.6
0,3.0,10.0,2.0,7580.3
0,3.0,10.0,4.0,2652.0
0,3.0,10.0,5.0,1388.7
0,3.0,10.0,6.0,10107.1
0,3.0,10.0,7.0,2218.6
0,3.0,10.0,8.0,3344.2
0,3.0,10.0,9.0,4481.0
0,3.0,10.0,11.0,1981.8
0,3.0,10.0,12.0,5414.5
0,3.0,10.0,13.0,1826.5
0,3.0,10.0,14.0,2368.8
0,3.0,10.0,15.0,1157.3
0,3.0,10.0,16.0,9996.1
0,3.0,11.0,1.0,137.7
0,3.0,11.0,2.0,1144.2
0,3.0,11.0,4.0,270.1
0,3.0,11.0,5.0,103.9
0,3.0,11.0,6.0,3032.1
0,3.0,11.0,7.0,207.6
0,3.0,11.0,8.0,261.9
0,3.0,11.0,9.0,568.1
0,3.0,11.0,10.0,1491.2
0,3.0,11.0,12.0,639.6
0,3.0,11.0,13.0,156.8
0,3.0,11.0,14.0,196.0
0,3.0,11.0,15.0,84.2
0,3.0,11.0,16.0,2576.9
0,3.0,12.0,1.0,767.6
0,3.0,12.0,2.0,3512.1
0,3.0,12.0,4.0,1181.3
0,3.0,12.0,5.0,670.3
0,3.0,12.0,6.0,5757.2
0,3.0,12.0,7.0,1062.6
0,3.0,12.0,8.0,1432.5
0,3.0,12.0,9.0,2067.3
0,3.0,12.0,10.0,4864.4
0,3.0,12.0,11.0,818.0
0,3.0,12.0,13.0,809.2
0,3.0,12.0,14.0,1160.2
0,3.0,12.0,15.0,504.2
0,3.0,12.0,16.0,5649.9
0,3.0,13.0,1.0,112.9
0,3.0,13.0,2.0,810.7
0,3.0,13.0,4.0,194.6
0,3.0,13.0,5.0,79.0
0,3.0,13.0,6.0,2621.4
0,3.0,13.0,7.0,188.2
0,3.0,13.0,8.0,205.5
0,3.0,13.0,9.0,510.7
0,3.0,13.0,10.0,1246.0
0,3.0,13.0,11.0,151.8
0,3.0,13.0,12.0,654.8
0,3.0,13.0,14.0,178.6
0,3.0,13.0,15.0,64.6
0,3.0,13.0,16.0,2145.3
0,3.0,14.0,1.0,155.7
0,3.0,14.0,2.0,1390.8
0,3.0,14.0,4.0,255.0
0,3.0,14.0,5.0,122.6
0,3.0,14.0,6.0,3512.1
0,3.0,14.0,7.0,270.8
0,3.0,14.0,8.0,365.3
0,3.0,14.0,9.0,607.2
0,3.0,14.0,10.0,1443.8
0,3.0,14.0,11.0,191.7
0,3.0,14.0,12.0,863.8
0,3.0,14.0,13.0,177.7
0,3.0,14.0,15.0,91.6
0,3.0,14.0,16.0,2982.4
0,3.0,15.0,1.0,30.9
0,3.0,15.0,2.0,392.7
0,3.0,15.0,4.0,83.2
0,3.0,15.0,5.0,18.5
0,3.0,15.0,6.0,789.6
0,3.0,15.0,7.0,55.6
0,3.0,15.0,8.0,86.2
0,3.0,15.0,9.0,235.9
0,3.0,15.0,10.0,544.6
0,3.0,15.0,11.0,47.7
0,3.0,15.0,12.0,277.0
0,3.0,15.0,13.0,42.3
0,3.0,15.0,14.0,55.6
0,3.0,15.0,16.0,793.7
0,3.0,16.0,1.0,3191.7
0,3.0,16.0,2.0,9677.0
0,3.0,16.0,4.0,5414.5
0,3.0,16.0,5.0,2314.6
0,3.0,16.0,6.0,12128.6
0,3.0,16.0,7.0,4688.9
0,3.0,16.0,8.0,5906.7
0,3.0,16.0,9.0,7517.7
0,3.0,16.0,10.0,10701.7
0,3.0,16.0,11.0,4172.6
0,3.0,16.0,12.0,7841.7
0,3.0,16.0,13.0,3697.7
0,3.0,16.0,14.0,4864.4
0,3.0,16.0,15.0,1773.1
0,4.0,1.0,2.0,16243.6
0,4.0,1.0,3.0,705.6
0,4.0,1.0,5.0,2972.7
0,4.0,1.0,6.0,129949.5
0,4.0,1.0,7.0,5906.7
0,4.0,1.0,8.0,7708.8
0,4.0,1.0,9.0,10220.7
0,4.0,1.0,10.0,90964.6
0,4.0,1.0,11.0,5197.9
0,4.0,1.0,12.0,23938.0
0,4.0,1.0,13.0,4024.9
0,4.0,1.0,14.0,5446.9
0,4.0,1.0,15.0,2816.2
0,4.0,1.0,16.0,181929.3
0,4.0,2.0,1.0,16539.0
0,4.0,2.0,3.0,9377.8
0,4.0,2.0,5.0,26754.3
0,4.0,2.0,6.0,69972.8
0,4.0,2.0,7.0,37901.9
0,4.0,2.0,8.0,25989.9
0,4.0,2.0,9.0,64974.7
0,4.0,2.0,10.0,227411.6
0,4.0,2.0,11.0,113705.8
0,4.0,2.0,12.0,113705.8
0,4.0,2.0,13.0,60643.1
0,4.0,2.0,14.0,113705.8
0,4.0,2.0,15.0,41347.5
0,4.0,2.0,16.0,303215.5
0,4.0,3.0,1.0,535.7
0,4.0,3.0,2.0,4311.1
0,4.0,3.0,5.0,484.3
0,4.0,3.0,6.0,16539.0
0,4.0,3.0,7.0,996.3
0,4.0,3.0,8.0,1286.6
0,4.0,3.0,9.0,2562.3
0,4.0,3.0,10.0,8581.5
0,4.0,3.0,11.0,839.9
0,4.0,3.0,12.0,3094.0
0,4.0,3.0,13.0,719.6
0,4.0,3.0,14.0,1099.9
0,4.0,3.0,15.0,564.2
0,4.0,3.0,16.0,14671.7
0,4.0,5.0,1.0,3012.0
0,4.0,5.0,2.0,25989.9
0,4.0,5.0,3.0,736.5
0,4.0,5.0,6.0,113705.8
0,4.0,5.0,7.0,6024.1
0,4.0,5.0,8.0,6997.2
0,4.0,5.0,9.0,17836.2
0,4.0,5.0,10.0,129949.5
0,4.0,5.0,11.0,6451.3
0,4.0,5.0,12.0,45482.3
0,4.0,5.0,13.0,4007.2
0,4.0,5.0,14.0,6230.4
0,4.0,5.0,15.0,2338.4
0,4.0,5.0,16.0,90964.6
0,4.0,6.0,1.0,53508.6
0,4.0,6.0,2.0,101071.8
0,4.0,6.0,3.0,30321.5
0,4.0,6.0,5.0,129949.5
0,4.0,6.0,7.0,181929.3
0,4.0,6.0,8.0,151607.7
0,4.0,6.0,9.0,303215.5
0,4.0,6.0,10.0,113705.8
0,4.0,6.0,11.0,303215.5
0,4.0,6.0,12.0,909646.6
0,4.0,6.0,13.0,454823.3
0,4.0,6.0,14.0,454823.3
0,4.0,6.0,15.0,227411.6
0,4.0,6.0,16.0,909646.6
0,4.0,7.0,1.0,10220.7
0,4.0,7.0,2.0,60643.1
0,4.0,7.0,3.0,1899.0
0,4.0,7.0,5.0,7335.8
0,4.0,7.0,6.0,181929.3
0,4.0,7.0,8.0,15160.7
0,4.0,7.0,9.0,56852.9
0,4.0,7.0,10.0,227411.6
0,4.0,7.0,11.0,15417.7
0,4.0,7.0,12.0,101071.8
0,4.0,7.0,13.0,9677.0
0,4.0,7.0,14.0,14671.7
0,4.0,7.0,15.0,1749.3
0,4.0,7.0,16.0,303215.5
0,4.0,8.0,1.0,12128.6
0,4.0,8.0,2.0,32487.3
0,4.0,8.0,3.0,2569.6
0,4.0,8.0,5.0,7456.1
0,4.0,8.0,6.0,129949.5
0,4.0,8.0,7.0,16845.3
0,4.0,8.0,9.0,60643.1
0,4.0,8.0,10.0,227411.6
0,4.0,8.0,11.0,15160.7
0,4.0,8.0,12.0,31367.1
0,4.0,8.0,13.0,11093.2
0,4.0,8.0,14.0,17163.1
0,4.0,8.0,15.0,8121.8
0,4.0,8.0,16.0,303215.5
0,4.0,9.0,1.0,15683.5
0,4.0,9.0,2.0,90964.6
0,4.0,9.0,3.0,6361.1
0,4.0,9.0,5.0,25989.9
0,4.0,9.0,6.0,303215.5
0,4.0,9.0,7.0,50535.9
0,4.0,9.0,8.0,75803.8
0,4.0,9.0,10.0,181929.3
0,4.0,9.0,11.0,64974.7
0,4.0,9.0,12.0,151607.7
0,4.0,9.0,13.0,53508.6
0,4.0,9.0,14.0,75803.8
0,4.0,9.0,15.0,27565.0
0,4.0,9.0,16.0,303215.5
0,4.0,10.0,1.0,101071.8
0,4.0,10.0,2.0,151607.7
0,4.0,10.0,3.0,19774.9
0,4.0,10.0,5.0,129949.5
0,4.0,10.0,6.0,181929.3
0,4.0,10.0,7.0,227411.6
0,4.0,10.0,8.0,151607.7
0,4.0,10.0,9.0,151607.7
0,4.0,10.0,11.0,37901.9
0,4.0,10.0,12.0,909646.6
0,4.0,10.0,13.0,82695.1
0,4.0,10.0,14.0,113705.8
0,4.0,10.0,15.0,113705.8
0,4.0,10.0,16.0,454823.3
0,4.0,11.0,1.0,7277.1
0,4.0,11.0,2.0,101071.8
0,4.0,11.0,3.0,2003.6
0,4.0,11.0,5.0,8831.5
0,4.0,11.0,6.0,454823.3
0,4.0,11.0,7.0,15160.7
0,4.0,11.0,8.0,14213.2
0,4.0,11.0,9.0,56852.9
0,4.0,11.0,10.0,101071.8
0,4.0,11.0,12.0,82695.1
0,4.0,11.0,13.0,9282.1
0,4.0,11.0,14.0,16845.3
0,4.0,11.0,15.0,6839.4
0,4.0,11.0,16.0,227411.6
0,4.0,12.0,1.0,41347.5
0,4.0,12.0,2.0,227411.6
0,4.0,12.0,3.0,8831.5
0,4.0,12.0,5.0,60643.1
0,4.0,12.0,6.0,909646.6
0,4.0,12.0,7.0,69972.8
0,4.0,12.0,8.0,33690.6
0,4.0,12.0,9.0,82695.1
0,4.0,12.0,10.0,303215.5
0,4.0,12.0,11.0,82695.1
0,4.0,12.0,13.0,69972.8
0,4.0,12.0,14.0,53508.6
0,4.0,12.0,15.0,45482.3
0,4.0,12.0,16.0,303215.5
0,4.0,13.0,1.0,5053.5
0,4.0,13.0,2.0,56852.9
0,4.0,13.0,3.0,1320.2
0,4.0,13.0,5.0,4525.6
0,4.0,13.0,6.0,454823.3
0,4.0,13.0,7.0,9282.1
0,4.0,13.0,8.0,10336.8
0,4.0,13.0,9.0,20214.3
0,4.0,13.0,10.0,181929.3
0,4.0,13.0,11.0,8345.3
0,4.0,13.0,12.0,75803.8
0,4.0,13.0,14.0,7162.5
0,4.0,13.0,15.0,3202.9
0,4.0,13.0,16.0,181929.3
0,4.0,14.0,1.0,5757.2
0,4.0,14.0,2.0,90964.6
0,4.0,14.0,3.0,1576.5
0,4.0,14.0,5.0,6544.2
0,4.0,14.0,6.0,909646.6
0,4.0,14.0,7.0,11969.0
0,4.0,14.0,8.0,14671.7
0,4.0,14.0,9.0,60643.1
0,4.0,14.0,10.0,113705.8
0,4.0,14.0,11.0,10336.8
0,4.0,14.0,12.0,64974.7
0,4.0,14.0,13.0,6591.6
0,4.0,14.0,15.0,5350.8
0,4.0,14.0,16.0,151607.7
0,4.0,15.0,1.0,3158.4
0,4.0,15.0,2.0,31367.1
0,4.0,15.0,3.0,759.3
0,4.0,15.0,5.0,2350.5
0,4.0,15.0,6.0,181929.3
0,4.0,15.0,7.0,5831.0
0,4.0,15.0,8.0,7580.3
0,4.0,15.0,9.0,13576.8
0,4.0,15.0,10.0,82695.1
0,4.0,15.0,11.0,5479.7
0,4.0,15.0,12.0,23324.2
0,4.0,15.0,13.0,3002.1
0,4.0,15.0,14.0,5513.0
0,4.0,15.0,16.0,101071.8
0,4.0,16.0,1.0,181929.3
0,4.0,16.0,2.0,303215.5
0,4.0,16.0,3.0,31367.1
0,4.0,16.0,5.0,101071.8
0,4.0,16.0,6.0,909646.6
0,4.0,16.0,7.0,909646.6
0,4.0,16.0,8.0,303215.5
0,4.0,16.0,9.0,227411.6
0,4.0,16.0,10.0,454823.3
0,4.0,16.0,11.0,454823.3
0,4.0,16.0,12.0,454823.3
0,4.0,16.0,13.0,181929.3
0,4.0,16.0,14.0,227411.6
0,4.0,16.0,15.0,113705.8
0,5.0,1.0,2.0,9188.3
0,5.0,1.0,3.0,282.4
0,5.0,1.0,4.0,2062.6
0,5.0,1.0,6.0,28426.4
0,5.0,1.0,7.0,2145.3
0,5.0,1.0,8.0,2798.9
0,5.0,1.0,9.0,6738.1
0,5.0,1.0,10.0,30321.5
0,5.0,1.0,11.0,2086.3
0,5.0,1.0,12.0,9887.4
0,5.0,1.0,13.0,1681.4
0,5.0,1.0,14.0,2598.9
0,5.0,1.0,15.0,721.3
0,5.0,1.0,16.0,29343.4
0,5.0,2.0,1.0,10220.7
0,5.0,2.0,3.0,3104.5
0,5.0,2.0,4.0,21658.2
0,5.0,2.0,6.0,56852.9
0,5.0,2.0,7.0,20214.3
0,5.0,2.0,8.0,17836.2
0,5.0,2.0,9.0,33690.6
0,5.0,2.0,10.0,90964.6
0,5.0,2.0,11.0,21154.5
0,5.0,2.0,12.0,69972.8
0,5.0,2.0,13.0,14438.8
0,5.0,2.0,14.0,25989.9
0,5.0,2.0,15.0,8663.3
0,5.0,2.0,16.0,151607.7
0,5.0,3.0,1.0,156.2
0,5.0,3.0,2.0,1102.6
0,5.0,3.0,4.0,265.5
0,5.0,3.0,6.0,4525.6
0,5.0,3.0,7.0,256.1
0,5.0,3.0,8.0,278.6
0,5.0,3.0,9.0,714.0
0,5.0,3.0,10.0,2591.5
0,5.0,3.0,11.0,261.2
0,5.0,3.0,12.0,1105.2
0,5.0,3.0,13.0,189.0
0,5.0,3.0,14.0,325.3
0,5.0,3.0,15.0,88.9
0,5.0,3.0,16.0,3512.1
0,5.0,4.0,1.0,2375.0
0,5.0,4.0,2.0,19354.1
0,5.0,4.0,3.0,576.4
0,5.0,4.0,6.0,90964.6
0,5.0,4.0,7.0,3609.7
0,5.0,4.0,8.0,4812.9
0,5.0,4.0,9.0,12128.6
0,5.0,4.0,10.0,56852.9
0,5.0,4.0,11.0,5110.3
0,5.0,4.0,12.0,18564.2
0,5.0,4.0,13.0,3094.0
0,5.0,4.0,14.0,5288.6
0,5.0,4.0,15.0,1653.9
0,5.0,4.0,16.0,50535.9
0,5.0,6.0,1.0,64974.7
0,5.0,6.0,2.0,129949.5
0,5.0,6.0,3.0,11969.0
0,5.0,6.0,4.0,53508.6
0,5.0,6.0,7.0,82695.1
0,5.0,6.0,8.0,90964.6
0,5.0,6.0,9.0,113705.8
0,5.0,6.0,10.0,227411.6
0,5.0,6.0,11.0,151607.7
0,5.0,6.0,12.0,227411.6
0,5.0,6.0,13.0,90964.6
0,5.0,6.0,14.0,113705.8
0,5.0,6.0,15.0,39549.8
0,5.0,6.0,16.0,454823.3
0,5.0,7.0,1.0,2659.7
0,5.0,7.0,2.0,23324.2
0,5.0,7.0,3.0,542.4
0,5.0,7.0,4.0,3743.4
0,5.0,7.0,6.0,82695.1
0,5.0,7.0,8.0,3870.8
0,5.0,7.0,9.0,10107.1
0,5.0,7.0,10.0,39549.8
0,5.0,7.0,11.0,3838.1
0,5.0,7.0,12.0,14671.7
0,5.0,7.0,13.0,2824.9
0,5.0,7.0,14.0,4762.5
0,5.0,7.0,15.0,1355.6
0,5.0,7.0,16.0,53508.6
0,5.0,8.0,1.0,3169.5
0,5.0,8.0,2.0,14671.7
0,5.0,8.0,3.0,618.8
0,5.0,8.0,4.0,4394.4
0,5.0,8.0,6.0,69972.8
0,5.0,8.0,7.0,3822.0
0,5.0,8.0,9.0,9996.1
0,5.0,8.0,10.0,39549.8
0,5.0,8.0,11.0,3870.8
0,5.0,8.0,12.0,20673.7
0,5.0,8.0,13.0,2584.2
0,5.0,8.0,14.0,5984.5
0,5.0,8.0,15.0,1536.5
0,5.0,8.0,16.0,37901.9
0,5.0,9.0,1.0,9887.4
0,5.0,9.0,2.0,39549.8
0,5.0,9.0,3.0,1797.7
0,5.0,9.0,4.0,5831.0
0,5.0,9.0,6.0,8501.3
0,5.0,9.0,7.0,11969.0
0,5.0,9.0,8.0,13377.1
0,5.0,9.0,10.0,82695.1
0,5.0,9.0,11.0,13994.5
0,5.0,9.0,12.0,39549.8
0,5.0,9.0,13.0,11230.2
0,5.0,9.0,14.0,12128.6
0,5.0,9.0,15.0,6230.4
0,5.0,9.0,16.0,113705.8
0,5.0,10.0,1.0,47876.1
0,5.0,10.0,2.0,113705.8
0,5.0,10.0,3.0,7277.1
0,5.0,10.0,4.0,64974.7
0,5.0,10.0,6.0,113705.8
0,5.0,10.0,7.0,43316.5
0,5.0,10.0,8.0,47876.1
0,5.0,10.0,9.0,90964.6
0,5.0,10.0,11.0,43316.5
0,5.0,10.0,12.0,101071.8
0,5.0,10.0,13.0,47876.1
0,5.0,10.0,14.0,43316.5
0,5.0,10.0,15.0,14438.8
0,5.0,10.0,16.0,181929.3
0,5.0,11.0,1.0,2723.4
0,5.0,11.0,2.0,19774.9
0,5.0,11.0,3.0,593.3
0,5.0,11.0,4.0,4459.0
0,5.0,11.0,6.0,129949.5
0,5.0,11.0,7.0,4024.9
0,5.0,11.0,8.0,4060.9
0,5.0,11.0,9.0,11230.2
0,5.0,11.0,10.0,36385.8
0,5.0,11.0,12.0,12633.9
0,5.0,11.0,13.0,2953.3
0,5.0,11.0,14.0,3870.8
0,5.0,11.0,15.0,1343.6
0,5.0,11.0,16.0,43316.5
0,5.0,12.0,1.0,13994.5
0,5.0,12.0,2.0,69972.8
0,5.0,12.0,3.0,3136.7
0,5.0,12.0,4.0,23324.2
0,5.0,12.0,6.0,181929.3
0,5.0,12.0,7.0,19774.9
0,5.0,12.0,8.0,27565.0
0,5.0,12.0,9.0,50535.9
0,5.0,12.0,10.0,151607.7
0,5.0,12.0,11.0,18564.2
0,5.0,12.0,13.0,15160.7
0,5.0,12.0,14.0,21658.2
0,5.0,12.0,15.0,6230.4
0,5.0,12.0,16.0,303215.5
0,5.0,13.0,1.0,1690.7
0,5.0,13.0,2.0,10107.1
0,5.0,13.0,3.0,383.8
0,5.0,13.0,4.0,2432.2
0,5.0,13.0,6.0,39549.8
0,5.0,13.0,7.0,2419.2
0,5.0,13.0,8.0,2268.4
0,5.0,13.0,9.0,6997.2
0,5.0,13.0,10.0,28426.4
0,5.0,13.0,11.0,2667.5
0,5.0,13.0,12.0,8746.6
0,5.0,13.0,14.0,3083.5
0,5.0,13.0,15.0,748.0
0,5.0,13.0,16.0,24585.0
0,5.0,14.0,1.0,3158.4
0,5.0,14.0,2.0,19774.9
0,5.0,14.0,3.0,715.6
0,5.0,14.0,4.0,5139.2
0,5.0,14.0,6.0,101071.8
0,5.0,14.0,7.0,5168.4
0,5.0,14.0,8.0,5110.3
0,5.0,14.0,9.0,11230.2
0,5.0,14.0,10.0,47876.1
0,5.0,14.0,11.0,3697.7
0,5.0,14.0,12.0,15160.7
0,5.0,14.0,13.0,3295.8
0,5.0,14.0,15.0,1547.0
0,5.0,14.0,16.0,36385.8
0,5.0,15.0,1.0,572.4
0,5.0,15.0,2.0,5615.1
0,5.0,15.0,3.0,135.9
0,5.0,15.0,4.0,1107.9
0,5.0,15.0,6.0,20214.3
0,5.0,15.0,7.0,962.5
0,5.0,15.0,8.0,1058.9
0,5.0,15.0,9.0,3512.1
0,5.0,15.0,10.0,9575.2
0,5.0,15.0,11.0,886.5
0,5.0,15.0,12.0,4548.2
0,5.0,15.0,13.0,602.0
0,5.0,15.0,14.0,1187.5
0,5.0,15.0,16.0,10829.1
0,5.0,16.0,1.0,43316.5
0,5.0,16.0,2.0,151607.7
0,5.0,16.0,3.0,8663.3
0,5.0,16.0,4.0,64974.7
0,5.0,16.0,6.0,0.0
0,5.0,16.0,7.0,56852.9
0,5.0,16.0,8.0,64974.7
0,5.0,16.0,9.0,101071.8
0,5.0,16.0,10.0,227411.6
0,5.0,16.0,11.0,53508.6
0,5.0,16.0,12.0,227411.6
0,5.0,16.0,13.0,41347.5
0,5.0,16.0,14.0,69972.8
0,5.0,16.0,15.0,18950.9
0,6.0,1.0,2.0,101071.8
0,6.0,1.0,3.0,20214.3
0,6.0,1.0,4.0,90964.6
0,6.0,1.0,5.0,75803.8
0,6.0,1.0,7.0,90964.6
0,6.0,1.0,8.0,29343.4
0,6.0,1.0,9.0,75803.8
0,6.0,1.0,10.0,129949.5
0,6.0,1.0,11.0,129949.5
0,6.0,1.0,12.0,303215.5
0,6.0,1.0,13.0,101071.8
0,6.0,1.0,14.0,129949.5
0,6.0,1.0,15.0,56852.9
0,6.0,1.0,16.0,0.0
0,6.0,2.0,1.0,90964.6
0,6.0,2.0,3.0,43316.5
0,6.0,2.0,4.0,50535.9
0,6.0,2.0,5.0,90964.6
0,6.0,2.0,7.0,75803.8
0,6.0,2.0,8.0,60643.1
0,6.0,2.0,9.0,69972.8
0,6.0,2.0,10.0,454823.3
0,6.0,2.0,11.0,151607.7
0,6.0,2.0,12.0,34986.4
0,6.0,2.0,13.0,227411.6
0,6.0,2.0,14.0,303215.5
0,6.0,2.0,15.0,454823.3
0,6.0,2.0,16.0,0.0
0,6.0,3.0,1.0,14213.2
0,6.0,3.0,2.0,50535.9
0,6.0,3.0,4.0,23938.0
0,6.0,3.0,5.0,14213.2
0,6.0,3.0,7.0,24585.0
0,6.0,3.0,8.0,29343.4
0,6.0,3.0,9.0,43316.5
0,6.0,3.0,10.0,69972.8
0,6.0,3.0,11.0,25989.9
0,6.0,3.0,12.0,33690.6
0,6.0,3.0,13.0,19354.1
0,6.0,3.0,14.0,25267.9
0,6.0,3.0,15.0,11093.2
0,6.0,3.0,16.0,82695.1
0,6.0,4.0,1.0,50535.9
0,6.0,4.0,2.0,129949.5
0,6.0,4.0,3.0,33690.6
0,6.0,4.0,5.0,45482.3
0,6.0,4.0,7.0,151607.7
0,6.0,4.0,8.0,151607.7
0,6.0,4.0,9.0,303215.5
0,6.0,4.0,10.0,151607.7
0,6.0,4.0,11.0,181929.3
0,6.0,4.0,12.0,454823.3
0,6.0,4.0,13.0,227411.6
0,6.0,4.0,14.0,303215.5
0,6.0,4.0,15.0,303215.5
0,6.0,4.0,16.0,0.0
0,6.0,5.0,1.0,82695.1
0,6.0,5.0,2.0,303215.5
0,6.0,5.0,3.0,21658.2
0,6.0,5.0,4.0,227411.6
0,6.0,5.0,7.0,113705.8
0,6.0,5.0,8.0,181929.3
0,6.0,5.0,9.0,303215.5
0,6.0,5.0,10.0,454823.3
0,6.0,5.0,11.0,181929.3
0,6.0,5.0,12.0,454823.3
0,6.0,5.0,13.0,90964.6
0,6.0,5.0,14.0,113705.8
0,6.0,5.0,15.0,60643.1
0,6.0,5.0,16.0,0.0
0,6.0,7.0,1.0,129949.5
0,6.0,7.0,2.0,454823.3
0,6.0,7.0,3.0,33690.6
0,6.0,7.0,4.0,113705.8
0,6.0,7.0,5.0,129949.5
0,6.0,7.0,8.0,75803.8
0,6.0,7.0,9.0,0.0
0,6.0,7.0,10.0,303215.5
0,6.0,7.0,11.0,303215.5
0,6.0,7.0,12.0,454823.3
0,6.0,7.0,13.0,151607.7
0,6.0,7.0,14.0,303215.5
0,6.0,7.0,15.0,181929.3
0,6.0,7.0,16.0,454823.3
0,6.0,8.0,1.0,64974.7
0,6.0,8.0,2.0,129949.5
0,6.0,8.0,3.0,22741.1
0,6.0,8.0,4.0,129949.5
0,6.0,8.0,5.0,113705.8
0,6.0,8.0,7.0,90964.6
0,6.0,8.0,9.0,101071.8
0,6.0,8.0,10.0,33690.6
0,6.0,8.0,11.0,181929.3
0,6.0,8.0,12.0,227411.6
0,6.0,8.0,13.0,227411.6
0,6.0,8.0,14.0,75803.8
0,6.0,8.0,15.0,56852.9
0,6.0,8.0,16.0,181929.3
0,6.0,9.0,1.0,227411.6
0,6.0,9.0,2.0,129949.5
0,6.0,9.0,3.0,41347.5
0,6.0,9.0,4.0,151607.7
0,6.0,9.0,5.0,227411.6
0,6.0,9.0,7.0,227411.6
0,6.0,9.0,8.0,90964.6
0,6.0,9.0,10.0,129949.5
0,6.0,9.0,11.0,227411.6
0,6.0,9.0,12.0,454823.3
0,6.0,9.0,13.0,303215.5
0,6.0,9.0,14.0,303215.5
0,6.0,9.0,15.0,303215.5
0,6.0,9.0,16.0,0.0
0,6.0,10.0,1.0,181929.3
0,6.0,10.0,2.0,303215.5
0,6.0,10.0,3.0,90964.6
0,6.0,10.0,4.0,181929.3
0,6.0,10.0,5.0,454823.3
0,6.0,10.0,7.0,181929.3
0,6.0,10.0,8.0,69972.8
0,6.0,10.0,9.0,151607.7
0,6.0,10.0,11.0,454823.3
0,6.0,10.0,12.0,227411.6
0,6.0,10.0,13.0,303215.5
0,6.0,10.0,14.0,303215.5
0,6.0,10.0,15.0,909646.6
0,6.0,10.0,16.0,909646.6
0,6.0,11.0,1.0,151607.7
0,6.0,11.0,2.0,227411.6
0,6.0,11.0,3.0,32487.3
0,6.0,11.0,4.0,227411.6
0,6.0,11.0,5.0,151607.7
0,6.0,11.0,7.0,151607.7
0,6.0,11.0,8.0,181929.3
0,6.0,11.0,9.0,454823.3
0,6.0,11.0,10.0,909646.6
0,6.0,11.0,12.0,227411.6
0,6.0,11.0,13.0,151607.7
0,6.0,11.0,14.0,113705.8
0,6.0,11.0,15.0,90964.6
0,6.0,11.0,16.0,0.0
0,6.0,12.0,1.0,227411.6
0,6.0,12.0,2.0,39549.8
0,6.0,12.0,3.0,50535.9
0,6.0,12.0,4.0,227411.6
0,6.0,12.0,5.0,303215.5
0,6.0,12.0,7.0,227411.6
0,6.0,12.0,8.0,151607.7
0,6.0,12.0,9.0,129949.5
0,6.0,12.0,10.0,909646.6
0,6.0,12.0,11.0,227411.6
0,6.0,12.0,13.0,454823.3
0,6.0,12.0,14.0,227411.6
0,6.0,12.0,15.0,454823.3
0,6.0,12.0,16.0,0.0
0,6.0,13.0,1.0,113705.8
0,6.0,13.0,2.0,227411.6
0,6.0,13.0,3.0,28426.4
0,6.0,13.0,4.0,454823.3
0,6.0,13.0,5.0,90964.6
0,6.0,13.0,7.0,129949.5
0,6.0,13.0,8.0,454823.3
0,6.0,13.0,9.0,454823.3
0,6.0,13.0,10.0,0.0
0,6.0,13.0,11.0,181929.3
0,6.0,13.0,12.0,909646.6
0,6.0,13.0,14.0,227411.6
0,6.0,13.0,15.0,64974.7
0,6.0,13.0,16.0,909646.6
0,6.0,14.0,1.0,151607.7
0,6.0,14.0,2.0,303215.5
0,6.0,14.0,3.0,41347.5
0,6.0,14.0,4.0,909646.6
0,6.0,14.0,5.0,129949.5
0,6.0,14.0,7.0,227411.6
0,6.0,14.0,8.0,69972.8
0,6.0,14.0,9.0,454823.3
0,6.0,14.0,10.0,454823.3
0,6.0,14.0,11.0,227411.6
0,6.0,14.0,12.0,303215.5
0,6.0,14.0,13.0,303215.5
0,6.0,14.0,15.0,113705.8
0,6.0,14.0,16.0,0.0
0,6.0,15.0,1.0,60643.1
0,6.0,15.0,2.0,454823.3
0,6.0,15.0,3.0,17163.1
0,6.0,15.0,4.0,909646.6
0,6.0,15.0,5.0,56852.9
0,6.0,15.0,7.0,303215.5
0,6.0,15.0,8.0,181929.3
0,6.0,15.0,9.0,303215.5
0,6.0,15.0,10.0,454823.3
0,6.0,15.0,11.0,101071.8
0,6.0,15.0,12.0,909646.6
0,6.0,15.0,13.0,64974.7
0,6.0,15.0,14.0,90964.6
0,6.0,15.0,16.0,909646.6
0,6.0,16.0,1.0,227411.6
0,6.0,16.0,2.0,454823.3
0,6.0,16.0,3.0,101071.8
0,6.0,16.0,4.0,0.0
0,6.0,16.0,5.0,0.0
0,6.0,16.0,7.0,454823.3
0,6.0,16.0,8.0,303215.5
0,6.0,16.0,9.0,909646.6
0,6.0,16.0,10.0,909646.6
0,6.0,16.0,11.0,303215.5
0,6.0,16.0,12.0,0.0
0,6.0,16.0,13.0,909646.6
0,6.0,16.0,14.0,909646.6
0,6.0,16.0,15.0,454823.3
0,7.0,1.0,2.0,31367.1
0,7.0,1.0,3.0,1204.8
0,7.0,1.0,4.0,6997.2
0,7.0,1.0,5.0,4548.2
0,7.0,1.0,6.0,90964.6
0,7.0,1.0,8.0,10220.7
0,7.0,1.0,9.0,19354.1
0,7.0,1.0,10.0,64974.7
0,7.0,1.0,11.0,6839.4
0,7.0,1.0,12.0,25267.9
0,7.0,1.0,13.0,5513.0
0,7.0,1.0,14.0,8663.3
0,7.0,1.0,15.0,3887.3
0,7.0,1.0,16.0,129949.5
0,7.0,2.0,1.0,23938.0
0,7.0,2.0,3.0,11969.0
0,7.0,2.0,4.0,34986.4
0,7.0,2.0,5.0,27565.0
0,7.0,2.0,6.0,60643.1
0,7.0,2.0,8.0,53508.6
0,7.0,2.0,9.0,47876.1
0,7.0,2.0,10.0,90964.6
0,7.0,2.0,11.0,53508.6
0,7.0,2.0,12.0,53508.6
0,7.0,2.0,13.0,41347.5
0,7.0,2.0,14.0,75803.8
0,7.0,2.0,15.0,32487.3
0,7.0,2.0,16.0,227411.6
0,7.0,3.0,1.0,783.5
0,7.0,3.0,2.0,5382.5
0,7.0,3.0,4.0,1154.3
0,7.0,3.0,5.0,512.7
0,7.0,3.0,6.0,13994.5
0,7.0,3.0,8.0,1376.1
0,7.0,3.0,9.0,2326.4
0,7.0,3.0,10.0,8345.3
0,7.0,3.0,11.0,879.7
0,7.0,3.0,12.0,2739.8
0,7.0,3.0,13.0,764.4
0,7.0,3.0,14.0,1129.9
0,7.0,3.0,15.0,442.0
0,7.0,3.0,16.0,11813.5
0,7.0,4.0,1.0,6839.4
0,7.0,4.0,2.0,56852.9
0,7.0,4.0,3.0,1895.0
0,7.0,4.0,5.0,7106.6
0,7.0,4.0,6.0,101071.8
0,7.0,4.0,8.0,13183.2
0,7.0,4.0,9.0,39549.8
0,7.0,4.0,10.0,101071.8
0,7.0,4.0,11.0,12128.6
0,7.0,4.0,12.0,64974.7
0,7.0,4.0,13.0,7456.1
0,7.0,4.0,14.0,14438.8
0,7.0,4.0,15.0,6591.6
0,7.0,4.0,16.0,454823.3
0,7.0,5.0,1.0,3954.9
0,7.0,5.0,2.0,31367.1
0,7.0,5.0,3.0,724.8
0,7.0,5.0,4.0,5580.6
0,7.0,5.0,6.0,69972.8
0,7.0,5.0,8.0,6405.9
0,7.0,5.0,9.0,12811.9
0,7.0,5.0,10.0,56852.9
0,7.0,5.0,11.0,5580.6
0,7.0,5.0,12.0,16539.0
0,7.0,5.0,13.0,4394.4
0,7.0,5.0,14.0,9188.3
0,7.0,5.0,15.0,2115.4
0,7.0,5.0,16.0,75803.8
0,7.0,6.0,1.0,129949.5
0,7.0,6.0,2.0,151607.7
0,7.0,6.0,3.0,27565.0
0,7.0,6.0,4.0,181929.3
0,7.0,6.0,5.0,60643.1
0,7.0,6.0,8.0,101071.8
0,7.0,6.0,9.0,454823.3
0,7.0,6.0,10.0,303215.5
0,7.0,6.0,11.0,909646.6
0,7.0,6.0,12.0,113705.8
0,7.0,6.0,13.0,181929.3
0,7.0,6.0,14.0,227411.6
0,7.0,6.0,15.0,227411.6
0,7.0,6.0,16.0,454823.3
0,7.0,8.0,1.0,11093.2
0,7.0,8.0,2.0,41347.5
0,7.0,8.0,3.0,2076.8
0,7.0,8.0,4.0,13782.5
0,7.0,8.0,5.0,7456.1
0,7.0,8.0,6.0,113705.8
0,7.0,8.0,9.0,23938.0
0,7.0,8.0,10.0,101071.8
0,7.0,8.0,11.0,14213.2
0,7.0,8.0,12.0,60643.1
0,7.0,8.0,13.0,7162.5
0,7.0,8.0,14.0,10336.8
0,7.0,8.0,15.0,5793.9
0,7.0,8.0,16.0,227411.6
0,7.0,9.0,1.0,25267.9
0,7.0,9.0,2.0,101071.8
0,7.0,9.0,3.0,5168.4
0,7.0,9.0,4.0,43316.5
0,7.0,9.0,5.0,15958.7
0,7.0,9.0,6.0,181929.3
0,7.0,9.0,8.0,29343.4
0,7.0,9.0,10.0,82695.1
0,7.0,9.0,11.0,25267.9
0,7.0,9.0,12.0,129949.5
0,7.0,9.0,13.0,23938.0
0,7.0,9.0,14.0,56852.9
0,7.0,9.0,15.0,22186.5
0,7.0,9.0,16.0,303215.5
0,7.0,10.0,1.0,8345.3
0,7.0,10.0,2.0,82695.1
0,7.0,10.0,3.0,18192.9
0,7.0,10.0,4.0,7774.7
0,7.0,10.0,5.0,64974.7
0,7.0,10.0,6.0,181929.3
0,7.0,10.0,8.0,101071.8
0,7.0,10.0,9.0,101071.8
0,7.0,10.0,11.0,75803.8
0,7.0,10.0,12.0,303215.5
0,7.0,10.0,13.0,151607.7
0,7.0,10.0,14.0,129949.5
0,7.0,10.0,15.0,69972.8
0,7.0,10.0,16.0,0.0
0,7.0,11.0,1.0,4153.6
0,7.0,11.0,2.0,50535.9
0,7.0,11.0,3.0,1713.0
0,7.0,11.0,4.0,4762.5
0,7.0,11.0,5.0,7708.8
0,7.0,11.0,6.0,227411.6
0,7.0,11.0,8.0,12292.5
0,7.0,11.0,9.0,23324.2
0,7.0,11.0,10.0,69972.8
0,7.0,11.0,12.0,15958.7
0,7.0,11.0,13.0,9377.8
0,7.0,11.0,14.0,16243.6
0,7.0,11.0,15.0,6064.3
0,7.0,11.0,16.0,303215.5
0,7.0,12.0,1.0,34986.4
0,7.0,12.0,2.0,151607.7
0,7.0,12.0,3.0,4998.0
0,7.0,12.0,4.0,53508.6
0,7.0,12.0,5.0,28426.4
0,7.0,12.0,6.0,454823.3
0,7.0,12.0,8.0,45482.3
0,7.0,12.0,9.0,129949.5
0,7.0,12.0,10.0,113705.8
0,7.0,12.0,11.0,16539.0
0,7.0,12.0,13.0,15683.5
0,7.0,12.0,14.0,50535.9
0,7.0,12.0,15.0,18950.9
0,7.0,12.0,16.0,75803.8
0,7.0,13.0,1.0,6361.1
0,7.0,13.0,2.0,41347.5
0,7.0,13.0,3.0,1457.7
0,7.0,13.0,4.0,7841.7
0,7.0,13.0,5.0,4812.9
0,7.0,13.0,6.0,129949.5
0,7.0,13.0,8.0,8746.6
0,7.0,13.0,9.0,25267.9
0,7.0,13.0,10.0,101071.8
0,7.0,13.0,11.0,7774.7
0,7.0,13.0,12.0,15958.7
0,7.0,13.0,14.0,10701.7
0,7.0,13.0,15.0,3712.8
0,7.0,13.0,16.0,60643.1
0,7.0,14.0,1.0,12633.9
0,7.0,14.0,2.0,90964.6
0,7.0,14.0,3.0,2086.3
0,7.0,14.0,4.0,11662.1
0,7.0,14.0,5.0,9996.1
0,7.0,14.0,6.0,454823.3
0,7.0,14.0,8.0,13994.5
0,7.0,14.0,9.0,50535.9
0,7.0,14.0,10.0,129949.5
0,7.0,14.0,11.0,14912.2
0,7.0,14.0,12.0,41347.5
0,7.0,14.0,13.0,9887.4
0,7.0,14.0,15.0,7644.0
0,7.0,14.0,16.0,454823.3
0,7.0,15.0,1.0,2992.2
0,7.0,15.0,2.0,28426.4
0,7.0,15.0,3.0,602.8
0,7.0,15.0,4.0,5479.7
0,7.0,15.0,5.0,2021.4
0,7.0,15.0,6.0,129949.5
0,7.0,15.0,8.0,4917.0
0,7.0,15.0,9.0,15683.5
0,7.0,15.0,10.0,60643.1
0,7.0,15.0,11.0,4415.7
0,7.0,15.0,12.0,20673.7
0,7.0,15.0,13.0,3248.7
0,7.0,15.0,14.0,5479.7
0,7.0,15.0,16.0,82695.1
0,7.0,16.0,1.0,303215.5
0,7.0,16.0,2.0,303215.5
0,7.0,16.0,3.0,39549.8
0,7.0,16.0,4.0,909646.6
0,7.0,16.0,5.0,129949.5
0,7.0,16.0,6.0,303215.5
0,7.0,16.0,8.0,909646.6
0,7.0,16.0,9.0,909646.6
0,7.0,16.0,10.0,0.0
0,7.0,16.0,11.0,454823.3
0,7.0,16.0,12.0,454823.3
0,7.0,16.0,13.0,181929.3
0,7.0,16.0,14.0,303215.5
0,7.0,16.0,15.0,129949.5
0,8.0,1.0,2.0,25989.9
0,8.0,1.0,3.0,1618.5
0,8.0,1.0,4.0,9377.8
0,8.0,1.0,5.0,5258.0
0,8.0,1.0,6.0,47876.1
0,8.0,1.0,7.0,11093.2
0,8.0,1.0,9.0,18950.9
0,8.0,1.0,10.0,75803.8
0,8.0,1.0,11.0,9677.0
0,8.0,1.0,12.0,43316.5
0,8.0,1.0,13.0,7106.6
0,8.0,1.0,14.0,15160.7
0,8.0,1.0,15.0,5513.0
0,8.0,1.0,16.0,113705.8
0,8.0,2.0,1.0,28426.4
0,8.0,2.0,3.0,13377.1
0,8.0,2.0,4.0,26754.3
0,8.0,2.0,5.0,18564.2
0,8.0,2.0,6.0,47876.1
0,8.0,2.0,7.0,37901.9
0,8.0,2.0,9.0,50535.9
0,8.0,2.0,10.0,101071.8
0,8.0,2.0,11.0,53508.6
0,8.0,2.0,12.0,113705.8
0,8.0,2.0,13.0,113705.8
0,8.0,2.0,14.0,64974.7
0,8.0,2.0,15.0,43316.5
0,8.0,2.0,16.0,129949.5
0,8.0,3.0,1.0,914.2
0,8.0,3.0,2.0,5868.6
0,8.0,3.0,4.0,1421.3
0,8.0,3.0,5.0,589.5
0,8.0,3.0,6.0,20214.3
0,8.0,3.0,7.0,1453.1
0,8.0,3.0,9.0,3581.2
0,8.0,3.0,10.0,11969.0
0,8.0,3.0,11.0,1232.5
0,8.0,3.0,12.0,5139.2
0,8.0,3.0,13.0,955.5
0,8.0,3.0,14.0,1627.2
0,8.0,3.0,15.0,591.8
0,8.0,3.0,16.0,16845.3
0,8.0,4.0,1.0,11813.5
0,8.0,4.0,2.0,26754.3
0,8.0,4.0,3.0,2526.7
0,8.0,4.0,5.0,8269.5
0,8.0,4.0,6.0,113705.8
0,8.0,4.0,7.0,15683.5
0,8.0,4.0,9.0,34986.4
0,8.0,4.0,10.0,129949.5
0,8.0,4.0,11.0,16845.3
0,8.0,4.0,12.0,75803.8
0,8.0,4.0,13.0,10959.5
0,8.0,4.0,14.0,17836.2
0,8.0,4.0,15.0,8345.3
0,8.0,4.0,16.0,227411.6
0,8.0,5.0,1.0,4890.5
0,8.0,5.0,2.0,20673.7
0,8.0,5.0,3.0,885.7
0,8.0,5.0,4.0,6497.4
0,8.0,5.0,6.0,113705.8
0,8.0,5.0,7.0,6943.8
0,8.0,5.0,9.0,16539.0
0,8.0,5.0,10.0,60643.1
0,8.0,5.0,11.0,5793.9
0,8.0,5.0,12.0,33690.6
0,8.0,5.0,13.0,3954.9
0,8.0,5.0,14.0,9282.1
0,8.0,5.0,15.0,2274.1
0,8.0,5.0,16.0,75803.8
0,8.0,6.0,1.0,41347.5
0,8.0,6.0,2.0,82695.1
0,8.0,6.0,3.0,28426.4
0,8.0,6.0,4.0,101071.8
0,8.0,6.0,5.0,82695.1
0,8.0,6.0,7.0,69972.8
0,8.0,6.0,9.0,82695.1
0,8.0,6.0,10.0,60643.1
0,8.0,6.0,11.0,53508.6
0,8.0,6.0,12.0,151607.7
0,8.0,6.0,13.0,151607.7
0,8.0,6.0,14.0,41347.5
0,8.0,6.0,15.0,113705.8
0,8.0,6.0,16.0,151607.7
0,8.0,7.0,1.0,14438.8
0,8.0,7.0,2.0,64974.7
0,8.0,7.0,3.0,2150.4
0,8.0,7.0,4.0,17163.1
0,8.0,7.0,5.0,7774.7
0,8.0,7.0,6.0,129949.5
0,8.0,7.0,9.0,39549.8
0,8.0,7.0,10.0,82695.1
0,8.0,7.0,11.0,17493.2
0,8.0,7.0,12.0,90964.6
0,8.0,7.0,13.0,6788.4
0,8.0,7.0,14.0,13183.2
0,8.0,7.0,15.0,6105.0
0,8.0,7.0,16.0,303215.5
0,8.0,9.0,1.0,30321.5
0,8.0,9.0,2.0,69972.8
0,8.0,9.0,3.0,6361.1
0,8.0,9.0,4.0,64974.7
0,8.0,9.0,5.0,17493.2
0,8.0,9.0,6.0,113705.8
0,8.0,9.0,7.0,32487.3
0,8.0,9.0,10.0,43316.5
0,8.0,9.0,11.0,32487.3
0,8.0,9.0,12.0,69972.8
0,8.0,9.0,13.0,47876.1
0,8.0,9.0,14.0,50535.9
0,8.0,9.0,15.0,23324.2
0,8.0,9.0,16.0,303215.5
0,8.0,10.0,1.0,181929.3
0,8.0,10.0,2.0,129949.5
0,8.0,10.0,3.0,25989.9
0,8.0,10.0,4.0,101071.8
0,8.0,10.0,5.0,69972.8
0,8.0,10.0,6.0,60643.1
0,8.0,10.0,7.0,151607.7
0,8.0,10.0,9.0,47876.1
0,8.0,10.0,11.0,56852.9
0,8.0,10.0,12.0,75803.8
0,8.0,10.0,13.0,60643.1
0,8.0,10.0,14.0,90964.6
0,8.0,10.0,15.0,50535.9
0,8.0,10.0,16.0,0.0
0,8.0,11.0,1.0,10701.7
0,8.0,11.0,2.0,37901.9
0,8.0,11.0,3.0,2291.3
0,8.0,11.0,4.0,15958.7
0,8.0,11.0,5.0,6943.8
0,8.0,11.0,6.0,90964.6
0,8.0,11.0,7.0,20214.3
0,8.0,11.0,9.0,45482.3
0,8.0,11.0,10.0,75803.8
0,8.0,11.0,12.0,34986.4
0,8.0,11.0,13.0,9996.1
0,8.0,11.0,14.0,15683.5
0,8.0,11.0,15.0,6361.1
0,8.0,11.0,16.0,454823.3
0,8.0,12.0,1.0,53508.6
0,8.0,12.0,2.0,64974.7
0,8.0,12.0,3.0,11662.1
0,8.0,12.0,4.0,32487.3
0,8.0,12.0,5.0,34986.4
0,8.0,12.0,6.0,151607.7
0,8.0,12.0,7.0,82695.1
0,8.0,12.0,9.0,75803.8
0,8.0,12.0,10.0,181929.3
0,8.0,12.0,11.0,45482.3
0,8.0,12.0,13.0,37901.9
0,8.0,12.0,14.0,69972.8
0,8.0,12.0,15.0,36385.8
0,8.0,12.0,16.0,101071.8
0,8.0,13.0,1.0,9188.3
0,8.0,13.0,2.0,56852.9
0,8.0,13.0,3.0,1656.9
0,8.0,13.0,4.0,9677.0
0,8.0,13.0,5.0,4172.6
0,8.0,13.0,6.0,129949.5
0,8.0,13.0,7.0,9475.4
0,8.0,13.0,9.0,30321.5
0,8.0,13.0,10.0,90964.6
0,8.0,13.0,11.0,8345.3
0,8.0,13.0,12.0,50535.9
0,8.0,13.0,14.0,13377.1
0,8.0,13.0,15.0,3609.7
0,8.0,13.0,16.0,151607.7
0,8.0,14.0,1.0,18192.9
0,8.0,14.0,2.0,69972.8
0,8.0,14.0,3.0,3052.5
0,8.0,14.0,4.0,19774.9
0,8.0,14.0,5.0,11969.0
0,8.0,14.0,6.0,56852.9
0,8.0,14.0,7.0,19354.1
0,8.0,14.0,9.0,82695.1
0,8.0,14.0,10.0,101071.8
0,8.0,14.0,11.0,17163.1
0,8.0,14.0,12.0,113705.8
0,8.0,14.0,13.0,14671.7
0,8.0,14.0,15.0,9188.3
0,8.0,14.0,16.0,90964.6
0,8.0,15.0,1.0,4917.0
0,8.0,15.0,2.0,28426.4
0,8.0,15.0,3.0,844.6
0,8.0,15.0,4.0,6497.4
0,8.0,15.0,5.0,2062.6
0,8.0,15.0,6.0,129949.5
0,8.0,15.0,7.0,5197.9
0,8.0,15.0,9.0,17163.1
0,8.0,15.0,10.0,43316.5
0,8.0,15.0,11.0,4617.4
0,8.0,15.0,12.0,29343.4
0,8.0,15.0,13.0,3073.1
0,8.0,15.0,14.0,7517.7
0,8.0,15.0,16.0,64974.7
0,8.0,16.0,1.0,303215.5
0,8.0,16.0,2.0,151607.7
0,8.0,16.0,3.0,43316.5
0,8.0,16.0,4.0,227411.6
0,8.0,16.0,5.0,101071.8
0,8.0,16.0,6.0,227411.6
0,8.0,16.0,7.0,151607.7
0,8.0,16.0,9.0,303215.5
0,8.0,16.0,10.0,454823.3
0,8.0,16.0,11.0,454823.3
0,8.0,16.0,12.0,454823.3
0,8.0,16.0,13.0,181929.3
0,8.0,16.0,14.0,181929.3
0,8.0,16.0,15.0,75803.8
0,9.0,1.0,2.0,75803.8
0,9.0,1.0,3.0,4042.8
0,9.0,1.0,4.0,15683.5
0,9.0,1.0,5.0,14912.2
0,9.0,1.0,6.0,90964.6
0,9.0,1.0,7.0,32487.3
0,9.0,1.0,8.0,30321.5
0,9.0,1.0,10.0,181929.3
0,9.0,1.0,11.0,22741.1
0,9.0,1.0,12.0,90964.6
0,9.0,1.0,13.0,27565.0
0,9.0,1.0,14.0,39549.8
0,9.0,1.0,15.0,17163.1
0,9.0,1.0,16.0,909646.6
0,9.0,2.0,1.0,75803.8
0,9.0,2.0,3.0,18192.9
0,9.0,2.0,4.0,69972.8
0,9.0,2.0,5.0,39549.8
0,9.0,2.0,6.0,90964.6
0,9.0,2.0,7.0,75803.8
0,9.0,2.0,8.0,53508.6
0,9.0,2.0,10.0,227411.6
0,9.0,2.0,11.0,64974.7
0,9.0,2.0,12.0,227411.6
0,9.0,2.0,13.0,101071.8
0,9.0,2.0,14.0,113705.8
0,9.0,2.0,15.0,56852.9
0,9.0,2.0,16.0,909646.6
0,9.0,3.0,1.0,2176.1
0,9.0,3.0,2.0,13576.8
0,9.0,3.0,4.0,3525.7
0,9.0,3.0,5.0,2035.0
0,9.0,3.0,6.0,28426.4
0,9.0,3.0,7.0,2842.6
0,9.0,3.0,8.0,4617.4
0,9.0,3.0,10.0,17836.2
0,9.0,3.0,11.0,2924.9
0,9.0,3.0,12.0,8831.5
0,9.0,3.0,13.0,1819.2
0,9.0,3.0,14.0,3838.1
0,9.0,3.0,15.0,1735.9
0,9.0,3.0,16.0,29343.4
0,9.0,4.0,1.0,14912.2
0,9.0,4.0,2.0,129949.5
0,9.0,4.0,3.0,6997.2
0,9.0,4.0,5.0,22741.1
0,9.0,4.0,6.0,454823.3
0,9.0,4.0,7.0,56852.9
0,9.0,4.0,8.0,69972.8
0,9.0,4.0,10.0,303215.5
0,9.0,4.0,11.0,82695.1
0,9.0,4.0,12.0,113705.8
0,9.0,4.0,13.0,53508.6
0,9.0,4.0,14.0,90964.6
0,9.0,4.0,15.0,29343.4
0,9.0,4.0,16.0,454823.3
0,9.0,5.0,1.0,14438.8
0,9.0,5.0,2.0,60643.1
0,9.0,5.0,3.0,3248.7
0,9.0,5.0,4.0,20214.3
0,9.0,5.0,6.0,454823.3
0,9.0,5.0,7.0,17836.2
0,9.0,5.0,8.0,18950.9
0,9.0,5.0,10.0,113705.8
0,9.0,5.0,11.0,19354.1
0,9.0,5.0,12.0,64974.7
0,9.0,5.0,13.0,15683.5
0,9.0,5.0,14.0,24585.0
0,9.0,5.0,15.0,9282.1
0,9.0,5.0,16.0,151607.7
0,9.0,6.0,1.0,227411.6
0,9.0,6.0,2.0,181929.3
0,9.0,6.0,3.0,41347.5
0,9.0,6.0,4.0,303215.5
0,9.0,6.0,5.0,909646.6
0,9.0,6.0,7.0,909646.6
0,9.0,6.0,8.0,82695.1
0,9.0,6.0,10.0,303215.5
0,9.0,6.0,11.0,454823.3
0,9.0,6.0,12.0,227411.6
0,9.0,6.0,13.0,0.0
0,9.0,6.0,14.0,0.0
0,9.0,6.0,15.0,454823.3
0,9.0,6.0,16.0,0.0
0,9.0,7.0,1.0,23938.0
0,9.0,7.0,2.0,50535.9
0,9.0,7.0,3.0,4737.7
0,9.0,7.0,4.0,60643.1
0,9.0,7.0,5.0,20214.3
0,9.0,7.0,6.0,0.0
0,9.0,7.0,8.0,33690.6
0,9.0,7.0,10.0,82695.1
0,9.0,7.0,11.0,36385.8
0,9.0,7.0,12.0,181929.3
0,9.0,7.0,13.0,41347.5
0,9.0,7.0,14.0,75803.8
0,9.0,7.0,15.0,24585.0
0,9.0,7.0,16.0,909646.6
0,9.0,8.0,1.0,31367.1
0,9.0,8.0,2.0,90964.6
0,9.0,8.0,3.0,7774.7
0,9.0,8.0,4.0,82695.1
0,9.0,8.0,5.0,17163.1
0,9.0,8.0,6.0,151607.7
0,9.0,8.0,7.0,33690.6
0,9.0,8.0,10.0,101071.8
0,9.0,8.0,11.0,39549.8
0,9.0,8.0,12.0,101071.8
0,9.0,8.0,13.0,47876.1
0,9.0,8.0,14.0,50535.9
0,9.0,8.0,15.0,27565.0
0,9.0,8.0,16.0,303215.5
0,9.0,10.0,1.0,227411.6
0,9.0,10.0,2.0,303215.5
0,9.0,10.0,3.0,25267.9
0,9.0,10.0,4.0,454823.3
0,9.0,10.0,5.0,90964.6
0,9.0,10.0,6.0,303215.5
0,9.0,10.0,7.0,101071.8
0,9.0,10.0,8.0,113705.8
0,9.0,10.0,11.0,129949.5
0,9.0,10.0,12.0,454823.3
0,9.0,10.0,13.0,303215.5
0,9.0,10.0,14.0,181929.3
0,9.0,10.0,15.0,181929.3
0,9.0,10.0,16.0,0.0
0,9.0,11.0,1.0,20214.3
0,9.0,11.0,2.0,90964.6
0,9.0,11.0,3.0,5984.5
0,9.0,11.0,4.0,82695.1
0,9.0,11.0,5.0,20214.3
0,9.0,11.0,6.0,454823.3
0,9.0,11.0,7.0,39549.8
0,9.0,11.0,8.0,45482.3
0,9.0,11.0,10.0,129949.5
0,9.0,11.0,12.0,113705.8
0,9.0,11.0,13.0,34986.4
0,9.0,11.0,14.0,64974.7
0,9.0,11.0,15.0,18192.9
0,9.0,11.0,16.0,454823.3
0,9.0,12.0,1.0,90964.6
0,9.0,12.0,2.0,303215.5
0,9.0,12.0,3.0,15958.7
0,9.0,12.0,4.0,113705.8
0,9.0,12.0,5.0,82695.1
0,9.0,12.0,6.0,0.0
0,9.0,12.0,7.0,129949.5
0,9.0,12.0,8.0,101071.8
0,9.0,12.0,10.0,303215.5
0,9.0,12.0,11.0,113705.8
0,9.0,12.0,13.0,303215.5
0,9.0,12.0,14.0,181929.3
0,9.0,12.0,15.0,101071.8
0,9.0,12.0,16.0,0.0
0,9.0,13.0,1.0,24585.0
0,9.0,13.0,2.0,151607.7
0,9.0,13.0,3.0,5479.7
0,9.0,13.0,4.0,56852.9
0,9.0,13.0,5.0,16243.6
0,9.0,13.0,6.0,909646.6
0,9.0,13.0,7.0,36385.8
0,9.0,13.0,8.0,50535.9
0,9.0,13.0,10.0,151607.7
0,9.0,13.0,11.0,30321.5
0,9.0,13.0,12.0,227411.6
0,9.0,13.0,14.0,45482.3
0,9.0,13.0,15.0,15160.7
0,9.0,13.0,16.0,0.0
0,9.0,14.0,1.0,33690.6
0,9.0,14.0,2.0,227411.6
0,9.0,14.0,3.0,7219.4
0,9.0,14.0,4.0,101071.8
0,9.0,14.0,5.0,28426.4
0,9.0,14.0,6.0,909646.6
0,9.0,14.0,7.0,75803.8
0,9.0,14.0,8.0,90964.6
0,9.0,14.0,10.0,151607.7
0,9.0,14.0,11.0,75803.8
0,9.0,14.0,12.0,227411.6
0,9.0,14.0,13.0,69972.8
0,9.0,14.0,15.0,19774.9
0,9.0,14.0,16.0,909646.6
0,9.0,15.0,1.0,13782.5
0,9.0,15.0,2.0,60643.1
0,9.0,15.0,3.0,2519.7
0,9.0,15.0,4.0,26754.3
0,9.0,15.0,5.0,8581.5
0,9.0,15.0,6.0,909646.6
0,9.0,15.0,7.0,19354.1
0,9.0,15.0,8.0,24585.0
0,9.0,15.0,10.0,129949.5
0,9.0,15.0,11.0,18192.9
0,9.0,15.0,12.0,101071.8
0,9.0,15.0,13.0,13994.5
0,9.0,15.0,14.0,24585.0
0,9.0,15.0,16.0,113705.8
0,9.0,16.0,1.0,909646.6
0,9.0,16.0,2.0,909646.6
0,9.0,16.0,3.0,60643.1
0,9.0,16.0,4.0,454823.3
0,9.0,16.0,5.0,303215.5
0,9.0,16.0,6.0,0.0
0,9.0,16.0,7.0,0.0
0,9.0,16.0,8.0,909646.6
0,9.0,16.0,10.0,0.0
0,9.0,16.0,11.0,0.0
0,9.0,16.0,12.0,0.0
0,9.0,16.0,13.0,0.0
0,9.0,16.0,14.0,909646.6
0,9.0,16.0,15.0,90964.6
0,10.0,1.0,2.0,113705.8
0,10.0,1.0,3.0,7051.5
0,10.0,1.0,4.0,90964.6
0,10.0,1.0,5.0,75803.8
0,10.0,1.0,6.0,454823.3
0,10.0,1.0,7.0,129949.5
0,10.0,1.0,8.0,101071.8
0,10.0,1.0,9.0,181929.3
0,10.0,1.0,11.0,29343.4
0,10.0,1.0,12.0,303215.5
0,10.0,1.0,13.0,69972.8
0,10.0,1.0,14.0,69972.8
0,10.0,1.0,15.0,36385.8
0,10.0,1.0,16.0,0.0
0,10.0,2.0,1.0,75803.8
0,10.0,2.0,3.0,47876.1
0,10.0,2.0,4.0,75803.8
0,10.0,2.0,5.0,90964.6
0,10.0,2.0,6.0,181929.3
0,10.0,2.0,7.0,64974.7
0,10.0,2.0,8.0,69972.8
0,10.0,2.0,9.0,129949.5
0,10.0,2.0,11.0,151607.7
0,10.0,2.0,12.0,181929.3
0,10.0,2.0,13.0,303215.5
0,10.0,2.0,14.0,181929.3
0,10.0,2.0,15.0,181929.3
0,10.0,2.0,16.0,909646.6
0,10.0,3.0,1.0,6273.4
0,10.0,3.0,2.0,45482.3
0,10.0,3.0,4.0,14213.2
0,10.0,3.0,5.0,6788.4
0,10.0,3.0,6.0,69972.8
0,10.0,3.0,7.0,13576.8
0,10.0,3.0,8.0,16539.0
0,10.0,3.0,9.0,16845.3
0,10.0,3.0,11.0,8746.6
0,10.0,3.0,12.0,23324.2
0,10.0,3.0,13.0,7909.9
0,10.0,3.0,14.0,9996.1
0,10.0,3.0,15.0,4812.9
0,10.0,3.0,16.0,90964.6
0,10.0,4.0,1.0,69972.8
0,10.0,4.0,2.0,181929.3
0,10.0,4.0,3.0,18192.9
0,10.0,4.0,5.0,129949.5
0,10.0,4.0,6.0,129949.5
0,10.0,4.0,7.0,227411.6
0,10.0,4.0,8.0,129949.5
0,10.0,4.0,9.0,227411.6
0,10.0,4.0,11.0,113705.8
0,10.0,4.0,12.0,227411.6
0,10.0,4.0,13.0,129949.5
0,10.0,4.0,14.0,129949.5
0,10.0,4.0,15.0,101071.8
0,10.0,4.0,16.0,454823.3
0,10.0,5.0,1.0,69972.8
0,10.0,5.0,2.0,113705.8
0,10.0,5.0,3.0,10455.7
0,10.0,5.0,4.0,151607.7
0,10.0,5.0,6.0,303215.5
0,10.0,5.0,7.0,82695.1
0,10.0,5.0,8.0,47876.1
0,10.0,5.0,9.0,82695.1
0,10.0,5.0,11.0,75803.8
0,10.0,5.0,12.0,454823.3
0,10.0,5.0,13.0,64974.7
0,10.0,5.0,14.0,101071.8
0,10.0,5.0,15.0,18564.2
0,10.0,5.0,16.0,909646.6
0,10.0,6.0,1.0,454823.3
0,10.0,6.0,2.0,227411.6
0,10.0,6.0,3.0,113705.8
0,10.0,6.0,4.0,227411.6
0,10.0,6.0,5.0,454823.3
0,10.0,6.0,7.0,454823.3
0,10.0,6.0,8.0,90964.6
0,10.0,6.0,9.0,909646.6
0,10.0,6.0,11.0,454823.3
0,10.0,6.0,12.0,909646.6
0,10.0,6.0,13.0,0.0
0,10.0,6.0,14.0,303215.5
0,10.0,6.0,15.0,454823.3
0,10.0,6.0,16.0,0.0
0,10.0,7.0,1.0,129949.5
0,10.0,7.0,2.0,101071.8
0,10.0,7.0,3.0,21658.2
0,10.0,7.0,4.0,227411.6
0,10.0,7.0,5.0,90964.6
0,10.0,7.0,6.0,303215.5
0,10.0,7.0,8.0,113705.8
0,10.0,7.0,9.0,181929.3
0,10.0,7.0,11.0,90964.6
0,10.0,7.0,12.0,181929.3
0,10.0,7.0,13.0,151607.7
0,10.0,7.0,14.0,129949.5
0,10.0,7.0,15.0,60643.1
0,10.0,7.0,16.0,0.0
0,10.0,8.0,1.0,151607.7
0,10.0,8.0,2.0,129949.5
0,10.0,8.0,3.0,24585.0
0,10.0,8.0,4.0,129949.5
0,10.0,8.0,5.0,43316.5
0,10.0,8.0,6.0,60643.1
0,10.0,8.0,7.0,181929.3
0,10.0,8.0,9.0,129949.5
0,10.0,8.0,11.0,53508.6
0,10.0,8.0,12.0,113705.8
0,10.0,8.0,13.0,64974.7
0,10.0,8.0,14.0,90964.6
0,10.0,8.0,15.0,47876.1
0,10.0,8.0,16.0,0.0
0,10.0,9.0,1.0,227411.6
0,10.0,9.0,2.0,129949.5
0,10.0,9.0,3.0,23938.0
0,10.0,9.0,4.0,303215.5
0,10.0,9.0,5.0,129949.5
0,10.0,9.0,6.0,909646.6
0,10.0,9.0,7.0,151607.7
0,10.0,9.0,8.0,82695.1
0,10.0,9.0,11.0,181929.3
0,10.0,9.0,12.0,454823.3
0,10.0,9.0,13.0,181929.3
0,10.0,9.0,14.0,129949.5
0,10.0,9.0,15.0,151607.7
0,10.0,9.0,16.0,303215.5
0,10.0,11.0,1.0,34986.4
0,10.0,11.0,2.0,129949.5
0,10.0,11.0,3.0,14438.8
0,10.0,11.0,4.0,151607.7
0,10.0,11.0,5.0,90964.6
0,10.0,11.0,6.0,909646.6
0,10.0,11.0,7.0,90964.6
0,10.0,11.0,8.0,60643.1
0,10.0,11.0,9.0,101071.8
0,10.0,11.0,12.0,181929.3
0,10.0,11.0,13.0,90964.6
0,10.0,11.0,14.0,64974.7
0,10.0,11.0,15.0,47876.1
0,10.0,11.0,16.0,0.0
0,10.0,12.0,1.0,151607.7
0,10.0,12.0,2.0,181929.3
0,10.0,12.0,3.0,36385.8
0,10.0,12.0,4.0,227411.6
0,10.0,12.0,5.0,181929.3
0,10.0,12.0,6.0,303215.5
0,10.0,12.0,7.0,303215.5
0,10.0,12.0,8.0,90964.6
0,10.0,12.0,9.0,129949.5
0,10.0,12.0,11.0,181929.3
0,10.0,12.0,13.0,151607.7
0,10.0,12.0,14.0,101071.8
0,10.0,12.0,15.0,101071.8
0,10.0,12.0,16.0,909646.6
0,10.0,13.0,1.0,64974.7
0,10.0,13.0,2.0,227411.6
0,10.0,13.0,3.0,14671.7
0,10.0,13.0,4.0,303215.5
0,10.0,13.0,5.0,60643.1
0,10.0,13.0,6.0,909646.6
0,10.0,13.0,7.0,101071.8
0,10.0,13.0,8.0,75803.8
0,10.0,13.0,9.0,227411.6
0,10.0,13.0,11.0,75803.8
0,10.0,13.0,12.0,181929.3
0,10.0,13.0,14.0,56852.9
0,10.0,13.0,15.0,30321.5
0,10.0,13.0,16.0,909646.6
0,10.0,14.0,1.0,64974.7
0,10.0,14.0,2.0,181929.3
0,10.0,14.0,3.0,15683.5
0,10.0,14.0,4.0,101071.8
0,10.0,14.0,5.0,82695.1
0,10.0,14.0,6.0,227411.6
0,10.0,14.0,7.0,151607.7
0,10.0,14.0,8.0,69972.8
0,10.0,14.0,9.0,113705.8
0,10.0,14.0,11.0,60643.1
0,10.0,14.0,12.0,90964.6
0,10.0,14.0,13.0,64974.7
0,10.0,14.0,15.0,41347.5
0,10.0,14.0,16.0,454823.3
0,10.0,15.0,1.0,37901.9
0,10.0,15.0,2.0,227411.6
0,10.0,15.0,3.0,6943.8
0,10.0,15.0,4.0,129949.5
0,10.0,15.0,5.0,17836.2
0,10.0,15.0,6.0,909646.6
0,10.0,15.0,7.0,53508.6
0,10.0,15.0,8.0,45482.3
0,10.0,15.0,9.0,129949.5
0,10.0,15.0,11.0,50535.9
0,10.0,15.0,12.0,151607.7
0,10.0,15.0,13.0,32487.3
0,10.0,15.0,14.0,43316.5
0,10.0,15.0,16.0,303215.5
0,10.0,16.0,1.0,909646.6
0,10.0,16.0,2.0,909646.6
0,10.0,16.0,3.0,101071.8
0,10.0,16.0,4.0,303215.5
0,10.0,16.0,5.0,454823.3
0,10.0,16.0,6.0,0.0
0,10.0,16.0,7.0,0.0
0,10.0,16.0,8.0,909646.6
0,10.0,16.0,9.0,909646.6
0,10.0,16.0,11.0,0.0
0,10.0,16.0,12.0,909646.6
0,10.0,16.0,13.0,909646.6
0,10.0,16.0,14.0,227411.6
0,10.0,16.0,15.0,181929.3
0,11.0,1.0,2.0,25989.9
0,11.0,1.0,3.0,879.7
0,11.0,1.0,4.0,5685.2
0,11.0,1.0,5.0,3445.6
0,11.0,1.0,6.0,181929.3
0,11.0,1.0,7.0,5025.6
0,11.0,1.0,8.0,8501.3
0,11.0,1.0,9.0,16539.0
0,11.0,1.0,10.0,32487.3
0,11.0,1.0,12.0,16243.6
0,11.0,1.0,13.0,4134.7
0,11.0,1.0,14.0,5831.0
0,11.0,1.0,15.0,2598.9
0,11.0,1.0,16.0,227411.6
0,11.0,2.0,1.0,56852.9
0,11.0,2.0,3.0,9282.1
0,11.0,2.0,4.0,90964.6
0,11.0,2.0,5.0,23324.2
0,11.0,2.0,6.0,113705.8
0,11.0,2.0,7.0,36385.8
0,11.0,2.0,8.0,56852.9
0,11.0,2.0,9.0,69972.8
0,11.0,2.0,10.0,151607.7
0,11.0,2.0,12.0,129949.5
0,11.0,2.0,13.0,37901.9
0,11.0,2.0,14.0,90964.6
0,11.0,2.0,15.0,25989.9
0,11.0,2.0,16.0,454823.3
0,11.0,3.0,1.0,470.5
0,11.0,3.0,2.0,4042.8
0,11.0,3.0,4.0,818.0
0,11.0,3.0,5.0,401.9
0,11.0,3.0,6.0,11813.5
0,11.0,3.0,7.0,708.9
0,11.0,3.0,8.0,903.3
0,11.0,3.0,9.0,1923.1
0,11.0,3.0,10.0,5025.6
0,11.0,3.0,12.0,1659.9
0,11.0,3.0,13.0,511.3
0,11.0,3.0,14.0,701.3
0,11.0,3.0,15.0,328.0
0,11.0,3.0,16.0,10959.5
0,11.0,4.0,1.0,8581.5
0,11.0,4.0,2.0,75803.8
0,11.0,4.0,3.0,1864.0
0,11.0,4.0,5.0,7162.5
0,11.0,4.0,6.0,151607.7
0,11.0,4.0,7.0,13576.8
0,11.0,4.0,8.0,11813.5
0,11.0,4.0,9.0,28426.4
0,11.0,4.0,10.0,101071.8
0,11.0,4.0,12.0,43316.5
0,11.0,4.0,13.0,10701.7
0,11.0,4.0,14.0,9781.1
0,11.0,4.0,15.0,6591.6
0,11.0,4.0,16.0,303215.5
0,11.0,5.0,1.0,3260.3
0,11.0,5.0,2.0,25267.9
0,11.0,5.0,3.0,662.5
0,11.0,5.0,4.0,6064.3
0,11.0,5.0,6.0,113705.8
0,11.0,5.0,7.0,5479.7
0,11.0,5.0,8.0,6064.3
0,11.0,5.0,9.0,13576.8
0,11.0,5.0,10.0,43316.5
0,11.0,5.0,12.0,14438.8
0,11.0,5.0,13.0,3332.0
0,11.0,5.0,14.0,4943.7
0,11.0,5.0,15.0,1759.4
0,11.0,5.0,16.0,75803.8
0,11.0,6.0,1.0,181929.3
0,11.0,6.0,2.0,181929.3
0,11.0,6.0,3.0,25989.9
0,11.0,6.0,4.0,303215.5
0,11.0,6.0,5.0,129949.5
0,11.0,6.0,7.0,227411.6
0,11.0,6.0,8.0,303215.5
0,11.0,6.0,9.0,0.0
0,11.0,6.0,10.0,454823.3
0,11.0,6.0,12.0,129949.5
0,11.0,6.0,13.0,151607.7
0,11.0,6.0,14.0,227411.6
0,11.0,6.0,15.0,69972.8
0,11.0,6.0,16.0,0.0
0,11.0,7.0,1.0,6788.4
0,11.0,7.0,2.0,75803.8
0,11.0,7.0,3.0,1593.0
0,11.0,7.0,4.0,13994.5
0,11.0,7.0,5.0,6544.2
0,11.0,7.0,6.0,303215.5
0,11.0,7.0,8.0,12460.9
0,11.0,7.0,9.0,23324.2
0,11.0,7.0,10.0,90964.6
0,11.0,7.0,12.0,16539.0
0,11.0,7.0,13.0,8746.6
0,11.0,7.0,14.0,15683.5
0,11.0,7.0,15.0,5258.0
0,11.0,7.0,16.0,303215.5
0,11.0,8.0,1.0,10220.7
0,11.0,8.0,2.0,69972.8
0,11.0,8.0,3.0,2145.3
0,11.0,8.0,4.0,12128.6
0,11.0,8.0,5.0,6497.4
0,11.0,8.0,6.0,113705.8
0,11.0,8.0,7.0,12292.5
0,11.0,8.0,9.0,27565.0
0,11.0,8.0,10.0,56852.9
0,11.0,8.0,12.0,45482.3
0,11.0,8.0,13.0,9475.4
0,11.0,8.0,14.0,15160.7
0,11.0,8.0,15.0,6361.1
0,11.0,8.0,16.0,454823.3
0,11.0,9.0,1.0,25989.9
0,11.0,9.0,2.0,90964.6
0,11.0,9.0,3.0,4713.1
0,11.0,9.0,4.0,36385.8
0,11.0,9.0,5.0,19774.9
0,11.0,9.0,6.0,303215.5
0,11.0,9.0,7.0,19354.1
0,11.0,9.0,8.0,37901.9
0,11.0,9.0,10.0,151607.7
0,11.0,9.0,12.0,90964.6
0,11.0,9.0,13.0,34986.4
0,11.0,9.0,14.0,64974.7
0,11.0,9.0,15.0,17836.2
0,11.0,9.0,16.0,0.0
0,11.0,10.0,1.0,36385.8
0,11.0,10.0,2.0,227411.6
0,11.0,10.0,3.0,10959.5
0,11.0,10.0,4.0,113705.8
0,11.0,10.0,5.0,82695.1
0,11.0,10.0,6.0,303215.5
0,11.0,10.0,7.0,113705.8
0,11.0,10.0,8.0,64974.7
0,11.0,10.0,9.0,113705.8
0,11.0,10.0,12.0,303215.5
0,11.0,10.0,13.0,69972.8
0,11.0,10.0,14.0,64974.7
0,11.0,10.0,15.0,47876.1
0,11.0,10.0,16.0,0.0
0,11.0,12.0,1.0,13994.5
0,11.0,12.0,2.0,113705.8
0,11.0,12.0,3.0,3498.6
0,11.0,12.0,4.0,26754.3
0,11.0,12.0,5.0,17163.1
0,11.0,12.0,6.0,151607.7
0,11.0,12.0,7.0,15417.7
0,11.0,12.0,8.0,32487.3
0,11.0,12.0,9.0,64974.7
0,11.0,12.0,10.0,90964.6
0,11.0,12.0,13.0,15683.5
0,11.0,12.0,14.0,14671.7
0,11.0,12.0,15.0,10959.5
0,11.0,12.0,16.0,303215.5
0,11.0,13.0,1.0,4459.0
0,11.0,13.0,2.0,53508.6
0,11.0,13.0,3.0,1020.9
0,11.0,13.0,4.0,7517.7
0,11.0,13.0,5.0,3525.7
0,11.0,13.0,6.0,129949.5
0,11.0,13.0,7.0,6788.4
0,11.0,13.0,8.0,7644.0
0,11.0,13.0,9.0,25989.9
0,11.0,13.0,10.0,69972.8
0,11.0,13.0,12.0,21658.2
0,11.0,13.0,14.0,5757.2
0,11.0,13.0,15.0,2314.6
0,11.0,13.0,16.0,227411.6
0,11.0,14.0,1.0,5615.1
0,11.0,14.0,2.0,69972.8
0,11.0,14.0,3.0,1335.7
0,11.0,14.0,4.0,12811.9
0,11.0,14.0,5.0,5168.4
0,11.0,14.0,6.0,227411.6
0,11.0,14.0,7.0,12292.5
0,11.0,14.0,8.0,11514.5
0,11.0,14.0,9.0,50535.9
0,11.0,14.0,10.0,60643.1
0,11.0,14.0,12.0,15958.7
0,11.0,14.0,13.0,5685.2
0,11.0,14.0,15.0,3806.0
0,11.0,14.0,16.0,303215.5
0,11.0,15.0,1.0,2621.4
0,11.0,15.0,2.0,25267.9
0,11.0,15.0,3.0,493.8
0,11.0,15.0,4.0,4917.0
0,11.0,15.0,5.0,1684.5
0,11.0,15.0,6.0,56852.9
0,11.0,15.0,7.0,4211.3
0,11.0,15.0,8.0,5139.2
0,11.0,15.0,9.0,10701.7
0,11.0,15.0,10.0,41347.5
0,11.0,15.0,12.0,10336.8
0,11.0,15.0,13.0,2268.4
0,11.0,15.0,14.0,3838.1
0,11.0,15.0,16.0,56852.9
0,11.0,16.0,1.0,454823.3
0,11.0,16.0,2.0,303215.5
0,11.0,16.0,3.0,29343.4
0,11.0,16.0,4.0,909646.6
0,11.0,16.0,5.0,90964.6
0,11.0,16.0,6.0,0.0
0,11.0,16.0,7.0,0.0
0,11.0,16.0,8.0,454823.3
0,11.0,16.0,9.0,0.0
0,11.0,16.0,10.0,0.0
0,11.0,16.0,12.0,454823.3
0,11.0,16.0,13.0,303215.5
0,11.0,16.0,14.0,303215.5
0,11.0,16.0,15.0,75803.8
0,12.0,1.0,2.0,90964.6
0,12.0,1.0,3.0,4060.9
0,12.0,1.0,4.0,56852.9
0,12.0,1.0,5.0,20214.3
0,12.0,1.0,6.0,151607.7
0,12.0,1.0,7.0,29343.4
0,12.0,1.0,8.0,41347.5
0,12.0,1.0,9.0,56852.9
0,12.0,1.0,10.0,227411.6
0,12.0,1.0,11.0,20214.3
0,12.0,1.0,13.0,18192.9
0,12.0,1.0,14.0,29343.4
0,12.0,1.0,15.0,6405.9
0,12.0,1.0,16.0,0.0
0,12.0,2.0,1.0,75803.8
0,12.0,2.0,3.0,25267.9
0,12.0,2.0,4.0,181929.3
0,12.0,2.0,5.0,56852.9
0,12.0,2.0,6.0,37901.9
0,12.0,2.0,7.0,90964.6
0,12.0,2.0,8.0,101071.8
0,12.0,2.0,9.0,101071.8
0,12.0,2.0,10.0,303215.5
0,12.0,2.0,11.0,129949.5
0,12.0,2.0,13.0,181929.3
0,12.0,2.0,14.0,181929.3
0,12.0,2.0,15.0,69972.8
0,12.0,2.0,16.0,0.0
0,12.0,3.0,1.0,2115.4
0,12.0,3.0,2.0,16243.6
0,12.0,3.0,4.0,4116.0
0,12.0,3.0,5.0,2362.7
0,12.0,3.0,6.0,29343.4
0,12.0,3.0,7.0,3381.5
0,12.0,3.0,8.0,6146.2
0,12.0,3.0,9.0,7517.7
0,12.0,3.0,10.0,25267.9
0,12.0,3.0,11.0,2471.8
0,12.0,3.0,13.0,2842.6
0,12.0,3.0,14.0,3774.4
0,12.0,3.0,15.0,1318.3
0,12.0,3.0,16.0,34986.4
0,12.0,4.0,1.0,41347.5
0,12.0,4.0,2.0,64974.7
0,12.0,4.0,3.0,9996.1
0,12.0,4.0,5.0,37901.9
0,12.0,4.0,6.0,909646.6
0,12.0,4.0,7.0,33690.6
0,12.0,4.0,8.0,75803.8
0,12.0,4.0,9.0,101071.8
0,12.0,4.0,10.0,454823.3
0,12.0,4.0,11.0,69972.8
0,12.0,4.0,13.0,75803.8
0,12.0,4.0,14.0,53508.6
0,12.0,4.0,15.0,15958.7
0,12.0,4.0,16.0,909646.6
0,12.0,5.0,1.0,24585.0
0,12.0,5.0,2.0,113705.8
0,12.0,5.0,3.0,4134.7
0,12.0,5.0,4.0,56852.9
0,12.0,5.0,6.0,909646.6
0,12.0,5.0,7.0,23938.0
0,12.0,5.0,8.0,50535.9
0,12.0,5.0,9.0,82695.1
0,12.0,5.0,10.0,227411.6
0,12.0,5.0,11.0,25989.9
0,12.0,5.0,13.0,22186.5
0,12.0,5.0,14.0,37901.9
0,12.0,5.0,15.0,7979.3
0,12.0,5.0,16.0,303215.5
0,12.0,6.0,1.0,181929.3
0,12.0,6.0,2.0,41347.5
0,12.0,6.0,3.0,47876.1
0,12.0,6.0,4.0,303215.5
0,12.0,6.0,5.0,454823.3
0,12.0,6.0,7.0,454823.3
0,12.0,6.0,8.0,227411.6
0,12.0,6.0,9.0,909646.6
0,12.0,6.0,10.0,909646.6
0,12.0,6.0,11.0,181929.3
0,12.0,6.0,13.0,454823.3
0,12.0,6.0,14.0,454823.3
0,12.0,6.0,15.0,181929.3
0,12.0,6.0,16.0,0.0
0,12.0,7.0,1.0,34986.4
0,12.0,7.0,2.0,227411.6
0,12.0,7.0,3.0,6024.1
0,12.0,7.0,4.0,101071.8
0,12.0,7.0,5.0,31367.1
0,12.0,7.0,6.0,909646.6
0,12.0,7.0,8.0,113705.8
0,12.0,7.0,9.0,151607.7
0,12.0,7.0,10.0,151607.7
0,12.0,7.0,11.0,17836.2
0,12.0,7.0,13.0,26754.3
0,12.0,7.0,14.0,64974.7
0,12.0,7.0,15.0,13183.2
0,12.0,7.0,16.0,909646.6
0,12.0,8.0,1.0,56852.9
0,12.0,8.0,2.0,64974.7
0,12.0,8.0,3.0,10829.1
0,12.0,8.0,4.0,64974.7
0,12.0,8.0,5.0,47876.1
0,12.0,8.0,6.0,64974.7
0,12.0,8.0,7.0,82695.1
0,12.0,8.0,9.0,75803.8
0,12.0,8.0,10.0,227411.6
0,12.0,8.0,11.0,56852.9
0,12.0,8.0,13.0,53508.6
0,12.0,8.0,14.0,60643.1
0,12.0,8.0,15.0,39549.8
0,12.0,8.0,16.0,129949.5
0,12.0,9.0,1.0,75803.8
0,12.0,9.0,2.0,303215.5
0,12.0,9.0,3.0,13994.5
0,12.0,9.0,4.0,113705.8
0,12.0,9.0,5.0,53508.6
0,12.0,9.0,6.0,909646.6
0,12.0,9.0,7.0,181929.3
0,12.0,9.0,8.0,39549.8
0,12.0,9.0,10.0,181929.3
0,12.0,9.0,11.0,90964.6
0,12.0,9.0,13.0,303215.5
0,12.0,9.0,14.0,90964.6
0,12.0,9.0,15.0,69972.8
0,12.0,9.0,16.0,227411.6
0,12.0,10.0,1.0,181929.3
0,12.0,10.0,2.0,181929.3
0,12.0,10.0,3.0,39549.8
0,12.0,10.0,4.0,303215.5
0,12.0,10.0,5.0,129949.5
0,12.0,10.0,6.0,454823.3
0,12.0,10.0,7.0,303215.5
0,12.0,10.0,8.0,90964.6
0,12.0,10.0,9.0,113705.8
0,12.0,10.0,11.0,181929.3
0,12.0,10.0,13.0,227411.6
0,12.0,10.0,14.0,129949.5
0,12.0,10.0,15.0,129949.5
0,12.0,10.0,16.0,454823.3
0,12.0,11.0,1.0,22186.5
0,12.0,11.0,2.0,129949.5
0,12.0,11.0,3.0,4172.6
0,12.0,11.0,4.0,69972.8
0,12.0,11.0,5.0,24585.0
0,12.0,11.0,6.0,181929.3
0,12.0,11.0,7.0,17493.2
0,12.0,11.0,8.0,43316.5
0,12.0,11.0,9.0,75803.8
0,12.0,11.0,10.0,113705.8
0,12.0,11.0,13.0,30321.5
0,12.0,11.0,14.0,31367.1
0,12.0,11.0,15.0,8918.1
0,12.0,11.0,16.0,454823.3
0,12.0,13.0,1.0,18192.9
0,12.0,13.0,2.0,181929.3
0,12.0,13.0,3.0,5414.5
0,12.0,13.0,4.0,69972.8
0,12.0,13.0,5.0,21154.5
0,12.0,13.0,6.0,0.0
0,12.0,13.0,7.0,26754.3
0,12.0,13.0,8.0,60643.1
0,12.0,13.0,9.0,181929.3
0,12.0,13.0,10.0,181929.3
0,12.0,13.0,11.0,27565.0
0,12.0,13.0,14.0,31367.1
0,12.0,13.0,15.0,7162.5
0,12.0,13.0,16.0,454823.3
0,12.0,14.0,1.0,32487.3
0,12.0,14.0,2.0,113705.8
0,12.0,14.0,3.0,7277.1
0,12.0,14.0,4.0,50535.9
0,12.0,14.0,5.0,36385.8
0,12.0,14.0,6.0,181929.3
0,12.0,14.0,7.0,53508.6
0,12.0,14.0,8.0,56852.9
0,12.0,14.0,9.0,101071.8
0,12.0,14.0,10.0,303215.5
0,12.0,14.0,11.0,31367.1
0,12.0,14.0,13.0,37901.9
0,12.0,14.0,15.0,9006.4
0,12.0,14.0,16.0,129949.5
0,12.0,15.0,1.0,7644.0
0,12.0,15.0,2.0,56852.9
0,12.0,15.0,3.0,2186.6
0,12.0,15.0,4.0,28426.4
0,12.0,15.0,5.0,9677.0
0,12.0,15.0,6.0,303215.5
0,12.0,15.0,7.0,16539.0
0,12.0,15.0,8.0,30321.5
0,12.0,15.0,9.0,64974.7
0,12.0,15.0,10.0,129949.5
0,12.0,15.0,11.0,10577.2
0,12.0,15.0,13.0,10336.8
0,12.0,15.0,14.0,12128.6
0,12.0,15.0,16.0,151607.7
0,12.0,16.0,1.0,909646.6
0,12.0,16.0,2.0,909646.6
0,12.0,16.0,3.0,69972.8
0,12.0,16.0,4.0,454823.3
0,12.0,16.0,5.0,454823.3
0,12.0,16.0,6.0,0.0
0,12.0,16.0,7.0,303215.5
0,12.0,16.0,8.0,0.0
0,12.0,16.0,9.0,454823.3
0,12.0,16.0,10.0,909646.6
0,12.0,16.0,11.0,454823.3
0,12.0,16.0,13.0,454823.3
0,12.0,16.0,14.0,181929.3
0,12.0,16.0,15.0,151607.7
0,13.0,1.0,2.0,24585.0
0,13.0,1.0,3.0,697.5
0,13.0,1.0,4.0,3870.8
0,13.0,1.0,5.0,2419.2
0,13.0,1.0,6.0,129949.5
0,13.0,1.0,7.0,4437.3
0,13.0,1.0,8.0,4943.7
0,13.0,1.0,9.0,13377.1
0,13.0,1.0,10.0,45482.3
0,13.0,1.0,11.0,3743.4
0,13.0,1.0,12.0,13377.1
0,13.0,1.0,14.0,4230.9
0,13.0,1.0,15.0,1739.2
0,13.0,1.0,16.0,82695.1
0,13.0,2.0,1.0,27565.0
0,13.0,2.0,3.0,5685.2
0,13.0,2.0,4.0,32487.3
0,13.0,2.0,5.0,16539.0
0,13.0,2.0,6.0,909646.6
0,13.0,2.0,7.0,33690.6
0,13.0,2.0,8.0,69972.8
0,13.0,2.0,9.0,151607.7
0,13.0,2.0,10.0,303215.5
0,13.0,2.0,11.0,34986.4
0,13.0,2.0,12.0,101071.8
0,13.0,2.0,14.0,69972.8
0,13.0,2.0,15.0,14671.7
0,13.0,2.0,16.0,227411.6
0,13.0,3.0,1.0,348.6
0,13.0,3.0,2.0,2707.2
0,13.0,3.0,4.0,588.0
0,13.0,3.0,5.0,290.5
0,13.0,3.0,6.0,8581.5
0,13.0,3.0,7.0,571.0
0,13.0,3.0,8.0,706.7
0,13.0,3.0,9.0,1141.3
0,13.0,3.0,10.0,3937.8
0,13.0,3.0,11.0,484.3
0,13.0,3.0,12.0,1759.4
0,13.0,3.0,14.0,563.5
0,13.0,3.0,15.0,241.0
0,13.0,3.0,16.0,6316.9
0,13.0,4.0,1.0,4737.7
0,13.0,4.0,2.0,41347.5
0,13.0,4.0,3.0,1331.8
0,13.0,4.0,5.0,4191.9
0,13.0,4.0,6.0,227411.6
0,13.0,4.0,7.0,6839.4
0,13.0,4.0,8.0,7277.1
0,13.0,4.0,9.0,18192.9
0,13.0,4.0,10.0,113705.8
0,13.0,4.0,11.0,8269.5
0,13.0,4.0,12.0,69972.8
0,13.0,4.0,14.0,6451.3
0,13.0,4.0,15.0,2798.9
0,13.0,4.0,16.0,129949.5
0,13.0,5.0,1.0,2344.4
0,13.0,5.0,2.0,12811.9
0,13.0,5.0,3.0,466.4
0,13.0,5.0,4.0,3180.5
0,13.0,5.0,6.0,47876.1
0,13.0,5.0,7.0,3225.6
0,13.0,5.0,8.0,3042.2
0,13.0,5.0,9.0,9677.0
0,13.0,5.0,10.0,43316.5
0,13.0,5.0,11.0,3214.2
0,13.0,5.0,12.0,12292.5
0,13.0,5.0,14.0,4415.7
0,13.0,5.0,15.0,985.5
0,13.0,5.0,16.0,36385.8
0,13.0,6.0,1.0,90964.6
0,13.0,6.0,2.0,303215.5
0,13.0,6.0,3.0,22186.5
0,13.0,6.0,4.0,303215.5
0,13.0,6.0,5.0,101071.8
0,13.0,6.0,7.0,227411.6
0,13.0,6.0,8.0,454823.3
0,13.0,6.0,9.0,454823.3
0,13.0,6.0,10.0,0.0
0,13.0,6.0,11.0,909646.6
0,13.0,6.0,12.0,0.0
0,13.0,6.0,14.0,909646.6
0,13.0,6.0,15.0,75803.8
0,13.0,6.0,16.0,909646.6
0,13.0,7.0,1.0,6273.4
0,13.0,7.0,2.0,33690.6
0,13.0,7.0,3.0,1327.9
0,13.0,7.0,4.0,7106.6
0,13.0,7.0,5.0,4373.3
0,13.0,7.0,6.0,181929.3
0,13.0,7.0,8.0,7395.5
0,13.0,7.0,9.0,24585.0
0,13.0,7.0,10.0,113705.8
0,13.0,7.0,11.0,6497.4
0,13.0,7.0,12.0,20673.7
0,13.0,7.0,14.0,9096.4
0,13.0,7.0,15.0,3295.8
0,13.0,7.0,16.0,60643.1
0,13.0,8.0,1.0,6639.7
0,13.0,8.0,2.0,45482.3
0,13.0,8.0,3.0,1432.5
0,13.0,8.0,4.0,7106.6
0,13.0,8.0,5.0,3394.2
0,13.0,8.0,6.0,181929.3
0,13.0,8.0,7.0,6405.9
0,13.0,8.0,9.0,22741.1
0,13.0,8.0,10.0,60643.1
0,13.0,8.0,11.0,7277.1
0,13.0,8.0,12.0,39549.8
0,13.0,8.0,14.0,10577.2
0,13.0,8.0,15.0,2723.4
0,13.0,8.0,16.0,151607.7
0,13.0,9.0,1.0,21658.2
0,13.0,9.0,2.0,113705.8
0,13.0,9.0,3.0,4153.6
0,13.0,9.0,4.0,22741.1
0,13.0,9.0,5.0,14213.2
0,13.0,9.0,6.0,909646.6
0,13.0,9.0,7.0,22741.1
0,13.0,9.0,8.0,31367.1
0,13.0,9.0,10.0,151607.7
0,13.0,9.0,11.0,27565.0
0,13.0,9.0,12.0,151607.7
0,13.0,9.0,14.0,21154.5
0,13.0,9.0,15.0,10701.7
0,13.0,9.0,16.0,303215.5
0,13.0,10.0,1.0,50535.9
0,13.0,10.0,2.0,227411.6
0,13.0,10.0,3.0,10701.7
0,13.0,10.0,4.0,113705.8
0,13.0,10.0,5.0,60643.1
0,13.0,10.0,6.0,909646.6
0,13.0,10.0,7.0,113705.8
0,13.0,10.0,8.0,69972.8
0,13.0,10.0,9.0,181929.3
0,13.0,10.0,11.0,60643.1
0,13.0,10.0,12.0,227411.6
0,13.0,10.0,14.0,75803.8
0,13.0,10.0,15.0,27565.0
0,13.0,10.0,16.0,454823.3
0,13.0,11.0,1.0,4172.6
0,13.0,11.0,2.0,32487.3
0,13.0,11.0,3.0,972.8
0,13.0,11.0,4.0,6273.4
0,13.0,11.0,5.0,3774.4
0,13.0,11.0,6.0,151607.7
0,13.0,11.0,7.0,6146.2
0,13.0,11.0,8.0,7106.6
0,13.0,11.0,9.0,26754.3
0,13.0,11.0,10.0,64974.7
0,13.0,11.0,12.0,22186.5
0,13.0,11.0,14.0,5793.9
0,13.0,11.0,15.0,2451.8
0,13.0,11.0,16.0,90964.6
0,13.0,12.0,1.0,14912.2
0,13.0,12.0,2.0,82695.1
0,13.0,12.0,3.0,3553.3
0,13.0,12.0,4.0,23938.0
0,13.0,12.0,5.0,15683.5
0,13.0,12.0,6.0,909646.6
0,13.0,12.0,7.0,14671.7
0,13.0,12.0,8.0,30321.5
0,13.0,12.0,9.0,151607.7
0,13.0,12.0,10.0,181929.3
0,13.0,12.0,11.0,20214.3
0,13.0,12.0,14.0,26754.3
0,13.0,12.0,15.0,8269.5
0,13.0,12.0,16.0,101071.8
0,13.0,14.0,1.0,4250.6
0,13.0,14.0,2.0,64974.7
0,13.0,14.0,3.0,1101.2
0,13.0,14.0,4.0,6997.2
0,13.0,14.0,5.0,4617.4
0,13.0,14.0,6.0,227411.6
0,13.0,14.0,7.0,9006.4
0,13.0,14.0,8.0,9575.2
0,13.0,14.0,9.0,25989.9
0,13.0,14.0,10.0,75803.8
0,13.0,14.0,11.0,6024.1
0,13.0,14.0,12.0,25989.9
0,13.0,14.0,15.0,2262.8
0,13.0,14.0,16.0,101071.8
0,13.0,15.0,1.0,1493.6
0,13.0,15.0,2.0,9575.2
0,13.0,15.0,3.0,332.9
0,13.0,15.0,4.0,2213.2
0,13.0,15.0,5.0,881.4
0,13.0,15.0,6.0,39549.8
0,13.0,15.0,7.0,2356.5
0,13.0,15.0,8.0,2135.3
0,13.0,15.0,9.0,3295.8
0,13.0,15.0,10.0,20673.7
0,13.0,15.0,11.0,2021.4
0,13.0,15.0,12.0,6891.2
0,13.0,15.0,14.0,1867.8
0,13.0,15.0,16.0,20673.7
0,13.0,16.0,1.0,113705.8
0,13.0,16.0,2.0,227411.6
0,13.0,16.0,3.0,18950.9
0,13.0,16.0,4.0,151607.7
0,13.0,16.0,5.0,69972.8
0,13.0,16.0,6.0,0.0
0,13.0,16.0,7.0,181929.3
0,13.0,16.0,8.0,454823.3
0,13.0,16.0,9.0,303215.5
0,13.0,16.0,10.0,0.0
0,13.0,16.0,11.0,303215.5
0,13.0,16.0,12.0,454823.3
0,13.0,16.0,14.0,151607.7
0,13.0,16.0,15.0,29343.4
0,14.0,1.0,2.0,34986.4
0,14.0,1.0,3.0,957.5
0,14.0,1.0,4.0,5025.6
0,14.0,1.0,5.0,3682.7
0,14.0,1.0,6.0,101071.8
0,14.0,1.0,7.0,5831.0
0,14.0,1.0,8.0,10577.2
0,14.0,1.0,9.0,18564.2
0,14.0,1.0,10.0,53508.6
0,14.0,1.0,11.0,4970.7
0,14.0,1.0,12.0,16845.3
0,14.0,1.0,13.0,4024.9
0,14.0,1.0,15.0,2240.5
0,14.0,1.0,16.0,90964.6
0,14.0,2.0,1.0,64974.7
0,14.0,2.0,3.0,10336.8
0,14.0,2.0,4.0,101071.8
0,14.0,2.0,5.0,41347.5
0,14.0,2.0,6.0,227411.6
0,14.0,2.0,7.0,64974.7
0,14.0,2.0,8.0,56852.9
0,14.0,2.0,9.0,129949.5
0,14.0,2.0,10.0,151607.7
0,14.0,2.0,11.0,75803.8
0,14.0,2.0,12.0,90964.6
0,14.0,2.0,13.0,82695.1
0,14.0,2.0,15.0,25989.9
0,14.0,2.0,16.0,151607.7
0,14.0,3.0,1.0,532.8
0,14.0,3.0,2.0,4311.1
0,14.0,3.0,4.0,867.1
0,14.0,3.0,5.0,482.3
0,14.0,3.0,6.0,12292.5
0,14.0,3.0,7.0,873.8
0,14.0,3.0,8.0,1086.7
0,14.0,3.0,9.0,2095.9
0,14.0,3.0,10.0,5197.9
0,14.0,3.0,11.0,656.3
0,14.0,3.0,12.0,2465.1
0,14.0,3.0,13.0,563.5
0,14.0,3.0,15.0,361.4
0,14.0,3.0,16.0,10455.7
0,14.0,4.0,1.0,5197.9
0,14.0,4.0,2.0,75803.8
0,14.0,4.0,3.0,1856.4
0,14.0,4.0,5.0,5984.5
0,14.0,4.0,6.0,129949.5
0,14.0,4.0,7.0,12460.9
0,14.0,4.0,8.0,12633.9
0,14.0,4.0,9.0,60643.1
0,14.0,4.0,10.0,60643.1
0,14.0,4.0,11.0,10107.1
0,14.0,4.0,12.0,32487.3
0,14.0,4.0,13.0,7395.5
0,14.0,4.0,15.0,5025.6
0,14.0,4.0,16.0,181929.3
0,14.0,5.0,1.0,3758.8
0,14.0,5.0,2.0,27565.0
0,14.0,5.0,3.0,805.7
0,14.0,5.0,4.0,6188.0
0,14.0,5.0,6.0,69972.8
0,14.0,5.0,7.0,6839.4
0,14.0,5.0,8.0,7909.9
0,14.0,5.0,9.0,13183.2
0,14.0,5.0,10.0,60643.1
0,14.0,5.0,11.0,4191.9
0,14.0,5.0,12.0,16539.0
0,14.0,5.0,13.0,3774.4
0,14.0,5.0,15.0,2125.3
0,14.0,5.0,16.0,56852.9
0,14.0,6.0,1.0,129949.5
0,14.0,6.0,2.0,454823.3
0,14.0,6.0,3.0,37901.9
0,14.0,6.0,4.0,454823.3
0,14.0,6.0,5.0,129949.5
0,14.0,6.0,7.0,181929.3
0,14.0,6.0,8.0,69972.8
0,14.0,6.0,9.0,454823.3
0,14.0,6.0,10.0,227411.6
0,14.0,6.0,11.0,303215.5
0,14.0,6.0,12.0,227411.6
0,14.0,6.0,13.0,303215.5
0,14.0,6.0,15.0,90964.6
0,14.0,6.0,16.0,0.0
0,14.0,7.0,1.0,10701.7
0,14.0,7.0,2.0,60643.1
0,14.0,7.0,3.0,1935.4
0,14.0,7.0,4.0,11969.0
0,14.0,7.0,5.0,9188.3
0,14.0,7.0,6.0,90964.6
0,14.0,7.0,8.0,13377.1
0,14.0,7.0,9.0,30321.5
0,14.0,7.0,10.0,82695.1
0,14.0,7.0,11.0,11662.1
0,14.0,7.0,12.0,33690.6
0,14.0,7.0,13.0,10220.7
0,14.0,7.0,15.0,6997.2
0,14.0,7.0,16.0,227411.6
0,14.0,8.0,1.0,14438.8
0,14.0,8.0,2.0,64974.7
0,14.0,8.0,3.0,2816.2
0,14.0,8.0,4.0,13782.5
0,14.0,8.0,5.0,10107.1
0,14.0,8.0,6.0,64974.7
0,14.0,8.0,7.0,13994.5
0,14.0,8.0,9.0,53508.6
0,14.0,8.0,10.0,75803.8
0,14.0,8.0,11.0,14671.7
0,14.0,8.0,12.0,50535.9
0,14.0,8.0,13.0,11093.2
0,14.0,8.0,15.0,7395.5
0,14.0,8.0,16.0,181929.3
0,14.0,9.0,1.0,19774.9
0,14.0,9.0,2.0,129949.5
0,14.0,9.0,3.0,5479.7
0,14.0,9.0,4.0,53508.6
0,14.0,9.0,5.0,16539.0
0,14.0,9.0,6.0,454823.3
0,14.0,9.0,7.0,56852.9
0,14.0,9.0,8.0,64974.7
0,14.0,9.0,10.0,129949.5
0,14.0,9.0,11.0,60643.1
0,14.0,9.0,12.0,82695.1
0,14.0,9.0,13.0,45482.3
0,14.0,9.0,15.0,18564.2
0,14.0,9.0,16.0,454823.3
0,14.0,10.0,1.0,7979.3
0,14.0,10.0,2.0,151607.7
0,14.0,10.0,3.0,15160.7
0,14.0,10.0,4.0,8501.3
0,14.0,10.0,5.0,69972.8
0,14.0,10.0,6.0,181929.3
0,14.0,10.0,7.0,129949.5
0,14.0,10.0,8.0,69972.8
0,14.0,10.0,9.0,151607.7
0,14.0,10.0,11.0,75803.8
0,14.0,10.0,12.0,113705.8
0,14.0,10.0,13.0,75803.8
0,14.0,10.0,15.0,43316.5
0,14.0,10.0,16.0,909646.6
0,14.0,11.0,1.0,3870.8
0,14.0,11.0,2.0,33690.6
0,14.0,11.0,3.0,1339.6
0,14.0,11.0,4.0,5831.0
0,14.0,11.0,5.0,4688.9
0,14.0,11.0,6.0,151607.7
0,14.0,11.0,7.0,11662.1
0,14.0,11.0,8.0,12633.9
0,14.0,11.0,9.0,27565.0
0,14.0,11.0,10.0,56852.9
0,14.0,11.0,12.0,20214.3
0,14.0,11.0,13.0,6064.3
0,14.0,11.0,15.0,3806.0
0,14.0,11.0,16.0,113705.8
0,14.0,12.0,1.0,19774.9
0,14.0,12.0,2.0,101071.8
0,14.0,12.0,3.0,5984.5
0,14.0,12.0,4.0,37901.9
0,14.0,12.0,5.0,21154.5
0,14.0,12.0,6.0,151607.7
0,14.0,12.0,7.0,30321.5
0,14.0,12.0,8.0,45482.3
0,14.0,12.0,9.0,75803.8
0,14.0,12.0,10.0,90964.6
0,14.0,12.0,11.0,24585.0
0,14.0,12.0,13.0,22186.5
0,14.0,12.0,15.0,15958.7
0,14.0,12.0,16.0,129949.5
0,14.0,13.0,1.0,4153.6
0,14.0,13.0,2.0,56852.9
0,14.0,13.0,3.0,1121.6
0,14.0,13.0,4.0,8049.9
0,14.0,13.0,5.0,4211.3
0,14.0,13.0,6.0,151607.7
0,14.0,13.0,7.0,9188.3
0,14.0,13.0,8.0,8049.9
0,14.0,13.0,9.0,26754.3
0,14.0,13.0,10.0,45482.3
0,14.0,13.0,11.0,5649.9
0,14.0,13.0,12.0,18950.9
0,14.0,13.0,15.0,2326.4
0,14.0,13.0,16.0,113705.8
0,14.0,15.0,1.0,2279.8
0,14.0,15.0,2.0,20673.7
0,14.0,15.0,3.0,511.0
0,14.0,15.0,4.0,4641.0
0,14.0,15.0,5.0,1801.2
0,14.0,15.0,6.0,53508.6
0,14.0,15.0,7.0,5168.4
0,14.0,15.0,8.0,5025.6
0,14.0,15.0,9.0,12994.9
0,14.0,15.0,10.0,28426.4
0,14.0,15.0,11.0,3052.5
0,14.0,15.0,12.0,11093.2
0,14.0,15.0,13.0,1927.2
0,14.0,15.0,16.0,29343.4
0,14.0,16.0,1.0,227411.6
0,14.0,16.0,2.0,181929.3
0,14.0,16.0,3.0,36385.8
0,14.0,16.0,4.0,303215.5
0,14.0,16.0,5.0,101071.8
0,14.0,16.0,6.0,454823.3
0,14.0,16.0,7.0,227411.6
0,14.0,16.0,8.0,129949.5
0,14.0,16.0,9.0,303215.5
0,14.0,16.0,10.0,454823.3
0,14.0,16.0,11.0,303215.5
0,14.0,16.0,12.0,181929.3
0,14.0,16.0,13.0,151607.7
0,14.0,16.0,15.0,75803.8
0,15.0,1.0,2.0,8269.5
0,15.0,1.0,3.0,204.1
0,15.0,1.0,4.0,1471.9
0,15.0,1.0,5.0,538.2
0,15.0,1.0,6.0,21154.5
0,15.0,1.0,7.0,1173.7
0,15.0,1.0,8.0,1990.4
0,15.0,1.0,9.0,5721.0
0,15.0,1.0,10.0,12994.9
0,15.0,1.0,11.0,1139.9
0,15.0,1.0,12.0,4641.0
0,15.0,1.0,13.0,940.6
0,15.0,1.0,14.0,1094.6
0,15.0,1.0,16.0,19354.1
0,15.0,2.0,1.0,12460.9
0,15.0,2.0,3.0,2972.7
0,15.0,2.0,4.0,17836.2
0,15.0,2.0,5.0,8195.0
0,15.0,2.0,6.0,82695.1
0,15.0,2.0,7.0,18950.9
0,15.0,2.0,8.0,22741.1
0,15.0,2.0,9.0,27565.0
0,15.0,2.0,10.0,69972.8
0,15.0,2.0,11.0,17163.1
0,15.0,2.0,12.0,41347.5
0,15.0,2.0,13.0,10577.2
0,15.0,2.0,14.0,20673.7
0,15.0,2.0,16.0,90964.6
0,15.0,3.0,1.0,105.1
0,15.0,3.0,2.0,1022.0
0,15.0,3.0,4.0,243.8
0,15.0,3.0,5.0,75.4
0,15.0,3.0,6.0,2982.4
0,15.0,3.0,7.0,181.0
0,15.0,3.0,8.0,271.7
0,15.0,3.0,9.0,717.3
0,15.0,3.0,10.0,1732.6
0,15.0,3.0,11.0,157.5
0,15.0,3.0,12.0,782.8
0,15.0,3.0,13.0,135.6
0,15.0,3.0,14.0,196.6
0,15.0,3.0,16.0,2548.0
0,15.0,4.0,1.0,2285.5
0,15.0,4.0,2.0,17163.1
0,15.0,4.0,3.0,568.5
0,15.0,4.0,5.0,1633.1
0,15.0,4.0,6.0,64974.7
0,15.0,4.0,7.0,3283.9
0,15.0,4.0,8.0,4437.3
0,15.0,4.0,9.0,8831.5
0,15.0,4.0,10.0,32487.3
0,15.0,4.0,11.0,3854.4
0,15.0,4.0,12.0,14213.2
0,15.0,4.0,13.0,1994.8
0,15.0,4.0,14.0,3667.9
0,15.0,4.0,16.0,47876.1
0,15.0,5.0,1.0,465.0
0,15.0,5.0,2.0,4737.7
0,15.0,5.0,3.0,126.9
0,15.0,5.0,4.0,1024.3
0,15.0,5.0,6.0,14671.7
0,15.0,5.0,7.0,848.5
0,15.0,5.0,8.0,1019.7
0,15.0,5.0,9.0,3104.5
0,15.0,5.0,10.0,7580.3
0,15.0,5.0,11.0,765.0
0,15.0,5.0,12.0,3887.3
0,15.0,5.0,13.0,527.6
0,15.0,5.0,14.0,914.2
0,15.0,5.0,16.0,11093.2
0,15.0,6.0,1.0,43316.5
0,15.0,6.0,2.0,129949.5
0,15.0,6.0,3.0,9006.4
0,15.0,6.0,4.0,151607.7
0,15.0,6.0,5.0,31367.1
0,15.0,6.0,7.0,90964.6
0,15.0,6.0,8.0,101071.8
0,15.0,6.0,9.0,151607.7
0,15.0,6.0,10.0,151607.7
0,15.0,6.0,11.0,69972.8
0,15.0,6.0,12.0,101071.8
0,15.0,6.0,13.0,43316.5
0,15.0,6.0,14.0,56852.9
0,15.0,6.0,16.0,227411.6
0,15.0,7.0,1.0,1879.4
0,15.0,7.0,2.0,16539.0
0,15.0,7.0,3.0,438.3
0,15.0,7.0,4.0,3332.0
0,15.0,7.0,5.0,1256.4
0,15.0,7.0,6.0,45482.3
0,15.0,7.0,8.0,2807.5
0,15.0,7.0,9.0,10336.8
0,15.0,7.0,10.0,27565.0
0,15.0,7.0,11.0,2816.2
0,15.0,7.0,12.0,12811.9
0,15.0,7.0,13.0,1919.0
0,15.0,7.0,14.0,3356.6
0,15.0,7.0,16.0,43316.5
0,15.0,8.0,1.0,3094.0
0,15.0,8.0,2.0,17493.2
0,15.0,8.0,3.0,610.9
0,15.0,8.0,4.0,4290.7
0,15.0,8.0,5.0,1516.0
0,15.0,8.0,6.0,69972.8
0,15.0,8.0,7.0,3012.0
0,15.0,8.0,9.0,11662.1
0,15.0,8.0,10.0,31367.1
0,15.0,8.0,11.0,3307.8
0,15.0,8.0,12.0,18192.9
0,15.0,8.0,13.0,2135.3
0,15.0,8.0,14.0,4890.5
0,15.0,8.0,16.0,47876.1
0,15.0,9.0,1.0,9677.0
0,15.0,9.0,2.0,33690.6
0,15.0,9.0,3.0,1719.5
0,15.0,9.0,4.0,12811.9
0,15.0,9.0,5.0,5685.2
0,15.0,9.0,6.0,113705.8
0,15.0,9.0,7.0,12128.6
0,15.0,9.0,8.0,15417.7
0,15.0,9.0,10.0,101071.8
0,15.0,9.0,11.0,11514.5
0,15.0,9.0,12.0,41347.5
0,15.0,9.0,13.0,8581.5
0,15.0,9.0,14.0,15417.7
0,15.0,9.0,16.0,47876.1
0,15.0,10.0,1.0,25989.9
0,15.0,10.0,2.0,90964.6
0,15.0,10.0,3.0,4641.0
0,15.0,10.0,4.0,56852.9
0,15.0,10.0,5.0,13576.8
0,15.0,10.0,6.0,151607.7
0,15.0,10.0,7.0,43316.5
0,15.0,10.0,8.0,39549.8
0,15.0,10.0,9.0,113705.8
0,15.0,10.0,11.0,33690.6
0,15.0,10.0,12.0,101071.8
0,15.0,10.0,13.0,23324.2
0,15.0,10.0,14.0,32487.3
0,15.0,10.0,16.0,227411.6
0,15.0,11.0,1.0,1627.2
0,15.0,11.0,2.0,12994.9
0,15.0,11.0,3.0,379.4
0,15.0,11.0,4.0,3225.6
0,15.0,11.0,5.0,1137.0
0,15.0,11.0,6.0,41347.5
0,15.0,11.0,7.0,2636.6
0,15.0,11.0,8.0,2934.3
0,15.0,11.0,9.0,8345.3
0,15.0,11.0,10.0,20214.3
0,15.0,11.0,12.0,7219.4
0,15.0,11.0,13.0,1565.6
0,15.0,11.0,14.0,2229.5
0,15.0,11.0,16.0,25267.9
0,15.0,12.0,1.0,6188.0
0,15.0,12.0,2.0,45482.3
0,15.0,12.0,3.0,1666.0
0,15.0,12.0,4.0,18564.2
0,15.0,12.0,5.0,6891.2
0,15.0,12.0,6.0,64974.7
0,15.0,12.0,7.0,14438.8
0,15.0,12.0,8.0,21658.2
0,15.0,12.0,9.0,32487.3
0,15.0,12.0,10.0,50535.9
0,15.0,12.0,11.0,9188.3
0,15.0,12.0,13.0,7219.4
0,15.0,12.0,14.0,11813.5
0,15.0,12.0,16.0,75803.8
0,15.0,13.0,1.0,1109.3
0,15.0,13.0,2.0,7979.3
0,15.0,13.0,3.0,257.9
0,15.0,13.0,4.0,1636.0
0,15.0,13.0,5.0,621.7
0,15.0,13.0,6.0,24585.0
0,15.0,13.0,7.0,1508.5
0,15.0,13.0,8.0,1607.1
0,15.0,13.0,9.0,3002.1
0,15.0,13.0,10.0,14438.8
0,15.0,13.0,11.0,1286.6
0,15.0,13.0,12.0,4943.7
0,15.0,13.0,14.0,1286.6
0,15.0,13.0,16.0,15160.7
0,15.0,14.0,1.0,1549.6
0,15.0,14.0,2.0,15683.5
0,15.0,14.0,3.0,412.3
0,15.0,14.0,4.0,3332.0
0,15.0,14.0,5.0,1268.6
0,15.0,14.0,6.0,37901.9
0,15.0,14.0,7.0,3158.4
0,15.0,14.0,8.0,3854.4
0,15.0,14.0,9.0,9575.2
0,15.0,14.0,10.0,20214.3
0,15.0,14.0,11.0,2105.6
0,15.0,14.0,12.0,10220.7
0,15.0,14.0,13.0,1345.6
0,15.0,14.0,16.0,29343.4
0,15.0,16.0,1.0,34986.4
0,15.0,16.0,2.0,101071.8
0,15.0,16.0,3.0,6105.0
0,15.0,16.0,4.0,64974.7
0,15.0,16.0,5.0,18950.9
0,15.0,16.0,6.0,227411.6
0,15.0,16.0,7.0,56852.9
0,15.0,16.0,8.0,47876.1
0,15.0,16.0,9.0,69972.8
0,15.0,16.0,10.0,181929.3
0,15.0,16.0,11.0,37901.9
0,15.0,16.0,12.0,90964.6
0,15.0,16.0,13.0,20214.3
0,15.0,16.0,14.0,39549.8
0,16.0,1.0,2.0,303215.5
0,16.0,1.0,3.0,23324.2
0,16.0,1.0,4.0,303215.5
0,16.0,1.0,5.0,101071.8
0,16.0,1.0,6.0,454823.3
0,16.0,1.0,7.0,151607.7
0,16.0,1.0,8.0,303215.5
0,16.0,1.0,9.0,454823.3
0,16.0,1.0,10.0,0.0
0,16.0,1.0,11.0,303215.5
0,16.0,1.0,12.0,909646.6
0,16.0,1.0,13.0,227411.6
0,16.0,1.0,14.0,227411.6
0,16.0,1.0,15.0,60643.1
0,16.0,2.0,1.0,454823.3
0,16.0,2.0,3.0,101071.8
0,16.0,2.0,4.0,454823.3
0,16.0,2.0,5.0,454823.3
0,16.0,2.0,6.0,909646.6
0,16.0,2.0,7.0,909646.6
0,16.0,2.0,8.0,227411.6
0,16.0,2.0,9.0,909646.6
0,16.0,2.0,10.0,909646.6
0,16.0,2.0,11.0,227411.6
0,16.0,2.0,12.0,0.0
0,16.0,2.0,13.0,303215.5
0,16.0,2.0,14.0,454823.3
0,16.0,2.0,15.0,454823.3
0,16.0,3.0,1.0,16845.3
0,16.0,3.0,2.0,151607.7
0,16.0,3.0,4.0,34986.4
0,16.0,3.0,5.0,13782.5
0,16.0,3.0,6.0,90964.6
0,16.0,3.0,7.0,30321.5
0,16.0,3.0,8.0,50535.9
0,16.0,3.0,9.0,45482.3
0,16.0,3.0,10.0,113705.8
0,16.0,3.0,11.0,20214.3
0,16.0,3.0,12.0,56852.9
0,16.0,3.0,13.0,16539.0
0,16.0,3.0,14.0,27565.0
0,16.0,3.0,15.0,8918.1
0,16.0,4.0,1.0,303215.5
0,16.0,4.0,2.0,454823.3
0,16.0,4.0,3.0,41347.5
0,16.0,4.0,5.0,129949.5
0,16.0,4.0,6.0,0.0
0,16.0,4.0,7.0,0.0
0,16.0,4.0,8.0,303215.5
0,16.0,4.0,9.0,227411.6
0,16.0,4.0,10.0,303215.5
0,16.0,4.0,11.0,909646.6
0,16.0,4.0,12.0,909646.6
0,16.0,4.0,13.0,151607.7
0,16.0,4.0,14.0,303215.5
0,16.0,4.0,15.0,227411.6
0,16.0,5.0,1.0,64974.7
0,16.0,5.0,2.0,454823.3
0,16.0,5.0,3.0,17493.2
0,16.0,5.0,4.0,181929.3
0,16.0,5.0,6.0,0.0
0,16.0,5.0,7.0,181929.3
0,16.0,5.0,8.0,181929.3
0,16.0,5.0,9.0,151607.7
0,16.0,5.0,10.0,909646.6
0,16.0,5.0,11.0,101071.8
0,16.0,5.0,12.0,227411.6
0,16.0,5.0,13.0,75803.8
0,16.0,5.0,14.0,82695.1
0,16.0,5.0,15.0,32487.3
0,16.0,6.0,1.0,0.0
0,16.0,6.0,2.0,303215.5
0,16.0,6.0,3.0,101071.8
0,16.0,6.0,4.0,0.0
0,16.0,6.0,5.0,0.0
0,16.0,6.0,7.0,909646.6
0,16.0,6.0,8.0,303215.5
0,16.0,6.0,9.0,454823.3
0,16.0,6.0,10.0,454823.3
0,16.0,6.0,11.0,909646.6
0,16.0,6.0,12.0,909646.6
0,16.0,6.0,13.0,0.0
0,16.0,6.0,14.0,0.0
0,16.0,6.0,15.0,454823.3
0,16.0,7.0,1.0,909646.6
0,16.0,7.0,2.0,909646.6
0,16.0,7.0,3.0,45482.3
0,16.0,7.0,4.0,0.0
0,16.0,7.0,5.0,227411.6
0,16.0,7.0,6.0,454823.3
0,16.0,7.0,8.0,909646.6
0,16.0,7.0,9.0,0.0
0,16.0,7.0,10.0,0.0
0,16.0,7.0,11.0,454823.3
0,16.0,7.0,12.0,454823.3
0,16.0,7.0,13.0,227411.6
0,16.0,7.0,14.0,454823.3
0,16.0,7.0,15.0,227411.6
0,16.0,8.0,1.0,303215.5
0,16.0,8.0,2.0,181929.3
0,16.0,8.0,3.0,60643.1
0,16.0,8.0,4.0,303215.5
0,16.0,8.0,5.0,151607.7
0,16.0,8.0,6.0,113705.8
0,16.0,8.0,7.0,0.0
0,16.0,8.0,9.0,454823.3
0,16.0,8.0,10.0,0.0
0,16.0,8.0,11.0,303215.5
0,16.0,8.0,12.0,909646.6
0,16.0,8.0,13.0,454823.3
0,16.0,8.0,14.0,227411.6
0,16.0,8.0,15.0,90964.6
0,16.0,9.0,1.0,303215.5
0,16.0,9.0,2.0,0.0
0,16.0,9.0,3.0,47876.1
0,16.0,9.0,4.0,303215.5
0,16.0,9.0,5.0,227411.6
0,16.0,9.0,6.0,454823.3
0,16.0,9.0,7.0,909646.6
0,16.0,9.0,8.0,454823.3
0,16.0,9.0,10.0,909646.6
0,16.0,9.0,11.0,0.0
0,16.0,9.0,12.0,0.0
0,16.0,9.0,13.0,454823.3
0,16.0,9.0,14.0,227411.6
0,16.0,9.0,15.0,129949.5
0,16.0,10.0,1.0,909646.6
0,16.0,10.0,2.0,909646.6
0,16.0,10.0,3.0,101071.8
0,16.0,10.0,4.0,454823.3
0,16.0,10.0,5.0,909646.6
0,16.0,10.0,6.0,0.0
0,16.0,10.0,7.0,0.0
0,16.0,10.0,8.0,0.0
0,16.0,10.0,9.0,909646.6
0,16.0,10.0,11.0,909646.6
0,16.0,10.0,12.0,909646.6
0,16.0,10.0,13.0,909646.6
0,16.0,10.0,14.0,303215.5
0,16.0,10.0,15.0,303215.5
0,16.0,11.0,1.0,454823.3
0,16.0,11.0,2.0,454823.3
0,16.0,11.0,3.0,36385.8
0,16.0,11.0,4.0,454823.3
0,16.0,11.0,5.0,129949.5
0,16.0,11.0,6.0,0.0
0,16.0,11.0,7.0,909646.6
0,16.0,11.0,8.0,454823.3
0,16.0,11.0,9.0,0.0
0,16.0,11.0,10.0,0.0
0,16.0,11.0,12.0,909646.6
0,16.0,11.0,13.0,454823.3
0,16.0,11.0,14.0,303215.5
0,16.0,11.0,15.0,82695.1
0,16.0,12.0,1.0,909646.6
0,16.0,12.0,2.0,0.0
0,16.0,12.0,3.0,69972.8
0,16.0,12.0,4.0,454823.3
0,16.0,12.0,5.0,454823.3
0,16.0,12.0,6.0,909646.6
0,16.0,12.0,7.0,909646.6
0,16.0,12.0,8.0,303215.5
0,16.0,12.0,9.0,303215.5
0,16.0,12.0,10.0,909646.6
0,16.0,12.0,11.0,909646.6
0,16.0,12.0,13.0,454823.3
0,16.0,12.0,14.0,181929.3
0,16.0,12.0,15.0,181929.3
0,16.0,13.0,1.0,151607.7
0,16.0,13.0,2.0,454823.3
0,16.0,13.0,3.0,25267.9
0,16.0,13.0,4.0,303215.5
0,16.0,13.0,5.0,90964.6
0,16.0,13.0,6.0,0.0
0,16.0,13.0,7.0,303215.5
0,16.0,13.0,8.0,0.0
0,16.0,13.0,9.0,909646.6
0,16.0,13.0,10.0,909646.6
0,16.0,13.0,11.0,454823.3
0,16.0,13.0,12.0,909646.6
0,16.0,13.0,14.0,181929.3
0,16.0,13.0,15.0,37901.9
0,16.0,14.0,1.0,227411.6
0,16.0,14.0,2.0,454823.3
0,16.0,14.0,3.0,41347.5
0,16.0,14.0,4.0,454823.3
0,16.0,14.0,5.0,113705.8
0,16.0,14.0,6.0,0.0
0,16.0,14.0,7.0,909646.6
0,16.0,14.0,8.0,227411.6
0,16.0,14.0,9.0,303215.5
0,16.0,14.0,10.0,909646.6
0,16.0,14.0,11.0,303215.5
0,16.0,14.0,12.0,181929.3
0,16.0,14.0,13.0,181929.3
0,16.0,14.0,15.0,90964.6
0,16.0,15.0,1.0,60643.1
0,16.0,15.0,2.0,454823.3
0,16.0,15.0,3.0,11662.1
0,16.0,15.0,4.0,181929.3
0,16.0,15.0,5.0,41347.5
0,16.0,15.0,6.0,113705.8
0,16.0,15.0,7.0,181929.3
0,16.0,15.0,8.0,101071.8
0,16.0,15.0,9.0,101071.8
0,16.0,15.0,10.0,303215.5
0,16.0,15.0,11.0,75803.8
0,16.0,15.0,12.0,151607.7
0,16.0,15.0,13.0,33690.6
0,16.0,15.0,14.0,75803.8
