,馬番1,馬番2,馬連
0,1.0,2.0,26.1
0,1.0,3.0,51.2
0,1.0,4.0,284.3
0,1.0,5.0,59.2
0,1.0,6.0,17.3
0,1.0,7.0,39.0
0,1.0,8.0,66.0
0,1.0,9.0,5.0
0,2.0,3.0,95.7
0,2.0,4.0,425.8
0,2.0,5.0,76.9
0,2.0,6.0,25.3
0,2.0,7.0,47.5
0,2.0,8.0,105.5
0,2.0,9.0,6.9
0,3.0,4.0,552.7
0,3.0,5.0,146.5
0,3.0,6.0,53.7
0,3.0,7.0,106.7
0,3.0,8.0,199.2
0,3.0,9.0,19.8
0,4.0,5.0,509.2
0,4.0,6.0,286.3
0,4.0,7.0,466.7
0,4.0,8.0,492.5
0,4.0,9.0,91.3
0,5.0,6.0,52.6
0,5.0,7.0,79.0
0,5.0,8.0,131.9
0,5.0,9.0,15.5
0,6.0,7.0,33.3
0,6.0,8.0,66.3
0,6.0,9.0,4.0
0,7.0,8.0,117.1
0,7.0,9.0,9.7
0,8.0,9.0,18.4
