,枠番,馬番,馬名,単勝,複勝最小,複勝最大
0,1.0,1.0,アドマイヤムテキ,39.3,6.9,12.6
0,1.0,2.0,ウインユニファイド,11.5,2.0,3.4
0,2.0,3.0,カフジナイサー,25.1,4.8,8.6
0,2.0,4.0,イスズイーグル,139.6,19.0,35.1
0,3.0,5.0,ミッキーデータ,20.7,3.1,5.3
0,3.0,6.0,オウケンワールド,2.4,1.2,1.6
0,4.0,7.0,ニホンピロサンダー,38.0,6.4,11.7
0,4.0,8.0,フォースフィールド,80.7,9.0,16.6
0,5.0,9.0,メイショウヨイチ,66.5,6.9,12.5
0,5.0,10.0,サンライズフレンチ,72.9,9.6,17.7
0,6.0,11.0,ザイディックメア,3.0,1.2,1.6
0,6.0,12.0,アイファーラブオー,26.5,4.2,7.5
0,7.0,13.0,ギンガ,41.7,5.7,10.3
0,7.0,14.0,ジョウショーチカラ,7.1,1.5,2.4
0,8.0,15.0,ヤマイチレジェンド,80.4,13.4,24.7
0,8.0,16.0,ローザズカレッジ,49.3,5.1,9.2
