,枠番,馬番,馬名,単勝,複勝最小,複勝最大
0,1.0,1.0,アドマイヤツヨシ,16.9,2.8,4.6
0,2.0,2.0,フェイトカラー,16.2,3.6,6.0
0,3.0,3.0,クラウディオス,91.2,16.1,27.8
0,4.0,4.0,テーオービックバン,2.5,1.2,1.4
0,5.0,5.0,エイヴィアンボス,76.6,10.3,17.8
0,6.0,6.0,ブレイヴリー,4.7,1.4,2.0
0,6.0,7.0,キリシマホーマ,6.6,1.8,2.7
0,7.0,8.0,ビキニスタイル,19.4,3.3,5.4
0,7.0,9.0,スズカビスタ,46.0,8.0,13.7
0,8.0,10.0,サンセットスカイ,9.0,1.9,2.9
0,8.0,11.0,カゼルタ,5.9,1.7,2.6
