,馬番1,馬番2,馬単
0,1.0,2.0,54.2
0,1.0,3.0,77.0
0,1.0,4.0,155.5
0,1.0,5.0,568.8
0,1.0,6.0,130.6
0,1.0,7.0,364.1
0,1.0,8.0,547.2
0,1.0,9.0,63.1
0,1.0,10.0,261.5
0,1.0,11.0,18.3
0,2.0,1.0,53.1
0,2.0,3.0,79.7
0,2.0,4.0,191.6
0,2.0,5.0,673.5
0,2.0,6.0,145.9
0,2.0,7.0,447.5
0,2.0,8.0,649.6
0,2.0,9.0,71.5
0,2.0,10.0,295.7
0,2.0,11.0,20.0
0,3.0,1.0,88.7
0,3.0,2.0,89.2
0,3.0,4.0,263.5
0,3.0,5.0,757.0
0,3.0,6.0,194.3
0,3.0,7.0,448.5
0,3.0,8.0,805.5
0,3.0,9.0,94.6
0,3.0,10.0,370.8
0,3.0,11.0,29.4
0,4.0,1.0,197.6
0,4.0,2.0,252.6
0,4.0,3.0,310.2
0,4.0,5.0,1137.7
0,4.0,6.0,333.9
0,4.0,7.0,853.3
0,4.0,8.0,1220.5
0,4.0,9.0,209.1
0,4.0,10.0,871.7
0,4.0,11.0,64.9
0,5.0,1.0,982.3
0,5.0,2.0,1125.0
0,5.0,3.0,1266.5
0,5.0,4.0,1235.4
0,5.0,6.0,1290.9
0,5.0,7.0,2142.3
0,5.0,8.0,3301.3
0,5.0,9.0,1027.4
0,5.0,10.0,2721.3
0,5.0,11.0,251.7
0,6.0,1.0,177.4
0,6.0,2.0,213.1
0,6.0,3.0,247.3
0,6.0,4.0,349.0
0,6.0,5.0,1379.3
0,6.0,7.0,945.4
0,6.0,8.0,1388.8
0,6.0,9.0,170.8
0,6.0,10.0,774.5
0,6.0,11.0,53.1
0,7.0,1.0,562.5
0,7.0,2.0,759.9
0,7.0,3.0,627.3
0,7.0,4.0,936.6
0,7.0,5.0,2213.0
0,7.0,6.0,1150.7
0,7.0,8.0,2455.8
0,7.0,9.0,610.2
0,7.0,10.0,1955.1
0,7.0,11.0,167.9
0,8.0,1.0,941.0
0,8.0,2.0,1191.6
0,8.0,3.0,1282.6
0,8.0,4.0,1561.1
0,8.0,5.0,3356.3
0,8.0,6.0,1736.0
0,8.0,7.0,2876.9
0,8.0,9.0,1258.6
0,8.0,10.0,2649.7
0,8.0,11.0,249.5
0,9.0,1.0,61.6
0,9.0,2.0,61.9
0,9.0,3.0,84.9
0,9.0,4.0,175.8
0,9.0,5.0,599.3
0,9.0,6.0,109.5
0,9.0,7.0,402.7
0,9.0,8.0,745.8
0,9.0,10.0,296.1
0,9.0,11.0,15.5
0,10.0,1.0,392.5
0,10.0,2.0,527.1
0,10.0,3.0,594.0
0,10.0,4.0,977.5
0,10.0,5.0,2397.4
0,10.0,6.0,1043.4
0,10.0,7.0,2054.9
0,10.0,8.0,2397.4
0,10.0,9.0,456.6
0,10.0,11.0,112.0
0,11.0,1.0,6.1
0,11.0,2.0,7.2
0,11.0,3.0,10.9
0,11.0,4.0,21.7
0,11.0,5.0,76.8
0,11.0,6.0,16.6
0,11.0,7.0,62.5
0,11.0,8.0,90.2
0,11.0,9.0,5.8
0,11.0,10.0,37.9
