,枠番,馬番,馬名,単勝,複勝最小,複勝最大
0,1.0,1.0,アグリナンバーワン,219.0,33.9,51.3
0,2.0,2.0,メイショウフライキ,17.8,3.9,5.8
0,3.0,3.0,アーネストミノル,22.8,4.2,6.2
0,3.0,4.0,スリーエスペラント,50.6,8.5,12.9
0,4.0,5.0,スズカブリザード,152.1,30.3,45.9
0,4.0,6.0,クロスアンジュ,18.1,4.1,6.1
0,5.0,7.0,ナガラブルボン,4.8,1.5,1.9
0,5.0,8.0,テイエムシャンパン,3.6,1.5,2.0
0,6.0,9.0,バーサーカー,35.5,7.1,10.7
0,6.0,10.0,ダイシンバルカン,5.2,1.7,2.4
0,7.0,11.0,クリノシャンボール,6.4,2.0,2.9
0,7.0,12.0,ジュエルメッセージ,11.8,2.9,4.2
0,8.0,13.0,スワニルダ,17.1,3.8,5.6
0,8.0,14.0,ハッピーロングラン,14.3,3.1,4.5
