,枠番,馬番,馬名,単勝,複勝最小,複勝最大
0,1.0,1.0,コパカバーナ,53.3,6.5,13.1
0,1.0,2.0,ナムラクロエ,17.2,2.5,4.8
0,2.0,3.0,キチロクエンパイア,602.8,65.2,134.9
0,2.0,4.0,ブライトエピローグ,1.8,1.1,1.2
0,3.0,5.0,パシオンシャンス,25.3,3.8,7.3
0,3.0,6.0,ジェイケイオジョウ,115.0,9.6,19.5
0,4.0,7.0,ユニルドール,248.4,27.7,57.1
0,4.0,8.0,シュピールカルテ,6.4,1.3,2.1
0,5.0,9.0,ティーデュエル,92.4,9.2,18.6
0,5.0,10.0,アズールムーン,6.0,1.4,2.4
0,6.0,11.0,ニシノヒナマツリ,11.2,2.0,3.7
0,6.0,12.0,アップルパンチ,186.0,13.4,27.3
0,7.0,13.0,ヒハマタノボル,25.5,3.1,5.8
0,7.0,14.0,ロマングレース,265.2,25.2,51.9
0,8.0,15.0,レジーナフォルテ,100.5,9.7,19.7
0,8.0,16.0,ウーマッハ,65.4,7.2,14.5
0,8.0,17.0,シャンパンゴールド,436.7,53.5,110.7
