,枠番,馬番,馬名,単勝,複勝最小,複勝最大
0,1.0,1.0,メンデンホール,66.6,12.3,19.5
0,1.0,2.0,コリーナ,14.2,2.5,3.7
0,2.0,3.0,タカラジャンヌ,108.4,17.2,27.4
0,2.0,4.0,コスモイノセント,14.1,2.7,4.0
0,3.0,5.0,ホウオウマリリン,35.6,6.1,9.6
0,3.0,6.0,ステイブレイズ,52.6,9.1,14.3
0,4.0,7.0,ニシノハレブタイ,30.7,6.1,9.5
0,4.0,8.0,チェルカトーレ,7.5,1.8,2.7
0,5.0,9.0,ブルローネ,34.6,8.9,14.0
0,5.0,10.0,サクラパリュール,194.6,40.4,64.4
0,6.0,11.0,ヨイミヤ,18.6,3.8,5.8
0,6.0,12.0,ケンブリッジヒカリ,388.8,62.8,99.9
0,7.0,13.0,シャイニングアロー,22.7,4.4,6.8
0,7.0,14.0,イオラニ,22.7,4.8,7.5
0,7.0,15.0,ニシノオタケビ,14.1,3.3,5.0
0,8.0,16.0,レッドマジュール,2.2,1.3,1.6
0,8.0,17.0,カワキタピリカ,6.5,1.7,2.4
0,8.0,18.0,ボーアムルーズ,33.2,8.5,13.4
