,枠番,馬番,馬名,単勝,複勝最小,複勝最大
0,1.0,1.0,エナジータウン,14.5,3.0,4.5
0,2.0,2.0,ウォーターラボ,2.9,1.3,1.7
0,3.0,3.0,オールパーパス,26.8,4.2,6.3
0,4.0,4.0,エスペランサリュウ,13.9,2.8,4.1
0,5.0,5.0,スカイパッション,71.3,11.1,16.7
0,6.0,6.0,サカジロテンオー,8.5,2.2,3.2
0,7.0,7.0,ケイアイヴァーゲ,5.0,1.5,2.1
0,7.0,8.0,ラホーヤビーチ,37.7,7.5,11.3
0,8.0,9.0,メイショウラバンド,6.8,1.7,2.4
0,8.0,10.0,フェザリータッチ,4.3,1.4,1.9
