,馬番1,馬番2,馬連
0,1.0,2.0,216.8
0,1.0,3.0,893.6
0,1.0,4.0,1479.6
0,1.0,5.0,94.9
0,1.0,6.0,466.9
0,1.0,7.0,406.1
0,1.0,8.0,725.6
0,1.0,9.0,447.6
0,1.0,10.0,316.0
0,1.0,11.0,1045.2
0,1.0,12.0,345.2
0,1.0,13.0,1174.5
0,1.0,14.0,762.1
0,1.0,15.0,153.0
0,1.0,16.0,366.9
0,2.0,3.0,507.5
0,2.0,4.0,622.5
0,2.0,5.0,22.1
0,2.0,6.0,285.1
0,2.0,7.0,92.1
0,2.0,8.0,396.9
0,2.0,9.0,92.7
0,2.0,10.0,66.5
0,2.0,11.0,380.4
0,2.0,12.0,77.6
0,2.0,13.0,438.2
0,2.0,14.0,338.0
0,2.0,15.0,29.0
0,2.0,16.0,129.9
0,3.0,4.0,2745.4
0,3.0,5.0,157.6
0,3.0,6.0,1675.5
0,3.0,7.0,723.3
0,3.0,8.0,2504.0
0,3.0,9.0,670.2
0,3.0,10.0,446.8
0,3.0,11.0,2778.8
0,3.0,12.0,598.0
0,3.0,13.0,2424.1
0,3.0,14.0,2649.6
0,3.0,15.0,189.8
0,3.0,16.0,965.5
0,4.0,5.0,305.0
0,4.0,6.0,2813.1
0,4.0,7.0,1280.1
0,4.0,8.0,3038.2
0,4.0,9.0,1162.5
0,4.0,10.0,793.9
0,4.0,11.0,4848.2
0,4.0,12.0,1085.0
0,4.0,13.0,3452.5
0,4.0,14.0,3209.4
0,4.0,15.0,338.0
0,4.0,16.0,1348.3
0,5.0,6.0,91.2
0,5.0,7.0,22.5
0,5.0,8.0,142.7
0,5.0,9.0,21.2
0,5.0,10.0,13.4
0,5.0,11.0,114.8
0,5.0,12.0,15.2
0,5.0,13.0,112.5
0,5.0,14.0,84.9
0,5.0,15.0,4.3
0,5.0,16.0,25.2
0,6.0,7.0,546.4
0,6.0,8.0,937.7
0,6.0,9.0,617.5
0,6.0,10.0,382.3
0,6.0,11.0,1364.4
0,6.0,12.0,485.8
0,6.0,13.0,1998.8
0,6.0,14.0,1898.9
0,6.0,15.0,92.7
0,6.0,16.0,376.0
0,7.0,8.0,551.7
0,7.0,9.0,93.4
0,7.0,10.0,66.6
0,7.0,11.0,271.9
0,7.0,12.0,82.4
0,7.0,13.0,412.8
0,7.0,14.0,307.1
0,7.0,15.0,22.9
0,7.0,16.0,138.1
0,8.0,9.0,707.6
0,8.0,10.0,376.6
0,8.0,11.0,879.8
0,8.0,12.0,538.6
0,8.0,13.0,2256.1
0,8.0,14.0,1460.6
0,8.0,15.0,129.6
0,8.0,16.0,513.2
0,9.0,10.0,48.3
0,9.0,11.0,471.7
0,9.0,12.0,57.0
0,9.0,13.0,495.3
0,9.0,14.0,288.0
0,9.0,15.0,24.8
0,9.0,16.0,123.4
0,10.0,11.0,228.0
0,10.0,12.0,35.8
0,10.0,13.0,279.9
0,10.0,14.0,234.1
0,10.0,15.0,14.1
0,10.0,16.0,72.3
0,11.0,12.0,523.8
0,11.0,13.0,2212.3
0,11.0,14.0,701.1
0,11.0,15.0,85.3
0,11.0,16.0,408.3
0,12.0,13.0,348.9
0,12.0,14.0,292.1
0,12.0,15.0,19.0
0,12.0,16.0,86.7
0,13.0,14.0,1199.3
0,13.0,15.0,130.7
0,13.0,16.0,536.1
0,14.0,15.0,74.2
0,14.0,16.0,334.1
0,15.0,16.0,26.7
