,馬番1,馬番2,馬単
0,1.0,2.0,245.3
0,1.0,3.0,39.0
0,1.0,4.0,957.5
0,1.0,5.0,102.0
0,1.0,6.0,114.3
0,1.0,7.0,98.8
0,1.0,8.0,177.6
0,1.0,9.0,929.2
0,1.0,10.0,1440.7
0,1.0,11.0,215.1
0,1.0,12.0,107.1
0,1.0,13.0,49.6
0,1.0,14.0,118.6
0,1.0,15.0,36.5
0,1.0,16.0,671.1
0,2.0,1.0,304.3
0,2.0,3.0,216.9
0,2.0,4.0,2416.0
0,2.0,5.0,599.3
0,2.0,6.0,424.4
0,2.0,7.0,478.7
0,2.0,8.0,554.9
0,2.0,9.0,2122.1
0,2.0,10.0,3140.8
0,2.0,11.0,822.2
0,2.0,12.0,560.8
0,2.0,13.0,231.9
0,2.0,14.0,403.7
0,2.0,15.0,208.8
0,2.0,16.0,2453.7
0,3.0,1.0,36.7
0,3.0,2.0,174.8
0,3.0,4.0,633.2
0,3.0,5.0,66.4
0,3.0,6.0,90.2
0,3.0,7.0,61.6
0,3.0,8.0,101.8
0,3.0,9.0,755.0
0,3.0,10.0,1163.2
0,3.0,11.0,169.2
0,3.0,12.0,75.7
0,3.0,13.0,29.7
0,3.0,14.0,65.2
0,3.0,15.0,25.1
0,3.0,16.0,511.5
0,4.0,1.0,1602.4
0,4.0,2.0,3020.0
0,4.0,3.0,981.5
0,4.0,5.0,3413.9
0,4.0,6.0,2755.1
0,4.0,7.0,1330.8
0,4.0,8.0,1826.0
0,4.0,9.0,3079.2
0,4.0,10.0,6281.6
0,4.0,11.0,3830.2
0,4.0,12.0,1653.0
0,4.0,13.0,1246.3
0,4.0,14.0,1963.0
0,4.0,15.0,907.7
0,4.0,16.0,5065.8
0,5.0,1.0,134.2
0,5.0,2.0,537.8
0,5.0,3.0,89.4
0,5.0,4.0,1963.0
0,5.0,6.0,210.7
0,5.0,7.0,137.3
0,5.0,8.0,158.7
0,5.0,9.0,1869.5
0,5.0,10.0,2343.8
0,5.0,11.0,436.2
0,5.0,12.0,246.9
0,5.0,13.0,89.9
0,5.0,14.0,238.3
0,5.0,15.0,65.4
0,5.0,16.0,2211.8
0,6.0,1.0,139.0
0,6.0,2.0,413.2
0,6.0,3.0,115.8
0,6.0,4.0,2013.3
0,6.0,5.0,223.3
0,6.0,7.0,172.0
0,6.0,8.0,321.1
0,6.0,9.0,1744.9
0,6.0,10.0,2453.7
0,6.0,11.0,339.1
0,6.0,12.0,273.5
0,6.0,13.0,106.0
0,6.0,14.0,184.9
0,6.0,15.0,70.3
0,6.0,16.0,1805.0
0,7.0,1.0,110.2
0,7.0,2.0,399.5
0,7.0,3.0,79.1
0,7.0,4.0,1090.5
0,7.0,5.0,152.7
0,7.0,6.0,179.8
0,7.0,8.0,242.7
0,7.0,9.0,1033.1
0,7.0,10.0,1653.0
0,7.0,11.0,397.5
0,7.0,12.0,186.9
0,7.0,13.0,96.2
0,7.0,14.0,235.7
0,7.0,15.0,78.7
0,7.0,16.0,1053.9
0,8.0,1.0,216.0
0,8.0,2.0,568.9
0,8.0,3.0,145.0
0,8.0,4.0,1402.1
0,8.0,5.0,170.5
0,8.0,6.0,356.1
0,8.0,7.0,256.1
0,8.0,9.0,1764.5
0,8.0,10.0,2309.4
0,8.0,11.0,579.4
0,8.0,12.0,332.7
0,8.0,13.0,150.8
0,8.0,14.0,327.1
0,8.0,15.0,144.4
0,8.0,16.0,1847.5
0,9.0,1.0,1510.0
0,9.0,2.0,2908.1
0,9.0,3.0,1208.0
0,9.0,4.0,2211.8
0,9.0,5.0,2492.7
0,9.0,6.0,2661.7
0,9.0,7.0,1236.5
0,9.0,8.0,2453.7
0,9.0,10.0,4132.6
0,9.0,11.0,3489.8
0,9.0,12.0,2453.7
0,9.0,13.0,1276.7
0,9.0,14.0,2275.9
0,9.0,15.0,929.2
0,9.0,16.0,3830.2
0,10.0,1.0,2755.1
0,10.0,2.0,5234.7
0,10.0,3.0,2275.9
0,10.0,4.0,6827.8
0,10.0,5.0,4362.2
0,10.0,6.0,5415.2
0,10.0,7.0,2211.8
0,10.0,8.0,3271.6
0,10.0,9.0,3271.6
0,10.0,11.0,5065.8
0,10.0,12.0,2661.7
0,10.0,13.0,2379.4
0,10.0,14.0,4132.6
0,10.0,15.0,1276.7
0,10.0,16.0,7478.1
0,11.0,1.0,252.0
0,11.0,2.0,789.1
0,11.0,3.0,248.4
0,11.0,4.0,3739.0
0,11.0,5.0,506.5
0,11.0,6.0,372.1
0,11.0,7.0,429.0
0,11.0,8.0,615.8
0,11.0,9.0,2532.9
0,11.0,10.0,4618.8
0,11.0,12.0,451.2
0,11.0,13.0,244.9
0,11.0,14.0,264.8
0,11.0,15.0,164.6
0,11.0,16.0,3140.8
0,12.0,1.0,132.0
0,12.0,2.0,422.1
0,12.0,3.0,88.3
0,12.0,4.0,1440.7
0,12.0,5.0,218.7
0,12.0,6.0,230.2
0,12.0,7.0,200.5
0,12.0,8.0,294.0
0,12.0,9.0,1495.6
0,12.0,10.0,2066.3
0,12.0,11.0,354.4
0,12.0,13.0,91.4
0,12.0,14.0,167.9
0,12.0,15.0,79.4
0,12.0,16.0,1266.4
0,13.0,1.0,41.6
0,13.0,2.0,164.7
0,13.0,3.0,30.3
0,13.0,4.0,755.0
0,13.0,5.0,69.7
0,13.0,6.0,86.3
0,13.0,7.0,75.1
0,13.0,8.0,91.9
0,13.0,9.0,668.2
0,13.0,10.0,993.9
0,13.0,11.0,178.6
0,13.0,12.0,82.2
0,13.0,14.0,72.6
0,13.0,15.0,27.7
0,13.0,16.0,537.8
0,14.0,1.0,106.9
0,14.0,2.0,267.0
0,14.0,3.0,61.8
0,14.0,4.0,1467.6
0,14.0,5.0,181.5
0,14.0,6.0,141.7
0,14.0,7.0,165.6
0,14.0,8.0,197.7
0,14.0,9.0,1308.6
0,14.0,10.0,1963.0
0,14.0,11.0,183.4
0,14.0,12.0,148.8
0,14.0,13.0,67.2
0,14.0,15.0,45.3
0,14.0,16.0,758.6
0,15.0,1.0,32.8
0,15.0,2.0,129.1
0,15.0,3.0,20.6
0,15.0,4.0,486.1
0,15.0,5.0,42.7
0,15.0,6.0,57.2
0,15.0,7.0,50.6
0,15.0,8.0,100.9
0,15.0,9.0,459.1
0,15.0,10.0,552.9
0,15.0,11.0,112.4
0,15.0,12.0,58.3
0,15.0,13.0,23.9
0,15.0,14.0,45.4
0,15.0,16.0,251.2
0,16.0,1.0,1171.9
0,16.0,2.0,2532.9
0,16.0,3.0,657.0
0,16.0,4.0,5415.2
0,16.0,5.0,2379.4
0,16.0,6.0,2151.2
0,16.0,7.0,1198.7
0,16.0,8.0,2309.4
0,16.0,9.0,4907.5
0,16.0,10.0,7852.0
0,16.0,11.0,2661.7
0,16.0,12.0,1570.4
0,16.0,13.0,720.3
0,16.0,14.0,1276.7
0,16.0,15.0,424.4
