,単勝,枠番,複勝最大,複勝最小,馬名,馬番
0,9.6,1.0,2.9,2.0,エンドゲーム,1.0
0,73.4,1.0,13.6,8.3,ショウナンサニー,2.0
0,79.5,2.0,26.4,16.1,ビックリシタナモー,3.0
0,24.2,2.0,6.8,4.3,サトノマサムネ,4.0
0,29.9,3.0,7.1,4.5,ノゾミ,5.0
0,130.3,3.0,23.1,14.1,ダイナミックバトル,6.0
0,15.4,4.0,4.5,2.9,カフジブレイブ,7.0
0,77.3,4.0,15.1,9.2,エスピリトゥオーゾ,8.0
0,3.5,5.0,1.8,1.3,ソーグリッタリング,9.0
0,14.8,5.0,4.0,2.6,サーカムスタンス,10.0
0,75.4,6.0,15.2,9.3,アルムチャレンジ,11.0
0,99.0,6.0,30.7,18.7,マイネルハドソン,12.0
0,99.1,7.0,23.1,14.1,アローシャトル,13.0
0,47.3,7.0,10.5,6.5,タガノブルゴーニュ,14.0
0,2.8,8.0,1.8,1.3,アダムバローズ,15.0
0,6.6,8.0,2.4,1.6,スーサンゴー,16.0
