,単勝,枠番,複勝最大,複勝最小,馬名,馬番
0,35.3,1.0,8.8,5.4,ヴェイルドスケール,1.0
0,3.1,1.0,1.7,1.3,コンドルヒデオ,2.0
0,144.0,2.0,34.9,21.0,ビジータイム,3.0
0,25.7,2.0,7.1,4.4,シゲルテングダイ,4.0
0,223.8,3.0,54.9,33.1,シベリアンマッシブ,5.0
0,9.5,3.0,3.2,2.1,ステラルーチェ,6.0
0,69.0,4.0,18.0,10.9,グランリゲル,7.0
0,5.1,4.0,2.2,1.5,タイガーヴォーグ,8.0
0,24.2,5.0,6.5,4.1,ウインバローラス,10.0
0,31.0,6.0,7.5,4.7,スマイルハッピー,11.0
0,127.7,6.0,27.7,16.7,スガノギムレット,12.0
0,74.6,7.0,17.3,10.5,メイショウキシドウ,13.0
0,19.2,7.0,5.7,3.6,ガイアトウショウ,14.0
0,12.6,8.0,3.9,2.5,シゲルヒラマサ,15.0
0,3.2,8.0,1.8,1.3,トウショウカウント,16.0
