,レース周り,レース情報,体重,名称,外回りフラグ,性別,斤量,日付,時刻,条件,枠番,競技場,調教師名,賞金,馬名,馬場状態,馬番,騎手名,齢
0,右,ダ1800m,458.0,２歳未勝利,,牡,54.0,2016/09/17,10:10,サラ系２歳未勝利(混)[指]馬齢,1,4中山,小桧山悟,500、200、130、75、50万円,スプリングフット,良,1,宮崎北斗,2
0,右,ダ1800m,468.0,２歳未勝利,,牝,54.0,2016/09/17,10:10,サラ系２歳未勝利(混)[指]馬齢,1,4中山,谷原義明,500、200、130、75、50万円,ヨーコアスカ,良,2,吉田隼人,2
0,右,ダ1800m,438.0,２歳未勝利,,牡,54.0,2016/09/17,10:10,サラ系２歳未勝利(混)[指]馬齢,2,4中山,堀井雅広,500、200、130、75、50万円,マイネルレンカ,良,3,柴田大知,2
0,右,ダ1800m,496.0,２歳未勝利,,牡,52.0,2016/09/17,10:10,サラ系２歳未勝利(混)[指]馬齢,2,4中山,高橋裕 ,500、200、130、75、50万円,デストロイ,良,4,木幡初也,2
0,右,ダ1800m,446.0,２歳未勝利,,牡,54.0,2016/09/17,10:10,サラ系２歳未勝利(混)[指]馬齢,3,4中山,菅原泰夫,500、200、130、75、50万円,ニシノマッハ,良,5,大野拓弥,2
0,右,ダ1800m,526.0,２歳未勝利,,牡,54.0,2016/09/17,10:10,サラ系２歳未勝利(混)[指]馬齢,3,4中山,相沢郁 ,500、200、130、75、50万円,スフィーダグリーン,良,6,石橋脩 ,2
0,右,ダ1800m,464.0,２歳未勝利,,牡,54.0,2016/09/17,10:10,サラ系２歳未勝利(混)[指]馬齢,4,4中山,柴田政人,500、200、130、75、50万円,ジェイケイライジン,良,7,勝浦正樹,2
0,右,ダ1800m,472.0,２歳未勝利,,牡,54.0,2016/09/17,10:10,サラ系２歳未勝利(混)[指]馬齢,4,4中山,萱野浩二,500、200、130、75、50万円,キョウエイバロック,良,8,岩部純二,2
0,右,ダ1800m,494.0,２歳未勝利,,牡,52.0,2016/09/17,10:10,サラ系２歳未勝利(混)[指]馬齢,5,4中山,小桧山悟,500、200、130、75、50万円,ヒマラヤパルプンテ,良,9,伴啓太 ,2
0,右,ダ1800m,454.0,２歳未勝利,,牡,51.0,2016/09/17,10:10,サラ系２歳未勝利(混)[指]馬齢,5,4中山,佐藤吉勝,500、200、130、75、50万円,ボウソウノカゼ,良,10,菊沢一樹,2
0,右,ダ1800m,472.0,２歳未勝利,,牡,54.0,2016/09/17,10:10,サラ系２歳未勝利(混)[指]馬齢,6,4中山,根本康広,500、200、130、75、50万円,ヤマタケエヴァル,良,11,柴田善臣,2
0,右,ダ1800m,460.0,２歳未勝利,,牡,54.0,2016/09/17,10:10,サラ系２歳未勝利(混)[指]馬齢,6,4中山,小野次郎,500、200、130、75、50万円,マイネルルミノーソ,良,12,松岡正海,2
0,右,ダ1800m,452.0,２歳未勝利,,牝,54.0,2016/09/17,10:10,サラ系２歳未勝利(混)[指]馬齢,7,4中山,武井亮 ,500、200、130、75、50万円,ハービンクイーン,良,13,津村明秀,2
0,右,ダ1800m,476.0,２歳未勝利,,牡,51.0,2016/09/17,10:10,サラ系２歳未勝利(混)[指]馬齢,7,4中山,小野次郎,500、200、130、75、50万円,サンタンパ,良,14,野中悠太,2
0,右,ダ1800m,464.0,２歳未勝利,,牡,54.0,2016/09/17,10:10,サラ系２歳未勝利(混)[指]馬齢,8,4中山,尾形充弘,500、200、130、75、50万円,ダウンザライン,良,15,蛯名正義,2
0,右,ダ1800m,490.0,２歳未勝利,,牡,54.0,2016/09/17,10:10,サラ系２歳未勝利(混)[指]馬齢,8,4中山,古賀史生,500、200、130、75、50万円,ショウナンライデン,良,16,吉田豊 ,2
