,単勝,枠番,複勝最大,複勝最小,馬名,馬番
0,102.4,1.0,32.0,19.8,ネオヴァンプアップ,1.0
0,26.0,1.0,10.4,6.6,タガノプリンセス,2.0
0,34.5,2.0,8.9,5.6,クーパーズヒル,3.0
0,11.9,2.0,3.9,2.6,ブリーズリー,4.0
0,50.0,3.0,20.2,12.6,エイシンイジゲン,5.0
0,21.9,3.0,6.3,4.0,トライブキング,6.0
0,6.2,4.0,2.6,1.8,コンパッション,7.0
0,43.0,4.0,9.7,6.2,マテンロウビクサス,8.0
0,180.3,5.0,54.8,33.9,クレッシェレ,9.0
0,6.9,5.0,2.9,2.0,ウォータープリアム,10.0
0,35.8,6.0,12.5,7.9,レンベルガー,11.0
0,3.3,6.0,1.8,1.4,シゲルクルマダイ,12.0
0,4.5,7.0,1.9,1.4,ワンスインアライフ,13.0
0,69.5,7.0,20.6,12.8,インフィニティラヴ,14.0
0,91.8,7.0,27.5,17.0,エイシンイパネマ,15.0
0,9.2,8.0,3.8,2.5,ライペンミノル,16.0
0,101.6,8.0,41.6,25.7,ナンヨーリノ,17.0
0,197.1,8.0,44.6,27.6,ミスターライジン,18.0
