,馬番1,馬番2,馬連
0,1.0,2.0,348.6
0,1.0,3.0,76.3
0,1.0,4.0,198.8
0,1.0,5.0,150.8
0,1.0,6.0,127.2
0,1.0,7.0,105.3
0,1.0,8.0,205.1
0,1.0,9.0,25.4
0,2.0,3.0,161.5
0,2.0,4.0,291.6
0,2.0,5.0,293.9
0,2.0,6.0,202.7
0,2.0,7.0,179.4
0,2.0,8.0,278.2
0,2.0,9.0,44.7
0,3.0,4.0,51.7
0,3.0,5.0,34.2
0,3.0,6.0,32.6
0,3.0,7.0,25.2
0,3.0,8.0,60.5
0,3.0,9.0,2.6
0,4.0,5.0,107.4
0,4.0,6.0,93.6
0,4.0,7.0,89.9
0,4.0,8.0,155.0
0,4.0,9.0,15.5
0,5.0,6.0,73.0
0,5.0,7.0,52.5
0,5.0,8.0,118.7
0,5.0,9.0,9.4
0,6.0,7.0,43.4
0,6.0,8.0,111.5
0,6.0,9.0,7.7
0,7.0,8.0,84.6
0,7.0,9.0,6.1
0,8.0,9.0,17.7
