,馬番1,馬番2,馬単
0,1.0,2.0,1541.5
0,1.0,3.0,503.6
0,1.0,4.0,169.2
0,1.0,5.0,723.6
0,1.0,6.0,1690.9
0,1.0,7.0,638.5
0,1.0,8.0,592.8
0,1.0,9.0,2152.1
0,1.0,10.0,641.0
0,1.0,11.0,2491.9
0,2.0,1.0,1434.7
0,2.0,3.0,553.3
0,2.0,4.0,138.4
0,2.0,5.0,544.2
0,2.0,6.0,1022.9
0,2.0,7.0,445.4
0,2.0,8.0,451.5
0,2.0,9.0,1673.8
0,2.0,10.0,566.5
0,2.0,11.0,2194.8
0,3.0,1.0,323.6
0,3.0,2.0,342.3
0,3.0,4.0,21.1
0,3.0,5.0,94.7
0,3.0,6.0,227.4
0,3.0,7.0,68.9
0,3.0,8.0,55.9
0,3.0,9.0,392.2
0,3.0,10.0,65.6
0,3.0,11.0,531.9
0,4.0,1.0,67.6
0,4.0,2.0,56.0
0,4.0,3.0,8.5
0,4.0,5.0,12.7
0,4.0,6.0,42.1
0,4.0,7.0,6.6
0,4.0,8.0,7.5
0,4.0,9.0,81.2
0,4.0,10.0,10.4
0,4.0,11.0,103.3
0,5.0,1.0,462.2
0,5.0,2.0,407.1
0,5.0,3.0,102.2
0,5.0,4.0,33.1
0,5.0,6.0,366.6
0,5.0,7.0,107.1
0,5.0,8.0,87.6
0,5.0,9.0,519.4
0,5.0,10.0,116.8
0,5.0,11.0,876.7
0,6.0,1.0,1162.9
0,6.0,2.0,1013.5
0,6.0,3.0,283.0
0,6.0,4.0,96.2
0,6.0,5.0,394.5
0,6.0,7.0,330.1
0,6.0,8.0,250.7
0,6.0,9.0,1179.4
0,6.0,10.0,297.2
0,6.0,11.0,1440.9
0,7.0,1.0,399.3
0,7.0,2.0,296.7
0,7.0,3.0,64.7
0,7.0,4.0,18.0
0,7.0,5.0,100.7
0,7.0,6.0,283.5
0,7.0,8.0,50.5
0,7.0,9.0,381.8
0,7.0,10.0,62.0
0,7.0,11.0,579.4
0,8.0,1.0,352.2
0,8.0,2.0,284.9
0,8.0,3.0,55.4
0,8.0,4.0,18.3
0,8.0,5.0,71.5
0,8.0,6.0,216.4
0,8.0,7.0,51.1
0,8.0,9.0,352.2
0,8.0,10.0,53.9
0,8.0,11.0,483.8
0,9.0,1.0,1506.4
0,9.0,2.0,1534.3
0,9.0,3.0,708.1
0,9.0,4.0,208.8
0,9.0,5.0,830.6
0,9.0,6.0,1299.7
0,9.0,7.0,652.4
0,9.0,8.0,499.1
0,9.0,10.0,549.6
0,9.0,11.0,3097.4
0,10.0,1.0,380.5
0,10.0,2.0,406.6
0,10.0,3.0,69.8
0,10.0,4.0,23.6
0,10.0,5.0,100.3
0,10.0,6.0,274.3
0,10.0,7.0,61.3
0,10.0,8.0,52.8
0,10.0,9.0,381.8
0,10.0,11.0,531.9
0,11.0,1.0,2569.2
0,11.0,2.0,2194.8
0,11.0,3.0,714.2
0,11.0,4.0,223.4
0,11.0,5.0,960.6
0,11.0,6.0,1744.3
0,11.0,7.0,977.6
0,11.0,8.0,575.3
0,11.0,9.0,2761.9
0,11.0,10.0,604.7
