,単勝,枠番,複勝最大,複勝最小,馬名,馬番
0,25.9,1.0,8.0,5.2,テイエムサンピラー,1.0
0,29.1,2.0,8.4,5.4,エイシンヴィーヴォ,2.0
0,7.9,3.0,3.9,2.6,ロケットビーン,3.0
0,3.0,3.0,1.6,1.3,デルマオチョウ,4.0
0,9.2,4.0,2.6,1.8,ハニーブーケ,5.0
0,53.8,4.0,10.1,6.5,トチノマドンナ,6.0
0,10.7,5.0,3.8,2.5,ジークイーン,7.0
0,286.9,5.0,77.8,49.3,ピーマックス,8.0
0,5.9,6.0,2.2,1.6,ローゼンタール,9.0
0,174.9,6.0,31.0,19.6,ドリームプランナー,10.0
0,50.5,7.0,18.1,11.5,ハーランズワンダー,11.0
0,4.5,7.0,2.3,1.6,シゲルカマス,12.0
0,22.2,8.0,8.6,5.5,カフジキセキ,13.0
0,26.8,8.0,8.1,5.2,プリティクイーン,14.0
