,馬番1,馬番2,ワイド
0,1.0,2.0,215.6
0,1.0,3.0,82.5
0,1.0,4.0,210.7
0,1.0,5.0,106.8
0,1.0,6.0,157.6
0,1.0,7.0,554.4
0,1.0,8.0,50.9
0,1.0,9.0,193.1
0,1.0,10.0,192.6
0,1.0,11.0,322.6
0,1.0,12.0,300.6
0,1.0,13.0,404.7
0,1.0,14.0,634.5
0,1.0,15.0,214.3
0,1.0,16.0,676.1
0,2.0,3.0,25.3
0,2.0,4.0,61.8
0,2.0,5.0,37.3
0,2.0,6.0,44.3
0,2.0,7.0,368.9
0,2.0,8.0,14.2
0,2.0,9.0,50.8
0,2.0,10.0,47.3
0,2.0,11.0,84.0
0,2.0,12.0,113.5
0,2.0,13.0,175.2
0,2.0,14.0,285.6
0,2.0,15.0,63.0
0,2.0,16.0,528.7
0,3.0,4.0,14.2
0,3.0,5.0,9.0
0,3.0,6.0,7.4
0,3.0,7.0,148.5
0,3.0,8.0,2.5
0,3.0,9.0,8.9
0,3.0,10.0,16.4
0,3.0,11.0,19.7
0,3.0,12.0,20.4
0,3.0,13.0,26.1
0,3.0,14.0,70.2
0,3.0,15.0,10.5
0,3.0,16.0,167.5
0,4.0,5.0,27.1
0,4.0,6.0,27.3
0,4.0,7.0,312.9
0,4.0,8.0,8.5
0,4.0,9.0,29.7
0,4.0,10.0,49.4
0,4.0,11.0,68.5
0,4.0,12.0,89.3
0,4.0,13.0,135.5
0,4.0,14.0,169.3
0,4.0,15.0,34.2
0,4.0,16.0,293.1
0,5.0,6.0,13.1
0,5.0,7.0,195.5
0,5.0,8.0,4.1
0,5.0,9.0,22.8
0,5.0,10.0,12.2
0,5.0,11.0,41.8
0,5.0,12.0,54.3
0,5.0,13.0,42.7
0,5.0,14.0,121.7
0,5.0,15.0,22.2
0,5.0,16.0,171.5
0,6.0,7.0,249.7
0,6.0,8.0,4.6
0,6.0,9.0,13.1
0,6.0,10.0,26.7
0,6.0,11.0,34.9
0,6.0,12.0,40.7
0,6.0,13.0,71.6
0,6.0,14.0,123.5
0,6.0,15.0,22.2
0,6.0,16.0,220.5
0,7.0,8.0,45.9
0,7.0,9.0,290.1
0,7.0,10.0,277.1
0,7.0,11.0,409.3
0,7.0,12.0,501.8
0,7.0,13.0,454.4
0,7.0,14.0,780.9
0,7.0,15.0,434.5
0,7.0,16.0,1077.0
0,8.0,9.0,4.2
0,8.0,10.0,7.6
0,8.0,11.0,9.9
0,8.0,12.0,12.8
0,8.0,13.0,16.9
0,8.0,14.0,41.2
0,8.0,15.0,6.1
0,8.0,16.0,61.7
0,9.0,10.0,31.8
0,9.0,11.0,27.2
0,9.0,12.0,39.3
0,9.0,13.0,80.5
0,9.0,14.0,146.4
0,9.0,15.0,21.7
0,9.0,16.0,210.0
0,10.0,11.0,51.5
0,10.0,12.0,59.4
0,10.0,13.0,87.1
0,10.0,14.0,144.2
0,10.0,15.0,32.0
0,10.0,16.0,294.3
0,11.0,12.0,68.5
0,11.0,13.0,138.6
0,11.0,14.0,210.1
0,11.0,15.0,37.0
0,11.0,16.0,317.3
0,12.0,13.0,146.7
0,12.0,14.0,232.7
0,12.0,15.0,46.8
0,12.0,16.0,405.4
0,13.0,14.0,262.0
0,13.0,15.0,57.4
0,13.0,16.0,405.0
0,14.0,15.0,147.4
0,14.0,16.0,834.6
0,15.0,16.0,273.1
