,枠番1,枠番2,枠連
0,1.0,2.0,42.6
0,1.0,3.0,166.4
0,1.0,4.0,38.7
0,1.0,5.0,34.0
0,1.0,6.0,19.6
0,1.0,7.0,149.8
0,1.0,8.0,5.3
0,2.0,3.0,223.7
0,2.0,4.0,53.3
0,2.0,5.0,62.3
0,2.0,6.0,42.0
0,2.0,7.0,172.8
0,2.0,8.0,11.4
0,3.0,4.0,199.0
0,3.0,5.0,177.7
0,3.0,6.0,132.8
0,3.0,7.0,118.3
0,3.0,8.0,44.3
0,4.0,5.0,52.4
0,4.0,6.0,32.5
0,4.0,7.0,116.6
0,4.0,8.0,9.7
0,5.0,6.0,28.6
0,5.0,7.0,109.5
0,5.0,8.0,6.7
0,6.0,7.0,90.4
0,6.0,8.0,3.5
0,7.0,7.0,624.7
0,7.0,8.0,26.9
0,8.0,8.0,13.4
