,タイム,レース周り,レース情報,体重,前走_タイム,前走_タイム差,前走_ペース,前走_レース周り,前走_レース情報,前走_上り,前走_名称,前走_天気,前走_斤量,前走_日付,前走_時刻,前走_条件,前走_着順,前走_競技場,前走_賞金,前走_通過,前走_馬体重,前走_馬場状態,前走_騎手名,名称,天気,性別,斤量,日付,時刻,条件,枠番,競技場,賞金,順位,馬名,馬場状態,馬番,騎手名,齢
0,3:24.1,芝,障2860m,482.0,2:02.1,3.2,29.8-37.8,左,ダ1900m,40.1,３歳上５００万下,曇,53,2016/07/03,16:15,サラ系３歳以上５００万下(混)(特指)定量,14,中京,750、300、190、110、75万円,9-8-11-10,482,良,鮫島克駿,３歳上障害未勝利,晴,牡,58.0,2016/08/07,11:30,障害３歳以上未勝利(混)定量,1,小倉,750、300、190、110、75万円,8,ロードレグナム,良,1,中村将之,3
0,3:22.3,芝,障2860m,448.0,3:31.5,9.1,110.0-40.3,芝,障3000m,14.1,３歳上障害未勝利,晴,60,2016/07/10,11:30,障害３歳以上未勝利(混)定量,13,中京,750、300、190、110、75万円,13-13-13-13,444,重,田村太雅,３歳上障害未勝利,晴,牡,60.0,2016/08/07,11:30,障害３歳以上未勝利(混)定量,2,小倉,750、300、190、110、75万円,7,ワンダープレジール,良,2,田村太雅,4
0,3:15.3,芝,障2860m,468.0,3:20.5,2.5,105.0-38.1,芝,障3000m,13.4,３歳上障害未勝利,晴,60,2016/07/02,10:01,障害３歳以上未勝利(混)定量,6,中京,750、300、190、110、75万円,8-9-9-9,464,良,熊沢重文,３歳上障害未勝利,晴,牡,60.0,2016/08/07,11:30,障害３歳以上未勝利(混)定量,3,小倉,750、300、190、110、75万円,2,マイネルアイザック,良,3,佐久間寛,7
0,3:17.5,芝,障2860m,456.0,3:23.8,7.1,105.0-40.5,芝,障3000m,13.6,３歳上障害未勝利,曇,60,2016/07/24,11:30,障害３歳以上未勝利(混)定量,11,中京,750、300、190、110、75万円,6-5-6-9,464,良,林満明,３歳上障害未勝利,晴,牡,60.0,2016/08/07,11:30,障害３歳以上未勝利(混)定量,4,小倉,750、300、190、110、75万円,4,オビーディエント,良,4,林満明,7
0,3:15.0,芝,障2860m,426.0,3:06.4,3.3,106.0-39.1,芝,障2770m,13.5,３歳上障害未勝利,小雨,58,2016/07/17,11:40,障害３歳以上未勝利(混)定量,6,福島,750、300、190、110、75万円,6-6-6-5,424,良,森一馬,３歳上障害未勝利,晴,牝,58.0,2016/08/07,11:30,障害３歳以上未勝利(混)定量,5,小倉,750、300、190、110、75万円,1,プルーヴダモール,良,5,植野貴也,4
0,3:16.2,芝,障2860m,454.0,1:36.0,1.1,36.2-33.9,右,芝1600m,34.9,丹波特別,曇,53,2016/02/27,14:25,サラ系４歳以上１０００万下(混)[指]ハンデ,15,阪神,1500、600、380、230、150万円,3-2,452,良,古川吉洋,３歳上障害未勝利,晴,牡,60.0,2016/08/07,11:30,障害３歳以上未勝利(混)定量,6,小倉,750、300、190、110、75万円,3,ラスカルトップ,良,6,北沢伸也,7
0,3:19.8,芝,障2860m,510.0,1:54.4,2.3,36.0-38.5,右,ダ1800m,40.8,４歳上５００万下,晴,55,2016/03/20,13:15,サラ系４歳以上５００万下(混)[指]定量,10,阪神,750、300、190、110、75万円,1-1-1-2,506,重,城戸義政,３歳上障害未勝利,晴,牡,60.0,2016/08/07,11:30,障害３歳以上未勝利(混)定量,7,小倉,750、300、190、110、75万円,5,メイショウクオン,良,7,平沢健治,4
0,3:21.9,芝,障2860m,496.0,3:29.6,7.2,110.0-40.3,芝,障3000m,14.0,３歳上障害未勝利,晴,56,2016/07/10,11:30,障害３歳以上未勝利(混)定量,12,中京,750、300、190、110、75万円,9-9-11-11,492,重,白浜雄造,３歳上障害未勝利,晴,牝,56.0,2016/08/07,11:30,障害３歳以上未勝利(混)定量,8,小倉,750、300、190、110、75万円,6,トキノディライト,良,8,白浜雄造,3
0,,芝,障2860m,504.0,3:00.5,0.3,106.0-37.8,芝,障2750m,13.1,３歳上障害未勝利,雨,58,2016/07/09,10:10,障害３歳以上未勝利(混)定量,2,福島,750、300、190、110、75万円,9-9-6-3,508,稍,西谷誠,３歳上障害未勝利,晴,牝,58.0,2016/08/07,11:30,障害３歳以上未勝利(混)定量,8,小倉,750、300、190、110、75万円,9,ゴッドフロアー,良,9,西谷誠,6
