,タイム,レース周り,レース情報,体重,名称,外回りフラグ,天気,性別,斤量,日付,時刻,条件,枠番,競技場,調教師名,賞金,順位,馬名,馬場状態,馬番,騎手名,齢
0,1:12.4,右,芝1200m,438.0,２歳未勝利,,晴,牡,52.0,2016/08/07,10:01,サラ系２歳未勝利[指]馬齢,1,小倉,梅田智之 (栗東),500、200、130、75、50万円,15,ショウナンカラーズ,良,1,義英真,2
0,1:10.5,右,芝1200m,450.0,２歳未勝利,,晴,牝,54.0,2016/08/07,10:01,サラ系２歳未勝利[指]馬齢,1,小倉,岩元市三 (栗東),500、200、130、75、50万円,6,グランドガール,良,2,和田竜二,2
0,1:12.0,右,芝1200m,428.0,２歳未勝利,,晴,牡,51.0,2016/08/07,10:01,サラ系２歳未勝利[指]馬齢,2,小倉,目野哲也 (栗東),500、200、130、75、50万円,13,ナムラバウアー,良,3,三津谷隼,2
0,1:10.0,右,芝1200m,416.0,２歳未勝利,,晴,牝,54.0,2016/08/07,10:01,サラ系２歳未勝利[指]馬齢,2,小倉,高橋康之 (栗東),500、200、130、75、50万円,4,マイアミトロピカル,良,4,藤岡康太,2
0,1:12.6,右,芝1200m,448.0,２歳未勝利,,晴,牡,54.0,2016/08/07,10:01,サラ系２歳未勝利[指]馬齢,3,小倉,西橋豊治 (栗東),500、200、130、75、50万円,16,ホノルア,良,5,鮫島良太,2
0,1:11.1,右,芝1200m,450.0,２歳未勝利,,晴,牡,54.0,2016/08/07,10:01,サラ系２歳未勝利[指]馬齢,3,小倉,浅見秀一 (栗東),500、200、130、75、50万円,12,メイショウグジョウ,良,6,岩田康誠,2
0,1:11.0,右,芝1200m,470.0,２歳未勝利,,晴,牝,54.0,2016/08/07,10:01,サラ系２歳未勝利[指]馬齢,4,小倉,山内研二 (栗東),500、200、130、75、50万円,10,コウエイダリア,良,7,藤懸貴志,2
0,1:10.8,右,芝1200m,422.0,２歳未勝利,,晴,牡,54.0,2016/08/07,10:01,サラ系２歳未勝利[指]馬齢,4,小倉,作田誠二 (栗東),500、200、130、75、50万円,8,オニチャン,良,8,藤岡佑介,2
0,1:10.0,右,芝1200m,440.0,２歳未勝利,,晴,牡,54.0,2016/08/07,10:01,サラ系２歳未勝利[指]馬齢,5,小倉,池添兼雄 (栗東),500、200、130、75、50万円,3,ラニカイサンデー,良,9,松山弘平,2
0,1:11.0,右,芝1200m,450.0,２歳未勝利,,晴,牝,54.0,2016/08/07,10:01,サラ系２歳未勝利[指]馬齢,5,小倉,音無秀孝 (栗東),500、200、130、75、50万円,11,イイコトバカリ,良,10,松若風馬,2
0,,右,芝1200m,420.0,２歳未勝利,,晴,牝,51.0,2016/08/07,10:01,サラ系２歳未勝利[指]馬齢,6,小倉,谷潔 (栗東),500、200、130、75、50万円,17,ダンツアムール,良,11,森裕太朗,2
0,1:12.4,右,芝1200m,416.0,２歳未勝利,,晴,牡,54.0,2016/08/07,10:01,サラ系２歳未勝利[指]馬齢,6,小倉,目野哲也 (栗東),500、200、130、75、50万円,14,ナムラボンド,良,12,高倉稜,2
0,,右,芝1200m,418.0,２歳未勝利,,晴,牡,51.0,2016/08/07,10:01,サラ系２歳未勝利[指]馬齢,7,小倉,日吉正和 (栗東),500、200、130、75、50万円,18,リッカゴールド,良,13,荻野極,2
0,1:09.9,右,芝1200m,418.0,２歳未勝利,,晴,牡,54.0,2016/08/07,10:01,サラ系２歳未勝利[指]馬齢,7,小倉,藤沢則雄 (栗東),500、200、130、75、50万円,2,ミュークレックス,良,14,幸英明,2
0,1:09.7,右,芝1200m,470.0,２歳未勝利,,晴,牝,54.0,2016/08/07,10:01,サラ系２歳未勝利[指]馬齢,7,小倉,笹田和秀 (栗東),500、200、130、75、50万円,1,メイショウカリン,良,15,浜中俊,2
0,1:11.0,右,芝1200m,460.0,２歳未勝利,,晴,牝,53.0,2016/08/07,10:01,サラ系２歳未勝利[指]馬齢,8,小倉,西村真幸 (栗東),500、200、130、75、50万円,9,ヴィグランドサヤカ,良,16,鮫島克駿,2
0,1:10.2,右,芝1200m,484.0,２歳未勝利,,晴,牡,54.0,2016/08/07,10:01,サラ系２歳未勝利[指]馬齢,8,小倉,大根田裕 (栗東),500、200、130、75、50万円,5,タガノグルナ,良,17,太宰啓介,2
0,1:10.8,右,芝1200m,474.0,２歳未勝利,,晴,牡,54.0,2016/08/07,10:01,サラ系２歳未勝利[指]馬齢,8,小倉,木原一良 (栗東),500、200、130、75、50万円,7,ペプチドホープ,良,18,松田大作,2
