,単勝,枠番,複勝最大,複勝最小,馬名,馬番
0,45.8,1.0,11.8,8.4,スケロク,1.0
0,49.8,2.0,13.5,9.5,カゼノトビラ,2.0
0,3.7,2.0,1.9,1.6,キールコネクション,3.0
0,40.4,3.0,7.8,5.6,ダイワハッスル,4.0
0,5.2,3.0,2.2,1.7,タンサンドール,5.0
0,5.3,4.0,3.0,2.2,グラスアクト,6.0
0,14.9,4.0,5.0,3.6,サマーラヴ,7.0
0,19.0,5.0,4.4,3.2,タニガワ,8.0
0,13.3,5.0,4.4,3.2,エルゼロ,9.0
0,57.7,6.0,14.0,9.8,ローレルウラノス,10.0
0,16.3,6.0,5.0,3.6,クリノロッキー,11.0
0,142.2,7.0,19.3,13.6,ユーガッタフレンド,12.0
0,17.0,7.0,6.4,4.6,クワッドアクセル,13.0
0,14.4,8.0,4.6,3.4,パブリックフレンド,14.0
0,7.6,8.0,2.9,2.2,ジュンザワールド,15.0
