,単勝,枠番,複勝最大,複勝最小,馬名,馬番
0,3.4,1.0,1.7,1.2,コスモピクシス,1.0
0,28.9,2.0,6.8,4.1,タイセイアスリート,2.0
0,82.3,3.0,15.1,8.9,サニーヴィクトリー,3.0
0,59.5,4.0,10.5,6.2,シゲルヒメコダイ,4.0
0,49.4,5.0,10.4,6.2,ピッレウス,5.0
0,5.8,6.0,2.2,1.4,アソングフォーユー,6.0
0,5.0,7.0,2.2,1.5,ベストレート,7.0
0,6.7,7.0,2.5,1.6,カルマフォース,8.0
0,146.9,8.0,30.0,17.6,ベルラヴォーロ,9.0
0,2.8,8.0,1.6,1.2,エンジェルサイン,10.0
