,タイム,レース周り,レース情報,体重,名称,外回りフラグ,天気,性別,斤量,日付,時刻,条件,枠番,競技場,調教師名,賞金,順位,馬名,馬場状態,馬番,騎手名,齢
0,1:24.0,左,芝1400m,424.0,２歳新馬,,晴,牝,54.0,2016/07/31,13:00,サラ系２歳新馬牝[指]馬齢,1,新潟,水野貴広 (美浦),700、280、180、110、70万円,4,マルターズコメット,良,1,田中勝春,2
0,1:25.0,左,芝1400m,400.0,２歳新馬,,晴,牝,51.0,2016/07/31,13:00,サラ系２歳新馬牝[指]馬齢,1,新潟,高橋義博 (美浦),700、280、180、110、70万円,11,ワラッチャウヨネ,良,2,藤田菜七,2
0,1:25.4,左,芝1400m,416.0,２歳新馬,,晴,牝,54.0,2016/07/31,13:00,サラ系２歳新馬牝[指]馬齢,2,新潟,手塚貴久 (美浦),700、280、180、110、70万円,14,リュネット,良,3,内田博幸,2
0,1:24.1,左,芝1400m,452.0,２歳新馬,,晴,牝,53.0,2016/07/31,13:00,サラ系２歳新馬牝[指]馬齢,2,新潟,中舘英二 (美浦),700、280、180、110、70万円,6,プレシャスジュエル,良,4,石川裕紀,2
0,1:25.2,左,芝1400m,436.0,２歳新馬,,晴,牝,54.0,2016/07/31,13:00,サラ系２歳新馬牝[指]馬齢,3,新潟,小島太 (美浦),700、280、180、110、70万円,12,セヴンゴシック,良,5,石橋脩,2
0,1:25.4,左,芝1400m,470.0,２歳新馬,,晴,牝,54.0,2016/07/31,13:00,サラ系２歳新馬牝[指]馬齢,3,新潟,伊藤正徳 (美浦),700、280、180、110、70万円,16,ユメノカガヤキ,良,6,武士沢友,2
0,1:23.9,左,芝1400m,452.0,２歳新馬,,晴,牝,54.0,2016/07/31,13:00,サラ系２歳新馬牝[指]馬齢,4,新潟,笹田和秀 (栗東),700、280、180、110、70万円,3,ファームフェイス,良,7,柴田善臣,2
0,1:25.3,左,芝1400m,474.0,２歳新馬,,晴,牝,51.0,2016/07/31,13:00,サラ系２歳新馬牝[指]馬齢,4,新潟,矢野英一 (美浦),700、280、180、110、70万円,13,クールマドカ,良,8,菊沢一樹,2
0,1:24.9,左,芝1400m,476.0,２歳新馬,,晴,牝,54.0,2016/07/31,13:00,サラ系２歳新馬牝[指]馬齢,5,新潟,南田美知 (美浦),700、280、180、110、70万円,10,フレンドカグラ,良,9,岩部純二,2
0,1:24.5,左,芝1400m,430.0,２歳新馬,,晴,牝,54.0,2016/07/31,13:00,サラ系２歳新馬牝[指]馬齢,5,新潟,菊川正達 (美浦),700、280、180、110、70万円,8,ロイヤルルシアン,良,10,吉田隼人,2
0,1:23.9,左,芝1400m,476.0,２歳新馬,,晴,牝,54.0,2016/07/31,13:00,サラ系２歳新馬牝[指]馬齢,6,新潟,田村康仁 (美浦),700、280、180、110、70万円,2,チャーミングヤッコ,良,11,吉田豊,2
0,1:23.8,左,芝1400m,430.0,２歳新馬,,晴,牝,54.0,2016/07/31,13:00,サラ系２歳新馬牝[指]馬齢,6,新潟,大和田成 (美浦),700、280、180、110、70万円,1,クイントゥープル,良,12,柴田大知,2
0,1:24.0,左,芝1400m,410.0,２歳新馬,,晴,牝,52.0,2016/07/31,13:00,サラ系２歳新馬牝[指]馬齢,7,新潟,清水英克 (美浦),700、280、180、110、70万円,5,ウインプラージュ,良,13,伴啓太,2
0,1:25.6,左,芝1400m,460.0,２歳新馬,,晴,牝,54.0,2016/07/31,13:00,サラ系２歳新馬牝[指]馬齢,7,新潟,伊藤正徳 (美浦),700、280、180、110、70万円,17,シゲルビッグホーン,良,14,江田照男,2
0,1:25.4,左,芝1400m,376.0,２歳新馬,,晴,牝,51.0,2016/07/31,13:00,サラ系２歳新馬牝[指]馬齢,7,新潟,古賀史生 (美浦),700、280、180、110、70万円,15,カンノンリオ,良,15,野中悠太,2
0,1:24.3,左,芝1400m,426.0,２歳新馬,,晴,牝,54.0,2016/07/31,13:00,サラ系２歳新馬牝[指]馬齢,8,新潟,高木登 (美浦),700、280、180、110、70万円,7,ニシノレディー,良,16,的場勇人,2
0,1:24.7,左,芝1400m,428.0,２歳新馬,,晴,牝,54.0,2016/07/31,13:00,サラ系２歳新馬牝[指]馬齢,8,新潟,和田正道 (美浦),700、280、180、110、70万円,9,ピンクドルフィン,良,17,宮崎北斗,2
0,1:25.6,左,芝1400m,442.0,２歳新馬,,晴,牝,54.0,2016/07/31,13:00,サラ系２歳新馬牝[指]馬齢,8,新潟,武藤善則 (美浦),700、280、180、110、70万円,18,ラブリーガーデン,良,18,北村友一,2
